000100 IDENTIFICATION DIVISION.                                         PAR50A
000200 PROGRAM-ID. PAR50A.                                              PAR50A
000300 DATE-WRITTEN. MAY 20, 1980.                                      PAR50A
000400 DATE-COMPILED.                                                   PAR50A
000500*REMARKS.                                                         PAR50A
000600**************************************************************/   DU039
000700*  PROGRAM:  PAR50A                                          */   DU039
000800*  CHANGE #DU039            PROJECT REQUEST:   DU-039        */   DU039
000900*  NAME: BOB MERRYMAN       MODIFICATION DATE: 02/24/92      */   DU039
001000*                                                            */   DU039
001100*  DESCRIPTION:                                              */   DU039
001200*    CONVERSION TO IFIS CHART-OF-ACCOUNTS CONVENTIONS.       */   DU039
001300*                                                            */   DU039
001400**************************************************************/   DU039
000600******************************************************************PAR50A
000700*                                                                *PAR50A
000800* FUNCTION:                                                      *PAR50A
000900*    THE FUNCTION OF THIS PROGRAM IS TO CONTROL THE PROCESSING   *PAR50A
001000*    OF PAR PRODUCTION.  THE INPUT RECORDS INTO THIS PROGRAM ARE *PAR50A
001100*    IN CAMPUS, DISTRIBUTION LOCATION, EMPLOYEE NUMBER, RECORD   *PAR50A
001200*    NUMBER SEQUENCE.  THIS PROGRAM TABLES ALL OF THE DATA FOR   *PAR50A
001300*    AN EMPLOYEE, AND THEN CALLS SUB-MODULES TO PRODUCE THE PAR  *PAR50A
001400*    DOCUMENT AND THE PAR POPULATION LIST.  TOTALS ARE           *PAR50A
001500*    ACCUMULATED AND EACH TIME THE DISTRIBUTION LOCATION CHANGES *PAR50A
001600*    THE CONTROL REPORT SUBMODULE IS CALLED.                     *PAR50A
001700*                                                                *PAR50A
001800* INPUT FILES:                                                   *PAR50A
001900*    PARI05EX - EXTRACT PAR POPULATION.                          *PAR50A
002000*    PARPARAM - PARAMETERS FOR INPUT                             *PAR50A
002100*                                                                *PAR50A
002200* OUTPUT FILES:                                                  *PAR50A
002300*    PARO05MR - PAR MASTER RECORD.                               *PAR50A
002400*                                                                *PAR50A
002500* PARM:                                                          *PAR50A
002600*    XCCMM/DD/YY                                                 *PAR50A
002700*        X   TEST SWITCH                                         *PAR50A
002800*          Y = TEST RUN.  DEBUGGING DISPLAYS.                    *PAR50A
002900*          N = PRODUCTION RUN.                                   *PAR50A
003000*        CC  LOCATION SELECTION.                                 *PAR50A
003100*          XX = PRODUCE PARS FOR ALL LOCATIONS                   *PAR50A
003200*          01-09 = PRODUCE PARS ONLY FOR SPECIFIED LOCATION.     *PAR50A
003300*        MM/DD/YY DATE OF RUN                                    *PAR50A
003400*            THIS DATE SHOULD BE THE MONTH OF THE EXTRACT.  IT   *PAR50A
003500*            WILL BE USED ON THE PAR51R, PAR52R, AND             *PAR50A
003600*            PAR53R REPORTS.                                     *PAR50A
003700*                                                                *PAR50A
003800* CALLED MODULES:                                                *PAR50A
003900*    PAR51A - PRODUCE PAR FORM                                   *PAR50A
004000*    PAR52A - PAR PRODUCTION CONTROL REPORT                      *PAR50A
004100*    PAR53A - PAR POPULATION LIST                                *PAR50A
004200*                                                                *PAR50A
004300* CALLING MODULES:                                               *PAR50A
004400*    NONE                                                        *PAR50A
004500*                                                                *PAR50A
004600* RETURN CODES:                                                  *PAR50A
004700*    0000 = GOOD EOJ                                             *PAR50A
004800*    0016 = ABNORMAL CONDITION ENCOUNTERED.  SEE DISPLAYS.       *PAR50A
004900*                                                                *PAR50A
005000* MODIFICATIONS:                                                 *PAR50A
005100*    DATE    WHO     MODIFICATION DESCRIPTION.                   *PAR50A
005200*  MM/DD/YY  XXX   XXXXXXXXXXXXXXXXXXXXXXXXXXXXXXXXXXXXXXXXXXXXX *PAR50A
005300*                  XXXXXXXXXXXXXXXXXXXXXXXXXXXXXXXXXXXXXXXXXXXXX *PAR50A
005400*                                                                *PAR50A
005500******************************************************************PAR50A
005600 EJECT                                                            PAR50A
005700 ENVIRONMENT DIVISION.                                            PAR50A
005800 INPUT-OUTPUT SECTION.                                            PAR50A
005900 FILE-CONTROL.                                                    PAR50A
005920     SKIP3                                                        PAR50A
005930     SELECT PAR-POPULATION-IN    ASSIGN TO UT-S-PARI05EX.         PAR50A
005940     SKIP2                                                        PAR50A
005950     SELECT MASTER-OUT           ASSIGN TO UT-S-PARO05MR.         PAR50A
005951     SKIP1                                                        PAR50A
005952     COPY CLSLTMKP.                                               PAR50A
005960     EJECT                                                        PAR50A
006010                                                                  PAR50A
007400                                                                  PAR50A
007500     SELECT SORTEDMASTERS                                         PAR50A
007510         ASSIGN TO UT-S-SORTMAST.                                 PAR50A
007600                                                                  PAR50A
007610     SELECT SPEC-CARD                                             PAR50A
007620         COPY CPSLXCRD.                                           PAR50A
007700                                                                  PAR50A
007800     SELECT SORTFILE                                              PAR50A
007810         ASSIGN TO UT-S-SORTFILE.                                 PAR50A
007900 EJECT                                                            PAR50A
008000 DATA DIVISION.                                                   PAR50A
008100 FILE SECTION.                                                    PAR50A
008200                                                                  PAR50A
008300*FD  PAR-POPULATION-IN           LABEL RECORD IS STANDARD         PAR50A
008310 FD  PAR-POPULATION-IN           RECORDING MODE IS F              PAR50A
009200*                                RECORD CONTAINS 370 CHARACTERS   DU039
009300                                 RECORD CONTAINS 450 CHARACTERS   DU039
008330                                 BLOCK CONTAINS 0 RECORDS         PAR50A
008340                                 LABEL RECORDS ARE STANDARD       PAR50A
008350                                 DATA RECORD IS                   PAR50A
008360                                  PHONY-MASTER.                   PAR50A
008700 01  PHONY-MASTER.                                                PAR50A
008800     05  FILLER                  PIC X(58).                       PAR50A
008900     05  EMP-NUMBER-PM           PIC 9(9).                        PAR50A
101084*    05  FILLER                  PIC X(3).                        PAR50A
101085     05  EMP-NAME-PM             PIC X(30).                       PAR50A
010300*    05  FILLER                  PIC X(273).                      DU039
010400     05  FILLER                  PIC X(353).                      DU039
101087     EJECT                                                        PAR50A
101088     SKIP3                                                        PAR50A
101089 FD  MASTER-OUT                  RECORDING MODE IS F              PAR50A
101090                                 RECORD CONTAINS 136 CHARACTERS   PAR50A
101091                                 BLOCK CONTAINS 0 RECORDS         PAR50A
101092                                 LABEL RECORDS ARE STANDARD       PAR50A
101093                                 DATA RECORD IS                   PAR50A
101094                                     MASTER-RECORD-MO.            PAR50A
101099 01  MASTER-RECORD-MO.           COPY 'PARYMRMO'.                 PAR50A
101100     EJECT                                                        PAR50A
101600*FD  TIMEKEEPERFILE              LABEL RECORD IS STANDARD         PAR50A
101700*                                VALUE OF FILE-ID IS 'M_TMKPR'.   PAR50A
101800*                                                                 PAR50A
101900*    COPY 'FD_TMKPR'.                                             PAR50A
101910     SKIP1                                                        PAR50A
101920     COPY CLFDTMKP.                                               PAR50A
101930 01  TIMEKEEPER-RECORD.                                           PAR50A
101940     COPY CLWSTMKP.                                               PAR50A
101950     SKIP1                                                        PAR50A
102200*FD  SORTEDMASTERS.                                               PAR50A
102300 FD  SORTEDMASTERS               RECORDING MODE IS F              PAR50A
012600*                                RECORD CONTAINS 459 CHARACTERS   DU039
012700                                 RECORD CONTAINS 539 CHARACTERS   DU039
102500                                 BLOCK CONTAINS 0 RECORDS         PAR50A
102510                                 LABEL RECORDS ARE STANDARD       PAR50A
102520                                 DATA RECORD IS                   PAR50A
102530                                     MASTER-RECORD-MO.            PAR50A
102600 01  EXTRACT-RECORD-EI.         COPY 'PARYEIDC'.                  PAR50A
102700     05  TMKPR-INFO-EI.                                           PAR50A
102800         10  TMKPR-CODE-EI             PIC X(7).                  PAR50A
102900         10  TMKPR-NAME-EI             PIC X(30).                 PAR50A
103000         10  TMKPR-DEPT-EI             PIC X(15).                 PAR50A
103100         10  TMKPR-MAILCODE-EI         PIC X(7).                  PAR50A
103200         10  PINS-EMP-NAME-EI          PIC X(30).                 PAR50A
103210 FD  SPEC-CARD                                                    PAR50A
103220*                                                                 PAR50A
103230         COPY CPFDXCRD.                                           PAR50A
103240*                                                                 PAR50A
103250 01  SPEC-CARD-REC               PIC X(80).                       PAR50A
103260*                                                                 PAR50A
103300 EJECT                                                            PAR50A
103400 SD  SORTFILE.                                                    PAR50A
103500                                                                  PAR50A
103600 01  SORTRECORD.                                                  PAR50A
103700     03  FILLER                  PIC X(131).                      PAR50A
103800     03  TYPE-OF-PAR-SR          PIC X.                           PAR50A
015100*    03  FILLER                  PIC X(238).                      DU039
103802     03  FILLER                  PIC XX.                          DU025
103803     03  NUM-LEG-SR              PIC S9(4) COMP.                  DU025
103804     03  FILLER                  PIC X(314).                      DU025
104000     03  TIMEKEEPERCODE-SR       PIC X(7).                        PAR50A
104100     03  TIMEKEEPERNAME-SR       PIC X(30).                       PAR50A
104200     03  FILLER                  PIC X(22).                       PAR50A
104300     03  EMPLOYEENAME-SR         PIC X(30).                       PAR50A
104400 EJECT                                                            PAR50A
104500 WORKING-STORAGE SECTION.                                         PAR50A
104600                                                                  PAR50A
104700 01  INPUT-PARM-L.                                                PAR50A
104800     05  TEST-SWITCH-L           PIC X.                           PAR50A
104900     05  LOCATION-L              PIC XX.                          PAR50A
105000     05  LOCATION-R-L            REDEFINES LOCATION-L             PAR50A
105100                                 PIC 99.                          PAR50A
105200     05  MONTH-L                 PIC 99.                          PAR50A
105300     05  FILLER                  PIC X.                           PAR50A
105400     05  DAY-L                   PIC 99.                          PAR50A
105500     05  FILLER                  PIC X.                           PAR50A
105600     05  YEAR-L                  PIC 99.                          PAR50A
105700                                                                  PAR50A
105800 01  SECOND-INPUT-PARM-L.                                         PAR50A
105900     05  RETURN-DATE-L .                                          PAR50A
106000         10  FIRST-PART           PIC XXX.                        PAR50A
106100             88  VALID-RETURN-DATE VALUE 'JAN' 'FEB' 'MAR' 'APR'  PAR50A
106200                 'MAY' 'JUN' 'JUL' 'AUG' 'SEP' 'OCT' 'NOV' 'DEC'. PAR50A
106300         10  FILLER               PIC X(15).                      PAR50A
106400                                                                  PAR50A
106500 EJECT                                                            PAR50A
106600 01  LOCATION-DESC-TABLE.       COPY 'PARYDESC'.                  PAR50A
106700 EJECT                                                            PAR50A
106800 01  MODULE-COMMON-AREA.        COPY 'PARYMODC'.                  PAR50A
106900 EJECT                                                            PAR50A
107000 01  PAR-TABLE-AREA-TA.         COPY 'PARYPTDC'.                  PAR50A
107100 EJECT                                                            PAR50A
107110 01  IO-FUNCTIONS.                                                PAR50A
107120     COPY CPWSXIOF.                                               PAR50A
018700*01  EDB-INTERFACE.                                               DU039
018800*    COPY CPWSXEIF.                                               DU039
018900*    EJECT                                                        DU039
019000*01  XDBS-PERSONAL-DATA1.                                         DU039
019100*    COPY CPWSDB01.                                               DU039
107130     EJECT                                                        PAR50A
019300 01  PPPERUTL-INTERFACE.                                          DU039
019400     COPY CPLN2PER.                                               DU039
107160     EJECT                                                        PAR50A
019600 01  PER-ROW.                                                     DU039
019700     COPY CPWSRPER.                                               DU039
019800     EJECT                                                        PAR50A
107200                                                                  PAR50A
107300 01  WORK-AREAS-WK.                                               PAR50A
107400     05  BUILT-TMKP-KEY.                                          PAR50A
107500         10  BUILD-UNIT          PIC 9(4).                        PAR50A
107600         10  FILLER              PIC X  VALUE '-'.                PAR50A
107700         10  BUILD-CODE          PIC 99.                          PAR50A
020500     05  TEMP-TKUNIT-NUM         PIC 9(6).                        DU039
107710     05  HOLD-KEY.                                                PAR50A
107720         10  FILLER              PIC 9(3) VALUE ZEROS.            PAR50A
107730         10  HOLD-KEY2           PIC 9(6).                        PAR50A
107800     05  NUM-EMPLOYEES-WK        PIC S9(9) COMP-3  VALUE +0.      PAR50A
107900     05  NUM-MSTRS-OUT-WK        PIC S9(9) COMP-3 VALUE +0.       PAR50A
108000     05  NUM-RCDS-READ-WK        PIC S9(9) COMP-3 VALUE +0.       PAR50A
108100     05  LAST-LOCATION-WK        PIC 99 VALUE ZERO.               PAR50A
108200     05  THIS-EMP-WK             PIC 9(9) VALUE ZERO.             PAR50A
108300     05  PAR-NO-WK               PIC 9(13).                       PAR50A
108400     05  FILLER                  REDEFINES PAR-NO-WK.             PAR50A
108500         10  FILLER              PIC X.                           PAR50A
108600         10  PAR-NO-9-WK         PIC 9(12).                       PAR50A
108700     05  PERCENT-COUNTER         PIC S999.                        PAR50A
108710     05  PERCENT-COUNTER-D       PIC ZZ9-.                        PAR50A
108800     05  PERCENT-HOLDER          PIC 999.                         PAR50A
108900     05  PERCENT-IX              USAGE INDEX.                     PAR50A
108910     05  TIMEKEEPER-FILE-STATUS      PIC X(2).                    PAR50A
108920         88  TIMEKEEPER-RECORD-NOT-FOUND   VALUE '23'.            PAR50A
108930     05  EOF-SPEC                PIC 9 VALUE 0.                   PAR50A
108940*                                                                 PAR50A
109000                                                                  PAR50A
109100 01  PASSED-AREAS-WK.                                             PAR50A
109200     05  NUM-QRTLY-PARS-WK       PIC S9(9) COMP-3  VALUE +0.      PAR50A
109300*    05  NUM-MONTH-PARS-WK       PIC S9(9) COMP-3  VALUE +0.      PAR50A
109400     05  TMKPR-NAME-WK           PIC X(30).                       PAR50A
109500     05  TMKPR-DEPT-WK           PIC X(15)  VALUE SPACES.         PAR50A
109600     05  TMKPR-MAILCD-WK         PIC X(7).                        PAR50A
109700     05  LAST-TMKPR-CODE-WK      PIC X(7).                        PAR50A
109800 EJECT                                                            PAR50A
109900 01  CONSTANTS-C.                                                 PAR50A
110000     05  MOD-NAME-C              PIC X(8) VALUE 'PAR50A'.         PAR50A
110100     05  INITIALIZE-C            PIC X VALUE 'I'.                 PAR50A
110200     05  PROCESS-C               PIC X VALUE 'P'.                 PAR50A
110300     05  TERMINATE-C             PIC X VALUE 'T'.                 PAR50A
110400                                                                  PAR50A
110500 01  ERROR-TABLE-WK.                                              PAR50A
110600     05  ERROR-01-WK             PIC X(50)                        PAR50A
110700     VALUE 'BAD RETURN FROM PAR51A                          '.    PAR50A
110800     05  FILLER                  PIC X VALUE '2'.                 PAR50A
110900     05  ERROR-02-WK             PIC X(50)                        PAR50A
111000     VALUE 'BAD RETURN FROM PAR52A                          '.    PAR50A
111100     05  FILLER                  PIC X VALUE '2'.                 PAR50A
111200     05  ERROR-03-WK             PIC X(50)                        PAR50A
111300     VALUE 'BAD RETURN FROM PAR53A                          '.    PAR50A
111400     05  FILLER                  PIC X VALUE '2'.                 PAR50A
111500     05  ERROR-04-WK             PIC X(50)                        PAR50A
111600     VALUE 'INPUT PARM IS NOT PRESENT.  CANNOT PROCESS        '.  PAR50A
111700     05  FILLER                  PIC X VALUE '2'.                 PAR50A
111800     05  ERROR-05-WK             PIC X(50)                        PAR50A
111900     VALUE 'PAR LOCATION NOT XX OR 01 - 09.  XX ASSUMED       '.  PAR50A
112000     05  FILLER                  PIC X VALUE '0'.                 PAR50A
112100     05  ERROR-06-WK             PIC X(50)                        PAR50A
112200     VALUE 'PARM DATE MONTH AND/OR YEAR IS INVALID            '.  PAR50A
112300     05  FILLER                  PIC X VALUE '2'.                 PAR50A
112400     05  ERROR-07-WK             PIC X(50)                        PAR50A
112500     VALUE 'INPUT EXTRACT FILE IS EMPTY.  CANNOT PROCESS      '.  PAR50A
112600     05  FILLER                  PIC X VALUE '2'.                 PAR50A
112700     05  FILLER                  PIC X(50)                        PAR50A
112800     VALUE 'DATE TO RETURN PARS TO TMKPR IS MISSING OR INVALID'.  PAR50A
112900     05  FILLER                  PIC X  VALUE '2'.                PAR50A
113000 01  ERROR-TABLE-R-WK            REDEFINES ERROR-TABLE-WK.        PAR50A
113100     05  FILLER                  OCCURS 8 TIMES                   PAR50A
113200                                 INDEXED BY ERROR-IX.             PAR50A
113300         10  ERROR-MSG-WK        PIC X(50).                       PAR50A
113400         10  ERROR-LEVEL-WK      PIC X.                           PAR50A
113500                                                                  PAR50A
113600                                                                  PAR50A
113700 01  SWITCH-AREA-SW.                                              PAR50A
113800     05  SORT-FILE-EOF-SW        PIC X VALUE '0'.                 PAR50A
113900         88  SORT-FILE-EOF       VALUE '1'.                       PAR50A
114000     05  LOCATION-COMPLETE-SW    PIC X VALUE '0'.                 PAR50A
114100         88  LOCATION-COMPLETE   VALUE '1'.                       PAR50A
114200     05  EMPLOYEE-COMPLETE-SW    PIC X VALUE '0'.                 PAR50A
114300         88  EMPLOYEE-COMPLETE   VALUE '1'.                       PAR50A
114400     05  FIRST-EMP-RCD-SW        PIC X VALUE '0'.                 PAR50A
114500         88  FIRST-EMP-RCD       VALUE '0'.                       PAR50A
114600     05  FIRST-READ-FLAG         PIC X  VALUE '0'.                PAR50A
114700         88 FIRST-READ           VALUE '1'.                       PAR50A
114800     05  TMKPR-FOUND-FLAG          PIC X  VALUE '0'.              PAR50A
114900         88  TMKPR-FOUND           VALUE '1'.                     PAR50A
115000 EJECT                                                            PAR50A
115100******************************************************************PAR50A
115200*    THE PROCEDURE DIVISION IS ORGANIZED INTO 4 MAIN SECTIONS:   *PAR50A
115300*    0000-MAINLINE                                               *PAR50A
115400*        ENTRY POINT OF PROGRAM                                  *PAR50A
115500*        PERFORMS EACH OTHER MAJOR SECTION                       *PAR50A
115600*    1000-INITIALIZATION                                         *PAR50A
115700*        EDITS PARM                                              *PAR50A
115800*        CALLS SUB-MODULES TO INITIALIZE                         *PAR50A
115900*        OPENS FILES                                             *PAR50A
116000*        PRIMES INPUT FILE                                       *PAR50A
116100*        INITIALIZES WORK AREAS                                  *PAR50A
116200*    2000-PROCESS                                                *PAR50A
116300*        PERFORMED ONCE FOR EACH LOCATION                        *PAR50A
116400*        TABLES EXTRACT RECORDS                                  *PAR50A
116500*        CALL SUB-MODULES TO PROCESS                             *PAR50A
116600*    9000-TERMINATION                                            *PAR50A
116700*        CLOSES FILES                                            *PAR50A
116800*        FINALIZES SUB-MODULES                                   *PAR50A
116900*        DISPLAYS PROCESSING TOTALS                              *PAR50A
117000******************************************************************PAR50A
117100                                                                  PAR50A
117200 PROCEDURE DIVISION.                                              PAR50A
117300                                                                  PAR50A
117400 0000-MAINLINE SECTION.                                           PAR50A
117500                                                                  PAR50A
117600 0000-MAINLINE-PARA.                                              PAR50A
117700     DISPLAY MOD-NAME-C ' BEGINNING EXECUTION'.                   PAR50A
117800                                                                  PAR50A
117900     OPEN INPUT PAR-POPULATION-IN                                 PAR50A
117901                 TIMEKEEPER-FILE.                                 PAR50A
117910                                                                  PAR50A
118000     OPEN OUTPUT SORTEDMASTERS.                                   PAR50A
118100*    OPEN I-O PINSEXTRACT.                                        PAR50A
032000*    MOVE RAND-OPEN-IN TO IO-EDB-ACTION.                          DU039
032100*    PERFORM CALL-PPIOEDB.                                        DU039
032200*    MOVE RAND-READ TO IO-EDB-ACTION.                             DU039
032300*    PERFORM CALL-PPIOEDB.                                        DU039
032400*    MOVE '0100' TO IO-EDB-NOM-SEG.                               DU039
118200                                                                  PAR50A
118400     PERFORM 1000-INITIALIZATION.                                 PAR50A
118500                                                                  PAR50A
118600     PERFORM 500-BUILD-SORTFILE.                                  PAR50A
032900*    MOVE RAND-CLOSE TO IO-EDB-ACTION.                            DU039
033000*    PERFORM CALL-PPIOEDB.                                        DU039
118700     CLOSE  PAR-POPULATION-IN                                     PAR50A
118800            SORTEDMASTERS                                         PAR50A
119010            TIMEKEEPER-FILE.                                      PAR50A
119100*    SORT SORTFILE ON ASCENDING TYPE-OF-PAR-SR                    PAR50A
119200*CHANGE DATE: 4/30/84                                             PAR50A
119300     SORT SORTFILE ON ASCENDING                                   PAR50A
119400                                TIMEKEEPERNAME-SR                 PAR50A
119500                                TIMEKEEPERCODE-SR                 PAR50A
119600                                EMPLOYEENAME-SR                   PAR50A
119610             DESCENDING         NUM-LEG-SR                        DU25
119700             USING SORTEDMASTERS                                  PAR50A
119800             GIVING SORTEDMASTERS.                                PAR50A
119900                                                                  PAR50A
120000     OPEN OUTPUT MASTER-OUT.                                      PAR50A
120100     OPEN INPUT SORTEDMASTERS.                                    PAR50A
120200     MOVE '1' TO FIRST-READ-FLAG.                                 PAR50A
120300                                                                  PAR50A
120400     PERFORM 2000-PROCESS                                         PAR50A
120500         VARYING LOC-IX FROM +1 BY +1                             PAR50A
120600         UNTIL LOC-IX > +9.                                       PAR50A
120700                                                                  PAR50A
120800     PERFORM 9000-TERMINATION.                                    PAR50A
120900                                                                  PAR50A
121000     GO TO 0020-SET-GOOD-RETURN.                                  PAR50A
121100                                                                  PAR50A
121200 0010-SET-BAD-RETURN.                                             PAR50A
121300     MOVE +16 TO RETURN-CODE.                                     PAR50A
121400     GO TO 0030-RETURN.                                           PAR50A
121500                                                                  PAR50A
121600 0020-SET-GOOD-RETURN.                                            PAR50A
121700     MOVE +0 TO RETURN-CODE.                                      PAR50A
121800                                                                  PAR50A
121900 0030-RETURN.                                                     PAR50A
122000     STOP RUN.                                                    PAR50A
122100*    EXIT PROGRAM.                                                PAR50A
122200 EJECT                                                            PAR50A
122300 500-BUILD-SORTFILE SECTION.                                      PAR50A
122400                                                                  PAR50A
122500 500-BUILD-SORTFILE-PARA.                                         PAR50A
122600                                                                  PAR50A
122700     READ PAR-POPULATION-IN AT END                                PAR50A
122800         GO 599-EXIT.                                             PAR50A
122900                                                                  PAR50A
123000     MOVE PHONY-MASTER TO EXTRACT-RECORD-EI.                      PAR50A
123100                                                                  PAR50A
123200     IF CAMPUS-CODE-EI NOT = LOCATION-R-L                         PAR50A
123300         DISPLAY 'RECORD DISREGARDED'                             PAR50A
123400         GO 500-BUILD-SORTFILE-PARA.                              PAR50A
123500                                                                  PAR50A
123600     ADD 1 TO NUM-RCDS-READ-WK.                                   PAR50A
123700     IF TEST-RUN                                                  PAR50A
123800         IF NUM-RCDS-READ-WK > 25                                 PAR50A
123900             GO 599-EXIT.                                         PAR50A
124000                                                                  PAR50A
124100     MOVE EMP-NUMBER-PM TO HOLD-KEY2.                             PAR50A
124110*    MOVE EMP-NUMBER-PM TO XT-KEY.                                PAR50A
124200*    READ PINSEXTRACT INVALID KEY                                 PAR50A
124300*        DISPLAY 'PINSXTR MISSING ' EMP-NUMBER-PM                 PAR50A
124400*            ' ' EMP-NAME-PM                                      PAR50A
124500*        MOVE SPACES TO TMKPR-CODE-EI                             PAR50A
124600*                       TMKPR-NAME-EI                             PAR50A
124700*                       TMKPR-DEPT-EI                             PAR50A
124800*                       TMKPR-MAILCODE-EI                         PAR50A
124801*        MOVE EMP-NAME-EI TO PINS-EMP-NAME-EI                     PAR50A
124802*        GO 501-WRITE.                                            PAR50A
039500*    MOVE HOLD-KEY      TO IO-EDB-NOM-SS-NUM.                     DU039
039600*    PERFORM CALL-PPIOEDB.                                        DU039
039700*                                                                 DU039
039800*    MOVE XDBS-0105-NAME TO PINS-EMP-NAME-EI.                     DU039
039900*    MOVE XDBS-0191-TIMEKP-DEPT TO TIMEKEEPER-DEPT-NBR            DU039
040000*                                 BUILD-UNIT.                     DU039
040100*    MOVE XDBS-0191-TIMEKP-SUB TO TIMEKEEPER-SUB-NBR              DU039
040200*                                BUILD-CODE.                      DU039
040300     INITIALIZE PPPERUTL-INTERFACE.                               DU039
040400     INITIALIZE PER-ROW.                                          DU039
040500     MOVE HOLD-KEY      TO PPPERUTL-EMPLOYEE-ID.                  DU039
040600     CALL  'PPPERUTL'  USING  PPPERUTL-INTERFACE                  DU039
040700                              PER-ROW.                            DU039
040800     IF PPPERUTL-PER-FOUND                                        DU039
040900        MOVE EMP-NAME OF PER-ROW  TO PINS-EMP-NAME-EI             DU039
041000     ELSE                                                         DU039
041100        MOVE '*** ID UNKNOWN ***' TO PINS-EMP-NAME-EI.            DU039
041200     MOVE TIMEKEEP-DEPT OF PER-ROW TO TIMEKEEPER-DEPT-NBR         DU039
041300                                      TEMP-TKUNIT-NUM.            DU039
041400     MOVE TEMP-TKUNIT-NUM TO          BUILD-UNIT.                 DU039
041500     MOVE TIMEKEEP-SUB  OF PER-ROW TO TIMEKEEPER-SUB-NBR          DU039
041600                                      BUILD-CODE.                 DU039
125500     MOVE BUILT-TMKP-KEY TO                                       PAR50A
125600                            TMKPR-CODE-EI.                        PAR50A
125700                                                                  PAR50A
125710                                                                  PAR50A
125720     READ TIMEKEEPER-FILE                                         PAR50A
125730         KEY IS TIMEKEEPER-KEY                                    PAR50A
125740         INVALID KEY                                              PAR50A
125741         PERFORM 510-TRY-HOME-UNIT THRU 519-EXIT                  PAR50A
125775             GO TO 501-WRITE.                                     PAR50A
125780     SKIP1                                                        PAR50A
125800*    READ TIMEKEEPERFILE INVALID KEY                              PAR50A
126300*            DISPLAY MOD-NAME-C '  TMKPR MISSING ' TM-KEY         PAR50A
126400*                ' ' EMP-NUMBER-PM ' ' EMPL-NAME-XT               PAR50A
127000                                                                  PAR50A
127100     MOVE TIMEKEEPER-NAME TO TMKPR-NAME-EI.                       PAR50A
127200     MOVE TIMEKEEPER-DEPT-NAME TO TMKPR-DEPT-EI.                  PAR50A
127300     MOVE TIMEKEEPER-MAILCODE TO TMKPR-MAILCODE-EI.               PAR50A
127400                                                                  PAR50A
127500 501-WRITE.                                                       PAR50A
127600                                                                  PAR50A
127700     WRITE EXTRACT-RECORD-EI.                                     PAR50A
127800     GO 500-BUILD-SORTFILE-PARA.                                  PAR50A
127900                                                                  PAR50A
128000                                                                  PAR50A
129800                                                                  PAR50A
131000 599-EXIT.                                                        PAR50A
131100     EXIT.                                                        PAR50A
131101                                                                  PAR50A
044500*CALL-PPIOEDB SECTION.                                            DU039
044600*    CALL 'PPIOEDB'                                               DU039
044700*        USING EDB-INTERFACE                                      DU039
044800*              XDBS-PERSONAL-DATA1.                               DU039
044900*                                                                 DU039
045000*CALL-PPIOEDB-EX.                                                 DU039
045100*    EXIT.                                                        DU039
131106                                                                  PAR50A
131110 510-TRY-HOME-UNIT SECTION.                                       PAR50A
131111                                                                  PAR50A
131112     MOVE '0' TO TMKPR-FOUND-FLAG.                                PAR50A
131113     IF BUILD-CODE = 99                                           PAR50A
131114         MOVE ZEROES TO BUILD-CODE                                PAR50A
131115         PERFORM 512-READ-TMKP THRU 512-EXIT.                     PAR50A
131116     IF TMKPR-FOUND                                               PAR50A
131117         GO 519-EXIT                                              PAR50A
131118       ELSE MOVE ZEROES TO BUILD-CODE                             PAR50A
131119                                 TIMEKEEPER-SUB-NBR               PAR50A
046300*        MOVE XDBS-0114-HOME-DEPT TO BUILD-UNIT                   DU039
046400*                                 TIMEKEEPER-DEPT-NBR.            DU039
046500         MOVE HOME-DEPT OF PER-ROW TO TEMP-TKUNIT-NUM             DU039
046600                                      TIMEKEEPER-DEPT-NBR         DU039
046700         MOVE TEMP-TKUNIT-NUM     TO BUILD-UNIT.                  DU039
131122                                                                  PAR50A
131123     MOVE BUILT-TMKP-KEY TO                                       PAR50A
131124                            TMKPR-CODE-EI.                        PAR50A
131125         PERFORM 512-READ-TMKP THRU 512-EXIT.                     PAR50A
131126     IF TMKPR-FOUND                                               PAR50A
131127     MOVE TIMEKEEPER-NAME TO TMKPR-NAME-EI                        PAR50A
131128     MOVE TIMEKEEPER-DEPT-NAME TO TMKPR-DEPT-EI                   PAR50A
131129     MOVE TIMEKEEPER-MAILCODE TO TMKPR-MAILCODE-EI.               PAR50A
131130                                                                  PAR50A
131131 519-EXIT.                                                        PAR50A
131132     EXIT.                                                        PAR50A
131133                                                                  PAR50A
131134 512-READ-TMKP SECTION.                                           PAR50A
131135     READ TIMEKEEPER-FILE                                         PAR50A
131136         KEY IS TIMEKEEPER-KEY                                    PAR50A
131137         INVALID KEY                                              PAR50A
131138             DISPLAY 'INVALID KEY - FILE STATUS='                 PAR50A
131139                 TIMEKEEPER-FILE-STATUS                           PAR50A
131140                 '.TIMEKEEPER-KEY=' TIMEKEEPER-KEY '.'            PAR50A
131141             MOVE SPACES TO TMKPR-NAME-EI                         PAR50A
131142                            TMKPR-DEPT-EI                         PAR50A
131143                            TMKPR-MAILCODE-EI                     PAR50A
131144                            TMKPR-CODE-EI                         PAR50A
131145         GO TO 512-EXIT.                                          PAR50A
131146     MOVE '1' TO TMKPR-FOUND-FLAG.                                PAR50A
131147                                                                  PAR50A
131148 512-EXIT.                                                        PAR50A
131149     EXIT.                                                        PAR50A
131150                                                                  PAR50A
131160                                                                  PAR50A
131200 EJECT                                                            PAR50A
131300 1000-INITIALIZATION SECTION.                                     PAR50A
131400                                                                  PAR50A
131500 1000-INITIALIZATION-PARA.                                        PAR50A
131600                                                                  PAR50A
131700*    ACCEPT INPUT-PARM-L.                                         PAR50A
131710     OPEN INPUT SPEC-CARD                                         PAR50A
131720*                                                                 PAR50A
131730     READ SPEC-CARD INTO INPUT-PARM-L                             PAR50A
131740         AT END                                                   PAR50A
131750         MOVE 1 TO  EOF-SPEC.                                     PAR50A
131760*                                                                 PAR50A
131761     READ SPEC-CARD INTO                                          PAR50A
131762            SECOND-INPUT-PARM-L                                   PAR50A
131763         AT END                                                   PAR50A
131764         MOVE 1 TO  EOF-SPEC.                                     PAR50A
131770     CLOSE SPEC-CARD.                                             PAR50A
131800     IF TEST-SWITCH-L = 'Y' OR 'N'                                PAR50A
131900         NEXT SENTENCE                                            PAR50A
132000       ELSE                                                       PAR50A
132100         SET ERROR-IX TO +4                                       PAR50A
132200         PERFORM 9990-DISPLAY-ERROR.                              PAR50A
132300                                                                  PAR50A
132400     PERFORM 1100-EDIT-PARM.                                      PAR50A
132500                                                                  PAR50A
132600*    ACCEPT SECOND-INPUT-PARM-L.                                  PAR50A
132700     IF VALID-RETURN-DATE                                         PAR50A
132800         NEXT SENTENCE                                            PAR50A
132900       ELSE  SET ERROR-IX TO +8                                   PAR50A
133000         PERFORM 9990-DISPLAY-ERROR.                              PAR50A
133100     MOVE RETURN-DATE-L TO RETURN-DATE-LS.                        PAR50A
133200                                                                  PAR50A
133300     IF LOCATION-L = 'XX'                                         PAR50A
133400         PERFORM 1200-INIT-LOCTN-TABLE                            PAR50A
133500             VARYING LOC-IX FROM +1 BY +1                         PAR50A
133600             UNTIL LOC-IX > +9                                    PAR50A
133700     ELSE                                                         PAR50A
133800         SET LOC-IX TO LOCATION-R-L                               PAR50A
133900         PERFORM 1200-INIT-LOCTN-TABLE.                           PAR50A
134000                                                                  PAR50A
134100     PERFORM 1300-INIT-WORK-AREAS.                                PAR50A
134200                                                                  PAR50A
134300     MOVE INITIALIZE-C TO TYPE-OF-CALL-LS.                        PAR50A
134400     SET ERROR-IX TO +1.                                          PAR50A
134500     PERFORM 8000-CALL-PAR51A.                                    PAR50A
134600                                                                  PAR50A
134700     SET ERROR-IX TO +2.                                          PAR50A
134800     PERFORM 7000-CALL-PAR52A.                                    PAR50A
134900                                                                  PAR50A
135000     SET ERROR-IX TO +3.                                          PAR50A
135100     PERFORM 6000-CALL-PAR53A.                                    PAR50A
135200                                                                  PAR50A
135300     MOVE PROCESS-C TO TYPE-OF-CALL-LS.                           PAR50A
135400                                                                  PAR50A
135500     MOVE SPACES TO PAR-TABLE-AREA-TA.                            PAR50A
135600                                                                  PAR50A
135700 1001-EXIT-INITIALIZATION.                                        PAR50A
135800     EXIT.                                                        PAR50A
135900 EJECT                                                            PAR50A
136000 1100-EDIT-PARM SECTION.                                          PAR50A
136100                                                                  PAR50A
136200 1100-EDIT-PARM-PARA.                                             PAR50A
136300                                                                  PAR50A
136400     DISPLAY MOD-NAME-C ' PARM RECEIVED IS ' INPUT-PARM-L.        PAR50A
136500                                                                  PAR50A
136600     IF LOCATION-L NUMERIC OR                                     PAR50A
136700        LOCATION-L = 'XX'                                         PAR50A
136800         NEXT SENTENCE                                            PAR50A
136900     ELSE                                                         PAR50A
137000         SET ERROR-IX TO +5                                       PAR50A
137100         PERFORM 9990-DISPLAY-ERROR                               PAR50A
137200         MOVE 'XX' TO LOCATION-L.                                 PAR50A
137300                                                                  PAR50A
137400     IF MONTH-L > 00 AND                                          PAR50A
137500        MONTH-L < 13                                              PAR50A
137600*       YEAR-L > 78 AND                                           PAR50A
137700*       YEAR-L < 99                                               PAR50A
137800         NEXT SENTENCE                                            PAR50A
137900     ELSE                                                         PAR50A
138000         SET ERROR-IX TO +6                                       PAR50A
138100         PERFORM 9990-DISPLAY-ERROR.                              PAR50A
138200                                                                  PAR50A
138300 1101-EXIT-EDIT-PARM.                                             PAR50A
138400     EXIT.                                                        PAR50A
138500                                                                  PAR50A
138600 1200-INIT-LOCTN-TABLE SECTION.                                   PAR50A
138700                                                                  PAR50A
138800 1200-INIT-LOCTN-TABLE-PARA.                                      PAR50A
138900                                                                  PAR50A
139000     MOVE '1' TO LOC-SEL (LOC-IX).                                PAR50A
139100                                                                  PAR50A
139200     DISPLAY MOD-NAME-C ' LOCATION ' LOC-DESC (LOC-IX)            PAR50A
139300             ' SELECTED FOR PROCESSING'.                          PAR50A
139400                                                                  PAR50A
139500 1201-EXIT-INIT-LOCTN-TABLE.                                      PAR50A
139600     EXIT.                                                        PAR50A
139700                                                                  PAR50A
139800 1300-INIT-WORK-AREAS SECTION.                                    PAR50A
139900                                                                  PAR50A
140000 1300-INIT-WORK-AREAS-PARA.                                       PAR50A
140100                                                                  PAR50A
140200     MOVE TEST-SWITCH-L TO TEST-SWITCH-LS.                        PAR50A
140300     MOVE MONTH-L TO RUN-DATE-MM-LS.                              PAR50A
140400     MOVE DAY-L TO RUN-DATE-DD-LS.                                PAR50A
140500     MOVE YEAR-L TO RUN-DATE-YY-LS.                               PAR50A
140600                                                                  PAR50A
140700*    IF MONTH-L = 03 OR 06 OR 09 OR 12                            PAR50A
140800*        MOVE 'Q' TO TYPE-OF-RUN-LS                               PAR50A
140900*    ELSE                                                         PAR50A
141000*        MOVE 'M' TO TYPE-OF-RUN-LS.                              PAR50A
141100                                                                  PAR50A
141200     DISPLAY 'WORK AREAS INITIALIZED'.                            PAR50A
141300                                                                  PAR50A
141400 1301-EXIT-INIT-WORK-AREAS.                                       PAR50A
141500     EXIT.                                                        PAR50A
141600 EJECT                                                            PAR50A
141700 2000-PROCESS SECTION.                                            PAR50A
141800                                                                  PAR50A
141900 2000-PROCESS-PARA.                                               PAR50A
142000                                                                  PAR50A
142100     IF LOC-SEL (LOC-IX) = '1'                                    PAR50A
142200         SET LOCATION-CODE-LS TO LOC-IX                           PAR50A
142300         DISPLAY MOD-NAME-C ' PROCESSING LOCATION '               PAR50A
142400                 LOCATION-CODE-LS ' ' LOC-DESC (LOC-IX)           PAR50A
142500     ELSE                                                         PAR50A
142600         SET LAST-LOCATION-WK TO LOC-IX                           PAR50A
142700         DISPLAY MOD-NAME-C ' BYPASS LOCATION ' LAST-LOCATION-WK  PAR50A
142800                 ' ' LOC-DESC (LOC-IX)                            PAR50A
142900         GO TO 2001-EXIT-PROCESS.                                 PAR50A
143000                                                                  PAR50A
143100     MOVE '0' TO LOCATION-COMPLETE-SW.                            PAR50A
143200                                                                  PAR50A
143300     PERFORM 3000-PROCESS-LOCATION                                PAR50A
143400         UNTIL LOCATION-COMPLETE.                                 PAR50A
143500                                                                  PAR50A
143600     IF TEST-RUN                                                  PAR50A
143700         DISPLAY MOD-NAME-C ' LOCATION ' LOCATION-CODE-LS         PAR50A
143800                 ' ' LOC-DESC (LOC-IX) ' PROCESSED'.              PAR50A
143900                                                                  PAR50A
144000 2001-EXIT-PROCESS.                                               PAR50A
144100     EXIT.                                                        PAR50A
144200 EJECT                                                            PAR50A
144300 3000-PROCESS-LOCATION SECTION.                                   PAR50A
144400                                                                  PAR50A
144500 3000-PROCESS-LOCATION-SECTION.                                   PAR50A
144600                                                                  PAR50A
144700     IF FIRST-READ                                                PAR50A
144800         MOVE '0' TO FIRST-READ-FLAG                              PAR50A
144900         PERFORM 5000-READ-EXTRACT                                PAR50A
145000         MOVE EMP-NUMBER-EI TO THIS-EMP-WK                        PAR50A
145100         MOVE TMKPR-NAME-EI TO TMKPR-NAME-WK                      PAR50A
145200         MOVE TMKPR-CODE-EI TO LAST-TMKPR-CODE-WK                 PAR50A
145300         MOVE TMKPR-MAILCODE-EI TO TMKPR-MAILCD-WK                PAR50A
145400         MOVE TMKPR-DEPT-EI TO TMKPR-DEPT-WK.                     PAR50A
145500                                                                  PAR50A
145600     IF SORT-FILE-EOF                                             PAR50A
145700         PERFORM 7000-CALL-PAR52A                                 PAR50A
145800         MOVE '1' TO LOCATION-COMPLETE-SW                         PAR50A
145900         MOVE SPACES TO TMKPR-DEPT-WK                             PAR50A
146000         GO TO 3001-EXIT-PROCESS-LOCATION.                        PAR50A
146100                                                                  PAR50A
146200*                                                                 PAR50A
146300* THIS SECTIONS HAS BEEN COMMENTED OUT DUE TO THE FACT THAT       PAR50A
146400* THE CHECKING OF CAMPUS CODE HAS BEEN MOVED TO THE SORT          PAR50A
146500* INPUT SECTION (SECTION #500).                                   PAR50A
146600*                                                                 PAR50A
146700*    IF CAMPUS-CODE-EI = LOCATION-CODE-LS                         PAR50A
146800*        NEXT SENTENCE                                            PAR50A
146900*      ELSE                                                       PAR50A
147000*        IF CAMPUS-CODE-EI < LOCATION-CODE-LS                     PAR50A
147100*            PERFORM 5000-READ-EXTRACT                            PAR50A
147200*            GO TO 3001-EXIT-PROCESS-LOCATION                     PAR50A
147300*        ELSE                                                     PAR50A
147400*            MOVE SPACES TO LAST-DIST-LCTN-WK                     PAR50A
147500*            PERFORM 7000-CALL-PAR52A                             PAR50A
147600*            MOVE '1' TO LOCATION-COMPLETE-SW                     PAR50A
147700*            MOVE DIST-FIELD-EI TO LAST-DIST-LCTN-WK              PAR50A
147800*            GO TO 3001-EXIT-PROCESS-LOCATION.                    PAR50A
147900                                                                  PAR50A
148000     MOVE EMP-NUMBER-EI TO THIS-EMP-WK.                           PAR50A
148100     ADD +1 TO NUM-EMPLOYEES-WK.                                  PAR50A
148200     IF TMKPR-CODE-EI = LAST-TMKPR-CODE-WK                        PAR50A
148300         NEXT SENTENCE                                            PAR50A
148400     ELSE                                                         PAR50A
148500         PERFORM 7000-CALL-PAR52A                                 PAR50A
148600         MOVE TMKPR-DEPT-EI TO TMKPR-DEPT-WK                      PAR50A
148700         MOVE TMKPR-NAME-EI TO TMKPR-NAME-WK                      PAR50A
148800         MOVE TMKPR-CODE-EI TO LAST-TMKPR-CODE-WK                 PAR50A
148900         MOVE TMKPR-MAILCODE-EI TO TMKPR-MAILCD-WK.               PAR50A
149000                                                                  PAR50A
149100     MOVE '0' TO FIRST-EMP-RCD-SW.                                PAR50A
149200     MOVE '0' TO EMPLOYEE-COMPLETE-SW.                            PAR50A
149300     PERFORM 4000-TABLE-EMPLOYEE                                  PAR50A
149400         UNTIL EMPLOYEE-COMPLETE.                                 PAR50A
149500                                                                  PAR50A
149600     MOVE LOCATION-CODE-LS TO PAR-CAMPUS-MO.                      PAR50A
149700     MOVE PAR-MONTH-TA TO PAR-DATE-MO.                            PAR50A
149800     MOVE EMP-NUMBER-TA TO PAR-SEQUENCE-MO.                       PAR50A
149900     MOVE PAR-NUMBER-MO TO PAR-NO-WK.                             PAR50A
150000     MOVE PAR-NO-9-WK TO PAR-NO-TA.                               PAR50A
150100     MOVE DISTRIBUTION-DATA-TA TO DISTRIBUTION-DATA-MO.           PAR50A
150200     MOVE DATE-OF-PAR-TA TO DATE-OF-PAR-MO.                       PAR50A
150300     MOVE EMPLOYEE-DATA-TA TO EMPLOYEE-DATA-MO.                   PAR50A
150400     MOVE RCD-TYPE-OF-PAR-TA TO RCD-TYPE-OF-PAR-MO.               PAR50A
150500     MOVE SPACE TO RCD-TYPE-UPDATE-MO.                            PAR50A
150600     MOVE ZERO TO RCD-NUM-UPDATE-MO.                              PAR50A
150700     MOVE RCD-SELECT-RSN-TA TO RCD-SELCTION-REASON-MO.            PAR50A
150800     MOVE +0 TO PER-INST-DR-MO                                    PAR50A
150900                PER-SPON-RES-MO                                   PAR50A
151000                PER-PUBLIC-SER-MO                                 PAR50A
151100                PER-DEPT-ADMIN-MO                                 PAR50A
151200                PER-GENRL-ADMIN-MO                                PAR50A
151300                PER-SPA-MO                                        PAR50A
151400                PER-OTHER-MO.                                     PAR50A
151500     MOVE +0 TO BUDG-INST-DR-MO                                   PAR50A
151600                BUDG-SPON-RES-MO                                  PAR50A
151700                BUDG-OTHER-MO.                                    PAR50A
151800                                                                  PAR50A
151900     MOVE ZEROES TO PERCENT-COUNTER                               PAR50A
152000                    PERCENT-HOLDER.                               PAR50A
152100*    SET PERCENT-IX TO 0.                                         PAR50A
152200*DATE CHANGED: 4/30/84                                            PAR50A
152300                                                                  PAR50A
152400     PERFORM 3500-CALC-BUDG-PERCENT                               PAR50A
152500         VARYING LEG-IX1-TA FROM +1 BY +1                         PAR50A
152600         UNTIL LEG-IX1-TA > NUM-LEGERS-TA.                        PAR50A
152700                                                                  PAR50A
152800     IF PERCENT-COUNTER NOT = 100                                 PAR50A
152900         MOVE PERCENT-COUNTER TO PERCENT-COUNTER-D                PAR50A
152910         DISPLAY 'TMKP=' TMKPR-NAME-TA ',NAME=' EMP-NAME-TA       PAR50A
153000             '  PERCENT = ' PERCENT-COUNTER-D                     PAR50A
153100         COMPUTE PERCENT-COUNTER = PERCENT-COUNTER - 100          PAR50A
153200         IF PERCENT-COUNTER > 2                                   PAR50A
153300             NEXT SENTENCE                                        PAR50A
153400           ELSE                                                   PAR50A
153500             SET LEG-IX1-TA TO PERCENT-IX                         PAR50A
153600             SUBTRACT PERCENT-COUNTER FROM LEG-PERCENT-TA         PAR50A
153700                 (LEG-IX1-TA)                                     PAR50A
153800             IF LEG-TYPE-TA (LEG-IX1-TA) = 1                      PAR50A
153900*                SUBTRACT PERCENT-COUNTER FROM BUDG-INST-DR-MO    PAR50A
154000*               ELSE IF LEG-TYPE-TA (LEG-IX1-TA) = 2              PAR50A
154100                 SUBTRACT PERCENT-COUNTER FROM BUDG-SPON-RES-MO   PAR50A
154200                ELSE IF LEG-TYPE-TA (LEG-IX1-TA) = 2              PAR50A
154300                 SUBTRACT PERCENT-COUNTER FROM BUDG-OTHER-MO.     PAR50A
154400     SET ERROR-IX TO +1.                                          PAR50A
154500     PERFORM 8000-CALL-PAR51A.                                    PAR50A
154600                                                                  PAR50A
154700     SET ERROR-IX TO +3.                                          PAR50A
154800     PERFORM 6000-CALL-PAR53A.                                    PAR50A
154900                                                                  PAR50A
155000     ADD +1 TO NUM-MSTRS-OUT-WK.                                  PAR50A
155100         COMPUTE NUM-QRTLY-PARS-WK = NUM-QRTLY-PARS-WK + 1.       PAR50A
155200                                                                  PAR50A
155300     WRITE MASTER-RECORD-MO.                                      PAR50A
155400                                                                  PAR50A
155500 3001-EXIT-PROCESS-LOCATION.                                      PAR50A
155600     EXIT.                                                        PAR50A
155700                                                                  PAR50A
155800 3500-CALC-BUDG-PERCENT SECTION.                                  PAR50A
155900                                                                  PAR50A
156000 3500-CALC-BUDG-PERCENT-PARA.                                     PAR50A
156100                                                                  PAR50A
156200     ADD LEG-PERCENT-TA (LEG-IX1-TA) TO PERCENT-COUNTER.          PAR50A
156300     IF LEG-PERCENT-TA (LEG-IX1-TA) > PERCENT-HOLDER              PAR50A
156400         MOVE LEG-PERCENT-TA (LEG-IX1-TA) TO PERCENT-HOLDER       PAR50A
156500         SET PERCENT-IX TO LEG-IX1-TA.                            PAR50A
156510     IF PERCENT-HOLDER = ZERO                                     PAR50A
156530         SET PERCENT-IX TO LEG-IX1-TA.                            PAR50A
156600*    IF LEG-TYPE-TA (LEG-IX1-TA) = 1                              PAR50A
156700*        ADD LEG-PERCENT-TA (LEG-IX1-TA) TO BUDG-INST-DR-MO       PAR50A
156800*    ELSE                                                         PAR50A
156900*        IF LEG-TYPE-TA (LEG-IX1-TA) = 2                          PAR50A
157000         IF LEG-SPON-PROJ-TA (LEG-IX1-TA)                         PAR50A
157100             ADD LEG-PERCENT-TA (LEG-IX1-TA) TO BUDG-SPON-RES-MO  PAR50A
157200         ELSE                                                     PAR50A
157300*            IF LEG-TYPE-TA (LEG-IX1-TA) = 3                      PAR50A
157400             IF LEG-OTHER-TA (LEG-IX1-TA)                         PAR50A
157500                 ADD LEG-PERCENT-TA (LEG-IX1-TA) TO BUDG-OTHER-MO PAR50A
157600             ELSE                                                 PAR50A
157700                 DISPLAY MOD-NAME-C ' INVALID RECORD CONDITION '  PAR50A
157800                         'LEDGER TYPE OF '                        PAR50A
157900                         LEG-TYPE-TA (LEG-IX1-TA).                PAR50A
158000                                                                  PAR50A
158100 3501-EXIT-CALC-BUDG-PERCENT.                                     PAR50A
158200     EXIT.                                                        PAR50A
158300 EJECT                                                            PAR50A
158400 4000-TABLE-EMPLOYEE SECTION.                                     PAR50A
158500                                                                  PAR50A
158600 4000-TABLE-EMPLOYEE-PARA.                                        PAR50A
158700                                                                  PAR50A
158800     IF EMP-NUMBER-EI = THIS-EMP-WK                               PAR50A
158900         NEXT SENTENCE                                            PAR50A
159000     ELSE                                                         PAR50A
159100         MOVE '1' TO EMPLOYEE-COMPLETE-SW                         PAR50A
159200         GO TO 4001-EXIT-TABLE-EMPLOYEE.                          PAR50A
159300                                                                  PAR50A
159400     IF FIRST-EMP-RCD                                             PAR50A
159500         MOVE '1' TO FIRST-EMP-RCD-SW                             PAR50A
159600         MOVE DISTRIBUTION-DATA-EI TO DISTRIBUTION-DATA-TA        PAR50A
159700         MOVE EMPLOYEE-DATA-EI TO EMPLOYEE-DATA-TA                PAR50A
159800         MOVE RCD-TYPE-OF-PAR-EI TO RCD-TYPE-OF-PAR-TA            PAR50A
159900         MOVE DATE-OF-PAR-EI TO DATE-OF-PAR-TA                    PAR50A
160000         MOVE RCD-SELECT-RSN-EI TO RCD-SELECT-RSN-TA              PAR50A
160100         MOVE TMKPR-INFO-EI TO TMKPR-INFO-TA                      PAR50A
160200         SET REC-IX TO +1                                         PAR50A
160300         MOVE +0 TO NUM-LEGERS-TA                                 PAR50A
160400     ELSE                                                         PAR50A
160500         SET REC-IX UP BY +1.                                     PAR50A
160600                                                                  PAR50A
160700     ADD NUM-LEDGERS-EI TO NUM-LEGERS-TA.                         PAR50A
160800                                                                  PAR50A
160900     MOVE OCCURS-DATA-EI TO RECORD-ENTRY-TA (REC-IX).             PAR50A
161000     PERFORM 5000-READ-EXTRACT.                                   PAR50A
161100                                                                  PAR50A
161200     IF SORT-FILE-EOF                                             PAR50A
161300         MOVE '1' TO EMPLOYEE-COMPLETE-SW.                        PAR50A
161400                                                                  PAR50A
161500 4001-EXIT-TABLE-EMPLOYEE.                                        PAR50A
161600     EXIT.                                                        PAR50A
161700 EJECT                                                            PAR50A
161800 5000-READ-EXTRACT SECTION.                                       PAR50A
161900                                                                  PAR50A
162000 5000-READ-EXTRACT-PARA.                                          PAR50A
162100                                                                  PAR50A
162200     READ SORTEDMASTERS                                           PAR50A
162300         AT END                                                   PAR50A
162400             MOVE '1' TO SORT-FILE-EOF-SW                         PAR50A
162500             GO TO 5001-EXIT-READ-EXTRACT.                        PAR50A
162600                                                                  PAR50A
162700 5001-EXIT-READ-EXTRACT.                                          PAR50A
162800     EXIT.                                                        PAR50A
162900                                                                  PAR50A
163000                                                                  PAR50A
163100                                                                  PAR50A
163200                                                                  PAR50A
163300 6000-CALL-PAR53A SECTION.                                        PAR50A
163400                                                                  PAR50A
163500 6000-CALL-PAR53A-PARA.                                           PAR50A
163600                                                                  PAR50A
163700     CALL 'PAR53A' USING MODULE-COMMON-AREA                       PAR50A
163800                         MASTER-RECORD-MO                         PAR50A
163900                         PAR-TABLE-AREA-TA.                       PAR50A
164000                                                                  PAR50A
164100     IF RETURN-CODE = +0                                          PAR50A
164200         NEXT SENTENCE                                            PAR50A
164300     ELSE                                                         PAR50A
164400         PERFORM 9990-DISPLAY-ERROR.                              PAR50A
164500                                                                  PAR50A
164600 6001-EXIT-CALL-PAR53A.                                           PAR50A
164700     EXIT.                                                        PAR50A
164800                                                                  PAR50A
164900                                                                  PAR50A
165000                                                                  PAR50A
165100                                                                  PAR50A
165200 7000-CALL-PAR52A SECTION.                                        PAR50A
165300                                                                  PAR50A
165400 7000-CALL-PAR52A-PARA.                                           PAR50A
165500                                                                  PAR50A
165600     CALL 'PAR52A' USING MODULE-COMMON-AREA                       PAR50A
165700                           PASSED-AREAS-WK.                       PAR50A
165800                                                                  PAR50A
165900     IF RETURN-CODE = +0                                          PAR50A
166000         NEXT SENTENCE                                            PAR50A
166100     ELSE                                                         PAR50A
166200         PERFORM 9990-DISPLAY-ERROR.                              PAR50A
166300                                                                  PAR50A
166400*    MOVE +0 TO NUM-MONTH-PARS-WK                                 PAR50A
166500     MOVE +0 TO                                                   PAR50A
166600                NUM-QRTLY-PARS-WK.                                PAR50A
166700                                                                  PAR50A
166800 7001-EXIT-CALL-PAR52A.                                           PAR50A
166900     EXIT.                                                        PAR50A
167000                                                                  PAR50A
167100                                                                  PAR50A
167200                                                                  PAR50A
167300                                                                  PAR50A
167400 8000-CALL-PAR51A SECTION.                                        PAR50A
167500                                                                  PAR50A
167600 8000-CALL-PAR51A-PARA.                                           PAR50A
167700                                                                  PAR50A
167800     CALL 'PAR51A' USING MODULE-COMMON-AREA                       PAR50A
167900                           PAR-TABLE-AREA-TA.                     PAR50A
168000                                                                  PAR50A
168100     IF RETURN-CODE = +0                                          PAR50A
168200         NEXT SENTENCE                                            PAR50A
168300     ELSE                                                         PAR50A
168400         PERFORM 9990-DISPLAY-ERROR.                              PAR50A
168500                                                                  PAR50A
168600 8001-EXIT-CALL-PAR51A.                                           PAR50A
168700     EXIT.                                                        PAR50A
168800 EJECT                                                            PAR50A
168900 9000-TERMINATION SECTION.                                        PAR50A
169000                                                                  PAR50A
169100 9000-TERMINATION-PARA.                                           PAR50A
169200                                                                  PAR50A
169300     MOVE TERMINATE-C TO TYPE-OF-CALL-LS.                         PAR50A
169400                                                                  PAR50A
169500     SET ERROR-IX TO +1.                                          PAR50A
169600     PERFORM 8000-CALL-PAR51A.                                    PAR50A
169700                                                                  PAR50A
169800     SET ERROR-IX TO +2.                                          PAR50A
169900     PERFORM 7000-CALL-PAR52A.                                    PAR50A
170000                                                                  PAR50A
170100     SET ERROR-IX TO +3.                                          PAR50A
170200     PERFORM 6000-CALL-PAR53A.                                    PAR50A
170300                                                                  PAR50A
170400     CLOSE SORTEDMASTERS                                          PAR50A
170500           MASTER-OUT.                                            PAR50A
170600                                                                  PAR50A
170700     DISPLAY MOD-NAME-C ' PROCESSING COMPLETED'.                  PAR50A
170800     DISPLAY '         NUMBER RECORDS READ = '                    PAR50A
170900         NUM-RCDS-READ-WK.                                        PAR50A
171000     DISPLAY '         NUMBER MASTERS OUT  = '                    PAR50A
171100         NUM-MSTRS-OUT-WK.                                        PAR50A
171200     DISPLAY '         NUMBER EMPLOYEES    = '                    PAR50A
171300         NUM-EMPLOYEES-WK.                                        PAR50A
171400                                                                  PAR50A
171500 9001-EXIT-TERMINATION.                                           PAR50A
171600     EXIT.                                                        PAR50A
171700 EJECT                                                            PAR50A
171800 9990-DISPLAY-ERROR SECTION.                                      PAR50A
171900                                                                  PAR50A
172000 9990-DISPLAY-ERROR-PARA.                                         PAR50A
172100                                                                  PAR50A
172200     DISPLAY MOD-NAME-C ' ' ERROR-MSG-WK (ERROR-IX)               PAR50A
172300             ' ERROR LEVEL ' ERROR-LEVEL-WK (ERROR-IX).           PAR50A
172400                                                                  PAR50A
172500     IF ERROR-LEVEL-WK (ERROR-IX) = '0'                           PAR50A
172600         GO TO 9991-EXIT-DISPLAY-ERROR                            PAR50A
172700     ELSE                                                         PAR50A
172800     IF ERROR-LEVEL-WK (ERROR-IX) = '2'                           PAR50A
172900             GO TO 0010-SET-BAD-RETURN                            PAR50A
173000         ELSE                                                     PAR50A
173100             IF TEST-RUN                                          PAR50A
173200                 GO TO 9991-EXIT-DISPLAY-ERROR                    PAR50A
173300             ELSE                                                 PAR50A
173400                 GO TO 0010-SET-BAD-RETURN.                       PAR50A
173500                                                                  PAR50A
173600 9991-EXIT-DISPLAY-ERROR.                                         PAR50A
173700     EXIT.                                                        PAR50A
