000100*==========================================================%      UCSD9999
000200*= UCSD LOCAL CHANGES HAVE BEEN IMPLEMENTED.              =%      UCSD9999
000300*= COLUMN 73 THRU 80 DENOTES CHANGE NUMBER - UCSD9999     =%      UCSD9999
000400*=                                                        =%      UCSD9999
000500*==========================================================%      UCSD9999
000600*==========================================================%      UCSD0095
000700*=    PROGRAM: PP1042SF                                   =%      UCSD0095
000800*=    CHANGE #UCSD0095      PROJ. REQUEST: REL1103        =%      UCSD0095
000900*=    NAME: R. WOLBERG      MODIFICATION DATE:  2/27/96   =%      UCSD0095
001000*=                                                        =%      UCSD0095
001100*=    DESCRIPTION: REMOVE EMPLOYER NAME AND ADDRESS       =%      UCSD0095
001200*=        FROM 1042S FORM FILE AND INCLUDE IT IN LASER    =%      UCSD0095
001300*=        OVERLAY INSTEAD.                                =%      UCSD0095
001400*=        (SEE 12000-MOVE-1042-CONSTANTS)                 =%      UCSD0095
001500*=    CHANGE FORM LINE COUNTS TO POSITION FORM CORRECTLY. =%      UCSD0095
001600*=        (21650-WRITE-LASER 1042,                        =%      UCSD0095
001700*=         21660-WRITE-LASER-COPY-1042,                   =%      UCSD0095
001800*=         23650-WRITE-FICHE-1043).                       =%      UCSD0095
001900*==========================================================%      UCSD0095
000000**************************************************************/   48801445
000001*  PROGRAM: PP1042SF                                         */   48801445
000002*  RELEASE: ___1445______ SERVICE REQUEST(S): ____14880____  */   48801445
000003*  NAME:_______QUAN______ MODIFICATION DATE:  ___11/18/02__  */   48801445
000004*  DESCRIPTION:                                              */   48801445
000005*  - REPLACE THE HARD-CODED LOGIC THAT EDITS SOCIAL SECURITY */   48801445
000006*    NUMBER WITH COPYMEMBER CPPDXSSN.                        */   48801445
000009**************************************************************/   48801445
000020**************************************************************/   48591388
000021*  PROGRAM: PP1042SF                                         */   48591388
000022*  RELEASE: ___1388______ SERVICE REQUEST(S): ____14859____  */   48591388
000023*  NAME:_______QUAN______ MODIFICATION DATE:  ___12/03/01__  */   48591388
000024*  DESCRIPTION:                                              */   48591388
000025*  - 1042-S FORM HAS BEEN TOTALLY MODIFIED. THEREFORE THE    */   48591388
000026*    LOGIC WHICH MOVES THE DATA TO THE VARIOUS POSITIONS     */   48591388
000027*    OF THE FORM HAVE BEEN MODIFIED.                         */   48591388
000028*  - IN ADDITION, A ZERO IS APPENDED TO THE SINGLE DIGIT     */   48591388
000029*    EXEMPTION CODE AND THEN DISPLAYED ON 1042-S FORM AS     */   48591388
000030*    A 2-DIGIT EXEMPTION CODE (I.E., 04).                    */   48591388
000031**************************************************************/   48591388
000000**************************************************************/   32071160
000001*  PROGRAM: PP1042SF                                         */   32071160
000002*  RELEASE: ___1160______ SERVICE REQUEST(S): ____13207____  */   32071160
000003*  NAME:_______QUAN______ MODIFICATION DATE:  ___12/09/97__  */   32071160
000004*  DESCRIPTION:                                              */   32071160
000005*  CHANGED SOCIAL SECURITY EDIT FOR RECORDS COMING FROM THE  */   32071160
000006*  AP SYSTEM TO ALLOW SS NUMBER BEGINNING WITH 9 AS VALID.   */   32071160
000007**************************************************************/   32071160
002000**************************************************************/   15401103
002100*  PROGRAM: PP1042SF                                         */   15401103
002200*  RELEASE: ___1103______ SERVICE REQUEST(S): ____11540____  */   15401103
002300*  REF RLSE ___0936______                                    */   15401103
002400*  NAME:_______QUAN______ MODIFICATION DATE:  ___12/11/96__  */   15401103
002500*  DESCRIPTION:                                              */   15401103
002600*  - ERROR REPORT 1382:                                      */   15401103
002700*    PRINT THE TRANSLATED FOREIGN COUNTRY CODE, NOT THE      */   15401103
002800*    FOREIGN COUNTRY CODE ITSELF, IN THE ADDRESS BOX 7.      */   15401103
002900**************************************************************/   15401103
000100**************************************************************/   15400936
000200*  PROGRAM: PP1042SF                                         */   15400936
000300*  RELEASE: ___0936______ SERVICE REQUEST(S): ____11540____  */   15400936
000400*  NAME:_______QUAN______ CREATION DATE:      ___09/27/94__  */   15400936
000500*  DESCRIPTION:                                              */   15400936
000600*                                                            */   15400936
000700*    - THIS IS A NEW PROGRAM MODULE WHICH PERFORMS THE       */   15400936
000800*      PRODUCTION OF 1042 FORMS AND TAPE FOR MICROFICHE.     */   15400936
000900*      1042S FORMS ARE PRODUCED ON 8 1/2 BY 11 PAPER BY A    */   15400936
001000*      LASE PRINTER FOR 1994.                                */   15400936
001100**************************************************************/   15400936
001200 IDENTIFICATION DIVISION.                                         PP1042SF
001300 PROGRAM-ID.   PP1042SF.                                          PP1042SF
001400 INSTALLATION. UNIVERSITY OF CALIFORNIA, BASE PAYROLL SYSTEM.     PP1042SF
001500 AUTHOR.       UCOP.                                              PP1042SF
001600 DATE-WRITTEN. SEPTEMBER, 1994.                                   PP1042SF
001700 DATE-COMPILED.                                                   PP1042SF
001800 ENVIRONMENT DIVISION.                                            PP1042SF
001900 CONFIGURATION SECTION.                                           PP1042SF
002000 SOURCE-COMPUTER.     COPY  CPOTXUCS.                             PP1042SF
002100 OBJECT-COMPUTER.     COPY  CPOTXOBJ.                             PP1042SF
002200 SPECIAL-NAMES.                                                   PP1042SF
002300     C01 IS NEW-PAGE.                                             PP1042SF
002400 INPUT-OUTPUT SECTION.                                            PP1042SF
002500 FILE-CONTROL.                                                    PP1042SF
002600     SELECT PRINT-1042-FORM       ASSIGN TO UT-S-PRT1042.         PP1042SF
002610                                                                  PP1042SF
002700     SELECT PRINT-COPY-1042-FORM  ASSIGN TO UT-S-CPY1042.         PP1042SF
002710                                                                  PP1042SF
002800     SELECT FICHE-FILE            ASSIGN TO UT-S-FCH1042.         PP1042SF
002900     EJECT                                                        PP1042SF
002910 DATA DIVISION.                                                   PP1042SF
003000 FILE SECTION.                                                    PP1042SF
003100     SKIP1                                                        PP1042SF
003200 FD  PRINT-1042-FORM                                              PP1042SF
003300     RECORDING MODE IS F                                          PP1042SF
003400     BLOCK CONTAINS 0 RECORDS                                     PP1042SF
003500     LABEL RECORDS ARE OMITTED                                    PP1042SF
003600     DATA RECORD IS PRINT-REC-1042-FORM.                          PP1042SF
003700 01  PRINT-REC-1042-FORM.                                         PP1042SF
003800     03  CARRIAGE-CTL-CHAR        PIC X(01).                      PP1042SF
003900     03  PRINT-LN-1042-FORM       PIC X(132).                     PP1042SF
004000     SKIP1                                                        PP1042SF
004100 FD  PRINT-COPY-1042-FORM                                         PP1042SF
004200     RECORDING MODE IS F                                          PP1042SF
004300     BLOCK CONTAINS 0 RECORDS                                     PP1042SF
004400     LABEL RECORDS ARE OMITTED                                    PP1042SF
004500     DATA RECORD IS PRINT-REC-COPY-1042-FORM.                     PP1042SF
004600 01  PRINT-REC-COPY-1042-FORM.                                    PP1042SF
004700     03  CARRIAGE-CTL-CHAR         PIC X(01).                     PP1042SF
004800     03  PRINT-LN-COPY-1042-FORM   PIC X(132).                    PP1042SF
004900     SKIP1                                                        PP1042SF
005000 FD  FICHE-FILE                                                   PP1042SF
005100     RECORDING MODE IS F                                          PP1042SF
005200     BLOCK CONTAINS 0 RECORDS                                     PP1042SF
005300     LABEL RECORDS ARE OMITTED                                    PP1042SF
005400     DATA RECORD IS FICHE-RECORD.                                 PP1042SF
005500 01  FICHE-RECORD.                                                PP1042SF
005600     03  FCHE-CAR-CTL-CHAR        PIC X(01).                      PP1042SF
005700     03  FICHE-LINE               PIC X(132).                     PP1042SF
005800     EJECT                                                        PP1042SF
005900 WORKING-STORAGE SECTION.                                         PP1042SF
006000 01  TAX-RELATED-CONSTANTS.       COPY CPWSXTRC.                  PP1042SF
006100     EJECT                                                        PP1042SF
006200 01  WORK-FIELDS.                                                 PP1042SF
006300     05  1042-FORMS-COUNT          PIC S9(04) VALUE +2 COMP-3.    PP1042SF
006400     05  COPY-1042-FORMS-COUNT     PIC S9(04) VALUE +2 COMP-3.    PP1042SF
006600     05  FIRST-EMPLOYEE-REC-SW     PIC X(01) VALUE 'Y'.           PP1042SF
006700         88  FIRST-EMPLOYEE-REC      VALUE 'Y'.                   PP1042SF
006701     05  WS-FORM-LINES-USED-SW     PIC X(01) VALUE SPACE.         PP1042SF
006702         88  LINE-1-USED             VALUE '1'.                   PP1042SF
006703         88  LINE-2-USED             VALUE '2'.                   PP1042SF
006704         88  BOTH-LINES-USED         VALUE '2'.                   PP1042SF
006900     05  FICHE-SELECTED-SW         PIC X(01) VALUE SPACE.         PP1042SF
007000         88  FICHE-TAPE-SELECTED     VALUE 'Y'.                   PP1042SF
007100         88  NO-FICHE-TAPE-SELECTED  VALUE 'N'.                   PP1042SF
007110     05  EMPLOYER-COPY-SW          PIC X(01) VALUE SPACE.         PP1042SF
007120         88  EMPLOYER-COPY-SELECTED  VALUE 'Y'.                   PP1042SF
007130         88  NO-EMPLOYER-COPY-SELECTED  VALUE 'N'.                PP1042SF
007200     05  BLANK30                   PIC X(30) VALUE SPACES.        PP1042SF
007300     05  BREAK-DWN-SSN.                                           PP1042SF
007400         07  SSN-3        PIC 9(03).                              PP1042SF
007500         07  SSN-2        PIC 9(02).                              PP1042SF
007600         07  SSN-4        PIC 9(04).                              PP1042SF
007610     05  SSN-CHECK.                                               32071160
007620         07  SSN-1        PIC 9(01).                              32071160
007630         07  FILLER       PIC X(08).                              32071160
007700     05  HOLD-CITY-STATE-ZIP.                                     PP1042SF
007800         07  HOLD-CITY    PIC X(17).                              PP1042SF
007900         07  FILLER       PIC X(01).                              PP1042SF
008000         07  HOLD-STATE   PIC X(02).                              PP1042SF
008100         07  FILLER       PIC X(01).                              PP1042SF
008200         07  HOLD-ZIP     PIC X(05).                              PP1042SF
008300         07  FILLER       PIC X(04).                              PP1042SF
008400     05  HOLD-FOREIGN-ADDRESS.                                    PP1042SF
008500         07  HOLD-FAD-COUNTRY         PIC X(30).                  PP1042SF
008600         07  HOLD-FAD-COUNTRY-LENGTH  PIC 9(02).                  PP1042SF
008700         07  HOLD-FAD-CITY-PROV       PIC X(33).                  PP1042SF
008800         07  HOLD-FAD-CNTRY-POSTAL-CD PIC X(33).                  PP1042SF
008900     05  HOLD-ADDRESS-FORMAT.                                     PP1042SF
009000         07  HOLD-ADDR-LINE-1         PIC X(33).                  PP1042SF
009100         07  HOLD-ADDR-LINE-2         PIC X(33).                  PP1042SF
009200         07  HOLD-ADDR-LINE-3         PIC X(33).                  PP1042SF
009300         07  HOLD-ADDR-LINE-4         PIC X(33).                  PP1042SF
009400         07  HOLD-ADDR-LINE-5         PIC X(33).                  PP1042SF
009500         07  HOLD-ADDR-LINE-6         PIC X(33).                  PP1042SF
009600     05  HOLD-NAME.                                               PP1042SF
009700         07  HOLD-NAME-26             PIC X(26).                  PP1042SF
009800         07  HOLD-NAME-SUFFIX         PIC X(04).                  PP1042SF
009900     05  NBR-OF-BLANKS-REQUESTED      PIC S9(07) COMP VALUE ZERO. PP1042SF
010000     SKIP1                                                        PP1042SF
010100*---> TO ROTATE NAME  ----- USED WITH CPPDXP10                    PP1042SF
010200 01  ROTATE-DATA.                                                 PP1042SF
010300     05  I      PIC S9(4)  COMP SYNC.                             PP1042SF
010400     05  J      PIC S9(4)  COMP SYNC.                             PP1042SF
010500     05  K      PIC S9(4)  COMP SYNC.                             PP1042SF
010600     05  L      PIC S9(4)  COMP SYNC.                             PP1042SF
010700     05  NAME-ARRAY              PIC X(26).                       PP1042SF
010800     05 LETTER REDEFINES NAME-ARRAY                               PP1042SF
010900                                 PIC X    OCCURS 26.              PP1042SF
011000     05 SUFFIX-ARRAY.                                             PP1042SF
011100         10 SUFFIX-LETTER    PIC X       OCCURS 4 TIMES.          PP1042SF
011200     05 ROTATED-NAME.                                             PP1042SF
011300         10 ROTATED-LETTER       PIC X    OCCURS 31.              PP1042SF
011400     SKIP3                                                        PP1042SF
011500*---> TOTAL FIELDS TO PASS BACK TO CALLING MODULE                 PP1042SF
011600 01  TOTAL-FIELDS.                                                PP1042SF
011700     05  TOTAL-EMPLOYEE-COUNT   PIC S9(07) COMP VALUE ZERO.       PP1042SF
011800     05  TOTAL-1042-COUNT       PIC S9(07) COMP VALUE ZERO.       PP1042SF
011900     05  TOTAL-GROSS-PAID       PIC S9(09)V99 COMP-3 VALUE ZERO.  PP1042SF
012000     05  TOTAL-FWT-TAX          PIC S9(09)V99 COMP-3 VALUE ZERO.  PP1042SF
012100     05  TOTAL-ALLOWANCE        PIC S9(09)V99 COMP-3 VALUE ZERO.  PP1042SF
012200     05  TOTAL-NET-INCOME       PIC S9(09)V99 COMP-3 VALUE ZERO.  PP1042SF
012300     SKIP1                                                        PP1042SF
012400     05  LINE-GROSS-TOTAL       PIC 9(07)V99  COMP-3 VALUE ZERO.  PP1042SF
012500     05  LINE-ALLOW-TOTAL       PIC 9(07)V99  COMP-3 VALUE ZERO.  PP1042SF
012600     05  LINE-NET-TOTAL         PIC 9(07)V99  COMP-3 VALUE ZERO.  PP1042SF
012700     05  LINE-FWT-TAX-TOTAL     PIC 9(07)V99  COMP-3 VALUE ZERO.  PP1042SF
012800     SKIP1                                                        PP1042SF
012810*---> GROUP DESCRIPTIONS FOR PRINTING ON 1042 FORM                PP1042SF
012900 01  WS-1042-GROUPS.                                              PP1042SF
013000     05  WS-1042-GROUP-DESC.                                      PP1042SF
013100         07  FILLER       PIC X(32) VALUE                         PP1042SF
013200      'SELECTED ID NUMBERS             '.                         PP1042SF
013300         07  FILLER       PIC X(32) VALUE                         PP1042SF
013400      'SELECTED SOCIAL SECURITY NUMBERS'.                         PP1042SF
013500         07  FILLER       PIC X(32) VALUE                         PP1042SF
013600      'SELECTED HOME DEPARTMENT NUMBERS'.                         PP1042SF
013700         07  FILLER       PIC X(32) VALUE                         PP1042SF
013800      'SELECTED COUNTRY CODES          '.                         PP1042SF
013900         07  FILLER       PIC X(32) VALUE                         PP1042SF
014000      '                                '.                         PP1042SF
014010         07  FILLER       PIC X(32) VALUE                         PP1042SF
014020      'FOLLOWING FORMS LEFT BLANK      '.                         PP1042SF
014030         07  FILLER       PIC X(32) VALUE                         PP1042SF
014040      '                                '.                         PP1042SF
014050         07  FILLER       PIC X(32) VALUE                         PP1042SF
014060      '1042-S FORMS-NO SPECIAL HANDLING'.                         PP1042SF
014100     05  WS-1042-GROUP-TABLE REDEFINES                            PP1042SF
014200                             WS-1042-GROUP-DESC OCCURS 8.         PP1042SF
014300         07  WS-1042-G-DESC PIC X(32).                            PP1042SF
014400     SKIP1                                                        PP1042SF
014600 01  WS-INCOME-CODE        PIC X(02) VALUE SPACES.                PP1042SF
014700 01  WS-GROSS-PAID         PIC S9(07)V99  COMP-3 VALUE ZERO.      PP1042SF
015000 01  WS-ADDR-1042-GROUP    PIC X(01) VALUE SPACE.                 PP1042SF
015100 01  WS-1042-GROUP-SAVE    PIC X(01) VALUE SPACE.                 PP1042SF
015110     88  WS-1042-GROUP-BLANK   VALUE '6'.                         PP1042SF
015201 01  WS-SAVE-NAME          PIC X(26) VALUE SPACE.                 PP1042SF
015202 01  WS-SAVE-SSN           PIC X(09) VALUE SPACE.                 PP1042SF
015210 01  WS-SAVE-RECIPIENT-CODE PIC X(02) VALUE SPACE.                PP1042SF
015300 01  WS-G-SUB              PIC 9 VALUE 0.                         PP1042SF
015310 01  WS-2DIGIT-EXEMPT-CODE.                                       48591388
015320     05  WS-DIGIT-1-EXEMPT-CODE PIC X(01)    VALUE SPACE.         48591388
015321     05  WS-DIGIT-2-EXEMPT-CODE PIC X(01)    VALUE SPACE.         48591388
015400     SKIP1                                                        PP1042SF
015500 01  WS-GROUP-LINE.                                               PP1042SF
015600     05  FILLER            PIC X(03)         VALUE SPACES.        PP1042SF
015700     05  WS-BRK-LN-DESC    PIC X(70).                             PP1042SF
015800     05  WS-GROUP  REDEFINES WS-BRK-LN-DESC.                      PP1042SF
015900         07  WS-GRP-LN-DESC    PIC X(32).                         PP1042SF
016000         07  FILLER            PIC X(38).                         PP1042SF
016100     SKIP1                                                        PP1042SF
016700 01  WS-SPACE-LINE         PIC X(73)         VALUE SPACES.        PP1042SF
016800     EJECT                                                        PP1042SF
016900*---->  PRINT FORMAT LINES FOR THE LASER FORMAT 1042 AND THE      PP1042SF
017000*---->  MICROFICHE FORMAT 1042 FOR 1994.                          PP1042SF
017100*01  L1042-EMPLOYEE-COPY.                                         48591388
017210*****05 L1042-LNE1.                                               48591388
017300*****    07 FILLER               PIC X(05)  VALUE SPACES.         48591388
017400*****    07 L1042-LN1-INCOME-CODE PIC X(02).                      48591388
017500*****    07 FILLER               PIC X(02)  VALUE SPACES.         48591388
017600*****    07 L1042-LN1-GROSS-PAID PIC Z,ZZZ,ZZZ.99.                48591388
017700*****    07 FILLER               PIC X(01)  VALUE SPACES.         48591388
017800*****    07 L1042-LN1-ALLOWANCE  PIC Z,ZZZ,ZZZ.ZZ.                48591388
017900*****    07 L1042-LN1-NET-INCOME PIC Z,ZZZ,ZZZ.ZZ.                48591388
018000*****    07 FILLER               PIC X(02)  VALUE SPACES.         48591388
018100*****    07 L1042-LN1-TAX-RATE   PIC ZZ.                          48591388
018200*****    07 FILLER               PIC X(03)  VALUE SPACES.         48591388
018300*****    07 L1042-LN1-EXEMPTION-CODE PIC X(01) VALUE SPACE.       48591388
018400*****    07 FILLER               PIC X(04)  VALUE SPACES.         48591388
018500*****    07 L1042-LN1-FWT-TAX    PIC ZZZ,ZZZ.ZZ.                  48591388
018600*****    07 FILLER               PIC X(02)  VALUE SPACE.          48591388
018700*****    07 L1042-LN1-COUNTRY-CODE PIC X(02) VALUE SPACES.        48591388
018800*****    07 FILLER               PIC X(01)  VALUE SPACES.         48591388
018900*****    SKIP1                                                    48591388
019000*****05 L1042-LNE2.                                               48591388
020610*****    07 FILLER               PIC X(05)  VALUE SPACES.         48591388
020620*****    07 L1042-LN2-INCOME-CODE PIC X(02).                      48591388
020630*****    07 FILLER               PIC X(02)  VALUE SPACES.         48591388
020640*****    07 L1042-LN2-GROSS-PAID PIC Z,ZZZ,ZZZ.99.                48591388
020650*****    07 FILLER               PIC X(01)  VALUE SPACES.         48591388
020660*****    07 L1042-LN2-ALLOWANCE  PIC Z,ZZZ,ZZZ.ZZ.                48591388
020670*****    07 L1042-LN2-NET-INCOME PIC Z,ZZZ,ZZZ.ZZ.                48591388
020680*****    07 FILLER               PIC X(02)  VALUE SPACES.         48591388
020690*****    07 L1042-LN2-TAX-RATE   PIC ZZ.                          48591388
020691*****    07 FILLER               PIC X(03)  VALUE SPACES.         48591388
020692*****    07 L1042-LN2-EXEMPTION-CODE PIC X(01) VALUE SPACE.       48591388
020693*****    07 FILLER               PIC X(04)  VALUE SPACES.         48591388
020694*****    07 L1042-LN2-FWT-TAX    PIC ZZZ,ZZZ.ZZ.                  48591388
020695*****    07 FILLER               PIC X(02)  VALUE SPACE.          48591388
020696*****    07 L1042-LN2-COUNTRY-CODE PIC X(02) VALUE SPACES.        48591388
020697*****    07 FILLER               PIC X(01)  VALUE SPACES.         48591388
020700*****    SKIP1                                                    48591388
020800*****05 L1042-LNE3.                                               48591388
020900*****    07 FILLER               PIC X(09)  VALUE SPACES.         48591388
021000*****    07 L1042-TOT-GROSS-PAID PIC Z,ZZZ,ZZZ.ZZ.                48591388
021100*****    07 FILLER               PIC X(01)  VALUE SPACES.         48591388
021200*****    07 L1042-TOT-ALLOWANCE  PIC Z,ZZZ,ZZZ.ZZ.                48591388
021300*****    07 L1042-TOT-NET-INCOME PIC Z,ZZZ,ZZZ.ZZ.                48591388
021400*****    07 FILLER               PIC X(12)  VALUE SPACES.         48591388
021500*****    07 L1042-TOT-FWT-TAX    PIC ZZZ,ZZZ.ZZ.                  48591388
021600*****    07 FILLER               PIC X(05)  VALUE SPACES.         48591388
021700*****    SKIP1                                                    48591388
021800*****05 L1042-LNE4.                                               48591388
021900*****    07 FILLER               PIC X(32)  VALUE SPACES.         48591388
022000*****    07 L1042-RECIPIENT-CODE PIC X(02).                       48591388
022100*****    07 FILLER               PIC X(39)  VALUE SPACES.         48591388
022200*****05 L1042-LNE5.                                               48591388
022210*****    07 FILLER               PIC X(23)  VALUE SPACES.         48591388
022300*****    07 L1042-SSN.                                            48591388
022400*****        10 L1042-SS-NO3     PIC X(03).                       48591388
022500*****        10 L1042-DASH-3     PIC X(01).                       48591388
022600*****        10 L1042-SS-NO2     PIC X(02).                       48591388
022700*****        10 L1042-DASH-2     PIC X(01).                       48591388
022800*****        10 L1042-SS-NO4     PIC X(04).                       48591388
022900*****    07 FILLER               PIC X(39)  VALUE SPACES.         48591388
023000*****    SKIP1                                                    48591388
023100*****05 L1042-LNE6.                                               48591388
023200*****    07 FILLER               PIC X(25)  VALUE SPACES.         48591388
023201*****    07 L1042-EMP-ID         PIC X(09).                       48591388
023210*****    07 FILLER               PIC X(04)  VALUE SPACES.         48591388
023300*****    07 L1042-EMPLOYER-NAME  PIC X(30).                       48591388
023400*****    07 FILLER               PIC X(08)  VALUE SPACES.         48591388
023500*****    SKIP1                                                    48591388
023600*****05 L1042-LNE7.                                               48591388
023700*****    07 FILLER               PIC X(38)  VALUE SPACES.         48591388
023800*****    07 L1042-EMPLOYER-ADDR  PIC X(30).                       48591388
023900*****    07 FILLER               PIC X(08)  VALUE SPACES.         48591388
024000*****    SKIP1                                                    48591388
024100*****05 L1042-LNE8.                                               48591388
024200*****    07 FILLER               PIC X(38)  VALUE SPACES.         48591388
024300*****    07 L1042-EMPLOYER-CITY  PIC X(30).                       48591388
024400*****    07 FILLER               PIC X(08)  VALUE SPACES.         48591388
024500*****    SKIP1                                                    48591388
024600*****05 L1042-LNE9.                                               48591388
024700*****    07 FILLER               PIC X(38)  VALUE SPACES.         48591388
024800*****    07 L1042-EMPLOYER-STATE PIC X(10).                       48591388
024900*****    07 FILLER               PIC X(02)  VALUE SPACES.         48591388
025000*****    07 L1042-EMPLOYER-ZIP   PIC X(05).                       48591388
025100*****    07 L1042-EMPLOYER-ZIP-PLUS4 PIC X(05).                   48591388
025200*****    07 FILLER               PIC X(16)  VALUE SPACES.         48591388
025300*****    SKIP1                                                    48591388
025400*****05 L1042-LNE10.                                              48591388
025500*****    07 FILLER               PIC X(03)  VALUE SPACES.         48591388
025600*****    07 L1042-ADDR1          PIC X(32)  VALUE SPACES.         48591388
025700*****    07 FILLER               PIC X(38)  VALUE SPACES.         48591388
025800*****    SKIP1                                                    48591388
025900*****05 L1042-LNE11.                                              48591388
026000*****    07 FILLER               PIC X(03)  VALUE SPACES.         48591388
026100*****    07 L1042-ADDR2          PIC X(32)  VALUE SPACES.         48591388
026200*****    07 FILLER               PIC X(38)  VALUE SPACES.         48591388
026300*****    SKIP1                                                    48591388
026400*****05 L1042-LNE12.                                              48591388
026500*****    07 FILLER               PIC X(03)  VALUE SPACES.         48591388
026600*****    07 L1042-ADDR3          PIC X(32)  VALUE SPACES.         48591388
026720*****    07 FILLER               PIC X(38)  VALUE SPACES.         48591388
026800*****    SKIP1                                                    48591388
026900*****05 L1042-LNE13.                                              48591388
027000*****    07 FILLER               PIC X(03)  VALUE SPACES.         48591388
027100*****    07 L1042-ADDR4          PIC X(32)  VALUE SPACES.         48591388
027200*****    07 FILLER               PIC X(03)  VALUE SPACES.         48591388
027210*****    07 L1042-FED-NO         PIC X(12)  VALUE SPACES.         48591388
027220*****    07 FILLER               PIC X(23)  VALUE SPACES.         48591388
027300*****    SKIP1                                                    48591388
027400*****05 L1042-LNE14.                                              48591388
027500*****    07 FILLER               PIC X(03)  VALUE SPACES.         48591388
027600*****    07 L1042-ADDR5          PIC X(32)  VALUE SPACES.         48591388
027900*****    07 FILLER               PIC X(38)  VALUE SPACES.         48591388
028000*****    SKIP1                                                    48591388
028100*****05 L1042-LNE15.                                              48591388
028200*****    07 FILLER               PIC X(03)  VALUE SPACES.         48591388
028300*****    07 L1042-ADDR6          PIC X(32)  VALUE SPACES.         48591388
028400*****    07 FILLER               PIC X(38)  VALUE SPACES.         48591388
028500*****    SKIP1                                                    48591388
028600*****05 L1042-LNE16.                                              48591388
028700*****    07 FILLER               PIC X(03)  VALUE SPACES.         48591388
028800*****    07 L1042-ADDR7          PIC X(32)  VALUE SPACES.         48591388
028900*****    07 FILLER               PIC X(38)  VALUE SPACES.         48591388
029000*****    SKIP1                                                    48591388
029100*****05 L1042-LNE17.                                              48591388
029200*****    07 FILLER               PIC X(03)  VALUE SPACES.         48591388
029300*****    07 L1042-COUNTRY-DESCR  PIC X(30).                       48591388
029400*****    07 FILLER               PIC X(05)  VALUE SPACES.         48591388
029410*****    07 L1042-STATE-ID       PIC X(10).                       48591388
029420*****    07 FILLER               PIC X(20)  VALUE SPACES.         48591388
029430*****    07 L1042-STATE-CODE     PIC X(02).                       48591388
029440*****    07 FILLER               PIC X(03)  VALUE SPACES.         48591388
029450 01  L1042-EMPLOYEE-COPY.                                         48591388
029470     05  L1042-LNE1.                                              48591388
029480         07  FILLER                  PIC X(05)  VALUE SPACES.     48591388
029490         07  L1042-LN1-INCOME-CODE   PIC X(02).                   48591388
029491         07  FILLER                  PIC X(01)  VALUE SPACES.     48591388
029492         07  L1042-LN1-GROSS-PAID    PIC Z,ZZZ,ZZZ.99.            48591388
029493         07  FILLER                  PIC X(01)  VALUE SPACES.     48591388
029494         07  L1042-LN1-ALLOWANCE     PIC ZZZ,ZZZ.ZZ.              48591388
029495         07  FILLER                  PIC X(01)  VALUE SPACES.     48591388
029496         07  L1042-LN1-NET-INCOME    PIC ZZZ,ZZZ.ZZ.              48591388
029497         07  FILLER                  PIC X(01)  VALUE SPACES.     48591388
029498         07  L1042-LN1-TAX-RATE      PIC 99.99.                   48591388
029499         07  L1042-LN1-TAX-RATE-DEF  REDEFINES                    48591388
029500             L1042-LN1-TAX-RATE.                                  48591388
029501             10  FILLER              PIC X(02).                   48591388
029502             10  L1042-LN1-TAX-RATE-ZERO                          48591388
029503                                     PIC 9.                       48591388
029504             10  FILLER              PIC X(02).                   48591388
029505         07  FILLER                  PIC X(02)  VALUE SPACES.     48591388
029506         07  L1042-LN1-EXEMPTION-CODE PIC X(02) VALUE SPACES.     48591388
029507         07  FILLER                  PIC X(01)  VALUE SPACES.     48591388
029508         07  L1042-LN1-FWT-TAX       PIC ZZZ,ZZZ.99.              48591388
029509         07  L1042-LN1-FWT-TAX-RED   REDEFINES                    48591388
029510             L1042-LN1-FWT-TAX.                                   48591388
029511             10  FILLER              PIC X(04).                   48591388
029512             10  L1042-LN1-FWT-TAX-ZERO                           48591388
029513                                     PIC 9.                       48591388
029514             10  FILLER              PIC X(05).                   48591388
029515         07  FILLER                  PIC X(01)  VALUE SPACE.      48591388
029516         07  L1042-LN1-REPAID-AMT    PIC ZZZ,ZZZ.ZZ.              48591388
029517         SKIP1                                                    48591388
029520     05  L1042-LNE2.                                              48591388
029522         07  FILLER                  PIC X(05)  VALUE SPACES.     48591388
029523         07  L1042-LN2-INCOME-CODE   PIC X(02).                   48591388
029524         07  FILLER                  PIC X(01)  VALUE SPACES.     48591388
029525         07  L1042-LN2-GROSS-PAID    PIC Z,ZZZ,ZZZ.99.            48591388
029526         07  FILLER                  PIC X(01)  VALUE SPACES.     48591388
029527         07  L1042-LN2-ALLOWANCE     PIC ZZZ,ZZZ.ZZ.              48591388
029528         07  FILLER                  PIC X(01)  VALUE SPACES.     48591388
029529         07  L1042-LN2-NET-INCOME    PIC ZZZ,ZZZ.ZZ.              48591388
029530         07  FILLER                  PIC X(01)  VALUE SPACES.     48591388
029531         07  L1042-LN2-TAX-RATE      PIC 99.99.                   48591388
029532         07  L1042-LN2-TAX-RATE-DEF  REDEFINES                    48591388
029533             L1042-LN2-TAX-RATE.                                  48591388
029534             10  FILLER              PIC X(02).                   48591388
029535             10  L1042-LN2-TAX-RATE-ZERO                          48591388
029536                                     PIC 9.                       48591388
029537             10  FILLER              PIC X(02).                   48591388
029539         07  FILLER                  PIC X(02)  VALUE SPACES.     48591388
029540         07  L1042-LN2-EXEMPTION-CODE PIC X(02)  VALUE SPACES.    48591388
029541         07  FILLER                  PIC X(01)  VALUE SPACES.     48591388
029542         07  L1042-LN2-FWT-TAX       PIC ZZZ,ZZZ.99.              48591388
029543         07  L1042-LN2-FWT-TAX-RED   REDEFINES                    48591388
029544             L1042-LN2-FWT-TAX.                                   48591388
029545             10  FILLER              PIC X(04).                   48591388
029546             10  L1042-LN2-FWT-TAX-ZERO                           48591388
029547                                     PIC 9.                       48591388
029548             10  FILLER              PIC X(05).                   48591388
029549         07  FILLER                  PIC X(01)  VALUE SPACE.      48591388
029550         07  L1042-LN2-REPAID-AMT    PIC ZZZ,ZZZ.ZZ.              48591388
029551         SKIP1                                                    48591388
029552     05  L1042-LNE3.                                              48591388
029553         07  FILLER                  PIC X(08)  VALUE SPACES.     48591388
029554         07  L1042-TOT-GROSS-PAID    PIC Z,ZZZ,ZZZ.ZZ.            48591388
029555         07  FILLER                  PIC X(01)  VALUE SPACES.     48591388
029556         07  L1042-TOT-ALLOWANCE     PIC ZZZ,ZZZ.ZZ.              48591388
029557         07  FILLER                  PIC X(01)  VALUE SPACES.     48591388
029558         07  L1042-TOT-NET-INCOME    PIC ZZZ,ZZZ.ZZ.              48591388
029559         07  FILLER                  PIC X(11)  VALUE SPACES.     48591388
029560         07  L1042-TOT-FWT-TAX       PIC ZZZ,ZZZ.ZZ.              48591388
029561         07  FILLER                  PIC X(01)  VALUE SPACES.     48591388
029562         07  L1042-TOT-AMT-REPAID    PIC ZZZ,ZZZ.ZZ.              48591388
029563         SKIP1                                                    48591388
029564     05  L1042-LNE4.                                              48591388
029565         07  FILLER                  PIC X(15)  VALUE SPACES.     48591388
029566         07  L1042-FED-NO            PIC X(12)  VALUE SPACES.     48591388
029567         07  FILLER                  PIC X(22)  VALUE SPACES.     48591388
029568         07  L1042-SSN.                                           48591388
029569             10  L1042-SS-NO3        PIC X(03).                   48591388
029570             10  L1042-DASH-3        PIC X(01).                   48591388
029571             10  L1042-SS-NO2        PIC X(02).                   48591388
029572             10  L1042-DASH-2        PIC X(01).                   48591388
029573             10  L1042-SS-NO4        PIC X(04).                   48591388
029574         07  FILLER                  PIC X(14)  VALUE SPACES.     48591388
029575     05  L1042-LNE5.                                              48591388
029576         07  FILLER                  PIC X(04)  VALUE SPACES.     48591388
029577         07  L1042-EIN-BOX           PIC X(01)  VALUE SPACES.     48591388
029578         07  FILLER                  PIC X(32)  VALUE SPACES.     48591388
029579         07  L1042-RECIP-SSN-BOX     PIC X(01)  VALUE SPACES.     48591388
029580         07  FILLER                  PIC X(13)  VALUE SPACES.     48591388
029581         07  L1042-RECIP-EIN-BOX     PIC X(01)  VALUE SPACES.     48591388
029582         07  FILLER                  PIC X(08)  VALUE SPACES.     48591388
029583         07  L1042-RECIP-QI-EIN-BOX  PIC X(01)  VALUE SPACES.     48591388
029584         07  FILLER                  PIC X(13)  VALUE SPACES.     48591388
029585         SKIP1                                                    48591388
029586     05  L1042-LNE6.                                              48591388
029587         07  FILLER                  PIC X(03)  VALUE SPACES.     48591388
029588         07  L1042-EMPLOYER-NAME     PIC X(30).                   48591388
029589         07  FILLER                  PIC X(03)  VALUE SPACES.     48591388
029590         07  L1042-COUNTRY-DESCR     PIC X(30).                   48591388
029591         07  FILLER                  PIC X(03)  VALUE SPACES.     48591388
029592         07  L1042-COUNTRY-CODE      PIC X(02)  VALUE SPACES.     48591388
029593         07  FILLER                  PIC X(03)  VALUE SPACES.     48591388
029594         SKIP1                                                    48591388
029595     05  L1042-LNE7.                                              48591388
029596         07  FILLER                  PIC X(03)  VALUE SPACES.     48591388
029597         07  L1042-EMPLOYER-ADDR     PIC X(30).                   48591388
029598         07  FILLER                  PIC X(41)  VALUE SPACES.     48591388
029599         SKIP1                                                    48591388
029600     05  L1042-LNE8.                                              48591388
029601         07  FILLER                  PIC X(03)  VALUE SPACES.     48591388
029602         07  L1042-EMPLOYER-CITY     PIC X(30).                   48591388
029603         07  FILLER                  PIC X(41)  VALUE SPACES.     48591388
029604         SKIP1                                                    48591388
029605     05  L1042-LNE9.                                              48591388
029606         07  FILLER                  PIC X(03)  VALUE SPACES.     48591388
029607         07  L1042-EMPLOYER-STATE    PIC X(10).                   48591388
029608         07  FILLER                  PIC X(02)  VALUE SPACES.     48591388
029609         07  L1042-EMPLOYER-ZIP      PIC X(05).                   48591388
029610         07  L1042-EMPLOYER-ZIP-PLUS4 PIC X(05).                  48591388
029611         07  FILLER                  PIC X(49)  VALUE SPACES.     48591388
029612         SKIP1                                                    48591388
029613     05  L1042-LNE10.                                             48591388
029614         07  FILLER                  PIC X(03)  VALUE SPACES.     48591388
029615         07  L1042-EMP-ID            PIC X(09).                   48591388
029616         07  FILLER                  PIC X(17)  VALUE SPACES.     48591388
029617         07  L1042-RECIPIENT-CODE    PIC X(02).                   48591388
029618         07  FILLER                  PIC X(43)  VALUE SPACES.     48591388
029619         SKIP1                                                    48591388
029620     05  L1042-LNE11.                                             48591388
029621         07  FILLER                  PIC X(03)  VALUE SPACES.     48591388
029622         07  L1042-ADDR1             PIC X(32)  VALUE SPACES.     48591388
029623         07  FILLER                  PIC X(39)  VALUE SPACES.     48591388
029624         SKIP1                                                    48591388
029625     05  L1042-LNE12.                                             48591388
029626         07  FILLER                  PIC X(03)  VALUE SPACES.     48591388
029627         07  L1042-ADDR2             PIC X(32)  VALUE SPACES.     48591388
029628         07  FILLER                  PIC X(39)  VALUE SPACES.     48591388
029629         SKIP1                                                    48591388
029630     05  L1042-LNE13.                                             48591388
029631         07  FILLER                  PIC X(03)  VALUE SPACES.     48591388
029632         07  L1042-ADDR3             PIC X(32)  VALUE SPACES.     48591388
029633         07  FILLER                  PIC X(39)  VALUE SPACES.     48591388
029634         SKIP1                                                    48591388
029635     05  L1042-LNE14.                                             48591388
029636         07  FILLER                  PIC X(03)  VALUE SPACES.     48591388
029637         07  L1042-ADDR4             PIC X(32)  VALUE SPACES.     48591388
029638         07  FILLER                  PIC X(39)  VALUE SPACES.     48591388
029639         SKIP1                                                    48591388
029640     05  L1042-LNE15.                                             48591388
029641         07  FILLER                  PIC X(03)  VALUE SPACES.     48591388
029642         07  L1042-ADDR5             PIC X(32)  VALUE SPACES.     48591388
029643         07  FILLER                  PIC X(39)  VALUE SPACES.     48591388
029644         SKIP1                                                    48591388
029645     05  L1042-LNE16.                                             48591388
029646         07  FILLER                  PIC X(03)  VALUE SPACES.     48591388
029647         07  L1042-ADDR6             PIC X(32)  VALUE SPACES.     48591388
029648         07  FILLER                  PIC X(15)  VALUE SPACES.     48591388
029649         07  L1042-STATE-ID          PIC X(10).                   48591388
029650         07  FILLER                  PIC X(08)  VALUE SPACES.     48591388
029651         07  L1042-STATE-CODE        PIC X(02).                   48591388
029652         07  FILLER                  PIC X(04)  VALUE SPACES.     48591388
029653         SKIP1                                                    48591388
029500     SKIP1                                                        PP1042SF
029510     EJECT                                                        PP1042SF
029520 01  WA-COMPILE-WORK-AREA.       COPY CPWSXWHC.                   PP1042SF
029600     EJECT                                                        PP1042SF
029710 01  XSSN-SOCIAL-SECURITY-WORK.  COPY CPWSXSSN.                   48801445
029720     EJECT                                                        48801445
029800 LINKAGE SECTION.                                                 PP1042SF
029900     SKIP1                                                        PP1042SF
030000 01  PP1042SF-INTERFACE.                          COPY CPLN142F.  PP1042SF
030100     EJECT                                                        PP1042SF
030200 01  PP1042SF-1042-EXTRACT-RECORD.                COPY CPWS142E.  PP1042SF
030300 PROCEDURE DIVISION                                               PP1042SF
030400     SKIP1                                                        PP1042SF
030500     USING PP1042SF-INTERFACE                                     PP1042SF
030600           PP1042SF-1042-EXTRACT-RECORD.                          PP1042SF
030700     SKIP2                                                        PP1042SF
030800 00000-PP1042SF-ENTRY.                                            PP1042SF
030900     SKIP1                                                        PP1042SF
031000     IF S1042F-EMPLOYEE-CALL                                      PP1042SF
031100         IF S1042F-EXPECTING-EMPLOYEE-CALL                        PP1042SF
031200             MOVE 0 TO S1042F-RETURN-CODE                         PP1042SF
031300             PERFORM 20000-PP1042SF-RECORD-CALL                   PP1042SF
031400         ELSE                                                     PP1042SF
031500             MOVE 1 TO S1042F-RETURN-CODE                         PP1042SF
031600     ELSE                                                         PP1042SF
031700     IF S1042F-INITIAL-CALL                                       PP1042SF
031800         IF S1042F-EXPECTING-INITIAL-CALL                         PP1042SF
031900             MOVE 0 TO S1042F-RETURN-CODE                         PP1042SF
032000             PERFORM 10000-PP1042SF-FIRST-CALL                    PP1042SF
032100             MOVE 1 TO S1042F-PROGRAM-STATE                       PP1042SF
032200         ELSE                                                     PP1042SF
032300             MOVE 1 TO S1042F-RETURN-CODE                         PP1042SF
032400     ELSE                                                         PP1042SF
032500     IF S1042F-FINAL-CALL                                         PP1042SF
032600         IF S1042F-EXPECTING-EMPLOYEE-CALL                        PP1042SF
032700             MOVE 2 TO S1042F-PROGRAM-STATE                       PP1042SF
032800             PERFORM 30000-PP1042SF-LAST-CALL                     PP1042SF
032900         ELSE                                                     PP1042SF
033000             MOVE 1 TO S1042F-RETURN-CODE                         PP1042SF
033100     ELSE                                                         PP1042SF
033200         MOVE 1 TO S1042F-RETURN-CODE.                            PP1042SF
033300     SKIP1                                                        PP1042SF
033400     GOBACK.                                                      PP1042SF
033500     EJECT                                                        PP1042SF
033600 10000-PP1042SF-FIRST-CALL.                                       PP1042SF
033700     SKIP1                                                        PP1042SF
033720     MOVE 'PP1042SF' TO  XWHC-DISPLAY-MODULE                      PP1042SF
033730     COPY CPPDXWHC.                                               PP1042SF
033810     PERFORM 12000-MOVE-1042-CONSTANTS.                           PP1042SF
033900     SKIP1                                                        PP1042SF
034000     IF  FICHE-TAPE-SELECTED                                      PP1042SF
034100         OPEN OUTPUT FICHE-FILE                                   PP1042SF
034200     ELSE                                                         PP1042SF
034300         OPEN OUTPUT PRINT-1042-FORM                              PP1042SF
034301     END-IF.                                                      PP1042SF
034302     SKIP1                                                        PP1042SF
034310     IF EMPLOYER-COPY-SELECTED                                    PP1042SF
034331        OPEN OUTPUT PRINT-COPY-1042-FORM                          PP1042SF
034340     END-IF.                                                      PP1042SF
034400     SKIP1                                                        PP1042SF
034410     EJECT                                                        PP1042SF
034500 12000-MOVE-1042-CONSTANTS.                                       PP1042SF
034600     SKIP1                                                        PP1042SF
034610     MOVE SPACES TO L1042-EMPLOYEE-COPY.                          PP1042SF
034700     MOVE S1042F-EMPLR-COPY    TO  EMPLOYER-COPY-SW.              PP1042SF
034710     MOVE S1042F-FICHE-FILE    TO  FICHE-SELECTED-SW.             PP1042SF
034800     SKIP1                                                        PP1042SF
034900*****MOVE XTRC-EMPLOYER-NAME        TO   L1042-EMPLOYER-NAME.     UCSD0095
035000*****MOVE XTRC-EMPLOYER-ADDRESS     TO   L1042-EMPLOYER-ADDR.     UCSD0095
035100*****MOVE XTRC-EMPLOYER-CITY        TO   L1042-EMPLOYER-CITY.     UCSD0095
035200*****MOVE XTRC-EMPLOYER-STATE       TO   L1042-EMPLOYER-STATE     UCSD0095
035210*****                                    L1042-STATE-CODE.        UCSD0095
041100     MOVE XTRC-EMPLOYER-STATE       TO   L1042-STATE-CODE.        UCSD0095
035300*****MOVE XTRC-EMPLOYER-ZIP         TO   L1042-EMPLOYER-ZIP.      UCSD0095
035400*****MOVE XTRC-EMPLOYER-ZIP-PLUS4   TO   L1042-EMPLOYER-ZIP-PLUS4.UCSD0095
035410*****IF XTRC-EMPLOYER-ZIP-PLUS4 NOT = SPACES                      UCSD0095
035420*****   STRING '-', XTRC-EMPLOYER-ZIP-PLUS4 DELIMITED BY SIZE     UCSD0095
035430*****   INTO L1042-EMPLOYER-ZIP-PLUS4                             UCSD0096
035440*****ELSE                                                         UCSD0095
035450*****   MOVE SPACES TO L1042-EMPLOYER-ZIP-PLUS4                   UCSD0095
035460*****END-IF.                                                      UCSD0095
035500     MOVE XTRC-EMPLOYER-FED-ID-X    TO   L1042-FED-NO.            PP1042SF
035501     MOVE 'X'                       TO   L1042-EIN-BOX.           48591388
035510     MOVE XTRC-EMPLOYER-STATE-ID-X  TO   L1042-STATE-ID.          PP1042SF
035600     SKIP1                                                        PP1042SF
035700     MOVE ZEROES TO TOTAL-EMPLOYEE-COUNT                          PP1042SF
035800                    TOTAL-1042-COUNT                              PP1042SF
035900                    TOTAL-FWT-TAX                                 PP1042SF
036000                    TOTAL-GROSS-PAID                              PP1042SF
036100                    TOTAL-ALLOWANCE                               PP1042SF
036200                    TOTAL-NET-INCOME.                             PP1042SF
036300     MOVE SPACE TO WS-FORM-LINES-USED-SW                          PP1042SF
036301                   WS-SAVE-NAME                                   PP1042SF
036302                   WS-SAVE-SSN                                    PP1042SF
036303                   WS-SAVE-RECIPIENT-CODE.                        PP1042SF
036304     MOVE 'Y' TO FIRST-EMPLOYEE-REC-SW.                           PP1042SF
036305     MOVE +2 TO 1042-FORMS-COUNT.                                 PP1042SF
036310     EJECT                                                        PP1042SF
036400 20000-PP1042SF-RECORD-CALL.                                      PP1042SF
036500                                                                  PP1042SF
036600     IF  FICHE-TAPE-SELECTED                                      PP1042SF
036700         PERFORM 23000-PRINT-EMP-FICHE                            PP1042SF
036800     ELSE                                                         PP1042SF
036900        IF  (S1042F-GROUP-EMPL-ID   OR                            PP1042SF
037000             S1042F-GROUP-SOCIAL-SEC OR                           PP1042SF
037100             S1042F-GROUP-HOME-DEPT OR                            PP1042SF
037200             S1042F-GROUP-COUNTRY-CODE  OR                        PP1042SF
037300             S1042F-GROUP-OTHERS)                                 PP1042SF
037400            PERFORM 21000-PRINT-EMP-1042S                         PP1042SF
037500        ELSE                                                      PP1042SF
037600           IF S1042F-GROUP-BLANK-1042                             PP1042SF
037610*-------------> SET UP FOR PROPER CONTROL BREAK WHEN THE NEXT     PP1042SF
037611*-------------> NON-BLANK KEY IS READ.                            PP1042SF
037612              MOVE  S1042-EMP-NAME TO WS-SAVE-NAME                PP1042SF
037613              IF    NOT S1042F-BLANKS-ONLY                        PP1042SF
037614                AND NOT FIRST-EMPLOYEE-REC                        PP1042SF
037620                 PERFORM 21607-PRINT-FORMS                        PP1042SF
037630                 MOVE  'Y' TO FIRST-EMPLOYEE-REC-SW               PP1042SF
037640              END-IF                                              PP1042SF
037700              MOVE S1042F-NBR-BLANK-1042-FORMS                    PP1042SF
037800                                    TO   NBR-OF-BLANKS-REQUESTED  PP1042SF
037900              PERFORM 22000-PRINT-BLANK-1042S                     PP1042SF
038000           ELSE                                                   PP1042SF
038100              MOVE 2 TO S1042F-RETURN-CODE                        PP1042SF
038110           END-IF                                                 PP1042SF
038120        END-IF                                                    PP1042SF
038130     END-IF.                                                      PP1042SF
038200     SKIP2                                                        PP1042SF
038210     EJECT                                                        PP1042SF
038300 21000-PRINT-EMP-1042S.                                           PP1042SF
038400     SKIP1                                                        PP1042SF
038500     PERFORM 21600-FORMAT-1042-LASER.                             PP1042SF
039500                                                                  PP1042SF
039600     PERFORM 21800-ADD-TO-TOTALS.                                 PP1042SF
039700                                                                  PP1042SF
039800     EJECT                                                        PP1042SF
039900 21520-PRINT-BREAK.                                               PP1042SF
039910     SKIP1                                                        PP1042SF
040000     IF S1042F-GROUP-SEQ  NOT = WS-1042-GROUP-SAVE                PP1042SF
040100        MOVE S1042F-GROUP-SEQ TO WS-1042-GROUP-SAVE               PP1042SF
040200        MOVE S1042F-GROUP-SEQ TO WS-G-SUB                         PP1042SF
040300        MOVE SPACES TO WS-GROUP-LINE                              PP1042SF
040500        MOVE WS-1042-G-DESC (WS-G-SUB) TO WS-GRP-LN-DESC          PP1042SF
040600        PERFORM 21630-BREAK-WRITE-LASER 2 TIMES                   PP1042SF
040710     END-IF.                                                      PP1042SF
040800     SKIP1                                                        PP1042SF
040900     EJECT                                                        PP1042SF
041000 21527-FORMAT-ADDRESS.                                            PP1042SF
041100*----> FORMAT ADDRESS LINES                                       PP1042SF
041200     MOVE SPACES TO ROTATED-NAME,                                 PP1042SF
041300                    HOLD-ADDRESS-FORMAT,                          PP1042SF
041400                    HOLD-FOREIGN-ADDRESS,                         PP1042SF
041500                    L1042-ADDR1, L1042-ADDR2, L1042-ADDR3,        PP1042SF
041600                    L1042-ADDR4, L1042-ADDR5, L1042-ADDR6.        PP1042SF
041700                                                                  PP1042SF
041800     MOVE ZEROS TO HOLD-FAD-COUNTRY-LENGTH.                       PP1042SF
041900     MOVE S1042-EMP-NAME TO HOLD-NAME.                            PP1042SF
042000     MOVE HOLD-NAME-26 TO NAME-ARRAY.                             PP1042SF
042100     MOVE HOLD-NAME-SUFFIX TO SUFFIX-ARRAY.                       PP1042SF
042200     PERFORM 21528-ROTATE-NAME  THRU                              PP1042SF
042300             21528-ROTATE-NAME-EXIT.                              PP1042SF
042400     MOVE ROTATED-NAME      TO HOLD-ADDR-LINE-1.                  PP1042SF
042500     MOVE S1042-EMP-STREET-1 TO HOLD-ADDR-LINE-2.                 PP1042SF
042600     IF NOT S1042-EMP-ADDRESS-FOREIGN                             PP1042SF
042700        MOVE SPACES         TO HOLD-CITY-STATE-ZIP                PP1042SF
042800        MOVE S1042-EMP-ADDRESS-CITY TO HOLD-CITY                  PP1042SF
042900        MOVE S1042-EMP-ADDRESS-STATE TO HOLD-STATE                PP1042SF
043000        MOVE S1042-EMP-ADDRESS-ZIP  TO HOLD-ZIP                   PP1042SF
043100        IF  S1042-EMP-STREET-2 = SPACES                           PP1042SF
043200            MOVE HOLD-CITY-STATE-ZIP TO HOLD-ADDR-LINE-3          PP1042SF
043300            MOVE SPACES TO HOLD-ADDR-LINE-4                       PP1042SF
043400        ELSE                                                      PP1042SF
043500            MOVE S1042-EMP-STREET-2 TO HOLD-ADDR-LINE-3           PP1042SF
043600            MOVE HOLD-CITY-STATE-ZIP TO HOLD-ADDR-LINE-4          PP1042SF
043700        END-IF                                                    PP1042SF
043800     ELSE                                                         PP1042SF
043900        STRING S1042-EMP-ADDRESS-CITY DELIMITED BY '  '           PP1042SF
044000                  ' ',                                            PP1042SF
044100                  S1042-EMP-FOREIGN-PROVINCE DELIMITED BY '  '    PP1042SF
044200                           INTO HOLD-FAD-CITY-PROV                PP1042SF
051300        UNSTRING S1042-EMP-COUNTRY-NAME                           15401103
044400                       DELIMITED BY '  '                          PP1042SF
044500                       INTO HOLD-FAD-COUNTRY                      PP1042SF
044600                       COUNT HOLD-FAD-COUNTRY-LENGTH              PP1042SF
044700        IF HOLD-FAD-COUNTRY-LENGTH  < 24                          PP1042SF
044800              STRING HOLD-FAD-COUNTRY DELIMITED BY '  ',          PP1042SF
044900                  ' ',                                            PP1042SF
045000                 S1042-EMP-FOREIGN-POSTAL-CODE DELIMITED BY '  ', PP1042SF
045100                              INTO HOLD-FAD-CNTRY-POSTAL-CD       PP1042SF
045200                                                                  PP1042SF
045300        END-IF                                                    PP1042SF
045400        IF S1042-EMP-STREET-2 NOT = SPACES                        PP1042SF
045500           MOVE S1042-EMP-STREET-2 TO HOLD-ADDR-LINE-3            PP1042SF
045600           MOVE HOLD-FAD-CITY-PROV TO HOLD-ADDR-LINE-4            PP1042SF
045700           IF HOLD-FAD-CNTRY-POSTAL-CD NOT = SPACES               PP1042SF
045800              MOVE HOLD-FAD-CNTRY-POSTAL-CD TO HOLD-ADDR-LINE-5   PP1042SF
045900           ELSE                                                   PP1042SF
046000              MOVE S1042-EMP-FOREIGN-POSTAL-CODE TO               PP1042SF
046100                                               HOLD-ADDR-LINE-5   PP1042SF
046200              MOVE HOLD-FAD-COUNTRY         TO HOLD-ADDR-LINE-6   PP1042SF
046300           END-IF                                                 PP1042SF
046400        ELSE                                                      PP1042SF
046500           MOVE HOLD-FAD-CITY-PROV          TO HOLD-ADDR-LINE-3   PP1042SF
046600           IF HOLD-FAD-CNTRY-POSTAL-CD NOT = SPACES               PP1042SF
046700              MOVE HOLD-FAD-CNTRY-POSTAL-CD TO HOLD-ADDR-LINE-4   PP1042SF
046800           ELSE                                                   PP1042SF
046900              MOVE S1042-EMP-FOREIGN-POSTAL-CODE TO               PP1042SF
047000                                               HOLD-ADDR-LINE-4   PP1042SF
047100              MOVE HOLD-FAD-COUNTRY         TO HOLD-ADDR-LINE-5   PP1042SF
047200           END-IF                                                 PP1042SF
047300        END-IF                                                    PP1042SF
047400     END-IF.                                                      PP1042SF
047500     SKIP1                                                        PP1042SF
047600     EJECT                                                        PP1042SF
047700 21528-ROTATE-NAME.                                               PP1042SF
047800     COPY CPPDXP10.                                               PP1042SF
047900     SKIP2                                                        PP1042SF
048000 21528-ROTATE-NAME-EXIT.                                          PP1042SF
048100     EXIT.                                                        PP1042SF
048200     SKIP2                                                        PP1042SF
048300     EJECT                                                        PP1042SF
048400 21600-FORMAT-1042-LASER.                                         PP1042SF
048500     SKIP1                                                        PP1042SF
048510     IF S1042-EMP-NAME NOT = WS-SAVE-NAME                         PP1042SF
048511       OR S1042-EMP-SSN NOT = WS-SAVE-SSN                         PP1042SF
048512       OR  S1042-EMP-RECIPIENT-CODE NOT = WS-SAVE-RECIPIENT-CODE  PP1042SF
048520        IF  NOT FIRST-EMPLOYEE-REC                                PP1042SF
048530            PERFORM 21607-PRINT-FORMS                             PP1042SF
048540        END-IF                                                    PP1042SF
048560     END-IF.                                                      PP1042SF
048570     IF S1042-EMP-NAME NOT = WS-SAVE-NAME                         PP1042SF
048571        OR S1042-EMP-SSN NOT = WS-SAVE-SSN                        PP1042SF
048580        ADD 1 TO TOTAL-EMPLOYEE-COUNT                             PP1042SF
048590     END-IF.                                                      PP1042SF
048600     IF  NO-FICHE-TAPE-SELECTED                                   PP1042SF
048700         PERFORM 21520-PRINT-BREAK                                PP1042SF
048800     END-IF.                                                      PP1042SF
049100     MOVE S1042-EMP-RECIPIENT-CODE TO L1042-RECIPIENT-CODE.       PP1042SF
049102     MOVE S1042-EMP-COUNTRY-RES-NAME TO L1042-COUNTRY-DESCR.      PP1042SF
049103     MOVE S1042-EMP-COUNTRY-ORIGIN   TO L1042-COUNTRY-CODE.       48591388
049103     MOVE S1042-EMP-ID  TO L1042-EMP-ID.                          PP1042SF
049110                                                                  PP1042SF
049120     MOVE SPACE TO L1042-RECIP-SSN-BOX                            48591388
049130                   L1042-RECIP-EIN-BOX                            48591388
049140                   L1042-RECIP-QI-EIN-BOX.                        48591388
049200     PERFORM 21700-CHECK-SOCIAL-SEC                               PP1042SF
049300     IF BREAK-DWN-SSN NOT = SPACES                                PP1042SF
049400        MOVE SSN-3 TO L1042-SS-NO3                                PP1042SF
049500        MOVE SSN-2 TO L1042-SS-NO2                                PP1042SF
049600        MOVE SSN-4 TO L1042-SS-NO4                                PP1042SF
049700        MOVE '-' TO L1042-DASH-3, L1042-DASH-2                    PP1042SF
049710        EVALUATE S1042-EMP-TIN-TYPE                               48591388
049720           WHEN ('1')                                             48591388
049730               MOVE 'X' TO L1042-RECIP-SSN-BOX                    48591388
049740           WHEN ('2')                                             48591388
049750               MOVE 'X' TO L1042-RECIP-EIN-BOX                    48591388
049760           WHEN ('3')                                             48591388
049770               MOVE 'X' TO L1042-RECIP-QI-EIN-BOX                 48591388
049780        END-EVALUATE                                              48591388
049800     ELSE                                                         PP1042SF
049900        MOVE SPACES TO L1042-SS-NO3                               PP1042SF
050000                       L1042-SS-NO2                               PP1042SF
050100                       L1042-SS-NO4                               PP1042SF
050200                       L1042-DASH-3, L1042-DASH-2                 PP1042SF
050201     END-IF.                                                      PP1042SF
050202                                                                  PP1042SF
050210     PERFORM 21527-FORMAT-ADDRESS.                                PP1042SF
050220     MOVE HOLD-ADDR-LINE-1 TO L1042-ADDR1.                        PP1042SF
050230     MOVE HOLD-ADDR-LINE-2 TO L1042-ADDR2.                        PP1042SF
050240     MOVE HOLD-ADDR-LINE-3 TO L1042-ADDR3.                        PP1042SF
050250     MOVE HOLD-ADDR-LINE-4 TO L1042-ADDR4.                        PP1042SF
050260     MOVE HOLD-ADDR-LINE-5 TO L1042-ADDR5.                        PP1042SF
050270     MOVE HOLD-ADDR-LINE-6 TO L1042-ADDR6.                        PP1042SF
050400                                                                  PP1042SF
050500     PERFORM 21605-FIND-UNUSED-FORM-LINE.                         PP1042SF
050600     PERFORM 21608-ADD-LINE-TOTALS.                               PP1042SF
050610                                                                  PP1042SF
050700     MOVE S1042-EMP-NAME TO WS-SAVE-NAME.                         PP1042SF
050710     MOVE S1042-EMP-SSN  TO WS-SAVE-SSN.                          PP1042SF
050800     MOVE S1042-EMP-RECIPIENT-CODE TO WS-SAVE-RECIPIENT-CODE.     PP1042SF
050900     MOVE SPACE TO FIRST-EMPLOYEE-REC-SW.                         PP1042SF
054010                                                                  PP1042SF
054100     EJECT                                                        PP1042SF
054200 21605-FIND-UNUSED-FORM-LINE.                                     PP1042SF
054201     SKIP1                                                        PP1042SF
054229     IF BOTH-LINES-USED                                           PP1042SF
054230*------> PRINT THE 2 SAME FORMS ON ONE PAGE AND START AGAIN       PP1042SF
054231        PERFORM 21607-PRINT-FORMS                                 PP1042SF
054240     END-IF.                                                      PP1042SF
054241     SKIP1                                                        PP1042SF
054242     MOVE SPACES TO WS-INCOME-CODE.                               PP1042SF
054243     MOVE ZERO  TO WS-GROSS-PAID.                                 PP1042SF
054244     IF  S1042-EMP-TT-GROSS  >  ZERO                              PP1042SF
054245         MOVE S1042-EMP-TT-GROSS TO WS-GROSS-PAID                 PP1042SF
054246         MOVE S1042-EMP-TT-INCOME-CODE TO WS-INCOME-CODE          PP1042SF
054247         IF LINE-1-USED                                           PP1042SF
054248            PERFORM 21611-FORMAT-LNE2                             PP1042SF
054249         ELSE                                                     PP1042SF
054250            PERFORM 21610-FORMAT-LNE1                             PP1042SF
054251         END-IF                                                   PP1042SF
054252     END-IF.                                                      PP1042SF
054253     IF  S1042-EMP-ALT-TT-GROSS  >  ZERO                          PP1042SF
054254         MOVE  S1042-EMP-ALT-TT-GROSS TO WS-GROSS-PAID            PP1042SF
054255         MOVE  S1042-EMP-ALT-TT-INCOME-CODE TO WS-INCOME-CODE     PP1042SF
054256         IF BOTH-LINES-USED                                       PP1042SF
054257            PERFORM 21607-PRINT-FORMS                             PP1042SF
054258         END-IF                                                   PP1042SF
054259         IF LINE-1-USED                                           PP1042SF
054260            PERFORM 21611-FORMAT-LNE2                             PP1042SF
054261         ELSE                                                     PP1042SF
054262            PERFORM 21610-FORMAT-LNE1                             PP1042SF
054263         END-IF                                                   PP1042SF
054264     END-IF.                                                      PP1042SF
054265     EJECT                                                        PP1042SF
054266 21607-PRINT-FORMS.                                               PP1042SF
054267     SKIP1                                                        PP1042SF
054271     PERFORM 21612-FORMAT-LNE3-TOTAL.                             PP1042SF
054272     IF FICHE-TAPE-SELECTED                                       PP1042SF
054273        PERFORM 23650-WRITE-FICHE-1042                            PP1042SF
054274                                   2 TIMES                        PP1042SF
054275     ELSE                                                         PP1042SF
054276        PERFORM 21650-WRITE-LASER-1042                            PP1042SF
054277                                   2 TIMES                        PP1042SF
054278        IF NOT WS-1042-GROUP-BLANK                                PP1042SF
054279           IF  EMPLOYER-COPY-SELECTED                             PP1042SF
054280               PERFORM 21660-WRITE-LASER-COPY-1042                PP1042SF
054281           END-IF                                                 PP1042SF
054282        END-IF                                                    PP1042SF
054283     END-IF.                                                      PP1042SF
054284     SKIP1                                                        PP1042SF
054285     MOVE SPACE  TO WS-FORM-LINES-USED-SW.                        PP1042SF
054286     MOVE SPACES TO L1042-LNE1                                    PP1042SF
054287                    L1042-LNE2                                    PP1042SF
054288                    L1042-LNE3.                                   PP1042SF
054289     EJECT                                                        PP1042SF
054290 21608-ADD-LINE-TOTALS.                                           PP1042SF
054291     SKIP1                                                        PP1042SF
054292     ADD S1042-EMP-TT-GROSS  S1042-EMP-ALT-TT-GROSS               PP1042SF
054293                             TO LINE-GROSS-TOTAL.                 PP1042SF
054294     ADD S1042-EMP-WITHHOLD-ALLOWANCE TO LINE-ALLOW-TOTAL.        PP1042SF
054295     ADD S1042-EMP-NET-INCOME TO LINE-NET-TOTAL.                  PP1042SF
054296     ADD S1042-EMP-FWT-TAX    TO LINE-FWT-TAX-TOTAL.              PP1042SF
054297     EJECT                                                        PP1042SF
054298 21610-FORMAT-LNE1.                                               PP1042SF
054300     SKIP1                                                        PP1042SF
054401*****                                                          CD 48801445
054470     IF  S1042-EMP-TAX-RATE-NUM = ZERO                            48591388
054480         MOVE ZERO  TO   L1042-LN1-TAX-RATE-ZERO                  48591388
054490     ELSE                                                         48591388
054491         MOVE S1042-EMP-TAX-RATE-NUM   TO L1042-LN1-TAX-RATE      48591388
054492     END-IF.                                                      48591388
054510     MOVE '0'                      TO WS-DIGIT-1-EXEMPT-CODE.     48591388
054520     MOVE S1042-EMP-EXEMPTION-CODE TO WS-DIGIT-2-EXEMPT-CODE.     48591388
054530     MOVE WS-2DIGIT-EXEMPT-CODE    TO L1042-LN1-EXEMPTION-CODE.   48591388
054540     IF S1042-EMP-TAX-RATE-NUM   >= 31                            48591388
054550        MOVE SPACES  TO L1042-LN1-EXEMPTION-CODE                  48591388
054560     END-IF.                                                      48591388
054600     MOVE WS-INCOME-CODE           TO L1042-LN1-INCOME-CODE.      PP1042SF
054700     MOVE WS-GROSS-PAID            TO L1042-LN1-GROSS-PAID.       PP1042SF
054800     MOVE S1042-EMP-WITHHOLD-ALLOWANCE TO L1042-LN1-ALLOWANCE.    PP1042SF
054900     MOVE S1042-EMP-NET-INCOME     TO L1042-LN1-NET-INCOME.       PP1042SF
054910     IF S1042-EMP-FWT-TAX  = ZERO                                 48591388
054920        MOVE ZERO               TO L1042-LN1-FWT-TAX-ZERO         48591388
054930     ELSE                                                         48591388
054940        MOVE S1042-EMP-FWT-TAX  TO L1042-LN1-FWT-TAX              48591388
054950     END-IF.                                                      48591388
054960*****                                                          CD 48801445
055110     MOVE '1' TO WS-FORM-LINES-USED-SW.                           PP1042SF
055210     SKIP2                                                        PP1042SF
055300 21611-FORMAT-LNE2.                                               PP1042SF
055400     SKIP1                                                        PP1042SF
055410*****                                                          CD 48801445
055510     IF  S1042-EMP-TAX-RATE-NUM = ZERO                            48591388
055520         MOVE ZERO  TO   L1042-LN2-TAX-RATE-ZERO                  48591388
055530     ELSE                                                         48591388
055540         MOVE S1042-EMP-TAX-RATE-NUM   TO L1042-LN2-TAX-RATE      48591388
055550     END-IF.                                                      48591388
055610     MOVE '0'                      TO WS-DIGIT-1-EXEMPT-CODE.     48591388
055620     MOVE S1042-EMP-EXEMPTION-CODE TO WS-DIGIT-2-EXEMPT-CODE.     48591388
055630     MOVE WS-2DIGIT-EXEMPT-CODE    TO L1042-LN2-EXEMPTION-CODE.   48591388
055640     IF S1042-EMP-TAX-RATE-NUM   >= 31                            48591388
055650        MOVE SPACES  TO L1042-LN2-EXEMPTION-CODE                  48591388
055660     END-IF.                                                      48591388
055700     MOVE WS-INCOME-CODE           TO L1042-LN2-INCOME-CODE.      PP1042SF
055800     MOVE WS-GROSS-PAID            TO L1042-LN2-GROSS-PAID.       PP1042SF
055900     MOVE S1042-EMP-WITHHOLD-ALLOWANCE TO L1042-LN2-ALLOWANCE.    PP1042SF
056000     MOVE S1042-EMP-NET-INCOME     TO L1042-LN2-NET-INCOME.       PP1042SF
056100     IF S1042-EMP-FWT-TAX  = ZERO                                 48591388
056101        MOVE ZERO               TO L1042-LN2-FWT-TAX-ZERO         48591388
056102     ELSE                                                         48591388
056103        MOVE S1042-EMP-FWT-TAX  TO L1042-LN2-FWT-TAX              48591388
056104     END-IF.                                                      48591388
056105*****                                                          CD 48801445
056210     MOVE '2' TO WS-FORM-LINES-USED-SW.                           PP1042SF
056300     SKIP2                                                        PP1042SF
056400 21612-FORMAT-LNE3-TOTAL.                                         PP1042SF
056500     SKIP1                                                        PP1042SF
056600     MOVE LINE-GROSS-TOTAL         TO L1042-TOT-GROSS-PAID.       PP1042SF
056700     MOVE LINE-ALLOW-TOTAL         TO L1042-TOT-ALLOWANCE.        PP1042SF
056800     MOVE LINE-NET-TOTAL           TO L1042-TOT-NET-INCOME.       PP1042SF
056900     MOVE LINE-FWT-TAX-TOTAL       TO L1042-TOT-FWT-TAX.          PP1042SF
057000     SKIP1                                                        PP1042SF
057100     MOVE ZERO TO LINE-GROSS-TOTAL                                PP1042SF
057200                  LINE-ALLOW-TOTAL                                PP1042SF
057300                  LINE-NET-TOTAL                                  PP1042SF
057400                  LINE-FWT-TAX-TOTAL.                             PP1042SF
057500     EJECT                                                        PP1042SF
057600 21630-BREAK-WRITE-LASER.                                         PP1042SF
057700     SKIP1                                                        PP1042SF
057800     MOVE SPACES TO PRINT-REC-1042-FORM.                          PP1042SF
057900     IF  1042-FORMS-COUNT > 1                                     PP1042SF
058000         WRITE PRINT-REC-1042-FORM AFTER ADVANCING NEW-PAGE       PP1042SF
058100         MOVE 1 TO 1042-FORMS-COUNT                               PP1042SF
058200     ELSE                                                         PP1042SF
058300         ADD  1 TO 1042-FORMS-COUNT                               PP1042SF
058310     END-IF.                                                      PP1042SF
058400     SKIP2                                                        PP1042SF
058410*****                                                          CD 48801445
058700     WRITE PRINT-REC-1042-FORM FROM WS-GROUP-LINE AFTER 13.       48591388
058710     WRITE PRINT-REC-1042-FORM FROM WS-SPACE-LINE AFTER 17.       48591388
058800     EJECT                                                        PP1042SF
058900 21650-WRITE-LASER-1042.                                          PP1042SF
059000     SKIP1                                                        PP1042SF
059100     MOVE SPACES TO PRINT-REC-1042-FORM.                          PP1042SF
059200     IF  1042-FORMS-COUNT > 1                                     PP1042SF
059300         WRITE PRINT-REC-1042-FORM AFTER ADVANCING NEW-PAGE       PP1042SF
059310*****    WRITE PRINT-REC-1042-FORM FROM WS-SPACE-LINE AFTER 5     UCSD0095
071900         WRITE PRINT-REC-1042-FORM FROM WS-SPACE-LINE AFTER 4     UCSD0095
059311*--------> BLANK 1042 FORMS NOT COUNTED                           PP1042SF
059312         IF NOT WS-1042-GROUP-BLANK                               PP1042SF
059330            ADD 1 TO TOTAL-1042-COUNT                             PP1042SF
059340         END-IF                                                   PP1042SF
059400         MOVE  1 TO 1042-FORMS-COUNT                              PP1042SF
059500     ELSE                                                         PP1042SF
059600*****    WRITE PRINT-REC-1042-FORM FROM WS-SPACE-LINE AFTER 10    UCSD0095
072700         WRITE PRINT-REC-1042-FORM FROM WS-SPACE-LINE AFTER 13    UCSD0095
059700         ADD 1 TO 1042-FORMS-COUNT                                PP1042SF
059800     END-IF.                                                      PP1042SF
059900     SKIP2                                                        PP1042SF
059910     WRITE PRINT-REC-1042-FORM FROM L1042-LNE1 AFTER 1.           PP1042SF
060000     WRITE PRINT-REC-1042-FORM FROM L1042-LNE2 AFTER 1.           PP1042SF
060100     WRITE PRINT-REC-1042-FORM FROM L1042-LNE3 AFTER 1.           PP1042SF
060200     WRITE PRINT-REC-1042-FORM FROM L1042-LNE4 AFTER 1.           PP1042SF
060300     WRITE PRINT-REC-1042-FORM FROM L1042-LNE5 AFTER 1.           PP1042SF
060310*****                                                          CD 48801445
060410     WRITE PRINT-REC-1042-FORM FROM L1042-LNE6 AFTER 2.           48591388
060500     WRITE PRINT-REC-1042-FORM FROM L1042-LNE7 AFTER 1.           PP1042SF
060600     WRITE PRINT-REC-1042-FORM FROM L1042-LNE8 AFTER 1.           PP1042SF
060700     WRITE PRINT-REC-1042-FORM FROM L1042-LNE9 AFTER 1.           PP1042SF
060710*****                                                          CD 48801445
060810     WRITE PRINT-REC-1042-FORM FROM L1042-LNE10 AFTER 2.          48591388
060910     WRITE PRINT-REC-1042-FORM FROM L1042-LNE11 AFTER 3.          48591388
061000     WRITE PRINT-REC-1042-FORM FROM L1042-LNE12 AFTER 1.          PP1042SF
061100     WRITE PRINT-REC-1042-FORM FROM L1042-LNE13 AFTER 1.          PP1042SF
061200     WRITE PRINT-REC-1042-FORM FROM L1042-LNE14 AFTER 1.          PP1042SF
061300     WRITE PRINT-REC-1042-FORM FROM L1042-LNE15 AFTER 1.          PP1042SF
061400     WRITE PRINT-REC-1042-FORM FROM L1042-LNE16 AFTER 1.          PP1042SF
061500*****                                                          CD 48801445
061600                                                                  PP1042SF
061700     EJECT                                                        PP1042SF
061800 21660-WRITE-LASER-COPY-1042.                                     PP1042SF
061900                                                                  PP1042SF
061910     MOVE SPACES TO PRINT-REC-COPY-1042-FORM.                     PP1042SF
062000     IF  COPY-1042-FORMS-COUNT > 1                                PP1042SF
062100         WRITE PRINT-REC-COPY-1042-FORM AFTER ADVANCING NEW-PAGE  PP1042SF
062110         WRITE PRINT-REC-COPY-1042-FORM FROM WS-SPACE-LINE        PP1042SF
062120*****                           AFTER ADVANCING 5                 UCSD0095
075600                                AFTER ADVANCING 4                 UCSD0095
062200         MOVE 1 TO COPY-1042-FORMS-COUNT                          PP1042SF
062300     ELSE                                                         PP1042SF
062400         WRITE PRINT-REC-COPY-1042-FORM FROM WS-SPACE-LINE        PP1042SF
062410*****                           AFTER ADVANCING 10                UCSD0095
076100                                AFTER ADVANCING 13                UCSD0095
062500         ADD 1 TO COPY-1042-FORMS-COUNT                           PP1042SF
062600     END-IF.                                                      PP1042SF
062700     SKIP2                                                        PP1042SF
062710     WRITE PRINT-REC-COPY-1042-FORM FROM L1042-LNE1 AFTER 1.      PP1042SF
062800     WRITE PRINT-REC-COPY-1042-FORM FROM L1042-LNE2 AFTER 1.      PP1042SF
062900     WRITE PRINT-REC-COPY-1042-FORM FROM L1042-LNE3 AFTER 1.      PP1042SF
063000     WRITE PRINT-REC-COPY-1042-FORM FROM L1042-LNE4 AFTER 1.      PP1042SF
063100     WRITE PRINT-REC-COPY-1042-FORM FROM L1042-LNE5 AFTER 1.      PP1042SF
063110*****                                                          CD 48801445
063210     WRITE PRINT-REC-COPY-1042-FORM FROM L1042-LNE6 AFTER 2.      48591388
063300     WRITE PRINT-REC-COPY-1042-FORM FROM L1042-LNE7 AFTER 1.      PP1042SF
063400     WRITE PRINT-REC-COPY-1042-FORM FROM L1042-LNE8 AFTER 1.      PP1042SF
063500     WRITE PRINT-REC-COPY-1042-FORM FROM L1042-LNE9 AFTER 1.      PP1042SF
063510*****                                                          CD 48801445
063710     WRITE PRINT-REC-COPY-1042-FORM FROM L1042-LNE10 AFTER 2.     48591388
063720     WRITE PRINT-REC-COPY-1042-FORM FROM L1042-LNE11 AFTER 3.     48591388
063800     WRITE PRINT-REC-COPY-1042-FORM FROM L1042-LNE12 AFTER 1.     PP1042SF
063900     WRITE PRINT-REC-COPY-1042-FORM FROM L1042-LNE13 AFTER 1.     PP1042SF
064000     WRITE PRINT-REC-COPY-1042-FORM FROM L1042-LNE14 AFTER 1.     PP1042SF
064100     WRITE PRINT-REC-COPY-1042-FORM FROM L1042-LNE15 AFTER 1.     PP1042SF
064200     WRITE PRINT-REC-COPY-1042-FORM FROM L1042-LNE16 AFTER 1.     PP1042SF
064210*****                                                          CD 48801445
064400     EJECT                                                        PP1042SF
064500  21700-CHECK-SOCIAL-SEC.                                         PP1042SF
064600     SKIP1                                                        PP1042SF
064700*****                                                          CD 48591388
064800     MOVE S1042-EMP-SSN  TO BREAK-DWN-SSN                         32071160
064810*****                       SSN-CHECK.                            48801445
064811                            SSN-CHECK                             48801445
064812                            XSSN-NUMBER.                          48801445
064820                                                                  32071160
064900*****IF (S1042-EMP-SSN   = (    '000000000'                       48801445
065000*****                       OR  '111111111'                       48801445
065100*****                       OR  '222222222'                       48801445
065200*****                       OR  '333333333'                       48801445
065300*****                       OR  '444444444'                       48801445
065400*****                       OR  '555555555'                       48801445
065500*****                       OR  '666666666'                       48801445
065600*****                       OR  '777777777'                       48801445
065700*****                       OR  '888888888'                       48801445
065800*****                       OR  '999999999'                       48801445
065900*****                       OR  '123456789' ) )                   48801445
066000*****       OR                                                    48801445
066100*****           (SSN-3   >    728 )                               48801445
066200*****       OR                                                    48801445
066300*****           (SSN-3   =      0 )                               48801445
066401*****                                                             48801445
066402*****  MOVE SPACES TO BREAK-DWN-SSN                               48801445
066403*****END-IF.                                                      48801445
066404     PERFORM XSSN-SOCIAL-SECURITY-NUM-EDIT.                       48801445
066405     IF XSSN-INVALID                                              48801445
066406        MOVE SPACES TO BREAK-DWN-SSN                              48801445
066600     END-IF.                                                      48801445
066610*----> IF THE RECORD IS FROM THE ACCOUNTS PAYABLE SYSTEM          32071160
066611*----> AND THE AP RECORD DOES NOT EXIST ON THE EDB,               32071160
066612*----> THEN SOCIAL SECURITY NUMBER BEGINNING WITH 9 IS VALID.     32071160
066613     IF  BREAK-DWN-SSN = SPACES                                   32071160
066614         IF NOT S1042-EMP-SSN-MATCH-EDB                           32071160
066615            IF SSN-1 = 9 AND S1042-DATA-FROM-AP                   32071160
066630               MOVE S1042-EMP-SSN TO BREAK-DWN-SSN                32071160
066640            END-IF                                                32071160
066650         END-IF                                                   32071160
066660     END-IF.                                                      32071160
066700     EJECT                                                        PP1042SF
066800 21800-ADD-TO-TOTALS.                                             PP1042SF
066900     SKIP1                                                        PP1042SF
067700     ADD S1042-EMP-FWT-TAX       TO TOTAL-FWT-TAX.                PP1042SF
067800     ADD S1042-EMP-TT-GROSS  S1042-EMP-ALT-TT-GROSS               PP1042SF
067900                                 TO TOTAL-GROSS-PAID.             PP1042SF
068000     ADD S1042-EMP-WITHHOLD-ALLOWANCE TO TOTAL-ALLOWANCE.         PP1042SF
068100     ADD S1042-EMP-NET-INCOME    TO TOTAL-NET-INCOME.             PP1042SF
068200     SKIP2                                                        PP1042SF
068300     EJECT                                                        PP1042SF
068400 22000-PRINT-BLANK-1042S.                                         PP1042SF
068500     SKIP1                                                        PP1042SF
068610     MOVE SPACES TO PRINT-LN-1042-FORM.                           PP1042SF
068620     PERFORM 21520-PRINT-BREAK.                                   PP1042SF
068630     MOVE SPACES TO  L1042-LNE1,                                  PP1042SF
068631                     L1042-LNE2,                                  PP1042SF
068640                     L1042-LNE3,                                  PP1042SF
068641*****                                                          CD 48801445
068691                     L1042-LNE10,                                 PP1042SF
068692                     L1042-LNE11,                                 PP1042SF
068693                     L1042-LNE12,                                 PP1042SF
068694                     L1042-LNE13,                                 48591388
068695*****                                                          CD 48801445
068696                     L1042-LNE14,                                 PP1042SF
068697                     L1042-LNE15,                                 PP1042SF
068699*****                                                          CD 48801445
068701                     L1042-ADDR6,                                 48591388
068702                     L1042-SSN,                                   48591388
068703                     L1042-RECIP-SSN-BOX,                         48591388
068704                     L1042-RECIP-EIN-BOX,                         48591388
068705                     L1042-RECIP-QI-EIN-BOX,                      48591388
068706                     L1042-COUNTRY-CODE,                          48591388
068700                     L1042-COUNTRY-DESCR.                         PP1042SF
068701                                                                  PP1042SF
068702     SKIP1                                                        PP1042SF
068703     COMPUTE NBR-OF-BLANKS-REQUESTED =                            PP1042SF
068704             NBR-OF-BLANKS-REQUESTED * 2.                         PP1042SF
068705     PERFORM 21650-WRITE-LASER-1042                               PP1042SF
068706             NBR-OF-BLANKS-REQUESTED TIMES.                       PP1042SF
068710     SKIP1                                                        PP1042SF
071400     EJECT                                                        PP1042SF
071500 23000-PRINT-EMP-FICHE.                                           PP1042SF
071600     SKIP1                                                        PP1042SF
071700     PERFORM 21600-FORMAT-1042-LASER.                             PP1042SF
071800     PERFORM 21800-ADD-TO-TOTALS.                                 PP1042SF
072000     EJECT                                                        PP1042SF
072100 23650-WRITE-FICHE-1042.                                          PP1042SF
072200     SKIP1                                                        PP1042SF
072300     MOVE SPACES TO FICHE-RECORD.                                 PP1042SF
072400     IF  1042-FORMS-COUNT > 1                                     PP1042SF
072500         WRITE FICHE-RECORD AFTER ADVANCING NEW-PAGE              PP1042SF
072510*****    WRITE FICHE-RECORD FROM WS-SPACE-LINE AFTER 5            UCSD0095
085100         WRITE FICHE-RECORD FROM WS-SPACE-LINE AFTER 4            UCSD0095
072520         IF NOT S1042F-GROUP-BLANK-1042                           PP1042SF
072530            ADD 1 TO TOTAL-1042-COUNT                             PP1042SF
072540         END-IF                                                   PP1042SF
072610         MOVE 1 TO 1042-FORMS-COUNT                               PP1042SF
072700     ELSE                                                         PP1042SF
072710*****    WRITE FICHE-RECORD FROM WS-SPACE-LINE AFTER 10           UCSD0095
085900         WRITE FICHE-RECORD FROM WS-SPACE-LINE AFTER 13           UCSD0095
072900         ADD 1 TO 1042-FORMS-COUNT                                PP1042SF
072910     END-IF.                                                      PP1042SF
073000     SKIP2                                                        PP1042SF
073010     WRITE FICHE-RECORD FROM L1042-LNE1 AFTER 1.                  PP1042SF
073100     WRITE FICHE-RECORD FROM L1042-LNE2 AFTER 1.                  PP1042SF
073200     WRITE FICHE-RECORD FROM L1042-LNE3 AFTER 1.                  PP1042SF
073300     WRITE FICHE-RECORD FROM L1042-LNE4 AFTER 1.                  PP1042SF
073400     WRITE FICHE-RECORD FROM L1042-LNE5 AFTER 1.                  PP1042SF
073410*****                                                          CD 48801445
073510     WRITE FICHE-RECORD FROM L1042-LNE6 AFTER 2.                  48591388
073600     WRITE FICHE-RECORD FROM L1042-LNE7 AFTER 1.                  PP1042SF
073700     WRITE FICHE-RECORD FROM L1042-LNE8 AFTER 1.                  PP1042SF
073800     WRITE FICHE-RECORD FROM L1042-LNE9 AFTER 1.                  PP1042SF
073810*****                                                          CD 48801445
074010     WRITE FICHE-RECORD FROM L1042-LNE10 AFTER 2.                 48591388
074020     WRITE FICHE-RECORD FROM L1042-LNE11 AFTER 3.                 48591388
074100     WRITE FICHE-RECORD FROM L1042-LNE12 AFTER 1.                 PP1042SF
074200     WRITE FICHE-RECORD FROM L1042-LNE13 AFTER 1.                 PP1042SF
074300     WRITE FICHE-RECORD FROM L1042-LNE14 AFTER 1.                 PP1042SF
074400     WRITE FICHE-RECORD FROM L1042-LNE15 AFTER 1.                 PP1042SF
074500     WRITE FICHE-RECORD FROM L1042-LNE16 AFTER 1.                 PP1042SF
074600*****                                                          CD 48801445
074700     EJECT                                                        PP1042SF
074800 30000-PP1042SF-LAST-CALL.                                        PP1042SF
074900     SKIP1                                                        PP1042SF
074901*----> DON'T NEED TO WRITE ANOTHER BLANK FORM WHEN LAST           PP1042SF
074902*----> GROUP IS FOR BLANK FORMS                                   PP1042SF
074903     IF NOT WS-1042-GROUP-BLANK                                   PP1042SF
074904        PERFORM 21607-PRINT-FORMS                                 PP1042SF
074905     END-IF.                                                      PP1042SF
075000     PERFORM 31000-MOVE-TOTALS.                                   PP1042SF
075100     IF  FICHE-TAPE-SELECTED                                      PP1042SF
075200         CLOSE FICHE-FILE                                         PP1042SF
075300     ELSE                                                         PP1042SF
075400         CLOSE PRINT-1042-FORM                                    PP1042SF
075410     END-IF.                                                      PP1042SF
075411     SKIP1                                                        PP1042SF
075420     IF EMPLOYER-COPY-SELECTED                                    PP1042SF
075430        CLOSE PRINT-COPY-1042-FORM                                PP1042SF
075440     END-IF.                                                      PP1042SF
075500     SKIP2                                                        PP1042SF
075600 31000-MOVE-TOTALS.                                               PP1042SF
075700     SKIP1                                                        PP1042SF
075800     MOVE TOTAL-EMPLOYEE-COUNT                                    PP1042SF
075900                           TO  S1042F-FINAL-EMPLOYEE-COUNT.       PP1042SF
076000     MOVE TOTAL-1042-COUNT TO  S1042F-FINAL-1042-COUNT.           PP1042SF
076100     MOVE TOTAL-GROSS-PAID TO  S1042F-FINAL-TOTAL-GROSS-PD.       PP1042SF
076200     MOVE TOTAL-FWT-TAX    TO  S1042F-FINAL-TOTAL-FWT-TAX.        PP1042SF
076300     MOVE TOTAL-ALLOWANCE  TO  S1042F-FINAL-TOTAL-ALLOWANCE.      PP1042SF
076400     MOVE TOTAL-NET-INCOME TO  S1042F-FINAL-TOTAL-NET-INCOME.     PP1042SF
076500                                                                  48801445
076600     EJECT                                                        48801445
076700*XSSN-SOCIAL-SECURITY-NUM-EDIT.                                   48801445
076800*                                                 *-------------* 48801445
076900                                                   COPY CPPDXSSN. 48801445
077000*                                                 *-------------* 48801445
077100                                                                  48801445
