000100**************************************************************/   28201068
000200*  PROGRAM: PPAPTLAC                                         */   28201068
000300*  RELEASE: ___1068______ SERVICE REQUEST(S): ____12820____  */   28201068
000400*  NAME:______M SANO_____ MODIFICATION DATE:  ___05/06/96__  */   28201068
000500*  DESCRIPTION:                                              */   28201068
000600*  - CHANGED LEAVE ACCRUAL CODE DERIVATION TO CALL PPBUTUT2  */   28201068
000700*    FOR DERIVATION OF SUPPORT STAFF AND PROFESSIONALS       */   28201068
000800*    (APPT PERSONNEL PGM '1') AND MANAGEMENT AND SENIOR      */   28201068
000900*    PROFESSIONALS (APPT PERSONNEL PGM '2')                  */   28201068
001000**************************************************************/   28201068
000100**************************************************************/   17040975
000200*  PROGRAM: PPAPTLAC                                         */   17040975
000300*  REL: 0975__REF: 0930__ SERVICE REQUEST(S): ____11704____  */   17040975
000400*  NAME:______M. SANO____ MODIFICATION DATE:  ___04/11/95__  */   17040975
000500*  DESCRIPTION:                                              */   17040975
000600*  - FIX E.R. 1263; CHANGE TEST FOR LEAVE-ACRUCODE CHANGES   */   17040975
001700*                                                            */   17040975
000700**************************************************************/   17040975
000100**************************************************************/   17040930
000200*  PROGRAM: PPAPTLAC                                         */   17040930
000300*  RELEASE: ___0930______ SERVICE REQUEST(S): ____11704____  */   17040930
000400*  NAME:_____M. SANO_____ MODIFICATION DATE:  ___09/08/94__  */   17040930
000500*  DESCRIPTION:                                              */   17040930
000600*  - APPOINTMENT LEAVE ACCRUAL CODE DERIVATION MODULE        */   17040930
000700**************************************************************/   17040930
000800     EJECT                                                        PPAPTLAC
000900     SKIP1                                                        PPAPTLAC
001000 IDENTIFICATION DIVISION.                                         PPAPTLAC
001100 PROGRAM-ID. PPAPTLAC.                                            PPAPTLAC
001200 AUTHOR. M. SANO      .                                           PPAPTLAC
001300     INSTALLATION. UNIVERSITY OF CALIFORNIA.                      PPAPTLAC
001400     DATE WRITTEN. SEP 08,1994.                                   PPAPTLAC
001500     DATE COMPILED. 09/08/94.                                     PPAPTLAC
001600 ENVIRONMENT DIVISION.                                            PPAPTLAC
001700 CONFIGURATION SECTION.                                           PPAPTLAC
001800 SOURCE-COMPUTER.                          COPY 'CPOTXUCS'.       PPAPTLAC
001900 OBJECT-COMPUTER.                          COPY 'CPOTXOBJ'.       PPAPTLAC
002000*    SPECIAL NAMES.                                               PPAPTLAC
002100*       C01 IS NEW-PAGE.                                          PPAPTLAC
002200 INPUT-OUTPUT SECTION.                                            PPAPTLAC
002300 FILE-CONTROL.                                                    PPAPTLAC
002400     SKIP3                                                        PPAPTLAC
002500******************************************************************PPAPTLAC
002600*                                                                *PPAPTLAC
002700*                         DATA DIVISION                          *PPAPTLAC
002800*                                                                *PPAPTLAC
002900******************************************************************PPAPTLAC
003000 DATA DIVISION.                                                   PPAPTLAC
003100 FILE SECTION.                                                    PPAPTLAC
003200     SKIP1                                                        PPAPTLAC
003300     EJECT                                                        PPAPTLAC
003400******************************************************************PPAPTLAC
003500*                                                                *PPAPTLAC
003600*                    WORKING-STORAGE SECTION                     *PPAPTLAC
003700*                                                                *PPAPTLAC
003800******************************************************************PPAPTLAC
003900 WORKING-STORAGE SECTION.                                         PPAPTLAC
004000     SKIP1                                                        PPAPTLAC
004100 77  WS-ID                        PIC X(27)                       PPAPTLAC
004200              VALUE 'WORKING-STORAGE BEGINS HERE'.                PPAPTLAC
004300     SKIP3                                                        PPAPTLAC
004400 01  AXD-ARRAY EXTERNAL.                                          PPAPTLAC
004500     03  FILLER                                  OCCURS 27.       PPAPTLAC
004600             07  APP-ROW-DELETE-BYTE  PIC X(1).                   PPAPTLAC
004700             88  APP-ROW-DELETED VALUE HIGH-VALUES.               PPAPTLAC
004800             07  APP-ROW-SEG-ID       PIC X(2).                   PPAPTLAC
004900             07  FILLER                          OCCURS 3.        PPAPTLAC
005000             08  APP-ROW.                                         PPAPTLAC
005100*                                                                *PPAPTLAC
005200*****            ***************************                 *****PPAPTLAC
005300*                **  APPOINTMENT    DATA  **                     *PPAPTLAC
005400*****            ***************************                 *****PPAPTLAC
005500             COPY CPWSRAPP.                                       PPAPTLAC
005600     03  FILLER                                  OCCURS 27.       PPAPTLAC
005700             07  DIS-ROW-DELETE-BYTE  PIC X(1).                   PPAPTLAC
005800             88  DIS-ROW-DELETED VALUE HIGH-VALUES.               PPAPTLAC
005900             07  DIS-ROW-SEG-ID       PIC X(2).                   PPAPTLAC
006000             07  FILLER                          OCCURS 3.        PPAPTLAC
006100             08  DIS-ROW.                                         PPAPTLAC
006200             COPY CPWSRDIS.                                       PPAPTLAC
006300 01  DATA-ELEMENT-CHANGE-INDICATORS EXTERNAL. COPY CPWSXDEC.      PPAPTLAC
006500     EJECT                                                        PPAPTLAC
008300 01  CALLED-MODULES.                          COPY CPWSXRTN.      28201068
008400                                                                  28201068
006700 01  TRAN-RECORD.                                                 PPAPTLAC
006800                   COPY 'CPOTXTRN'.                               PPAPTLAC
006900******************************************************************PPAPTLAC
007000*****  TRAN-RECORD IS USED IN 'ERRWRITE' AND 'POSTDATA'. IN  *****PPAPTLAC
007100*****  'ERRWRITE' IT IS THE ERROR RECORD WHICH IS TO BE      *****PPAPTLAC
007200*****  WRITTEN TO THE ERROR FILE. IN 'POSTDATA' IT IS THE    *****PPAPTLAC
007300*****  TRANSACTION RECORD WHICH IS TO BE POSTED TO THE       *****PPAPTLAC
007400*****  SEGMENT SET.                                          *****PPAPTLAC
007500******************************************************************PPAPTLAC
007600*                                                                 PPAPTLAC
007700 01  ROUTE-MSSG-SORT-CODE          PIC X.                         PPAPTLAC
007800*                                                                 PPAPTLAC
007900 01  SEGMENT-HOLD.                                                PPAPTLAC
008000     05  SEG-HOLD                  PIC X  OCCURS  290 TIMES.      PPAPTLAC
008100     EJECT                                                        PPAPTLAC
008300 01  INSTALLATION-DEPENDNT-CONSTANT.                              PPAPTLAC
008400                   COPY 'CPWSXIDC'.                               PPAPTLAC
008500 01  MISC-AP-STUFF.                                               PPAPTLAC
008600*                                                                *PPAPTLAC
008700     05  APPT-PNTR           PIC S9(4) COMP SYNC VALUE ZERO.      PPAPTLAC
008800     05  NEXT-APPT-PNTR      PIC S9(4) COMP SYNC VALUE ZERO.      PPAPTLAC
008900     05  MISC-PNTR           PIC S9(4) COMP SYNC VALUE ZERO.      PPAPTLAC
009000     05  SAVE-APPT-INDX      PIC S9(4) COMP SYNC VALUE ZERO.      PPAPTLAC
009100*                                                                *PPAPTLAC
009200     05  DL-FIELD.                                                PPAPTLAC
009300         10  DL-SEGMENT           PIC 9(02).                      PPAPTLAC
009400         10  DL-SER               PIC 9(02).                      PPAPTLAC
009500     05  DL-FIELD-R REDEFINES DL-FIELD  PIC 9(04).                PPAPTLAC
009600     05  WS-DISPLAY-PIC99         PIC 9(02)  VALUE ZERO.          PPAPTLAC
009700     05  ERR-IX                   PIC 9(02).                      PPAPTLAC
009800     05  NEW-LENGTH               PIC 9(02).                      PPAPTLAC
009900     05  NEW-APPT-NUM             PIC 9(02).                      PPAPTLAC
010000     05  E2018-TABLE-ENTRY.                                       PPAPTLAC
010100         15 E2018-TABLE-ENTRY1   PIC XX.                          PPAPTLAC
010200         15 FILLER               PIC XX  VALUE '18'.              PPAPTLAC
010300*                                                                 PPAPTLAC
010400*                                                                 PPAPTLAC
010500*                                                                 PPAPTLAC
010600     05  WS-LEAVE-ACRUCODE            PIC X.                      PPAPTLAC
010700                                                                  PPAPTLAC
010800     EJECT                                                        PPAPTLAC
010900 01  AP-INDEX-TABLES.                                             PPAPTLAC
011000*                                                                 PPAPTLAC
011100******************************************************************PPAPTLAC
011200*                                                                 PPAPTLAC
011300* THIS WORKING STORAGE AREA CONTAINS                              PPAPTLAC
011400* THE LEAVE ACCRUAL CODE    CHANGED ELEMENT TABLES,               PPAPTLAC
011500* EACH CONSISTING OF TWO SYNCHRONIZED TABLES: A DATA ELEMENT      PPAPTLAC
011600* TABLE, AND A FLAG TABLE. CHANGED ELEMENT TABLES ARE PRESENT FOR PPAPTLAC
011700* APPOINTMENT ELEMENTS (AT)                                       PPAPTLAC
011800* AND DISTRIBUTION ELEMENTS (DT). THE APPOINTMENT AND DISTRIBUTIONPPAPTLAC
011900* FLAG TABLES ALSO CARRY INDEXES INTO THE DATA BASE SEGMENT ARRAY,PPAPTLAC
012000* AND MAY BE REFERRED TO AS 'INDEX' TABLES. THE                   PPAPTLAC
012100* APPOINTMENT AND DISTRIBUTION INDEX TABLES ARE USED TO OPTIMIZE  PPAPTLAC
012200* THE SCANNING OF, AND ACTION ON, THE DATA BASE SEGMENT ARRAY.    PPAPTLAC
012300* THE PRIMARY PURPOSE OF THESE INDEX TABLES IS TO PROVIDE A       PPAPTLAC
012400* LIST OF ELEMENTS WHICH HAVE BEEN ALTERED BY FILE MAINTENANCE.   PPAPTLAC
012500* EXPLANATIONS OF THE DATA ELEMENT SEARCH LISTS, AND THE INDEX    PPAPTLAC
012600* TABLES IS GIVEN IN COMMENTS BELOW.                              PPAPTLAC
012700*                                                                 PPAPTLAC
012800* IF THESE TABLES ARE USED FOR OTHER APPLICATIONS, BE SURE TO     PPAPTLAC
012900* MAINTAIN CONSISTENCY ACROSS DATA NAMES AS INDICATED BELOW.      PPAPTLAC
013000*                                                                 PPAPTLAC
013100******************************************************************PPAPTLAC
013200                                                                  PPAPTLAC
013300* THE FOLLOWING ARE 'LOGICAL' VALUES, WHICH DO NOT APPEAR IN      PPAPTLAC
013400* CPWSXIDC                                                        PPAPTLAC
013500                                                                  PPAPTLAC
013600     05  AP-MAX-LOGICAL-APPTS     PIC 9(02) VALUE 09.             PPAPTLAC
013700     05  AP-MAX-LOGICAL-DISTS     PIC 9(02) VALUE 08.             PPAPTLAC
013800*                                                                 PPAPTLAC
013900*                                                                 PPAPTLAC
014000*                                                                 PPAPTLAC
014100*                                                                 PPAPTLAC
014200*                                                                 PPAPTLAC
014300     05  AP-WORK-DIVIDEND         PIC 9V9.                        PPAPTLAC
014400     05  AP-WK-RDF  REDEFINES AP-WORK-DIVIDEND.                   PPAPTLAC
014500         10  AP-DIST-SEG-OFFSET   PIC 9.                          PPAPTLAC
014600         10  FILLER               PIC 9.                          PPAPTLAC
014700*                                                                 PPAPTLAC
014800     05  AP-DIST-CELL-NO          PIC 9(02).                      PPAPTLAC
014900     05  AP-DIST-BASE-ELNO        PIC 9(04).                      PPAPTLAC
015000     05  AP-DBE-RDF REDEFINES AP-DIST-BASE-ELNO.                  PPAPTLAC
015100         10  AP-DIST-BASE-ELNO-1-2   PIC 9(02).                   PPAPTLAC
015200         10  AP-DIST-BASE-ELNO-3-4   PIC 9(02).                   PPAPTLAC
015300     05  AP-LGCL-APPT-NO          PIC 9(02).                      PPAPTLAC
015400     05  AP-LGCL-DIST-NO          PIC 9(02).                      PPAPTLAC
015500     05  AP-DBSA-SEG-NO           PIC 9(02).                      PPAPTLAC
015600     05  AP-DBSA-IX               PIC 9(02).                      PPAPTLAC
015700     05  AP-DBSA-DIST-IX          PIC 9(02).                      PPAPTLAC
015800*                                                                 PPAPTLAC
015900     05  AP-SST-IX                PIC 9(02).                      PPAPTLAC
016000     05  AP-AT-SRCH-PTR           PIC 9(02).                      PPAPTLAC
016100     05  AP-AT-SIZE               PIC 9(02).                      PPAPTLAC
016200     05  AP-AT-PTR                PIC 9(02).                      PPAPTLAC
016300*                                                                 PPAPTLAC
016400******************************************************************PPAPTLAC
016500*                                                                 PPAPTLAC
016600*  THE FOLLOWING IS A LIST OF APPOINTMENT DATA ELEMENT OFFSETS    PPAPTLAC
016700* TO BE USED WHEN SEARCHING AN APPOINTMENT FOR CHANGED DATA       PPAPTLAC
016800* ELEMENTS. EACH ITEM ON THE LIST IDENTIFIES AN ELEMENT BY THE    PPAPTLAC
016900* ELEMENT'S "OFFSET" NUMBER, THE LAST TWO DIGITS OF AN            PPAPTLAC
017000* APPOINTMENT ELEMENT.  THE ORDER IN WHICH THESE OFFSETS APPEAR   PPAPTLAC
017100* MUST ALWAYS BE CONSISTENT WITH THE DATA NAMES UNDER             PPAPTLAC
017200* 'AP-AT-CHANGED-ELEMENT-FLAGS', AS THIS ELEMENT LIST IS USED     PPAPTLAC
017300* TO SET THE CHANGED ELEMENT FLAGS IN AP-APPOINTMENT-INDEX-TABLE. PPAPTLAC
017400* FURTHER, ANY CHANGES TO THIS TABLE MUST BE IMPLEMENTED IN A     PPAPTLAC
017500* CORRESPONDING MANNER TO THE AP-AT-CHANGED-ELEMENT-FLAGS IN THE  PPAPTLAC
017600* APPOINTMENT INDEX TABLE.                                        PPAPTLAC
017700*                                                                 PPAPTLAC
017800*                                                                 PPAPTLAC
017900*                                                                 PPAPTLAC
018000*  THE FOLLOWING DATA NAME IDENTIFIES THE NUMBER OF ENTRIES IN    PPAPTLAC
018100* THE APPOINTMENT DATA ELEMENT SEARCH LIST. ANY CHANGE IN SIZE    PPAPTLAC
018200* OF THE SEARCH LIST SHOULD BE INDICATED HERE AS WELL.            PPAPTLAC
018300*                                                                 PPAPTLAC
018400******************************************************************PPAPTLAC
018500     05  AP-ASE-SIZE              PIC 9(02) VALUE 02.             PPAPTLAC
018600*                                                                 PPAPTLAC
018700     05  AP-APPT-SRCH-ELEMS.                                      PPAPTLAC
018800         10  AP-ASE-LAC-2018      PIC 9(02) VALUE 18.             PPAPTLAC
018900         10  AP-ASE-ADC-2022      PIC 9(02) VALUE 22.             PPAPTLAC
019000     05  AP-APPT-ELEMS-RDF REDEFINES AP-APPT-SRCH-ELEMS.          PPAPTLAC
019100         10  AP-APPT-SRCH-ELEM  OCCURS 02 PIC 9(02).              PPAPTLAC
019200                                                                  PPAPTLAC
019300                                                                  PPAPTLAC
019400******************************************************************PPAPTLAC
019500*                                                                 PPAPTLAC
019600* THE FOLLOWING 'APPOINTMENT' TABLE IS AN INDEX TABLE TO ALL      PPAPTLAC
019700* APPOINTMENTS, ACTIVE OR NOT, WITHIN THE DATA BASE SEGMENT       PPAPTLAC
019800* ARRAY, AND WHICH CONTAIN VALUES OTHER THAN INITIAL VALUES,      PPAPTLAC
019900* AS DETERMINED BY DLSEARCH. THIS APPOINTMENT INDEX TABLE IS      PPAPTLAC
020000* COMPRESSED, THAT IS THERE ARE NO 'BLANK' OR 'INITIAL' ENTIRES   PPAPTLAC
020100* TO BE SKIPPED DURING A SCAN OF THE DATA BASE SEGMENT ARRAY.     PPAPTLAC
020200* INSTEAD, A BLANK ENTRY SIGNALS THE END OF THE INDEX TABLE.      PPAPTLAC
020300* EACH ENTRY ON THE TABLE CONSISTS OF THREE GROUPS OF ELEMENTS:   PPAPTLAC
020400*                                                                 PPAPTLAC
020500* 1) APPOINTMENT REFERENCES: THOSE ELEMENTS WHICH IDENTIFY THE    PPAPTLAC
020600*   APPOINTMENT IN THE DATA BASE SEGMENT ARRAY:                   PPAPTLAC
020700*    A) SEGMENT ID - THE LOGICAL SEGMENT NUMBER                   PPAPTLAC
020800*    B) SEGMENT-INDEX - THE INDEX TO THE DATA BASE SEGMENT ARRAY  PPAPTLAC
020900*      FOR THIS APPOINTMENT                                       PPAPTLAC
021000*    C) CHANGED SEGMENT INDICATOR - A FLAG TO DENOTE WHETHER OR   PPAPTLAC
021100*      NOT THERE HAS BEEN DATA BASE ACTIVITY FOR THE SEGMENT      PPAPTLAC
021200*                                                                 PPAPTLAC
021300* 2) CHANGED ELEMENT FLAGS: ONE FLAG FOR EACH ELEMENT TO BE TESTEDPPAPTLAC
021400*   FOR CHANGE IN DATA. THESE ELEMENTS ARE LISTED IN              PPAPTLAC
021500*   AP-AT-SRCH-ELEMS, ABOVE.                                      PPAPTLAC
021600*                                                                 PPAPTLAC
021700* 3) DISTRIBUTION TABLE OFFSETS: INDEXES TO THE FIRST AND         PPAPTLAC
021800*   LAST DISTRIBUTION ENTRIES IN THE DISTRIBUTION INDEX TABLE     PPAPTLAC
021900*   (SEE BELOW).                                                  PPAPTLAC
022000*                                                                 PPAPTLAC
022100*                                                                 PPAPTLAC
022200******************************************************************PPAPTLAC
022300     05  AP-APPOINTMENT-INDEX-TABLE        OCCURS 9 TIMES.        PPAPTLAC
022400         10  AP-AT-REFERENCES.                                    PPAPTLAC
022500             15  AP-AT-SEG-ID     PIC 9(02).                      PPAPTLAC
022600             15  AP-AT-SEG-X      PIC 9(02).                      PPAPTLAC
022700             15  AP-AT-CHGD-SEG-IND  PIC X(01).                   PPAPTLAC
022800                 88  AP-AT-SEG-HAS-CHGD     VALUE 'X'.            PPAPTLAC
022900         10  AP-AT-CHANGED-ELEMENT-FLAGS.                         PPAPTLAC
023000* BE SURE TO ADD DATA NAMES TO THIS LIST FOR EACH NEW ELEMENT     PPAPTLAC
023100* ADDED TO AP-AT-SRCH-ELEMS                                       PPAPTLAC
023200             15  AP-AT-CEF-APR    PIC X(01).                      PPAPTLAC
023300                 88  AP-AT-APR-CHANGED      VALUE 'X'.            PPAPTLAC
023400             15  AP-AT-CEF-RC     PIC X(01).                      PPAPTLAC
023500                 88  AP-AT-RC-CHANGED       VALUE 'X'.            PPAPTLAC
023600             15  AP-AT-CEF-PS     PIC X(01).                      PPAPTLAC
023700                 88  AP-AT-PS-CHANGED       VALUE 'X'.            PPAPTLAC
023800             15  AP-AT-CEF-ADC    PIC X(01).                      PPAPTLAC
023900                 88  AP-AT-ADC-CHANGED      VALUE 'X'.            PPAPTLAC
024000         10  AP-AT-RDF-CEF REDEFINES AP-AT-CHANGED-ELEMENT-FLAGS. PPAPTLAC
024100             15  AP-AT-CEF     OCCURS 04 TIMES  PIC X(01).        PPAPTLAC
024200*****                                                             PPAPTLAC
024300         10  AP-AT-DISTRIBUTION-OFFSETS.                          PPAPTLAC
024400             15  AP-AT-DT-FIRST   PIC 9(02).                      PPAPTLAC
024500             15  AP-AT-DT-LAST    PIC 9(02).                      PPAPTLAC
024600             15  AP-AT-DT-ACTIVE-TALLY  PIC 9(02).                PPAPTLAC
024700             15  AP-AT-DT-FUTURE-TALLY  PIC 9(02).                PPAPTLAC
024800             15  AP-AT-DT-EXPIRED-TALLY PIC 9(02).                PPAPTLAC
024900             15  AP-AT-DT-COUNT         PIC 9(02).                PPAPTLAC
025000         10  AP-AT-STATUS-FLAGS.                                  PPAPTLAC
025100             15  AP-AT-TYPE-FLAG        PIC X(01).                PPAPTLAC
025200                 88  AP-AT-TYPE-4                 VALUE 'X'.      PPAPTLAC
025300                 88  AP-AT-NON-TYPE-4             VALUE SPACE.    PPAPTLAC
025400*****                                                             PPAPTLAC
025500             15  AP-AT-STATUS-FLAG      PIC X(01).                PPAPTLAC
025600                 88  AP-AT-ACTIVE-STATUS          VALUE 'A'.      PPAPTLAC
025700                 88  AP-AT-EXPIRED-STATUS         VALUE 'E'.      PPAPTLAC
025800                 88  AP-AT-FUTURE-STATUS          VALUE 'F'.      PPAPTLAC
025900                                                                  PPAPTLAC
026000                                                                  PPAPTLAC
026100                                                                  PPAPTLAC
026200                                                                  PPAPTLAC
028000 01  PPBUTUTL-INTERFACE.                    COPY 'CPWSBUTI'.      28201068
026300                                                                  PPAPTLAC
026400     EJECT                                                        PPAPTLAC
026500 LINKAGE SECTION.                                                 PPAPTLAC
026800 01  COMM-TAB.                                                    PPAPTLAC
026900                                            COPY 'CPOTXCMF'.      PPAPTLAC
027100 01  PPAPTLAC-INTERFACE.                                          PPAPTLAC
027200                                            COPY 'CPLNKAP4'.      PPAPTLAC
027300     EJECT                                                        PPAPTLAC
027400******************************************************************PPAPTLAC
027500*                                                                *PPAPTLAC
027600*                       PROCEDURE DIVISION                       *PPAPTLAC
027700*                                                                *PPAPTLAC
027800******************************************************************PPAPTLAC
027900 PROCEDURE DIVISION USING                                         PPAPTLAC
028000                          COMM-TAB                                PPAPTLAC
028100                          PPAPTLAC-INTERFACE.                     PPAPTLAC
028200                                                                  PPAPTLAC
028300******************************************************************PPAPTLAC
028400*  FIRST INITIALIZE WORKING STORAGE FIELDS AND DERIVE THE         PPAPTLAC
028500*  FISCAL YEAR END DATE.                                          PPAPTLAC
028600******************************************************************PPAPTLAC
028700                                                                  PPAPTLAC
028800     MOVE ZEROES TO AP04-AUDIT-TABLE-SIZE AP04-ERROR-TABLE-SIZE.  PPAPTLAC
028900                                                                  PPAPTLAC
029000*                                                                *PPAPTLAC
029100*                                                                *PPAPTLAC
029200******************************************************************PPAPTLAC
029300* NEXT,  SCAN THE EDB APPOINTMENT DISTRIBUTION SEGMENT ARRAY      PPAPTLAC
029400* TO DETERMINE WHICH ELEMENTS, AS SPECIFIED IN THE SEARCH TABLES  PPAPTLAC
029500* HAVE CHANGED. AT THE SAME TIME, BUILD THE INDEX/CHANGED         PPAPTLAC
029600* ELEMENT TABLES TO MINIMIZE THE SEARCH PATHS INTO THE            PPAPTLAC
029700* APPOINTMENT DISTRIBUTION ARRAY.                                 PPAPTLAC
029800******************************************************************PPAPTLAC
029900                                                                  PPAPTLAC
030000     PERFORM AP-LOAD-INDX-TBLS-A1000 THRU                         PPAPTLAC
030100             AP-LOAD-INDX-TBLS-EXIT-A1099.                        PPAPTLAC
030200                                                                  PPAPTLAC
030300******************************************************************PPAPTLAC
030400* NOW SCAN THE I/CE TABLES TO SEE IF ANY ELEMENTS HAVE CHANGED    PPAPTLAC
030500* WHICH MUST THEN TRIGGER DERIVATION OF THE APPOINTMENT RATE.     PPAPTLAC
030600******************************************************************PPAPTLAC
030700                                                                  PPAPTLAC
030800     PERFORM AP-UPD-CHECK-B1000 THRU                              PPAPTLAC
030900             AP-UPD-CHECK-EXIT-B1099.                             PPAPTLAC
031000*                                                                *PPAPTLAC
031100*                                                                *PPAPTLAC
031200                                                                  PPAPTLAC
031300     GOBACK.                                                      PPAPTLAC
031400     EJECT                                                        PPAPTLAC
031500 AP-LOAD-INDX-TBLS-A1000.                                         PPAPTLAC
031600******************************************************************PPAPTLAC
031700* THIS ROUTINE IS CALLED ONCE FOR EACH EMPLOYEE RECORD TO LOAD    PPAPTLAC
031800* THE CHANGED ELEMENT TABLES. THESE CHANGED ELEMENT TABLES,       PPAPTLAC
031900* ALSO KNOWN AS INDEX TABLES, IDENTIFY THOSE ELEMENTS ON THE      PPAPTLAC
032000* EMPLOYEE RECORD WHICH HAVE CHANGED AS A RESULT OF FILE          PPAPTLAC
032100* MAINTENANCE. THE 'INDEX' IS ASSOCIATED WITH TWO SEPARATE        PPAPTLAC
032200* TABLES BUILT TO IDENTIFY ONLY THOSE APPOINTMENTS AND            PPAPTLAC
032300* DISTRIBUTIONS WITH ANY DATA OTHER THAN INITIAL VALUES,          PPAPTLAC
032400* AND CERTAINLY NOT ANY SEGMENT WHICH HAS BEEN DELETED.           PPAPTLAC
032500* THESE INDEX TABLES HAVE ONLY AS MANY ENTRIES (UP TO SPECIFIED   PPAPTLAC
032600* MAXIMUMS) AS ARE NECESSARY TO IDENTIFY USEFUL INFORMATION ON    PPAPTLAC
032700* THE EMPLOYEE RECORD.                                            PPAPTLAC
032800*                                                                 PPAPTLAC
032900* BE VERY CAREFUL WHEN MODIFYING ANY OF THE CODE IN THESE         PPAPTLAC
033000* ROUTINES. AN ABUNDANCE OF COMMENTS, HOPEFULLY COHERENT, HAVE    PPAPTLAC
033100* BEEN INCLUDED TO HELP GUIDE THE MAINTENANCE PROGRAMMER          PPAPTLAC
033200* THROUGH THE PROCESSES. BUT EVEN SO, ONE SHOULD BE FULLY VERSED  PPAPTLAC
033300* IN THE TECHNIQUES USED HERE BEFORE ALTERING ANY OF THIS CODE.   PPAPTLAC
033400******************************************************************PPAPTLAC
033500                                                                  PPAPTLAC
033600                                                                  PPAPTLAC
033700******************************************************************PPAPTLAC
033800*         INITIALIZE THE INDEX TABLE SIZE VARIABLES               PPAPTLAC
033900******************************************************************PPAPTLAC
034000                                                                  PPAPTLAC
034100     MOVE ZEROES TO AP-AT-SIZE.                                   PPAPTLAC
034200                                                                  PPAPTLAC
034300******************************************************************PPAPTLAC
034400* LOAD THE APPOINTMENT AND DISTRIBUTION INDEX/CHANGED             PPAPTLAC
034500* ELEMENT TABLES. NOTE THAT THE DISTRIBUTION I/CE TABLE IS        PPAPTLAC
034600* LOADED DURING THE APPOINTMENT I/CE TABLE LOAD.                  PPAPTLAC
034700******************************************************************PPAPTLAC
034800                                                                  PPAPTLAC
034900     PERFORM AP-APPT-SCAN-A2100 THRU                              PPAPTLAC
035000             AP-APPT-SCAN-EXIT-A2199                              PPAPTLAC
035100                 VARYING AP-LGCL-APPT-NO FROM 1 BY 1              PPAPTLAC
035200                   UNTIL AP-LGCL-APPT-NO > AP-MAX-LOGICAL-APPTS.  PPAPTLAC
035300                                                                  PPAPTLAC
035400******************************************************************PPAPTLAC
035500* THE INDEXES AND CHANGED ELEMENT FLAGS HAVE BEEN SET. ALL DONE.  PPAPTLAC
035600******************************************************************PPAPTLAC
035700                                                                  PPAPTLAC
035800                                                                  PPAPTLAC
035900 AP-LOAD-INDX-TBLS-EXIT-A1099.                                    PPAPTLAC
036000     EXIT.                                                        PPAPTLAC
036100     EJECT                                                        PPAPTLAC
036200 AP-APPT-SCAN-A2100.                                              PPAPTLAC
036300                                                                  PPAPTLAC
036400******************************************************************PPAPTLAC
036500* THIS ROUTINE SCANS THE DATA BASE SEGMENT ARRAY (DBSA)           PPAPTLAC
036600* APPOINTMENT (AND, INDIRECTLY, DISTRIBUTION) SEGMENTS,           PPAPTLAC
036700* LOADING  THE APPOINTMENT INDEX TABLE WHENEVER A SEGMENT         PPAPTLAC
036800* IS FOUND TO CONTAIN DATA OTHER THAN INITIAL VALUES.             PPAPTLAC
036900******************************************************************PPAPTLAC
037000                                                                  PPAPTLAC
037100******************************************************************PPAPTLAC
037200* FIRST, CALCULATE THE APPOINTMENT/DISTRIBUTION ARRAY INDEX       PPAPTLAC
037300* FROM THE LOGICAL APPOINTMENT NUMBER.                            PPAPTLAC
037400******************************************************************PPAPTLAC
037500                                                                  PPAPTLAC
037600     COMPUTE AP-DBSA-IX = ((AP-LGCL-APPT-NO - 1) * 3) + 1.        PPAPTLAC
037700     COMPUTE AP-SST-IX = AP-DBSA-IX + FIRST-APPT-SGMT-INDX - 1.   PPAPTLAC
037800                                                                  PPAPTLAC
037900******************************************************************PPAPTLAC
038000* NOW CHECK THE SEGMENT STATUS TABLE TO SEE IF THE SEGMENT        PPAPTLAC
038100* CONTAINS INITIAL VALUES. IF SO, THERE IS NO NEED TO PROCESS     PPAPTLAC
038200* THE APPOINTMENT, AND ASSOCIATED DISTRIBUTIONS, ANY FURTHER.     PPAPTLAC
038300******************************************************************PPAPTLAC
038400                                                                  PPAPTLAC
038500     IF APPT-NUM  OF APP-ROW   (AP-DBSA-IX, 1)  = ZEROS           PPAPTLAC
038600         GO TO AP-APPT-SCAN-EXIT-A2199.                           PPAPTLAC
038700                                                                  PPAPTLAC
038800                                                                  PPAPTLAC
038900******************************************************************PPAPTLAC
039000* FALLING THROUGH TO THIS POINT MEANS THAT THE SEGMENT CONTAINS   PPAPTLAC
039100* POTENTIALLY USEFUL INFORMATION. THEREFORE, AN ENTRY INTO THE    PPAPTLAC
039200* APPOINTMENT INDEX TABLE IS BUILT.                               PPAPTLAC
039300******************************************************************PPAPTLAC
039400                                                                  PPAPTLAC
039500     ADD 1 TO AP-AT-SIZE.                                         PPAPTLAC
039600     MOVE AP-DBSA-IX TO AP-AT-SEG-X (AP-AT-SIZE).                 PPAPTLAC
039700     MOVE APP-ROW-SEG-ID (AP-DBSA-IX) TO                          PPAPTLAC
039800          AP-AT-SEG-ID (AP-AT-SIZE).                              PPAPTLAC
039900                                                                  PPAPTLAC
040000******************************************************************PPAPTLAC
040100* INITIALIZE THE APPOINTMENT INDEX TABLE FLAGS, DISTRIBUTION      PPAPTLAC
040200* INDEX TABLE OFFSET POINTERS                                     PPAPTLAC
040300******************************************************************PPAPTLAC
040400                                                                  PPAPTLAC
040500******************************************************************PPAPTLAC
040600******************** BE SURE TO RESET FLAGS TO SPACES ************PPAPTLAC
040700******************************************************************PPAPTLAC
040800     MOVE SPACES  TO AP-AT-CHANGED-ELEMENT-FLAGS (AP-AT-SIZE).    PPAPTLAC
040900     MOVE ZEROES TO AP-AT-DISTRIBUTION-OFFSETS (AP-AT-SIZE).      PPAPTLAC
041000     MOVE SPACES TO AP-AT-STATUS-FLAGS (AP-AT-SIZE).              PPAPTLAC
041100                                                                  PPAPTLAC
041200         MOVE 'X' TO AP-AT-CHGD-SEG-IND (AP-AT-SIZE)              PPAPTLAC
041300             PERFORM AP-AT-SRCH-A3100 THRU                        PPAPTLAC
041400                     AP-AT-SRCH-EXIT-A3199                        PPAPTLAC
041500                         VARYING AP-AT-SRCH-PTR FROM 1 BY 1       PPAPTLAC
041600                           UNTIL AP-AT-SRCH-PTR > AP-ASE-SIZE.    PPAPTLAC
041700                                                                  PPAPTLAC
041800******************************************************************PPAPTLAC
041900*    EXHIBIT NAMED AP-AT-SIZE                                     PPAPTLAC
042000*                  AP-APPOINTMENT-INDEX-TABLE (AP-AT-SIZE).       PPAPTLAC
042100******************************************************************PPAPTLAC
042200                                                                  PPAPTLAC
042300                                                                  PPAPTLAC
042400                                                                  PPAPTLAC
042500 AP-APPT-SCAN-EXIT-A2199.                                         PPAPTLAC
042600     EXIT.                                                        PPAPTLAC
042700     EJECT                                                        PPAPTLAC
042800                                                                  PPAPTLAC
042900 AP-AT-SRCH-A3100.                                                PPAPTLAC
043000******************************************************************PPAPTLAC
043100* THIS ROUTINE PLUCKS THE APPOINTMENT DATA ELEMENT OFFSET FROM    PPAPTLAC
043200* THE SPECIFIED (AP-AT-SRCH-PTR) CELL IN THE APPOINTMENT SEARCH   PPAPTLAC
043300* ELEMENT TABLE; COMBINES THE ELEMENT OFFSET WITH THE             PPAPTLAC
043400* APPOINTMENT BASE ELEMENT NUMBER TO YIELD THE DESIRED DATA       PPAPTLAC
043500* ELEMENT NUMBER TO BE LOCATED; CALLS DLSEARCH TO SEE IF THE      PPAPTLAC
043600* ELEMENT HAS BEEN CHANGED BY FILE MAINTENANCE AND, IF SO,        PPAPTLAC
043700* SETS THE SPECIFIED FLAG (AP-AT-SRCH-PTR) IN THE APPT INDEX      PPAPTLAC
043800* TABLE ENTRY.                                                    PPAPTLAC
043900******************************************************************PPAPTLAC
044000                                                                  PPAPTLAC
044100     COMPUTE DL-FIELD-R = (AP-AT-SEG-ID (AP-AT-SIZE) * 100) +     PPAPTLAC
044200                        AP-APPT-SRCH-ELEM (AP-AT-SRCH-PTR).       PPAPTLAC
044300                                                                  PPAPTLAC
044400                                                                  PPAPTLAC
044500     IF XDEC-DATA-ELEMENT-CHANGED (DL-FIELD-R)                    PPAPTLAC
044600         MOVE 'X' TO AP-AT-CEF (AP-AT-SIZE, AP-AT-SRCH-PTR).      PPAPTLAC
044700                                                                  PPAPTLAC
044800 AP-AT-SRCH-EXIT-A3199.                                           PPAPTLAC
044900     EXIT.                                                        PPAPTLAC
045000     EJECT                                                        PPAPTLAC
045100     EJECT                                                        PPAPTLAC
045200******************************************************************PPAPTLAC
045300******************************************************************PPAPTLAC
045400     EJECT                                                        PPAPTLAC
045500 AP-UPD-CHECK-B1000.                                              PPAPTLAC
045600******************************************************************PPAPTLAC
045700                                                                  PPAPTLAC
045800******************************************************************PPAPTLAC
045900* THIS SECTION SCANS                                              PPAPTLAC
046000* THE APPOINTMENT CHANGED ELEMENT/INDEX TABLE FOR EACH            PPAPTLAC
046100* APPOINTMENT AND UPDATES VARIOUS                                 PPAPTLAC
046200* APPOINTMENT LEVEL ELEMENTS AS DEFINED BY LEAVE ACCRUAL CODE     PPAPTLAC
046300* DERIVATION RULES.                                               PPAPTLAC
046400******************************************************************PPAPTLAC
046500                                                                  PPAPTLAC
046600     IF AP-AT-SIZE = ZERO                                         PPAPTLAC
046700         GO TO AP-UPD-CHECK-EXIT-B1099.                           PPAPTLAC
046800                                                                  PPAPTLAC
046900******************************************************************PPAPTLAC
047000* FALLING THROUGH TO HERE MEANS THAT THERE ARE APPOINTMENTS TO    PPAPTLAC
047100* TEST FOR UPDATE (REASONABLE ASSUMPTION). NOW THE RULES FOR      PPAPTLAC
047200* APPOINTMENT LEAVE CODE DERIVATION COME INTO PLAY.               PPAPTLAC
047300******************************************************************PPAPTLAC
047400                                                                  PPAPTLAC
047500******************************************************************PPAPTLAC
047600* CHECK OUT THE APPOINTMENTS                                      PPAPTLAC
047700******************************************************************PPAPTLAC
047800                                                                  PPAPTLAC
047900     PERFORM AP-APPT-UPD-CHECK-B2000 THRU                         PPAPTLAC
048000             AP-APPT-UPD-CHECK-EXIT-B2099                         PPAPTLAC
048100                 VARYING AP-AT-PTR FROM 1 BY 1                    PPAPTLAC
048200                   UNTIL AP-AT-PTR > AP-AT-SIZE.                  PPAPTLAC
048300                                                                  PPAPTLAC
048400 AP-UPD-CHECK-EXIT-B1099.                                         PPAPTLAC
048500     EXIT.                                                        PPAPTLAC
048600     EJECT                                                        PPAPTLAC
048700 AP-APPT-UPD-CHECK-B2000.                                         PPAPTLAC
048800                                                                  PPAPTLAC
048900******************************************************************PPAPTLAC
049000* THIS SECTION SCANS THE APPOINTMENT INDEX/CHANGED ELEMENT        PPAPTLAC
049100* TABLE ENTRY IDEXED BY AP-AT-PTR. TESTS ARE MADE FOR CHANGED     PPAPTLAC
049200* DATA ELEMENTS AND, IF NECESSARY, THE LEAVE ACCRUAL CODE   IS    PPAPTLAC
049300* DERIVED.                                                        PPAPTLAC
049400******************************************************************PPAPTLAC
049500                                                                  PPAPTLAC
049600     MOVE AP-AT-SEG-X (AP-AT-PTR) TO AP-DBSA-IX.                  PPAPTLAC
049700                                                                  PPAPTLAC
049800******************************************************************PPAPTLAC
051400* IF THIS IS NOT A STAFF, PROFESSIONAL OR NON-SENIOR MANAGEMENT   28201068
051500*    POSITION                                                     28201068
050000* IF THE LEAVE ACCRUAL CODE IS E, F OR N                          PPAPTLAC
050100*                     SKIP LEAVE ACCRUAL CODE   DERIVATION.       PPAPTLAC
050200******************************************************************PPAPTLAC
050300                                                                  PPAPTLAC
050400     MOVE LEAVE-ACRUCODE (AP-DBSA-IX, 1) TO WS-LEAVE-ACRUCODE.    PPAPTLAC
052100**** IF PERSONNEL-PGM (AP-DBSA-IX, 1)  = 'S' OR 'M' OR 'P'        28201068
052200     IF PERSONNEL-PGM (AP-DBSA-IX, 1)  = '1' OR                   28201068
052300******************************************************************28201068
052400**** MANAGEMENT AND GRANDFATHERED IN TO HIGHEST LEAVE ACCRU. CODE 28201068
052500******************************************************************28201068
052600        (PERSONNEL-PGM (AP-DBSA-IX, 1)  = '2' AND                 28201068
052700                (WS-LEAVE-ACRUCODE NOT = 'K')                     28201068
052800        )                                                         28201068
050600        IF LEAVE-ACRUCODE (AP-DBSA-IX, 1) = 'E' OR 'F' OR 'N'     PPAPTLAC
050700           GO TO AP-APPT-UPD-CHECK-EXIT-B2099                     PPAPTLAC
050800        END-IF                                                    PPAPTLAC
050900     ELSE                                                         PPAPTLAC
051000        GO TO AP-APPT-UPD-CHECK-EXIT-B2099                        PPAPTLAC
051100     END-IF.                                                      PPAPTLAC
051200                                                                  PPAPTLAC
051300******************************************************************PPAPTLAC
053700* DETERMINE THE CORRECT LEAVE ACCRUAL CODE FOR PERSONNEL          28201068
053800* PROGRAM 2 (MANAGEMENT) BASED ON TOTAL EMPLOYEE SERVICE CREDIT   28201068
051600******************************************************************PPAPTLAC
051700                                                                  PPAPTLAC
054100                                                                  28201068
054200     IF PERSONNEL-PGM (AP-DBSA-IX, 1)  = '2'                      28201068
054300        EVALUATE TRUE                                             28201068
054400             WHEN  AP04-TOTAL-ESC < 60                            28201068
054500                   MOVE 'B' TO WS-LEAVE-ACRUCODE                  28201068
054600             WHEN  AP04-TOTAL-ESC > 59 AND < 120                  28201068
054700                    MOVE 'C' TO WS-LEAVE-ACRUCODE                 28201068
054800             WHEN  AP04-TOTAL-ESC > 119                           28201068
054900                    MOVE 'D' TO WS-LEAVE-ACRUCODE                 28201068
055000        END-EVALUATE                                              28201068
055100        GO TO AP-APPT-POST-2091                                   28201068
055200      END-IF.                                                     28201068
055300                                                                  28201068
055400******************************************************************28201068
055500* DETERMINE THE CORRECT LEAVE ACCRUAL CODE FOR THE PERSONNEL      28201068
055600* PROGRAM BASED ON THE TOTAL EMPLOYEE SERVICE CREDITS             28201068
055700* AND THE APPOINMENT BARGAINING UNIT INFORMATION                  28201068
055800******************************************************************28201068
055900      MOVE AP04-TOTAL-ESC TO BUTI-IN-ESC-VALUE.                   28201068
056000      MOVE LEAVE-ACRUCODE (AP-DBSA-IX, 1) TO BUTI-IN-LEAVE-CODE.  28201068
056100      MOVE TITLE-UNIT-CODE (AP-DBSA-IX, 1) TO BUTI-IN-BUC.        28201068
056200      MOVE APPT-REP-CODE (AP-DBSA-IX, 1) TO BUTI-IN-REP-CODE.     28201068
056300      MOVE APPT-SPCL-HNDLG (AP-DBSA-IX, 1) TO BUTI-IN-ASHC.       28201068
056400      MOVE SPACES TO BUTI-OUT-LEAVE-CODE.                         28201068
056500      MOVE 'DL' TO BUTI-IN-ACTION.                                28201068
056600      CALL PGM-PPBUTUTL USING PPBUTUTL-INTERFACE.                 28201068
056700                                                                  28201068
056800      IF BUTI-OUT-ERROR-FLAG = 'Y'                                28201068
056900           OR BUTI-OUT-LEAVE-CODE = SPACES                        28201068
057000         MOVE 3 TO ERR-IX                                         28201068
057100         PERFORM COMMON-ERROR-WRITE-9100                          28201068
057200      ELSE                                                        28201068
057300         MOVE BUTI-OUT-LEAVE-CODE TO WS-LEAVE-ACRUCODE            28201068
057400      END-IF.                                                     28201068
057500                                                                  28201068
057600****  EVALUATE PERSONNEL-PGM (AP-DBSA-IX, 1)                      28201068
057700****      WHEN 'S'                                                28201068
057800****          EVALUATE TRUE                                       28201068
057900****             WHEN  AP04-TOTAL-ESC < 120                       28201068
058000****                MOVE 'A' TO WS-LEAVE-ACRUCODE                 28201068
058100****             WHEN  AP04-TOTAL-ESC > 119 AND < 180             28201068
058200****                MOVE 'B' TO WS-LEAVE-ACRUCODE                 28201068
058300****             WHEN  AP04-TOTAL-ESC > 179 AND < 120             28201068
058400****             WHEN  AP04-TOTAL-ESC > 179 AND < 240             28201068
058500****                MOVE 'C' TO WS-LEAVE-ACRUCODE                 28201068
058600****             WHEN  AP04-TOTAL-ESC > 239                       28201068
058700****                MOVE 'D' TO WS-LEAVE-ACRUCODE                 28201068
058800****          END-EVALUATE                                        28201068
058900****      WHEN 'P'                                                28201068
059000****          EVALUATE TRUE                                       28201068
059100****             WHEN  AP04-TOTAL-ESC < 60                        28201068
059200****                MOVE 'A' TO WS-LEAVE-ACRUCODE                 28201068
059300****             WHEN  AP04-TOTAL-ESC > 59 AND < 120              28201068
059400****                MOVE 'B' TO WS-LEAVE-ACRUCODE                 28201068
059500****             WHEN  AP04-TOTAL-ESC > 119 AND 180               28201068
059600****             WHEN  AP04-TOTAL-ESC > 119 AND < 180             28201068
059700****                MOVE 'C' TO WS-LEAVE-ACRUCODE                 28201068
059800****             WHEN  AP04-TOTAL-ESC > 179                       28201068
059900****                MOVE 'D' TO WS-LEAVE-ACRUCODE                 28201068
060000****          END-EVALUATE                                        28201068
060100****      WHEN 'M'                                                28201068
060200****          EVALUATE TRUE                                       28201068
060300****             WHEN  AP04-TOTAL-ESC < 60                        28201068
060400****                MOVE 'B' TO WS-LEAVE-ACRUCODE                 28201068
060500****             WHEN  AP04-TOTAL-ESC > 59 AND < 120              28201068
060600****                MOVE 'C' TO WS-LEAVE-ACRUCODE                 28201068
060700****             WHEN  AP04-TOTAL-ESC > 119                       28201068
060800****                MOVE 'D' TO WS-LEAVE-ACRUCODE                 28201068
060900****          END-EVALUATE                                        28201068
061000****  END-EVALUATE.                                               28201068
061100                                                                  28201068
055700 AP-APPT-POST-2091.                                               PPAPTLAC
055800******************************************************************PPAPTLAC
055900* NOW  TEST APPOINTMENT LEAVE ACCRUAL CODE TO SEE WHICH HAVE BEEN PPAPTLAC
056000* DERIVED. PERFORM AUDITING RESPONSIBILITIES ONLY IF THE          PPAPTLAC
056100* ELEMENT HAS CHANGED VALUE.                                      PPAPTLAC
056200******************************************************************PPAPTLAC
056300                                                                  PPAPTLAC
056400     IF WS-LEAVE-ACRUCODE NOT =                                   PPAPTLAC
056500        LEAVE-ACRUCODE  (AP-DBSA-IX, 1)                           PPAPTLAC
056600         MOVE WS-LEAVE-ACRUCODE TO                                PPAPTLAC
056700              LEAVE-ACRUCODE (AP-DBSA-IX, 1)                      PPAPTLAC
056800         PERFORM AP-AUDIT-CHANGES-4040.                           PPAPTLAC
056900                                                                  PPAPTLAC
057000 AP-APPT-UPD-CHECK-EXIT-B2099.                                    PPAPTLAC
057100     EXIT.                                                        PPAPTLAC
057200     EJECT                                                        PPAPTLAC
057300                                                                  PPAPTLAC
057400     EJECT                                                        PPAPTLAC
057500                                                                  PPAPTLAC
057600 AP-AUDIT-CHANGES-4040.                                           PPAPTLAC
057700                                                                  PPAPTLAC
057800                                                                  PPAPTLAC
057900     MOVE 01 TO NEW-LENGTH.                                       PPAPTLAC
058000     MOVE APP-ROW-SEG-ID (AP-DBSA-IX)                             PPAPTLAC
058100     TO E2018-TABLE-ENTRY1.                                       PPAPTLAC
058200     MOVE E2018-TABLE-ENTRY TO DL-FIELD.                          PPAPTLAC
058300     MOVE APPT-NUM  OF APP-ROW (AP-DBSA-IX, 1) TO NEW-APPT-NUM.   PPAPTLAC
058400                                                                  PPAPTLAC
058500     PERFORM AP-AUDIT-RSPNSBLTIES-A4900.                          PPAPTLAC
058600     EJECT                                                        PPAPTLAC
058700                                                                  PPAPTLAC
058800 COMMON-ERROR-WRITE-9100.                                         PPAPTLAC
058900                                                                  PPAPTLAC
059000     IF PPAPTLAC-MESSAGE-LITERAL (ERR-IX) = ZEROES                PPAPTLAC
059100         GO TO COMMON-ERROR-WRITE-EXIT-9199.                      PPAPTLAC
059200                                                                  PPAPTLAC
059300                                                                  PPAPTLAC
059400     PERFORM DUPLICATE-ERROR-CHK-9200                             PPAPTLAC
059500            VARYING AP04-ERROR-TABLE-PTR FROM 1 BY 1              PPAPTLAC
059600            UNTIL AP04-ERROR-TABLE-PTR > AP04-ERROR-TABLE-SIZE OR PPAPTLAC
059700                  (AP04-ERROR-TABLE-NO (AP04-ERROR-TABLE-PTR) =   PPAPTLAC
059800                  PPAPTLAC-MESSAGE-LITERAL (ERR-IX) AND           PPAPTLAC
059900                  AP04-ERROR-TABLE-FIELD (AP04-ERROR-TABLE-PTR) = PPAPTLAC
060000                  DL-FIELD).                                      PPAPTLAC
060100                                                                  PPAPTLAC
060200     IF AP04-ERROR-TABLE-PTR > AP04-ERROR-TABLE-SIZE              PPAPTLAC
060300         NEXT SENTENCE                                            PPAPTLAC
060400     ELSE                                                         PPAPTLAC
060500         GO TO COMMON-ERROR-WRITE-EXIT-9199.                      PPAPTLAC
060600                                                                  PPAPTLAC
060700     IF AP04-ERROR-TABLE-SIZE NOT = 100                           PPAPTLAC
060800         ADD 1 TO AP04-ERROR-TABLE-SIZE                           PPAPTLAC
060900         MOVE PPAPTLAC-MESSAGE-LITERAL (ERR-IX) TO                PPAPTLAC
061000              AP04-ERROR-TABLE-NO (AP04-ERROR-TABLE-SIZE)         PPAPTLAC
061100         MOVE DL-FIELD                                            PPAPTLAC
061200         TO AP04-ERROR-TABLE-FIELD (AP04-ERROR-TABLE-SIZE)        PPAPTLAC
061300     ELSE                                                         PPAPTLAC
061400         MOVE PPAPTLAC-MESSAGE-LITERAL (2) TO                     PPAPTLAC
061500              AP04-ERROR-TABLE-NO (1)                             PPAPTLAC
061600         MOVE ZEROES TO AP04-ERROR-TABLE-FIELD (1).               PPAPTLAC
061700                                                                  PPAPTLAC
061800 COMMON-ERROR-WRITE-EXIT-9199.                                    PPAPTLAC
061900     EXIT.                                                        PPAPTLAC
062000                                                                  PPAPTLAC
062100 DUPLICATE-ERROR-CHK-9200.                                        PPAPTLAC
062200     EXIT.                                                        PPAPTLAC
062300                                                                  PPAPTLAC
062400 AP-AUDIT-RSPNSBLTIES-A4900.                                      PPAPTLAC
062500                                                                  PPAPTLAC
062600     IF AP04-AUDIT-TABLE-SIZE NOT = 100                           PPAPTLAC
062700         ADD 1 TO AP04-AUDIT-TABLE-SIZE                           PPAPTLAC
062800         MOVE DL-FIELD TO AP04-AUDIT-FIELD (AP04-AUDIT-TABLE-SIZE)PPAPTLAC
062900         MOVE NEW-LENGTH                                          PPAPTLAC
063000                     TO AP04-AUDIT-LENGTH (AP04-AUDIT-TABLE-SIZE) PPAPTLAC
063100         MOVE NEW-APPT-NUM                                        PPAPTLAC
063200                     TO AP04-AUDIT-APPT (AP04-AUDIT-TABLE-SIZE)   PPAPTLAC
063300     ELSE                                                         PPAPTLAC
063400         MOVE 1 TO ERR-IX                                         PPAPTLAC
063500         MOVE ZERO TO AP04-ERROR-TABLE-SIZE                       PPAPTLAC
063600         PERFORM COMMON-ERROR-WRITE-9100 THRU                     PPAPTLAC
063700                 COMMON-ERROR-WRITE-EXIT-9199.                    PPAPTLAC
063800                                                                  PPAPTLAC
063900 AP-AUDIT-EXIT-A4999.                                             PPAPTLAC
064000     EXIT.                                                        PPAPTLAC
064100*                                                                *PPAPTLAC
064200*                                                                *PPAPTLAC
064500     EJECT                                                        PPAPTLAC
