000001**************************************************************/   30871230
000002*  PROGRAM: PPCBGHST                                         */   30871230
000003*  RELEASE: ___1230______ SERVICE REQUEST(S): _____3087____  */   30871230
000004*  NAME:___SRS___________ MODIFICATION DATE:  ___03/08/99__  */   30871230
000005*  DESCRIPTION:                                              */   30871230
000006*  REPLACE MESSAGE UTILITY CALLS WITH DB2 VERSION.           */   30871230
000007*  REPLACE COMMENTED OUT CODE WITH 'CD' LINE.                */   30871230
000008**************************************************************/   30871230
000000**************************************************************/   36450793
000001*  PROGRAM: PPCBGHST                                         */   36450793
000002*  RELEASE: ___0793______ SERVICE REQUEST(S): _____3645____  */   36450793
000003*  NAME:_______DDM_______ MODIFICATION DATE:  __07/09/93____ */   36450793
000004*  DESCRIPTION: ADDED STD PPPIDX DATE INITIALIZATION         */   36450793
000005*    FOR EDB ENTRY/UPDATE IMPLEMENTATION.                    */   36450793
000007**************************************************************/   36450793
000100**************************************************************/   36330704
000200*  PROGRAM: PPCBGHST                                         */   36330704
000300*  RELEASE # ___0704___   SERVICE REQUEST NO(S)____3633______*/   36330704
000400*  NAME __B.I.T._______   CREATION DATE     ____10/02/92_____*/   36330704
000500*  DESCRIPTION                                               */   36330704
000600*                                                            */   36330704
000700*      PPCBGHST IS A NEW PROGRAM FOR RELEASE   # 0704        */   36330704
000800*                                                            */   36330704
000900**************************************************************/   36330704
001000 IDENTIFICATION DIVISION.                                         PPCBGHST
001100 PROGRAM-ID. PPCBGHST.                                            PPCBGHST
001200 AUTHOR. BUSINESS INFORMATION TECH, INC. DWH/BIT.                 PPCBGHST
001300 INSTALLATION. UNIVERSITY OF CALIFORNIA, STANDARD SYSTEM          PPCBGHST
001400*REMARKS.                                                         PPCBGHST
001500*-----------------------------------------------------------------PPCBGHST
001600*  THIS PROGRAM RECEIVES A TABLE OF DATA ELEMENTS FROM THE CALLINGPPCBGHST
001700*  PROGRAM.                                                       PPCBGHST
001800*  THESE ELEMENTS ARE UPDATED ON THE HISTORY DATA BASE.           PPCBGHST
001900*  IF THE EDB-AUDIT FLAG IS ON THEN THE EMPLOYEES' FIELDS ARE     PPCBGHST
002000*  OBTAINED FROM THE EDB FILE.                                    PPCBGHST
002100*                                                                 PPCBGHST
002200*  THE FOLLOWING CODES ARE RETURN CODES TO PASS BACK THROUGH TO   PPCBGHST
002300*  THE CALLING PROGRAM IN IHDB-ERROR:                             PPCBGHST
002400*                         00  PROCESSING SUCCESSFUL               PPCBGHST
002500*                         02  WARNING MESSAGE SENT                PPCBGHST
002600*                         04  SYSTEMS MESSAGE SENT                PPCBGHST
002700*                         05  EMPLOYEE NOT FOUND ON EDB           PPCBGHST
002800*                         06  EMPLOYEE NOT FOUND ON HDB           PPCBGHST
002900*                         07  BAD RETURN CODE FROM PPEDBFET       PPCBGHST
003000*                         08  BAD RETURN CODE FROM PPHDBFET       PPCBGHST
003100*  AN ERROR CODE > 2 SHOULD ABEND THE PROCESS                     PPCBGHST
003200*-----------------------------------------------------------------PPCBGHST
003300 DATE-WRITTEN.  04/10/92.  VERSION 1.0.                           PPCBGHST
003400 DATE-COMPILED.                                                   PPCBGHST
003500     SKIP3                                                        PPCBGHST
003600 ENVIRONMENT DIVISION.                                            PPCBGHST
003700 CONFIGURATION SECTION.                                           PPCBGHST
003800 SOURCE-COMPUTER.  COPY CPOTXUCS.                                 PPCBGHST
003900 OBJECT-COMPUTER. COPY CPOTXOBJ.                                  PPCBGHST
004000 SPECIAL-NAMES.                                                   PPCBGHST
004100     EJECT                                                        PPCBGHST
004200 INPUT-OUTPUT SECTION.                                            PPCBGHST
004300 FILE-CONTROL.                                                    PPCBGHST
004400*                                                                 PPCBGHST
004500 DATA DIVISION.                                                   PPCBGHST
004600 FILE SECTION.                                                    PPCBGHST
004700*                                                                 PPCBGHST
004800     EJECT                                                        PPCBGHST
004900******************************************************************PPCBGHST
005000 WORKING-STORAGE SECTION.                                         PPCBGHST
005100******************************************************************PPCBGHST
005200 77  I                           PICTURE S9(5)   COMP-3.          PPCBGHST
005300*                                                                 PPCBGHST
005400*                                                                 PPCBGHST
005500 01  A-STND-PROG-ID            PIC  X(8)  VALUE 'PPCBGHST'.       PPCBGHST
005600*                                                                 PPCBGHST
005700 01  WORK-SWITCHES.                                               PPCBGHST
005800     03  SW-ON                   PIC X     VALUE 'Y'.             PPCBGHST
005900*                                                                 PPCBGHST
006000 01  WORK-AREA.                                                   PPCBGHST
006100     05  WORK-HIGH-DATE           PIC X(10) VALUE '9999-12-31'.   PPCBGHST
006200     05  WORK-HDE                 PIC X(4).                       PPCBGHST
006300     05  WORK-VALUE               PIC X(30).                      PPCBGHST
006400     05  WORK-VALUE-NUM REDEFINES WORK-VALUE                      PPCBGHST
006500                                  PIC S9(9)V9(9) COMP-3.          PPCBGHST
006600     05  RPT-TYPE-FIELDS.                                         PPCBGHST
006700         10  RPT-AMOUNT1          PIC Z,ZZZ,ZZ9.9999-.            PPCBGHST
006800         10  RPT-AMOUNT2          PIC Z,ZZZ,ZZ9.9999-.            PPCBGHST
006900*                                                                 PPCBGHST
007000     EJECT                                                        PPCBGHST
007100*-----------------------------------------------------------------PPCBGHST
007200*    INITIALIZED ROW WORK AREAS                                   PPCBGHST
007300*-----------------------------------------------------------------PPCBGHST
007400*                                                                 PPCBGHST
007500 01  INITIALIZED-ROW-DATA.                                        PPCBGHST
007600     10 EMP-CBUC             PIC X(2)         VALUE SPACES.       PPCBGHST
007700     10 EMP-DUC              PIC X(1)         VALUE SPACES.       PPCBGHST
007800     10 EMP-REL-CODE         PIC X(1)         VALUE SPACES.       PPCBGHST
007900     10 EMP-REP-CODE         PIC X(1)         VALUE SPACES.       PPCBGHST
008000     10 EMP-SPEC-HAND        PIC X(1)         VALUE SPACES.       PPCBGHST
008100*                                                                 PPCBGHST
008200*                                                                 PPCBGHST
008300 01  WORK-ROW-DATA.                                               PPCBGHST
008400     10 EMP-CBUC             PIC X(2).                            PPCBGHST
008500     10 EMP-DUC              PIC X(1).                            PPCBGHST
008600     10 EMP-REL-CODE         PIC X(1).                            PPCBGHST
008700     10 EMP-REP-CODE         PIC X(1).                            PPCBGHST
008800     10 EMP-SPEC-HAND        PIC X(1).                            PPCBGHST
008900*                                                                 PPCBGHST
009000     EJECT                                                        PPCBGHST
009100*-----------------------------------------------------------------PPCBGHST
009200*    HDB TABLE AREA                                               PPCBGHST
009300*-----------------------------------------------------------------PPCBGHST
009400 01  PPPIDX-ROW EXTERNAL.        COPY CPWSRIDX.                   PPCBGHST
009500     EJECT                                                        PPCBGHST
009600 01  PPPCBG-ROW EXTERNAL.        COPY CPWSRCBG.                   PPCBGHST
009700     EJECT                                                        PPCBGHST
009800*-----------------------------------------------------------------PPCBGHST
009900*    MESSAGE WORKING STORAGE AREA                                 PPCBGHST
010000*-----------------------------------------------------------------PPCBGHST
010100     EJECT                                                        PPCBGHST
010200 01  MSSG-INTERFACE.             COPY CPWSXMIF.                   PPCBGHST
010210 01  CALLED-ROUTINES.            COPY CPWSXRTN.                   30871230
010300*                                                                 PPCBGHST
010400     EJECT                                                        PPCBGHST
010500 01  MSSG-LITERALS.                                               PPCBGHST
010600     03  M74216                  PIC 9(5) VALUE 74216.            PPCBGHST
010700     03  M74217                  PIC 9(5) VALUE 74217.            PPCBGHST
010800     03  M74223                  PIC 9(5) VALUE 74223.            PPCBGHST
010900     03  M74224                  PIC 9(5) VALUE 74224.            PPCBGHST
011000     03  M74225                  PIC 9(5) VALUE 74225.            PPCBGHST
011100     03  M74226                  PIC 9(5) VALUE 74226.            PPCBGHST
011200     03  M74227                  PIC 9(5) VALUE 74227.            PPCBGHST
011300     03  M74228                  PIC 9(5) VALUE 74228.            PPCBGHST
011400*                                                                 PPCBGHST
011500     EJECT                                                        PPCBGHST
011600*-----------------------------------------------------------------PPCBGHST
011700*    HIF INTERFACE AREA                                           PPCBGHST
011800*-----------------------------------------------------------------PPCBGHST
011900 01  XHIF-INTERFACE.             COPY CPWSXHIF                    PPCBGHST
012000                                 REPLACING ==:TAG:== BY ==XHIF==. PPCBGHST
012100     EJECT                                                        PPCBGHST
012200*-----------------------------------------------------------------PPCBGHST
012300*    EDB INTERFACE AREA                                           PPCBGHST
012400*-----------------------------------------------------------------PPCBGHST
012500 01  PPEDBFET-INTERFACE        EXTERNAL. COPY CPLNEFET.           PPCBGHST
012600 01  PPEDBFET-DET-RETURN-ARRAY EXTERNAL. COPY CPWSEDET.           PPCBGHST
012700 01  PPEDBFET-REQUEST-ARRAY    EXTERNAL. COPY CPWSEREQ.           PPCBGHST
012800 01  PPEDBFET-D-E-RETURN-ARRAY EXTERNAL. COPY CPWSERET.           PPCBGHST
012900*                                                                 PPCBGHST
013000 01  XWHC-COMPILE-WORK-AREA.             COPY CPWSXWHC.           PPCBGHST
013100*                                                                 PPCBGHST
013200     EJECT                                                        PPCBGHST
013300 LINKAGE SECTION.                                                 PPCBGHST
013400*----------------------------------------------------------------*PPCBGHST
013500*    HDB INTERFACE AREA FROM CALLING PROGRAM                      PPCBGHST
013600*----------------------------------------------------------------*PPCBGHST
013700 01  IHDB-INTERFACE.             COPY CPWSIHDB.                   PPCBGHST
013800     EJECT                                                        PPCBGHST
013900*----------------------------------------------------------------*PPCBGHST
014000 PROCEDURE DIVISION USING IHDB-INTERFACE.                         PPCBGHST
014100*----------------------------------------------------------------*PPCBGHST
014200******************************************************************PPCBGHST
014300*----------------------------------------------------------------*PPCBGHST
014400*    MAIN LOOP                                                    PPCBGHST
014500*----------------------------------------------------------------*PPCBGHST
014600*                                                                 PPCBGHST
014700     MOVE A-STND-PROG-ID TO XWHC-DISPLAY-MODULE.                  PPCBGHST
014800     COPY  CPPDXWHC.                                              PPCBGHST
014900*                                                                 PPCBGHST
015000     PERFORM 0100-INITIALIZATION.                                 PPCBGHST
015100*                                                                 PPCBGHST
015200     PERFORM 2000-HDE-COMPARE VARYING I FROM 1 BY 1               PPCBGHST
015300             UNTIL I > IHDB-LOADED.                               PPCBGHST
015400*                                                                 PPCBGHST
015500     PERFORM 2500-INITIALIZED-ROW-CHECK.                          PPCBGHST
015600*                                                                 PPCBGHST
015700     IF INITIALIZED-ROW                                           PPCBGHST
015800         GO TO EOJ-PROC-0099                                      PPCBGHST
015900     END-IF.                                                      PPCBGHST
016000*                                                                 PPCBGHST
016100     PERFORM 3000-WRITE-HDB-REC.                                  PPCBGHST
016200*                                                                 PPCBGHST
016300 EOJ-PROC-0099.                                                   PPCBGHST
016400*----------------------------------------------------------------*PPCBGHST
016500     GOBACK.                                                      PPCBGHST
016600*----------------------------------------------------------------*PPCBGHST
016700*                                                                 PPCBGHST
016800     EJECT                                                        PPCBGHST
016900*----------------------------------------------------------------*PPCBGHST
017000 0100-INITIALIZATION  SECTION.                                    PPCBGHST
017100*----------------------------------------------------------------*PPCBGHST
017200******************************************************************PPCBGHST
017300     INITIALIZE PPPCBG-ROW.                                       PPCBGHST
017400     INITIALIZE XHIF-INTERFACE.                                   PPCBGHST
017500*----------------------------------------------------------------*PPCBGHST
017600*    IF PROCESSING AN ECF FILE, THEN THE LAST HDB RECORD FOR THE  PPCBGHST
017700*    EMPLOYEE IS READ TO POPULATE THE INTERNAL RECORD.            PPCBGHST
017800*----------------------------------------------------------------*PPCBGHST
017900     IF IHDB-ECF OR                                               PPCBGHST
018000        IHDB-CONVERSION                                           PPCBGHST
018100        PERFORM 1000-LOAD-ROW                                     PPCBGHST
018200     END-IF.                                                      PPCBGHST
018300*----------------------------------------------------------------*PPCBGHST
018400*    IF RUNNING UNDER INITIALIZATION OR EDB AUDIT,                PPCBGHST
018500*    THEN THE EDB FIELDS CORRESPONDING TO THOSE IN THE            PPCBGHST
018600*    IHDB TABLE ARE RETRIEVED TO BE MOVED INTO THE HDB TABLE.     PPCBGHST
018700*----------------------------------------------------------------*PPCBGHST
018800     IF EDB-AUDIT                                                 PPCBGHST
018900     OR IHDB-INITIALIZE                                           PPCBGHST
019000        PERFORM 1500-LOAD-EDB-DATA                                PPCBGHST
019100     END-IF.                                                      PPCBGHST
019200     IF IHDB-INITIALIZE                                           PPCBGHST
019300        PERFORM 1800-INIT-ROW                                     PPCBGHST
019400     END-IF.                                                      PPCBGHST
019500*                                                                 PPCBGHST
019600*                                                                 PPCBGHST
019700 0100-EXIT.    EXIT.                                              PPCBGHST
019800*                                                                 PPCBGHST
019900*                                                                 PPCBGHST
020000     EJECT                                                        PPCBGHST
020100*----------------------------------------------------------------*PPCBGHST
020200 1000-LOAD-ROW  SECTION.                                          PPCBGHST
020300*----------------------------------------------------------------*PPCBGHST
020400******************************************************************PPCBGHST
020500*----------------------------------------------------------------*PPCBGHST
020600*    FETCH THE LAST EMPLOYEES RECORD FROM THE CBG FILE            PPCBGHST
020700*----------------------------------------------------------------*PPCBGHST
020800     SET XHIF-COLL-BARGAINING    TO TRUE.                         PPCBGHST
020900     SET XHIF-SELECT-REQUEST     TO TRUE.                         PPCBGHST
021000     SET XHIF-TYPE-EMPLID        TO TRUE.                         PPCBGHST
021100     MOVE IHDB-EMPLOYEE-ID       TO XHIF-EMPLID.                  PPCBGHST
021200     MOVE IHDB-ITERATION         TO XHIF-ITERATION.               PPCBGHST
021300     MOVE IHDB-PROCESS-DATE      TO XHIF-DATE.                    PPCBGHST
021400     MOVE IHDB-PROCESS-TIME      TO XHIF-TIME.                    PPCBGHST
021500     MOVE SPACES                 TO XHIF-ADDITIONAL-KEY.          PPCBGHST
021600     PERFORM 9100-CALL-HDBFET.                                    PPCBGHST
021700     IF XHIF-INVALID-KEY                                          PPCBGHST
021800        PERFORM 1800-INIT-ROW                                     PPCBGHST
021900     END-IF.                                                      PPCBGHST
022000*                                                                 PPCBGHST
022100     IF IHDB-PROCESS-DATE = SYSTEM-ENTRY-DATE                     PPCBGHST
022200                            OF PPPCBG-ROW                         PPCBGHST
022300     AND IHDB-PROCESS-TIME = SYSTEM-ENTRY-TIME                    PPCBGHST
022400                            OF PPPCBG-ROW                         PPCBGHST
022500        NEXT SENTENCE                                             PPCBGHST
022600     ELSE                                                         PPCBGHST
022700        PERFORM 1700-RESET-CHANGE-IND                             PPCBGHST
022800     END-IF.                                                      PPCBGHST
022900*                                                                 PPCBGHST
023000 1000-EXIT.    EXIT.                                              PPCBGHST
023100*                                                                 PPCBGHST
023200*                                                                 PPCBGHST
023300     EJECT                                                        PPCBGHST
023400*----------------------------------------------------------------*PPCBGHST
023500 1500-LOAD-EDB-DATA  SECTION.                                     PPCBGHST
023600*----------------------------------------------------------------*PPCBGHST
023700******************************************************************PPCBGHST
023800*----------------------------------------------------------------*PPCBGHST
023900*    FETCH THE EDB DATA FOR ALL FIELDS IN THE IHDB-TABLE.         PPCBGHST
024000*----------------------------------------------------------------*PPCBGHST
024100     INITIALIZE PPEDBFET-REQUEST-ARRAY.                           PPCBGHST
024200     INITIALIZE PPEDBFET-D-E-RETURN-ARRAY.                        PPCBGHST
024300     INITIALIZE PPEDBFET-DET-RETURN-ARRAY.                        PPCBGHST
024400     INITIALIZE PPEDBFET-INTERFACE.                               PPCBGHST
024500     SET PPEDBFET-LIST-REQUEST    TO TRUE.                        PPCBGHST
024600     SET PPEDBFET-BATCH-CALL      TO TRUE.                        PPCBGHST
024700     SET PPEDBFET-ISO-DATE-RETURN TO TRUE.                        PPCBGHST
024800*                                                                 PPCBGHST
024900     PERFORM VARYING I FROM 1 BY 1 UNTIL I > IHDB-LOADED          PPCBGHST
025000        IF IHDB-DATA-USE(I) = 'G'                                 PPCBGHST
025100           MOVE '6000'             TO PPEDBFET-REQ-DATA-ELEM-NO(I)PPCBGHST
025200           MOVE IHDB-EDB-DET-NO(I) TO PPEDBFET-REQ-OCCUR-KEY(I)   PPCBGHST
025300        ELSE                                                      PPCBGHST
025400           MOVE IHDB-EDB-DET-NO(I) TO PPEDBFET-REQ-DATA-ELEM-NO(I)PPCBGHST
025500           MOVE IHDB-OCC-KEY(I)    TO PPEDBFET-REQ-OCCUR-KEY(I)   PPCBGHST
025600        END-IF                                                    PPCBGHST
025700     END-PERFORM.                                                 PPCBGHST
025800*                                                                 PPCBGHST
025900     MOVE IHDB-LOADED            TO PPEDBFET-REQUEST-LIST-SIZE.   PPCBGHST
026000     MOVE IHDB-EMPLOYEE-ID       TO PPEDBFET-EMPLOYEE-ID.         PPCBGHST
026100*                                                                 PPCBGHST
026200     CALL 'PPEDBFET'.                                             PPCBGHST
026300     IF PPEDBFET-ERROR                                            PPCBGHST
026400     OR PPEDBFET-FUNCTION-ERROR                                   PPCBGHST
026500     OR PPEDBFET-DATA-ELEM-NO-ERROR                               PPCBGHST
026600     OR PPEDBFET-LIST-SIZE-ERROR                                  PPCBGHST
026700     OR PPEDBFET-MORE-DATA                                        PPCBGHST
026800        MOVE M74216              TO XMSG-NUMBER                   PPCBGHST
026900        MOVE PPEDBFET-ERROR-INDICATORS TO XMSG-DATA               PPCBGHST
027000********PERFORM 8100-CALL-PPMSGUTL                                30871230
027010        PERFORM 8100-CALL-MESSAGE-UTILITY                         30871230
027100        SET IHDB-BAD-RETURN-EDB TO TRUE                           PPCBGHST
027200        GOBACK                                                    PPCBGHST
027300     END-IF.                                                      PPCBGHST
027400*                                                                 PPCBGHST
027500     PERFORM 1600-LOAD-EDB-HDE VARYING I FROM 1 BY 1              PPCBGHST
027600             UNTIL I > PPEDBFET-REQUEST-LIST-SIZE.                PPCBGHST
027700*                                                                 PPCBGHST
027800 1500-EXIT.    EXIT.                                              PPCBGHST
027900*                                                                 PPCBGHST
028000*                                                                 PPCBGHST
028100     EJECT                                                        PPCBGHST
028200*----------------------------------------------------------------*PPCBGHST
028300 1600-LOAD-EDB-HDE  SECTION.                                      PPCBGHST
028400*----------------------------------------------------------------*PPCBGHST
028500******************************************************************PPCBGHST
028600*----------------------------------------------------------------*PPCBGHST
028700*    SEARCH THE EXISTING HDE ARRAY AND LOAD THE EDB FIELD VALUES  PPCBGHST
028800*    INTO IT.  THIS IS DONE TO MAKE SURE THAT THE ELEMENTS ARE IN PPCBGHST
028900*    THE SAME ITERATION OF THE ARRAY AFTER CALLING THE EDB FETCH  PPCBGHST
029000*    ROUTINE.  IF THE PROCESS IS RUNNING UNDER INITIALIZATION     PPCBGHST
029100*    MODE, THEN THE VALUES FROM EDB ARE MOVED TO THE NEW-VAL FLD  PPCBGHST
029200*    SINCE THAT IS THE FIELD THAT GOES TO THE HDB RECORD.         PPCBGHST
029300*----------------------------------------------------------------*PPCBGHST
029400     IF PPEDBFET-RETURN-DATA-ELEM-NO(I) = '6000'                  PPCBGHST
029500        MOVE PPEDBFET-RETURN-OCCUR-KEY(I)    TO WORK-HDE          PPCBGHST
029600     ELSE                                                         PPCBGHST
029700        MOVE PPEDBFET-RETURN-DATA-ELEM-NO(I) TO WORK-HDE          PPCBGHST
029800     END-IF                                                       PPCBGHST
029900*                                                                 PPCBGHST
030000     SET IHDB                    TO 1.                            PPCBGHST
030100     SEARCH IHDB-DATA-ELEMENTS                                    PPCBGHST
030200     AT END                                                       PPCBGHST
030300        MOVE M74226              TO XMSG-NUMBER                   PPCBGHST
030400        MOVE PPEDBFET-RETURN-ENTRY(I) TO XMSG-DATA                PPCBGHST
030500********PERFORM 8100-CALL-PPMSGUTL                                30871230
030510        PERFORM 8100-CALL-MESSAGE-UTILITY                         30871230
030600     WHEN WORK-HDE = IHDB-EDB-DET-NO(IHDB)                        PPCBGHST
030700        IF NOT IHDB-INITIALIZE                                    PPCBGHST
030800           MOVE PPEDBFET-RETURN-VALUE(I) TO IHDB-EDB-VAL(IHDB)    PPCBGHST
030900        ELSE                                                      PPCBGHST
031000           MOVE PPEDBFET-RETURN-VALUE(I) TO IHDB-NEW-VAL(IHDB)    PPCBGHST
031100        END-IF                                                    PPCBGHST
031200     END-SEARCH.                                                  PPCBGHST
031300*                                                                 PPCBGHST
031400 1600-EXIT.    EXIT.                                              PPCBGHST
031500*                                                                 PPCBGHST
031600*                                                                 PPCBGHST
031700     EJECT                                                        PPCBGHST
031800*----------------------------------------------------------------*PPCBGHST
031900 1700-RESET-CHANGE-IND  SECTION.                                  PPCBGHST
032000*----------------------------------------------------------------*PPCBGHST
032100******************************************************************PPCBGHST
032200     MOVE SPACES                 TO EMP-CBUC-C                    PPCBGHST
032300                                    EMP-DUC-C                     PPCBGHST
032400                                    EMP-REL-CODE-C                PPCBGHST
032500                                    EMP-REP-CODE-C                PPCBGHST
032600                                    EMP-SPEC-HAND-C.              PPCBGHST
032700*                                                                 PPCBGHST
032800 1700-EXIT.    EXIT.                                              PPCBGHST
032900*                                                                 PPCBGHST
033000*                                                                 PPCBGHST
033100     EJECT                                                        PPCBGHST
033200*----------------------------------------------------------------*PPCBGHST
033300 1800-INIT-ROW  SECTION.                                          PPCBGHST
033400*----------------------------------------------------------------*PPCBGHST
033500******************************************************************PPCBGHST
033600*----------------------------------------------------------------*PPCBGHST
033700*  NO DATES EXIST AT THIS POINT IN TIME FOR THIS TABLE            PPCBGHST
033800*----------------------------------------------------------------*PPCBGHST
033900 1800-EXIT.    EXIT.                                              PPCBGHST
034000*                                                                 PPCBGHST
034100*                                                                 PPCBGHST
034200*                                                                 PPCBGHST
034300     EJECT                                                        PPCBGHST
034400*----------------------------------------------------------------*PPCBGHST
034500 2000-HDE-COMPARE  SECTION.                                       PPCBGHST
034600*----------------------------------------------------------------*PPCBGHST
034700******************************************************************PPCBGHST
034800*----------------------------------------------------------------*PPCBGHST
034900*    EACH OF THE FIELDS IN THE ARRAY ARE PROCESSED BELOW.  THE    PPCBGHST
035000*    AUDIT PROCESS IS EXECUTED AND WARNING MESSAGES ARE GENERATED PPCBGHST
035100*    IF AN AUDIT FAILS, THEN THE NEW VALUE IS PLACED INTO THE HDB PPCBGHST
035200*    RECORDS' CORRESPONDING FIELD AND THE CHANGED FLAG FOR THE    PPCBGHST
035300*    FIELD IS SET TO ON.                                          PPCBGHST
035400*----------------------------------------------------------------*PPCBGHST
035500     EVALUATE IHDB-EDB-DET-NO(I)                                  PPCBGHST
035600     WHEN '0160'                                                  PPCBGHST
035700        COMPUTE IHDB-COUNT(I) = IHDB-COUNT(I) + 1                 PPCBGHST
035800        MOVE EMP-REL-CODE                                         PPCBGHST
035900             OF PPPCBG-ROW       TO WORK-VALUE                    PPCBGHST
036000        PERFORM 2100-AUDIT-PROCESS                                PPCBGHST
036100        MOVE IHDB-NEW-VAL(I)     TO EMP-REL-CODE                  PPCBGHST
036200                                             OF PPPCBG-ROW        PPCBGHST
036300        MOVE SW-ON               TO EMP-REL-CODE-C                PPCBGHST
036400     WHEN '0255'                                                  PPCBGHST
036500        COMPUTE IHDB-COUNT(I) = IHDB-COUNT(I) + 1                 PPCBGHST
036600        MOVE EMP-CBUC                                             PPCBGHST
036700             OF PPPCBG-ROW       TO WORK-VALUE                    PPCBGHST
036800        PERFORM 2100-AUDIT-PROCESS                                PPCBGHST
036900        MOVE IHDB-NEW-VAL(I)     TO EMP-CBUC                      PPCBGHST
037000                                         OF PPPCBG-ROW            PPCBGHST
037100        MOVE SW-ON               TO EMP-CBUC-C                    PPCBGHST
037200     WHEN '0256'                                                  PPCBGHST
037300        COMPUTE IHDB-COUNT(I) = IHDB-COUNT(I) + 1                 PPCBGHST
037400        MOVE EMP-SPEC-HAND                                        PPCBGHST
037500             OF PPPCBG-ROW       TO WORK-VALUE                    PPCBGHST
037600        PERFORM 2100-AUDIT-PROCESS                                PPCBGHST
037700        MOVE IHDB-NEW-VAL(I)     TO EMP-SPEC-HAND                 PPCBGHST
037800                                              OF PPPCBG-ROW       PPCBGHST
037900        MOVE SW-ON               TO EMP-SPEC-HAND-C               PPCBGHST
038000     WHEN '0257'                                                  PPCBGHST
038100        COMPUTE IHDB-COUNT(I) = IHDB-COUNT(I) + 1                 PPCBGHST
038200        MOVE EMP-DUC                                              PPCBGHST
038300             OF PPPCBG-ROW       TO WORK-VALUE                    PPCBGHST
038400        PERFORM 2100-AUDIT-PROCESS                                PPCBGHST
038500        MOVE IHDB-NEW-VAL(I)     TO EMP-DUC                       PPCBGHST
038600                                        OF PPPCBG-ROW             PPCBGHST
038700        MOVE SW-ON               TO EMP-DUC-C                     PPCBGHST
038800     WHEN '0295'                                                  PPCBGHST
038900        COMPUTE IHDB-COUNT(I) = IHDB-COUNT(I) + 1                 PPCBGHST
039000        MOVE EMP-REP-CODE                                         PPCBGHST
039100             OF PPPCBG-ROW       TO WORK-VALUE                    PPCBGHST
039200        PERFORM 2100-AUDIT-PROCESS                                PPCBGHST
039300        MOVE IHDB-NEW-VAL(I)     TO EMP-REP-CODE                  PPCBGHST
039400                                             OF PPPCBG-ROW        PPCBGHST
039500        MOVE SW-ON               TO EMP-REP-CODE-C                PPCBGHST
039600     WHEN OTHER                                                   PPCBGHST
039700        SET IHDB-SYSTEMS         TO TRUE                          PPCBGHST
039800        MOVE M74227              TO XMSG-NUMBER                   PPCBGHST
039900        MOVE IHDB-EDB-DET-NO(I)  TO XMSG-DATA                     PPCBGHST
040000********PERFORM 8100-CALL-PPMSGUTL                                30871230
040010        PERFORM 8100-CALL-MESSAGE-UTILITY                         30871230
040100        GOBACK                                                    PPCBGHST
040200     END-EVALUATE.                                                PPCBGHST
040300*                                                                 PPCBGHST
040400 2000-EXIT.    EXIT.                                              PPCBGHST
040500*                                                                 PPCBGHST
040600*                                                                 PPCBGHST
040700*                                                                 PPCBGHST
040800     EJECT                                                        PPCBGHST
040900*----------------------------------------------------------------*PPCBGHST
041000 2100-AUDIT-PROCESS  SECTION.                                     PPCBGHST
041100*----------------------------------------------------------------*PPCBGHST
041200******************************************************************PPCBGHST
041300*----------------------------------------------------------------*PPCBGHST
041400*    CHECK FOR HDB AUDIT PROCESSING                               PPCBGHST
041500*----------------------------------------------------------------*PPCBGHST
041600     IF  HDB-AUDIT                                                PPCBGHST
041700        IF IHDB-DATA-TYPE(I) = 'N'                                PPCBGHST
041800           IF IHDB-OLD-NUM(I) NOT = WORK-VALUE-NUM                PPCBGHST
041900              MOVE WORK-VALUE-NUM  TO RPT-AMOUNT1                 PPCBGHST
042000              MOVE IHDB-OLD-NUM(I) TO RPT-AMOUNT2                 PPCBGHST
042100              STRING IHDB-EMPLOYEE-ID ' '                         PPCBGHST
042200                     IHDB-EDB-DET-NO(I) ' '                       PPCBGHST
042300                     'HDB:' RPT-AMOUNT1 ' '                       PPCBGHST
042400                     'ECF:' RPT-AMOUNT2 ' '                       PPCBGHST
042500              DELIMITED BY SIZE   INTO XMSG-DATA                  PPCBGHST
042600              MOVE M74223        TO XMSG-NUMBER                   PPCBGHST
042700**************PERFORM 8100-CALL-PPMSGUTL                          30871230
042710              PERFORM 8100-CALL-MESSAGE-UTILITY                   30871230
042800           END-IF                                                 PPCBGHST
042900        ELSE                                                      PPCBGHST
043000           IF IHDB-OLD-VAL(I) NOT = WORK-VALUE                    PPCBGHST
043100              STRING IHDB-EMPLOYEE-ID ' '                         PPCBGHST
043200                     IHDB-EDB-DET-NO(I) ' '                       PPCBGHST
043300                     'HDB:' WORK-VALUE ' '                        PPCBGHST
043400                     'ECF:' IHDB-OLD-VAL(I) ' '                   PPCBGHST
043500              DELIMITED BY SIZE   INTO XMSG-DATA                  PPCBGHST
043600              MOVE M74223        TO XMSG-NUMBER                   PPCBGHST
043700**************PERFORM 8100-CALL-PPMSGUTL                          30871230
043710              PERFORM 8100-CALL-MESSAGE-UTILITY                   30871230
043800           END-IF                                                 PPCBGHST
043900        END-IF                                                    PPCBGHST
044000     END-IF.                                                      PPCBGHST
044100*----------------------------------------------------------------*PPCBGHST
044200*    CHECK FOR EDB AUDIT PROCESSING                               PPCBGHST
044300*----------------------------------------------------------------*PPCBGHST
044400     IF  EDB-AUDIT                                                PPCBGHST
044500        IF IHDB-DATA-TYPE(I) = 'N'                                PPCBGHST
044600           IF IHDB-NEW-NUM(I) NOT = IHDB-EDB-NUM(I)               PPCBGHST
044700              MOVE IHDB-EDB-NUM(I) TO RPT-AMOUNT1                 PPCBGHST
044800              MOVE IHDB-OLD-NUM(I) TO RPT-AMOUNT2                 PPCBGHST
044900              STRING IHDB-EMPLOYEE-ID ' '                         PPCBGHST
045000                     IHDB-EDB-DET-NO(I) ' '                       PPCBGHST
045100                     'EDB:' RPT-AMOUNT1 ' '                       PPCBGHST
045200                     'ECF:' RPT-AMOUNT2 ' '                       PPCBGHST
045300              DELIMITED BY SIZE   INTO XMSG-DATA                  PPCBGHST
045400              MOVE M74224        TO XMSG-NUMBER                   PPCBGHST
045500**************PERFORM 8100-CALL-PPMSGUTL                          30871230
045510              PERFORM 8100-CALL-MESSAGE-UTILITY                   30871230
045600           END-IF                                                 PPCBGHST
045700        ELSE                                                      PPCBGHST
045800           IF IHDB-NEW-VAL(I) NOT = IHDB-EDB-VAL(I)               PPCBGHST
045900              STRING IHDB-EMPLOYEE-ID ' '                         PPCBGHST
046000                     IHDB-EDB-DET-NO(I) ' '                       PPCBGHST
046100                     'EDB:' IHDB-EDB-VAL(I) ' '                   PPCBGHST
046200                     'ECF:' IHDB-NEW-VAL(I)                       PPCBGHST
046300              DELIMITED BY SIZE   INTO XMSG-DATA                  PPCBGHST
046400              MOVE M74224        TO XMSG-NUMBER                   PPCBGHST
046500**************PERFORM 8100-CALL-PPMSGUTL                          30871230
046510              PERFORM 8100-CALL-MESSAGE-UTILITY                   30871230
046600           END-IF                                                 PPCBGHST
046700        END-IF                                                    PPCBGHST
046800     END-IF.                                                      PPCBGHST
046900*                                                                 PPCBGHST
047000 2100-EXIT.    EXIT.                                              PPCBGHST
047100*                                                                 PPCBGHST
047200*                                                                 PPCBGHST
047300*                                                                 PPCBGHST
047400     EJECT                                                        PPCBGHST
047500*----------------------------------------------------------------*PPCBGHST
047600 2500-INITIALIZED-ROW-CHECK  SECTION.                             PPCBGHST
047700*----------------------------------------------------------------*PPCBGHST
047800******************************************************************PPCBGHST
047900*                                                                 PPCBGHST
048000     MOVE CORRESPONDING PPPCBG-ROW TO WORK-ROW-DATA.              PPCBGHST
048100     MOVE SPACES                   TO IHDB-INITIALIZED-ROW.       PPCBGHST
048200*                                                                 PPCBGHST
048300     IF  WORK-ROW-DATA = INITIALIZED-ROW-DATA                     PPCBGHST
048400         SET INITIALIZED-ROW TO TRUE                              PPCBGHST
048500     END-IF.                                                      PPCBGHST
048600*                                                                 PPCBGHST
048700 2500-EXIT.    EXIT.                                              PPCBGHST
048800*                                                                 PPCBGHST
048900     EJECT                                                        PPCBGHST
049000*----------------------------------------------------------------*PPCBGHST
049100 3000-WRITE-HDB-REC  SECTION.                                     PPCBGHST
049200*----------------------------------------------------------------*PPCBGHST
049300******************************************************************PPCBGHST
049400     INITIALIZE PPPIDX-ROW.                                       PPCBGHST
049500     PERFORM 3100-GET-IDX-RECORD.                                 PPCBGHST
049600*----------------------------------------------------------------*PPCBGHST
049700*    SETUP AND CALL HDBFET TO UPDATE OR ADD THE IDX RECORD        PPCBGHST
049800*----------------------------------------------------------------*PPCBGHST
049900     MOVE ITERATION-NUMBER       OF PPPIDX-ROW                    PPCBGHST
050000                                 TO XHIF-ITERATION.               PPCBGHST
050100*                                                                 PPCBGHST
050200     IF IHDB-PROCESS-DATE = SYSTEM-ENTRY-DATE                     PPCBGHST
050300                                 OF PPPIDX-ROW                    PPCBGHST
050400        SET XHIF-UPDATE-REQUEST  TO TRUE                          PPCBGHST
050500     ELSE                                                         PPCBGHST
050600        SET XHIF-INSERT-REQUEST TO TRUE                           PPCBGHST
050700     END-IF.                                                      PPCBGHST
050800*                                                                 PPCBGHST
050900     MOVE IHDB-PROCESS-DATE   TO XHIF-DATE                        PPCBGHST
051000                                 PPPCBG-C                         PPCBGHST
051100                                 SYSTEM-ENTRY-DATE OF PPPIDX-ROW. PPCBGHST
051200*                                                                 PPCBGHST
051300     MOVE IHDB-PROCESS           TO SOURCE-INDICATOR.             PPCBGHST
051400*                                                                 PPCBGHST
051500     PERFORM 9100-CALL-HDBFET.                                    PPCBGHST
051600     IF XHIF-INVALID-KEY                                          PPCBGHST
051700        MOVE M74225              TO XMSG-NUMBER                   PPCBGHST
051800        MOVE XHIF-INTERFACE-AREA TO XMSG-DATA                     PPCBGHST
051900********PERFORM 8100-CALL-PPMSGUTL                                30871230
051910        PERFORM 8100-CALL-MESSAGE-UTILITY                         30871230
052000        SET IHDB-HDB-NOT-FOUND TO TRUE                            PPCBGHST
052100        GOBACK                                                    PPCBGHST
052200     END-IF.                                                      PPCBGHST
052300*----------------------------------------------------------------*PPCBGHST
052400*    SETUP AND CALL HDBFET TO UPDATE OR ADD THE CBG RECORD        PPCBGHST
052500*----------------------------------------------------------------*PPCBGHST
052600     SET XHIF-COLL-BARGAINING    TO TRUE.                         PPCBGHST
052700*                                                                 PPCBGHST
052800     IF IHDB-PROCESS-DATE = SYSTEM-ENTRY-DATE OF PPPCBG-ROW       PPCBGHST
052900     AND IHDB-PROCESS-TIME = SYSTEM-ENTRY-TIME OF PPPCBG-ROW      PPCBGHST
053000        SET XHIF-UPDATE-REQUEST  TO TRUE                          PPCBGHST
053100     ELSE                                                         PPCBGHST
053200        SET XHIF-INSERT-REQUEST  TO TRUE                          PPCBGHST
053300     END-IF.                                                      PPCBGHST
053400*                                                                 PPCBGHST
053500     MOVE EMPLID OF PPPIDX-ROW TO EMPLID           OF PPPCBG-ROW. PPCBGHST
053600     MOVE ITERATION-NUMBER OF PPPIDX-ROW TO ITERATION-NUMBER      PPCBGHST
053700                                                   OF PPPCBG-ROW. PPCBGHST
053800     MOVE IHDB-PROCESS-DATE TO SYSTEM-ENTRY-DATE   OF PPPCBG-ROW. PPCBGHST
053900     MOVE IHDB-PROCESS-TIME TO SYSTEM-ENTRY-TIME   OF PPPCBG-ROW. PPCBGHST
054000*                                                                 PPCBGHST
054100     PERFORM 9100-CALL-HDBFET.                                    PPCBGHST
054200     IF XHIF-INVALID-KEY                                          PPCBGHST
054300        MOVE M74225              TO XMSG-NUMBER                   PPCBGHST
054400        MOVE XHIF-INTERFACE-AREA TO XMSG-DATA                     PPCBGHST
054500********PERFORM 8100-CALL-PPMSGUTL                                30871230
054510        PERFORM 8100-CALL-MESSAGE-UTILITY                         30871230
054600        SET IHDB-HDB-NOT-FOUND TO TRUE                            PPCBGHST
054700        GOBACK                                                    PPCBGHST
054800     END-IF.                                                      PPCBGHST
054900*                                                                 PPCBGHST
055000 3000-EXIT.    EXIT.                                              PPCBGHST
055100*                                                                 PPCBGHST
055200*                                                                 PPCBGHST
055300*                                                                 PPCBGHST
055400     EJECT                                                        PPCBGHST
055500*----------------------------------------------------------------*PPCBGHST
055600 3100-GET-IDX-RECORD   SECTION.                                   PPCBGHST
055700*----------------------------------------------------------------*PPCBGHST
055800******************************************************************PPCBGHST
055900*----------------------------------------------------------------*PPCBGHST
056000*    AN IDX RECORD SHOULD EXIST FOR ALL EMPLOYEES.                PPCBGHST
056100*----------------------------------------------------------------*PPCBGHST
056200     SET XHIF-OK                 TO TRUE.                         PPCBGHST
056300     SET XHIF-INDEX-TABLE        TO TRUE.                         PPCBGHST
056400     SET XHIF-TYPE-EMPLID        TO TRUE.                         PPCBGHST
056500     MOVE IHDB-EMPLOYEE-ID       TO XHIF-EMPLID.                  PPCBGHST
056600     MOVE IHDB-ITERATION         TO XHIF-ITERATION.               PPCBGHST
056700     MOVE IHDB-PROCESS-DATE      TO XHIF-DATE.                    PPCBGHST
056800     MOVE SPACES                 TO XHIF-ADDITIONAL-KEY.          PPCBGHST
056900     SET XHIF-SELECT-REQUEST     TO TRUE.                         PPCBGHST
057000     PERFORM 9100-CALL-HDBFET.                                    PPCBGHST
057100*----------------------------------------------------------------*PPCBGHST
057200*    IF XHIF-INVALID-KEY FOR THE 2ND CALL, THEN THERE ARE NO IDX  PPCBGHST
057300*    RECORDS EVEN IN THE FUTURE FOR THIS EMPLOYEE.  THE INDEX REC PPCBGHST
057400*    SHOULD HAVE BEEN CREATED IN PPBASHST, THEREFORE, SINCE IT    PPCBGHST
057500*    IS NOT FOUND THE PROCESS ABENDS.                             PPCBGHST
057600*                                                                 PPCBGHST
057700*    IF AN IDX RECORD IS FOUND ON THE 2ND CALL, THEN PERFORM      PPCBGHST
057800*    3300-RESET-IDX-DATES SO THIS RECORD CAN BE USED AS A DEFAULT PPCBGHST
057900*    RECORD.                                                      PPCBGHST
058000*----------------------------------------------------------------*PPCBGHST
058100     IF XHIF-INVALID-KEY                                          PPCBGHST
058200        MOVE WORK-HIGH-DATE      TO XHIF-DATE                     PPCBGHST
058300        PERFORM 9100-CALL-HDBFET                                  PPCBGHST
058400        IF XHIF-INVALID-KEY                                       PPCBGHST
058500           MOVE M74228           TO XMSG-NUMBER                   PPCBGHST
058600           STRING XHIF-RETURN-STATUS                              PPCBGHST
058700                  XHIF-INTERFACE-AREA                             PPCBGHST
058800           DELIMITED BY SIZE   INTO XMSG-DATA                     PPCBGHST
058900***********PERFORM 8100-CALL-PPMSGUTL                             30871230
058910           PERFORM 8100-CALL-MESSAGE-UTILITY                      30871230
059000           SET IHDB-SYSTEMS      TO TRUE                          PPCBGHST
059100           GOBACK                                                 PPCBGHST
059200        ELSE                                                      PPCBGHST
059300           PERFORM 3300-RESET-IDX-DATES                           PPCBGHST
059400        END-IF                                                    PPCBGHST
059500     END-IF.                                                      PPCBGHST
059600*                                                                 PPCBGHST
059700 3100-EXIT.    EXIT.                                              PPCBGHST
059800*                                                                 PPCBGHST
059900*                                                                 PPCBGHST
060000*                                                                 PPCBGHST
060100     EJECT                                                        PPCBGHST
060200*----------------------------------------------------------------*PPCBGHST
060300 3300-RESET-IDX-DATES  SECTION.                                   PPCBGHST
060400*----------------------------------------------------------------*PPCBGHST
060500******************************************************************PPCBGHST
060510*                                                              CD 30871230
060520     COPY CPPDIIDX.                                               36450793
060600*                                                              CD 30871230
062200*                                                                 PPCBGHST
062300 3300-EXIT.    EXIT.                                              PPCBGHST
062400*                                                                 PPCBGHST
062500*                                                                 PPCBGHST
062600*                                                                 PPCBGHST
062700     EJECT                                                        PPCBGHST
062800*----------------------------------------------------------------*PPCBGHST
062900 8100-CALL-MESSAGE-UTILITY SECTION.                               30871230
062910*8100-CALL-PPMSGUTL    SECTION.                                   30871230
063000*----------------------------------------------------------------*PPCBGHST
063100******************************************************************PPCBGHST
063200*----------------------------------------------------------------*PPCBGHST
063300*    THIS SECTION CALLS THE MESSAGE UTILITY PROGRAM TO PROCESS    PPCBGHST
063400*    MESSAGES AND PRODUCE THE OUTPUT REPORT.                      PPCBGHST
063500*----------------------------------------------------------------*PPCBGHST
063600*****CALL 'PPMSGUTL' USING MSSG-INTERFACE.                        30871230
063610     CALL PGM-PPMSGUTL USING MSSG-INTERFACE.                      30871230
063700*                                                                 PPCBGHST
063800     MOVE SPACES                 TO XMSG-TEXT                     PPCBGHST
063900                                    XMSG-DATA                     PPCBGHST
064000                                    XMSG-USER.                    PPCBGHST
064100*                                                                 PPCBGHST
064200 8100-EXIT.    EXIT.                                              PPCBGHST
064300*                                                                 PPCBGHST
064400*                                                                 PPCBGHST
064500*                                                                 PPCBGHST
064600     EJECT                                                        PPCBGHST
064700*----------------------------------------------------------------*PPCBGHST
064800 9100-CALL-HDBFET  SECTION.                                       PPCBGHST
064900*----------------------------------------------------------------*PPCBGHST
065000******************************************************************PPCBGHST
065100*----------------------------------------------------------------*PPCBGHST
065200*    THIS SECTION CALLS THE HDB FETCH UTILITY PROGRAM TO ACCESS   PPCBGHST
065300*    THE HDB DATABASE.                                            PPCBGHST
065400*----------------------------------------------------------------*PPCBGHST
065500     SET XHIF-OK                 TO TRUE.                         PPCBGHST
065600*                                                                 PPCBGHST
065700     CALL 'PPHDBFET' USING XHIF-INTERFACE.                        PPCBGHST
065800*                                                                 PPCBGHST
065900     IF NOT XHIF-OK                                               PPCBGHST
066000        IF XHIF-INVALID-KEY                                       PPCBGHST
066100           NEXT SENTENCE                                          PPCBGHST
066200        ELSE                                                      PPCBGHST
066300           MOVE M74217              TO XMSG-NUMBER                PPCBGHST
066400           MOVE XHIF-INTERFACE-AREA TO XMSG-DATA                  PPCBGHST
066500***********PERFORM 8100-CALL-PPMSGUTL                             30871230
066510           PERFORM 8100-CALL-MESSAGE-UTILITY                      30871230
066600           MOVE M74217              TO XMSG-NUMBER                PPCBGHST
066700           MOVE XHIF-RETURN-STATUS  TO XMSG-DATA                  PPCBGHST
066800***********PERFORM 8100-CALL-PPMSGUTL                             30871230
066810           PERFORM 8100-CALL-MESSAGE-UTILITY                      30871230
066900           SET IHDB-BAD-RETURN-HDB TO TRUE                        PPCBGHST
067000           GOBACK                                                 PPCBGHST
067100        END-IF                                                    PPCBGHST
067200     END-IF.                                                      PPCBGHST
067300*                                                                 PPCBGHST
067400 9100-EXIT.    EXIT.                                              PPCBGHST
067500*DUMMY                                                            PPCBGHST
