000000**************************************************************/   37020996
000001*  PROGRAM: PPCTLR35                                         */   37020996
000002*  RELEASE: ___0996______ SERVICE REQUEST(S): ____13702____  */   37020996
000003*  NAME:_______QUAN______ MODIFICATION DATE:  ___06/07/95__  */   37020996
000004*  DESCRIPTION:                                              */   37020996
000007*  CONVERT VSAM CONTROL TABLE ACCESS TO DB2 CONTROL TABLE    */   37020996
000008*  ACCESS.                                                   */   37020996
000009*  UNCOMMENT 01 LEVEL ON VIEW INCLUDES TO FOLLOW BASE        */   37020996
000010*  STANDARDS.                                                */   37020996
000011**************************************************************/   37020996
000100******************************************************************36360705
000200*  PROGRAM:     PPCTLR35                                         *36360705
000300*  RELEASE:     0705____         SERVICE REQUEST(S): 3636____    *36360705
000400*  NAME:        M.CLARK_         CREATION DATE:      10/06/92    *36360705
000500*                                                                *36360705
000600*  DESCRIPTION: CREATED FOR TITLE CODE CONVERSION TO DB2         *36360705
000700******************************************************************36360705
000800     SKIP1                                                        PPCTLR35
000900 IDENTIFICATION DIVISION.                                         PPCTLR35
001000 PROGRAM-ID.    PPCTLR35.                                         PPCTLR35
001100 AUTHOR.        MICHAEL CLARK.                                    PPCTLR35
001200 INSTALLATION.  UNIVERSITY OF CALIFORNIA, BASE PAYROLL SYSTEM.    PPCTLR35
001300 DATE-WRITTEN.  MAY 1, 1992.                                      PPCTLR35
001400 DATE-COMPILED.                                                   PPCTLR35
001500     SKIP1                                                        PPCTLR35
001600******************************************************************PPCTLR35
001700*                                                                *PPCTLR35
001800*  PROGRAM NAME:       PPCTLR35, CONTROL TABLE 35 REPORT MODULE  *PPCTLR35
001900*  LANGUAGE:           IBM VS COBOL II                           *PPCTLR35
002000*  TYPE:               CALLED SUBPROGRAM                         *PPCTLR35
002100*                                                                *PPCTLR35
002200*  REPORTS:            PPP0041, UPDATE MESSAGES (VIA PPCTLMSG)   *PPCTLR35
002300*                      PPP0044, TITLE DATA TABLE LIST            *PPCTLR35
002400*                                                                *PPCTLR35
002500*  CALLED MODULES:     PPCTLMSG                                  *PPCTLR35
002600*                                                                *PPCTLR35
002700*  DATASETS:                                                     *PPCTLR35
002800*       INPUT:         DB2 TABLES, AS LISTED IN WORKING-STORAGE  *PPCTLR35
002900*       OUTPUT:        PRINT FILE                                *PPCTLR35
003000*       WORK:          NONE                                      *PPCTLR35
003100*                                                                *PPCTLR35
003200******************************************************************PPCTLR35
003300     EJECT                                                        PPCTLR35
003400 ENVIRONMENT DIVISION.                                            PPCTLR35
003500 CONFIGURATION SECTION.                                           PPCTLR35
003600 SOURCE-COMPUTER.                                                 PPCTLR35
003700                                 COPY CPOTXUCS.                   PPCTLR35
003800 OBJECT-COMPUTER.                                                 PPCTLR35
003900                                 COPY CPOTXOBJ.                   PPCTLR35
004000     SKIP1                                                        PPCTLR35
004100 SPECIAL-NAMES.                                                   PPCTLR35
004200     C01 IS NEW-PAGE.                                             PPCTLR35
004300     SKIP1                                                        PPCTLR35
004400 INPUT-OUTPUT SECTION.                                            PPCTLR35
004500     SKIP1                                                        PPCTLR35
004600 FILE-CONTROL.                                                    PPCTLR35
004700     SELECT  PRINT-FILE          ASSIGN    TO   UT-S-PPP0044.     PPCTLR35
004800     EJECT                                                        PPCTLR35
004900 DATA DIVISION.                                                   PPCTLR35
005000 FILE SECTION.                                                    PPCTLR35
005100 FD  PRINT-FILE                  COPY CPFDXPRT.                   PPCTLR35
005200     EJECT                                                        PPCTLR35
005300 WORKING-STORAGE SECTION.                                         PPCTLR35
005400 01  WS-AGGREGATES.                                               PPCTLR35
005500     05  WSA-IDENTITY.                                            PPCTLR35
005600         10  WSA-PROGRAM-ID      PIC  X(0008) VALUE 'PPCTLR35'.   PPCTLR35
005700         10  FILLER              PIC  X(0033) VALUE               PPCTLR35
005800             ' WORKING-STORAGE SECTION (BEGINS)'.                 PPCTLR35
005900     SKIP1                                                        PPCTLR35
006000 01  WSI-INDICATORS.                                              PPCTLR35
006100     05  WSI-MATCHES             PIC  9(0001) VALUE ZERO.         PPCTLR35
006200         88  WSI-MATCHES-NOT-FOUND            VALUE ZERO.         PPCTLR35
006300         88  WSI-MATCHES-FOUND                VALUE 1.            PPCTLR35
006400     SKIP1                                                        PPCTLR35
006500 01  WSS-STORES.                                                  PPCTLR35
006600     05  WSS-35A-TDT-ELM-ID      PIC  X(0008) VALUE SPACES.       PPCTLR35
006700         88  WSS-35A-TDT-END-OF-FILE          VALUE HIGH-VALUES.  PPCTLR35
006800     05  WSS-35B-TDT-ELM-ID      PIC  X(0008) VALUE SPACES.       PPCTLR35
006900         88  WSS-35B-TDT-END-OF-FILE          VALUE HIGH-VALUES.  PPCTLR35
007000     EJECT                                                        PPCTLR35
007100******************************************************************PPCTLR35
007200*    REPORT HEADING AND DETAIL PRINT LINES                       *PPCTLR35
007300*----------------------------------------------------------------*PPCTLR35
007400 01  RPT35-HD1.                                                   PPCTLR35
007500     05  FILLER                  PIC X(0001) VALUE SPACES.        PPCTLR35
007600     05  FILLER                  PIC X(0055) VALUE SPACES.        PPCTLR35
007700     05  FILLER                  PIC X(0021) VALUE                PPCTLR35
007800                                 'TITLE DATA TABLE LIST'.         PPCTLR35
007900     05  FILLER                  PIC X(0056) VALUE SPACES.        PPCTLR35
008000 01  RPT35-HD2.                                                   PPCTLR35
008100     05  FILLER                  PIC X(0001) VALUE SPACES.        PPCTLR35
008200     05  FILLER                  PIC X(0007) VALUE 'ELEMENT'.     PPCTLR35
008300     05  FILLER                  PIC X(0059) VALUE SPACES.        PPCTLR35
008400     05  FILLER                  PIC X(0007) VALUE 'ELEMENT'.     PPCTLR35
008500     05  FILLER                  PIC X(0049) VALUE SPACES.        PPCTLR35
008600 01  RPT35-HD3.                                                   PPCTLR35
008700     05  FILLER                  PIC X(0001) VALUE SPACES.        PPCTLR35
008800     05  FILLER                  PIC X(0002) VALUE 'ID'.          PPCTLR35
008900     05  FILLER                  PIC X(0008) VALUE SPACES.        PPCTLR35
009000     05  FILLER                  PIC X(0012) VALUE 'ELEMENT NAME'.PPCTLR35
009100     05  FILLER                  PIC X(0044) VALUE SPACES.        PPCTLR35
009200     05  FILLER                  PIC X(0005) VALUE 'VALUE'.       PPCTLR35
009300     05  FILLER                  PIC X(0009) VALUE SPACES.        PPCTLR35
009400     05  FILLER                  PIC X(0014) VALUE                PPCTLR35
009500                                 'INTERPRETATION'.                PPCTLR35
009600     05  FILLER                  PIC X(0038) VALUE SPACES.        PPCTLR35
009700     SKIP2                                                        PPCTLR35
009800 01  RPT35-DTL01                             VALUE SPACES.        PPCTLR35
009900     05  FILLER                  PIC X(0001).                     PPCTLR35
010000     05  RPT35-DTL01-ELEMENT-ID  PIC X(0008).                     PPCTLR35
010100     05  FILLER                  PIC X(0002).                     PPCTLR35
010200     05  RPT35-DTL01-ELEMENT-NAME                                 PPCTLR35
010300                                 PIC X(0050).                     PPCTLR35
010400         88  RPT35-DTL01-ELEMENT-NAME-EMPTY  VALUE SPACES.        PPCTLR35
010500         88  RPT35-DTL01-ELEMENT-NAME-ERROR  VALUE '(NOT FOUND)'. PPCTLR35
010600     05  FILLER                  PIC X(0006).                     PPCTLR35
010700     05  RPT35-DTL01-ELEMENT-VALUE                                PPCTLR35
010800                                 PIC X(0010).                     PPCTLR35
010900     05  FILLER                  PIC X(0004).                     PPCTLR35
011000     05  RPT35-DTL01-INTERPRETATION                               PPCTLR35
011100                                 PIC X(0050).                     PPCTLR35
011200         88  RPT35-DTL01-ELEMENT-VALU-EMPTY  VALUE SPACES.        PPCTLR35
011300         88  RPT35-DTL01-ELEMENT-VALU-ERROR  VALUE '(NOT FOUND)'. PPCTLR35
011400     05  FILLER                  PIC X(0002).                     PPCTLR35
011500     EJECT                                                        PPCTLR35
011600 01  XTCT-SUPPORT-FIELDS.        COPY CPWSXTCT.                   PPCTLR35
011700     EJECT                                                        PPCTLR35
011800 01  XWHC-COMPILE-WORK-AREA.     COPY CPWSXWHC.                   PPCTLR35
011900     EJECT                                                        PPCTLR35
012000 01  MSSG-INTERFACE              EXTERNAL.                        PPCTLR35
012100                                 COPY CPWSXMIF.                   PPCTLR35
012200     EJECT                                                        PPCTLR35
012300 01  PPDB2MSG-INTERFACE.         COPY CPLNKDB2.                   PPCTLR35
012400******************************************************************PPCTLR35
012500*  SQL WORKING STORAGE                                           *PPCTLR35
012600*================================================================*PPCTLR35
012700*  SQL PROGRAM-VIEWS USED:                                       *PPCTLR35
012800*                                                                *PPCTLR35
012900*                 VIEW DDL/DCL                                   *PPCTLR35
013000*  VIEW NAME      INCLUDE NAME   VIEW CURSORS                    *PPCTLR35
013100*  -------------  ------------   ------------------              *PPCTLR35
013200*  PPPVR35A_TDT   PPPVR35A       PPPVR35A_NAME_ROW               *PPCTLR35
013300*  PPPVR35B_TDT   PPPVR35B       PPPVR35B_VALUE_ROW              *PPCTLR35
013400*                                                                *PPCTLR35
013500******************************************************************PPCTLR35
013600     SKIP1                                                        PPCTLR35
013700     EXEC    SQL                                                  PPCTLR35
013800             INCLUDE SQLCA                                        PPCTLR35
013900     END-EXEC.                                                    PPCTLR35
014000     SKIP1                                                        PPCTLR35
014100*01  DCLPPPVR35A-TDT.                                             PPCTLR35
013210 01  DCLPPPVR35A-TDT.                                             37020996
014200     EXEC    SQL                                                  PPCTLR35
014300             INCLUDE PPPVR35A                                     PPCTLR35
014400     END-EXEC.                                                    PPCTLR35
014500     EJECT                                                        PPCTLR35
014600*01  DCLPPPVR35B-TDT.                                             PPCTLR35
013710 01  DCLPPPVR35B-TDT.                                             37020996
014700     EXEC    SQL                                                  PPCTLR35
014800             INCLUDE PPPVR35B                                     PPCTLR35
014900     END-EXEC.                                                    PPCTLR35
015000     EJECT                                                        PPCTLR35
015100     EJECT                                                        PPCTLR35
015200******************************************************************PPCTLR35
015300*                                                                *PPCTLR35
015400*  SQL CURSORS                                                   *PPCTLR35
015500*                                                                *PPCTLR35
015600******************************************************************PPCTLR35
015700     EXEC    SQL                                                  PPCTLR35
015800             DECLARE             PPPVR35A_NAME_ROW                PPCTLR35
015900             CURSOR                                               PPCTLR35
015100************ FOR SELECT          *                                37020996
015110             FOR SELECT          TDT_NAME_ELM_ID                  37020996
015120                              ,  TDT_NAME_ELM_VALUE               37020996
015130                              ,  TDT_NAME_ELM_TRNSL               37020996
016100                       FROM      PPPVR35A_TDT                     PPCTLR35
016200                       ORDER BY  TDT_NAME_ELM_ID                  PPCTLR35
016300                                 ,    TDT_NAME_ELM_VALUE          PPCTLR35
016400     END-EXEC.                                                    PPCTLR35
016500     SKIP1                                                        PPCTLR35
016600     EXEC    SQL                                                  PPCTLR35
016700             DECLARE             PPPVR35B_VALUE_ROW               PPCTLR35
016800             CURSOR                                               PPCTLR35
016000*************FOR SELECT          *                                37020996
016010             FOR SELECT          TDT_VALU_ELM_ID                  37020996
016020                              ,  TDT_VALU_ELM_VALUE               37020996
016030                              ,  TDT_VALU_ELM_TRNSL               37020996
017000                       FROM      PPPVR35B_TDT                     PPCTLR35
017100                       ORDER BY  TDT_VALU_ELM_ID                  PPCTLR35
017200                                 ,    TDT_VALU_ELM_VALUE          PPCTLR35
017300     END-EXEC.                                                    PPCTLR35
017400     EJECT                                                        PPCTLR35
017500 01  WS-CLOSURE.                                                  PPCTLR35
017600     05  FILLER                  PIC  X(0031)   VALUE             PPCTLR35
017700         ' WORKING-STORAGE SECTION (ENDS)'.                       PPCTLR35
017800     EJECT                                                        PPCTLR35
017900 LINKAGE SECTION.                                                 PPCTLR35
018000     SKIP1                                                        PPCTLR35
018100******************************************************************PPCTLR35
018200*             L I N K A G E     S E C T I O N                    *PPCTLR35
018300******************************************************************PPCTLR35
018400     SKIP1                                                        PPCTLR35
018500 01  CTH-CTL-TABLE-MAINT-HEADERS.                                 PPCTLR35
018600     05  CTH-RPT-HD1.                                             PPCTLR35
018700         10  FILLER              PIC  X(0001).                    PPCTLR35
018800         10  CTH-RPT-ID          PIC  X(0007).                    PPCTLR35
018900         10  FILLER              PIC  X(0001).                    PPCTLR35
019000         10  CTH-PROG-ID         PIC  X(0008).                    PPCTLR35
019100         10  FILLER              PIC  X(0001).                    PPCTLR35
019200         10  CTH-COMPILE-DATE.                                    PPCTLR35
019300             15  CTH-COMPILE-MM  PIC  9(0002).                    PPCTLR35
019400             15  CTH-COMPILE-DD  PIC  9(0002).                    PPCTLR35
019500             15  CTH-COMPILE-YY  PIC  9(0002).                    PPCTLR35
019600         10  FILLER              PIC  X(0102).                    PPCTLR35
019700         10  CTH-PAGE-NO         PIC  ZZZ,ZZ9.                    PPCTLR35
019800     05  CTH-RPT-HD2             PIC  X(0133).                    PPCTLR35
019900     05  CTH-RPT-HD3.                                             PPCTLR35
020000         10  FILLER              PIC  X(0047).                    PPCTLR35
020100         10  CTH-RPT-TTL         PIC  X(0040).                    PPCTLR35
020200         10  FILLER              PIC  X(0046).                    PPCTLR35
020300     EJECT                                                        PPCTLR35
020400 PROCEDURE DIVISION              USING                            PPCTLR35
020500                                      CTH-CTL-TABLE-MAINT-HEADERS.PPCTLR35
020600******************************************************************PPCTLR35
020700*                      SQL FROM PRECOMPILER                      *PPCTLR35
020800*----------------------------------------------------------------*PPCTLR35
020900*    THE FOLLOWING SQL WILL CAUSE ANY 'ABNORMAL' SQLCODE TO      *PPCTLR35
021000*    CAUSE A BRANCH TO 999999-SQL-ERROR.                         *PPCTLR35
021100******************************************************************PPCTLR35
021200     EXEC    SQL                                                  PPCTLR35
021300             INCLUDE   CPPDXE99                                   PPCTLR35
021400     END-EXEC.                                                    PPCTLR35
021500     SKIP3                                                        PPCTLR35
021600 00000-MAIN SECTION.                                              PPCTLR35
021700     SKIP1                                                        PPCTLR35
021800     PERFORM 10000-BEGIN-REPORT.                                  PPCTLR35
021900     SKIP1                                                        PPCTLR35
022000     PERFORM 20000-PRINT-REPORT                                   PPCTLR35
022100             UNTIL     XTCT-REPORT-COMPLETED.                     PPCTLR35
022200     SKIP1                                                        PPCTLR35
022300     PERFORM 30000-END-REPORT.                                    PPCTLR35
022400     SKIP1                                                        PPCTLR35
022500     PERFORM 00000-GOBACK.                                        PPCTLR35
022600     SKIP1                                                        PPCTLR35
022700 00000-GOBACK SECTION.                                            PPCTLR35
022800     SKIP1                                                        PPCTLR35
022900     GOBACK.                                                      PPCTLR35
023000     EJECT                                                        PPCTLR35
023100 10000-BEGIN-REPORT SECTION.                                      PPCTLR35
023200     SKIP1                                                        PPCTLR35
023300     PERFORM 81100-DISPLAY-WHEN-COMPILED.                         PPCTLR35
023400     SKIP1                                                        PPCTLR35
023500     SET     XTCT-REPORT-PPP0044                                  PPCTLR35
023600             XTCT-REPORT-CTH-RPT-TTL-RPT35                        PPCTLR35
023700                                 TO   TRUE.                       PPCTLR35
023800     OPEN    OUTPUT              PRINT-FILE.                      PPCTLR35
023900     PERFORM 21000-PRINT-REPORT-HEADING.                          PPCTLR35
024000     SKIP1                                                        PPCTLR35
024100     PERFORM 71110-OPEN-PPPVR35A-NAME-ROWS.                       PPCTLR35
024200     PERFORM 71120-FETCH-PPPVR35A-NAME-ROW.                       PPCTLR35
024300     SET     WSI-MATCHES-NOT-FOUND                                PPCTLR35
024400                                 TO   TRUE.                       PPCTLR35
024500     PERFORM 71210-OPEN-PPPVR35B-VALUE-ROWS.                      PPCTLR35
024600     PERFORM 71220-FETCH-PPPVR35B-VALUE-ROW.                      PPCTLR35
024700     EJECT                                                        PPCTLR35
024800 20000-PRINT-REPORT SECTION.                                      PPCTLR35
024900     SKIP1                                                        PPCTLR35
025000     IF      XTCT-END-OF-PAGE                                     PPCTLR35
025100             PERFORM   21000-PRINT-REPORT-HEADING                 PPCTLR35
025200     END-IF.                                                      PPCTLR35
025300     SKIP1                                                        PPCTLR35
025400     EVALUATE          TRUE                                       PPCTLR35
025500             WHEN      WSS-35A-TDT-END-OF-FILE                    PPCTLR35
025600                  AND  WSS-35B-TDT-END-OF-FILE                    PPCTLR35
025700                       SET       XTCT-REPORT-COMPLETED            PPCTLR35
025800                                 TO   TRUE                        PPCTLR35
025900     SKIP1                                                        PPCTLR35
026000             WHEN      WSS-35A-TDT-ELM-ID IS EQUAL TO             PPCTLR35
026100                                 WSS-35B-TDT-ELM-ID               PPCTLR35
026200                       SET       WSI-MATCHES-FOUND                PPCTLR35
026300                                 TO   TRUE                        PPCTLR35
026400                       MOVE      WSS-35A-TDT-ELM-ID               PPCTLR35
026500                                 TO   RPT35-DTL01-ELEMENT-ID      PPCTLR35
026600                       MOVE      TDT-NAME-ELM-TRNSL-TEXT          PPCTLR35
026700                                 TO   RPT35-DTL01-ELEMENT-NAME    PPCTLR35
026800                       MOVE      TDT-VALU-ELM-VALUE-TEXT          PPCTLR35
026900                                 TO   RPT35-DTL01-ELEMENT-VALUE   PPCTLR35
027000                       MOVE      TDT-VALU-ELM-TRNSL-TEXT          PPCTLR35
027100                                 TO   RPT35-DTL01-INTERPRETATION  PPCTLR35
027200                       PERFORM   23000-PRINT-REPORT-DETAIL        PPCTLR35
027300                       PERFORM   71220-FETCH-PPPVR35B-VALUE-ROW   PPCTLR35
027400     SKIP1                                                        PPCTLR35
027500             WHEN      WSS-35A-TDT-ELM-ID IS GREATER THAN         PPCTLR35
027600                                 WSS-35B-TDT-ELM-ID               PPCTLR35
027700                  AND  RPT35-DTL01-ELEMENT-NAME-EMPTY             PPCTLR35
027800                       SET       RPT35-DTL01-ELEMENT-NAME-ERROR   PPCTLR35
027900                                 TO   TRUE                        PPCTLR35
028000                       MOVE      WSS-35B-TDT-ELM-ID               PPCTLR35
028100                                 TO   RPT35-DTL01-ELEMENT-ID      PPCTLR35
028200                       MOVE      TDT-VALU-ELM-VALUE-TEXT          PPCTLR35
028300                                 TO   RPT35-DTL01-ELEMENT-VALUE   PPCTLR35
028400                       MOVE      TDT-VALU-ELM-TRNSL-TEXT          PPCTLR35
028500                                 TO   RPT35-DTL01-INTERPRETATION  PPCTLR35
028600                       PERFORM   23000-PRINT-REPORT-DETAIL        PPCTLR35
028700                       PERFORM   71220-FETCH-PPPVR35B-VALUE-ROW   PPCTLR35
028800     SKIP1                                                        PPCTLR35
028900             WHEN      WSS-35A-TDT-ELM-ID IS GREATER THAN         PPCTLR35
029000                                 WSS-35B-TDT-ELM-ID               PPCTLR35
029100                  AND  RPT35-DTL01-ELEMENT-VALU-EMPTY             PPCTLR35
029200                       SET       RPT35-DTL01-ELEMENT-VALU-ERROR   PPCTLR35
029300                                 TO   TRUE                        PPCTLR35
029400                       PERFORM   23000-PRINT-REPORT-DETAIL        PPCTLR35
029500     SKIP1                                                        PPCTLR35
029600             WHEN      WSS-35A-TDT-ELM-ID IS LESS THAN            PPCTLR35
029700                                 WSS-35B-TDT-ELM-ID               PPCTLR35
029800                  AND  WSI-MATCHES-FOUND                          PPCTLR35
029900                       PERFORM   71120-FETCH-PPPVR35A-NAME-ROW    PPCTLR35
030000                       SET       WSI-MATCHES-NOT-FOUND            PPCTLR35
030100                                 TO   TRUE                        PPCTLR35
030200     SKIP1                                                        PPCTLR35
030300             WHEN      WSS-35A-TDT-ELM-ID IS LESS THAN            PPCTLR35
030400                                 WSS-35B-TDT-ELM-ID               PPCTLR35
030500                       MOVE      WSS-35A-TDT-ELM-ID               PPCTLR35
030600                                 TO   RPT35-DTL01-ELEMENT-ID      PPCTLR35
030700                       MOVE      TDT-NAME-ELM-TRNSL-TEXT          PPCTLR35
030800                                 TO   RPT35-DTL01-ELEMENT-NAME    PPCTLR35
030900                       PERFORM   71120-FETCH-PPPVR35A-NAME-ROW    PPCTLR35
031000                       SET       WSI-MATCHES-NOT-FOUND            PPCTLR35
031100                                 TO   TRUE                        PPCTLR35
031200     END-EVALUATE.                                                PPCTLR35
031300     EJECT                                                        PPCTLR35
031400 21000-PRINT-REPORT-HEADING SECTION.                              PPCTLR35
031500     SKIP1                                                        PPCTLR35
031600     PERFORM 81200-PRINT-REPORT-TOP.                              PPCTLR35
031700     WRITE   PRINT-REC           FROM RPT35-HD1                   PPCTLR35
031800                                 AFTER ADVANCING 2 LINES.         PPCTLR35
031900     WRITE   PRINT-REC           FROM RPT35-HD2                   PPCTLR35
032000                                 AFTER ADVANCING 3 LINES.         PPCTLR35
032100     WRITE   PRINT-REC           FROM RPT35-HD3                   PPCTLR35
032200                                 AFTER ADVANCING 1 LINES.         PPCTLR35
032300     ADD     6                   TO   LINE-COUNT.                 PPCTLR35
032400     SKIP1                                                        PPCTLR35
032500     PERFORM 22000-EMPTY-REPORT-DETAIL.                           PPCTLR35
032600     EJECT                                                        PPCTLR35
032700 22000-EMPTY-REPORT-DETAIL SECTION.                               PPCTLR35
032800     SKIP1                                                        PPCTLR35
032900     MOVE    SPACES              TO   RPT35-DTL01.                PPCTLR35
033000     EJECT                                                        PPCTLR35
033100 23000-PRINT-REPORT-DETAIL SECTION.                               PPCTLR35
033200     SKIP1                                                        PPCTLR35
033300     WRITE   PRINT-REC           FROM RPT35-DTL01                 PPCTLR35
033400                                 AFTER ADVANCING 2 LINES.         PPCTLR35
033500     ADD     2                   TO   LINE-COUNT.                 PPCTLR35
033600     SKIP1                                                        PPCTLR35
033700     PERFORM 22000-EMPTY-REPORT-DETAIL.                           PPCTLR35
033800     EJECT                                                        PPCTLR35
033900 30000-END-REPORT SECTION.                                        PPCTLR35
034000     SKIP1                                                        PPCTLR35
034100     CLOSE   PRINT-FILE.                                          PPCTLR35
034200     EJECT                                                        PPCTLR35
034300 71110-OPEN-PPPVR35A-NAME-ROWS SECTION.                           PPCTLR35
034400     SKIP1                                                        PPCTLR35
034500     MOVE    '71110-OPEN-PPPVR35A-NAME-ROWS'                      PPCTLR35
034600                                 TO   DB2MSG-TAG.                 PPCTLR35
034700     EXEC    SQL                                                  PPCTLR35
034800             OPEN      PPPVR35A_NAME_ROW                          PPCTLR35
034900     END-EXEC.                                                    PPCTLR35
035000     EJECT                                                        PPCTLR35
035100 71120-FETCH-PPPVR35A-NAME-ROW SECTION.                           PPCTLR35
035200     SKIP1                                                        PPCTLR35
035300     MOVE    '71120-FETCH-PPPVR35A-NAME-ROW'                      PPCTLR35
035400                                 TO   DB2MSG-TAG.                 PPCTLR35
035500     EXEC    SQL                                                  PPCTLR35
035600             FETCH               PPPVR35A_NAME_ROW                PPCTLR35
034710                       INTO     :TDT-NAME-ELM-ID                  37020996
034711                              , :TDT-NAME-ELM-VALUE               37020996
034720                              , :TDT-NAME-ELM-TRNSL               37020996
034800********************** INTO      :DCLPPPVR35A-TDT                 37020996
035800     END-EXEC.                                                    PPCTLR35
035900     SKIP1                                                        PPCTLR35
036000     MOVE    SQLCODE             TO   XTCT-DB2-SQLCODE.           PPCTLR35
036100     EVALUATE          TRUE                                       PPCTLR35
036200             WHEN      XTCT-DB2-END-OF-CURSOR                     PPCTLR35
036300                       PERFORM   71130-CLOSE-PPPVR35A-NAME-ROWS   PPCTLR35
036400     SKIP1                                                        PPCTLR35
036500             WHEN      OTHER                                      PPCTLR35
036600                       MOVE      TDT-NAME-ELM-ID                  PPCTLR35
036700                                 TO   WSS-35A-TDT-ELM-ID          PPCTLR35
036800     END-EVALUATE.                                                PPCTLR35
036900     EJECT                                                        PPCTLR35
037000 71130-CLOSE-PPPVR35A-NAME-ROWS SECTION.                          PPCTLR35
037100     SKIP1                                                        PPCTLR35
037200     MOVE    '71130-CLOSE-PPPVR35A-NAME-ROWS'                     PPCTLR35
037300                                 TO   DB2MSG-TAG.                 PPCTLR35
037400     EXEC    SQL                                                  PPCTLR35
037500             CLOSE     PPPVR35A_NAME_ROW                          PPCTLR35
037600     END-EXEC.                                                    PPCTLR35
037700     SET     WSS-35A-TDT-END-OF-FILE                              PPCTLR35
037800                                 TO   TRUE.                       PPCTLR35
037900     EJECT                                                        PPCTLR35
038000 71210-OPEN-PPPVR35B-VALUE-ROWS SECTION.                          PPCTLR35
038100     SKIP1                                                        PPCTLR35
038200     MOVE    '71210-OPEN-PPPVR35B-VALUE-ROWS'                     PPCTLR35
038300                                 TO   DB2MSG-TAG.                 PPCTLR35
038400     EXEC    SQL                                                  PPCTLR35
038500             OPEN      PPPVR35B_VALUE_ROW                         PPCTLR35
038600     END-EXEC.                                                    PPCTLR35
038700     EJECT                                                        PPCTLR35
038800 71220-FETCH-PPPVR35B-VALUE-ROW SECTION.                          PPCTLR35
038900     SKIP1                                                        PPCTLR35
039000     MOVE    '71220-FETCH-PPPVR35B-VALUE-ROW'                     PPCTLR35
039100                                 TO   DB2MSG-TAG.                 PPCTLR35
039200     EXEC    SQL                                                  PPCTLR35
039300             FETCH               PPPVR35B_VALUE_ROW               PPCTLR35
038410                       INTO     :TDT-VALU-ELM-ID                  37020996
038420                              , :TDT-VALU-ELM-VALUE               37020996
038430                              , :TDT-VALU-ELM-TRNSL               37020996
038500*********************  INTO      :DCLPPPVR35B-TDT                 37020996
039500     END-EXEC.                                                    PPCTLR35
039600     SKIP1                                                        PPCTLR35
039700     MOVE    SQLCODE             TO   XTCT-DB2-SQLCODE.           PPCTLR35
039800     EVALUATE          TRUE                                       PPCTLR35
039900             WHEN      XTCT-DB2-END-OF-CURSOR                     PPCTLR35
040000                       PERFORM   71230-CLOSE-PPPVR35B-VALU-ROWS   PPCTLR35
040100     SKIP1                                                        PPCTLR35
040200             WHEN      OTHER                                      PPCTLR35
040300                       MOVE      TDT-VALU-ELM-ID                  PPCTLR35
040400                                 TO   WSS-35B-TDT-ELM-ID          PPCTLR35
040500     END-EVALUATE.                                                PPCTLR35
040600     EJECT                                                        PPCTLR35
040700 71230-CLOSE-PPPVR35B-VALU-ROWS SECTION.                          PPCTLR35
040800     SKIP1                                                        PPCTLR35
040900     MOVE    '71230-CLOSE-PPPVR35B-VALU-ROWS'                     PPCTLR35
041000                                 TO   DB2MSG-TAG.                 PPCTLR35
041100     EXEC    SQL                                                  PPCTLR35
041200             CLOSE     PPPVR35B_VALUE_ROW                         PPCTLR35
041300     END-EXEC.                                                    PPCTLR35
041400     SET     WSS-35B-TDT-END-OF-FILE                              PPCTLR35
041500                                 TO   TRUE.                       PPCTLR35
041600     EJECT                                                        PPCTLR35
041700 81100-DISPLAY-WHEN-COMPILED SECTION.                             PPCTLR35
041800     SKIP1                                                        PPCTLR35
041900     MOVE    WSA-PROGRAM-ID      TO   DB2MSG-PGM-ID               PPCTLR35
042000                                      XWHC-DISPLAY-MODULE.        PPCTLR35
042100     COPY    CPPDXWHC.                                            PPCTLR35
042200     EJECT                                                        PPCTLR35
042300 81200-PRINT-REPORT-TOP SECTION.                                  PPCTLR35
042400     SKIP1                                                        PPCTLR35
042500     IF      PAGE-COUNT IS EQUAL TO ZERO                          PPCTLR35
042600             PERFORM   81210-INITIALIZE-REPORT                    PPCTLR35
042700             END-IF.                                              PPCTLR35
042800     SKIP1                                                        PPCTLR35
042900     ADD     1                   TO   PAGE-COUNT.                 PPCTLR35
043000     MOVE    PAGE-COUNT          TO   CTH-PAGE-NO.                PPCTLR35
043100     WRITE   PRINT-REC           FROM CTH-RPT-HD1                 PPCTLR35
043200                                      AFTER ADVANCING NEW-PAGE.   PPCTLR35
043300     WRITE   PRINT-REC           FROM CTH-RPT-HD2                 PPCTLR35
043400                                      AFTER ADVANCING 1 LINE.     PPCTLR35
043500     WRITE   PRINT-REC           FROM CTH-RPT-HD3                 PPCTLR35
043600                                      AFTER ADVANCING 1 LINE.     PPCTLR35
043700     MOVE    2                   TO   NO-OF-LINES.                PPCTLR35
043800     MOVE    3                   TO   LINE-COUNT.                 PPCTLR35
043900     SKIP3                                                        PPCTLR35
044000 81210-INITIALIZE-REPORT SECTION.                                 PPCTLR35
044100     SKIP1                                                        PPCTLR35
044200     MOVE    WSA-PROGRAM-ID      TO   CTH-PROG-ID.                PPCTLR35
044300     MOVE    XTCT-REPORT-ID      TO   CTH-RPT-ID.                 PPCTLR35
044400     MOVE    XWHC-MONTH-COMPILED TO   CTH-COMPILE-MM.             PPCTLR35
044500     MOVE    XWHC-DAY-COMPILED   TO   CTH-COMPILE-DD.             PPCTLR35
044600     MOVE    XWHC-YEAR-COMPILED  TO   CTH-COMPILE-YY.             PPCTLR35
044700     MOVE    XTCT-REPORT-CTH-RPT-TTL                              PPCTLR35
044800                                 TO   CTH-RPT-TTL.                PPCTLR35
044900     SKIP3                                                        PPCTLR35
045000 88110-CALL-PPMSGUTL-MODULE SECTION.                              PPCTLR35
045100     SKIP1                                                        PPCTLR35
045200     MOVE    XTCT-REPORT-PPP0041-MESSAGE                          PPCTLR35
045300                                 TO   XMSG-NUMBER.                PPCTLR35
045400     SKIP1                                                        PPCTLR35
044600*****CALL    'PPMSGUTL'          USING MSSG-INTERFACE             37020996
044610     CALL    'PPMSGUT2'          USING MSSG-INTERFACE             37020996
045600             END-CALL.                                            PPCTLR35
045700     EJECT                                                        PPCTLR35
045800 89100-ABORT-ON-DB2-ERROR SECTION.                                PPCTLR35
045900     SKIP1                                                        PPCTLR35
046000     MOVE    DB2MSG-MESSNO       TO   XTCT-REPORT-PPP0041-MESSAGE.PPCTLR35
046100     PERFORM 88110-CALL-PPMSGUTL-MODULE.                          PPCTLR35
046200     EJECT                                                        PPCTLR35
046300*999999-SQL-ERROR.                                                PPCTLR35
046400     SKIP1                                                        PPCTLR35
046500     EXEC    SQL                                                  PPCTLR35
046600             INCLUDE   CPPDXP99                                   PPCTLR35
046700             END-EXEC.                                            PPCTLR35
046800     SKIP1                                                        PPCTLR35
046900     PERFORM 89100-ABORT-ON-DB2-ERROR.                            PPCTLR35
047000     EVALUATE          TRUE                                       PPCTLR35
047100             WHEN      XTCT-ABORT-RUN                             PPCTLR35
047200                       CONTINUE                                   PPCTLR35
047300     SKIP1                                                        PPCTLR35
047400             WHEN      OTHER                                      PPCTLR35
047500                       SET  XTCT-ABORT-RUN                        PPCTLR35
047600                                 TO   TRUE                        PPCTLR35
047700                       EXEC SQL  ROLLBACK  WORK                   PPCTLR35
047800                            END-EXEC                              PPCTLR35
047900     END-EVALUATE.                                                PPCTLR35
048000     SKIP1                                                        PPCTLR35
048100     PERFORM 00000-GOBACK.                                        PPCTLR35
