000000**************************************************************/   30871401
000001*  PROGRAM: PPCTLRPT                                         */   30871401
000002*  RELEASE: ___1401______ SERVICE REQUEST(S): _____3087____  */   30871401
000003*  NAME:__PHIL THOMPSON__ MODIFICATION DATE:  ___03/20/02__  */   30871401
000004*  DESCRIPTION:                                              */   30871401
000005*  - CHANGE REPORT ID.                                       */   30871401
000007**************************************************************/   30871401
000100**************************************************************/   30871304
000200*  PROGRAM: PPCTLRPT                                         */   30871304
000300*  RELEASE: ____1304____  SERVICE REQUEST(S): ____3087____   */   30871304
000400*  NAME:    __J.WILCOX__  MODIFICATION DATE:  __05/24/99__   */   30871304
000500*  DESCRIPTION:                                              */   30871304
000600*                                                            */   30871304
000700*    - New Base System Module                                */   30871304
000800**************************************************************/   30871304
000900 IDENTIFICATION DIVISION.                                         PPCTLRPT
001000 PROGRAM-ID.    PPCTLRPT.                                         PPCTLRPT
001100 AUTHOR.        Jerome C. Wilcox                                  PPCTLRPT
001200 INSTALLATION.  University of California, Base Payroll System.    PPCTLRPT
001300 DATE-WRITTEN.  May 24, 1999.                                     PPCTLRPT
001400 DATE-COMPILED.                                                   PPCTLRPT
001500*                                                                 PPCTLRPT
001600******************************************************************PPCTLRPT
001700*                                                                *PPCTLRPT
001800*   PPCTLRPT:                                                    *PPCTLRPT
001900*     --  Functions as a called sub-ptogram that produces        *PPCTLRPT
002000*         an activity report for the table update process.       *PPCTLRPT
002100*     --  Lists each transaction input to the update process.    *PPCTLRPT
002200*     --  Calls PPMSSG2 to retrieve error message text and       *PPCTLRPT
002300*         severity for messages issued by the update process.    *PPCTLRPT
002400*     --  Permits the printing of the message text and severity  *PPCTLRPT
002500*         on the report, plus any additional text passed to it   *PPCTLRPT
002600*         by the calling program.                                *PPCTLRPT
002700*     --  Creates one report.                                    *PPCTLRPT
002800*     --  Interfaces:                                            *PPCTLRPT
002900*           To called program (PPMSSG2):                         *PPCTLRPT
003000*              CPWSXMTI - Message Table Interface                *PPCTLRPT
003100*           To calling program:                                  *PPCTLRPT
003200*              CPLNCTRI - Control Table Report Interface.        *PPCTLRPT
003300*                                                                *PPCTLRPT
003400*   This program is driven by a series of different action       *PPCTLRPT
003500*   codes passed to it from the calling program(s). There are    *PPCTLRPT
003600*   four specific actions:                                       *PPCTLRPT
003700*        I - Initialization                                      *PPCTLRPT
003800*        P - Print                                               *PPCTLRPT
003900*        B - Break                                               *PPCTLRPT
004000*        F - Final                                               *PPCTLRPT
004100*                                                                *PPCTLRPT
004200*   In addition to the "Action" field, the interface includes    *PPCTLRPT
004300*   the following fields passed FROM the caller:                 *PPCTLRPT
004400*     - A "Spacing Override" field, which allows the caller      *PPCTLRPT
004500*       control over the number of lines skipped before          *PPCTLRPT
004600*       printing the current "group" of lines.                   *PPCTLRPT
004700*     - A "Transaction" field                                    *PPCTLRPT
004800*     - A "Transaction Disposition" field                        *PPCTLRPT
004900*     - A "Text" field which is broken into two pieces to        *PPCTLRPT
005000*       allow a "disposition" message to be printed on the       *PPCTLRPT
005100*       text line in alignment with the position in which        *PPCTLRPT
005200*     - the transaction disposition would be printed.            *PPCTLRPT
005300*     - A "Message" field                                        *PPCTLRPT
005400*     NOTE: The use of these latter four fields is dependent     *PPCTLRPT
005500*           upon the type of call being made. See the details    *PPCTLRPT
005600*           in the commentary associated with each section of    *PPCTLRPT
005700*           code implementing one of the action types.           *PPCTLRPT
005800*     NOTE: All five of these "input" fields are cleared after   *PPCTLRPT
005900*           use by the module, so that the calling programs      *PPCTLRPT
006000*           need not worry about their contents.                 *PPCTLRPT
006100*   The interface also includes a "Severity" field, which        *PPCTLRPT
006200*   serves to return the severity of the message issues (if any) *PPCTLRPT
006300*   to the calling program and is also used to signal problems   *PPCTLRPT
006400*   encountered within the reporting module.                     *PPCTLRPT
006500*                                                                *PPCTLRPT
006600*   ABNORMAL TERMINATION:                                        *PPCTLRPT
006700*     There are several situations which can trigger an abnormal *PPCTLRPT
006800*     termination of the reporting module:                       *PPCTLRPT
006900*       --  When the first action code passed from the calling   *PPCTLRPT
007000*           program is not an Initialization action              *PPCTLRPT
007100*       --  More than one Initialization call                    *PPCTLRPT
007200*       --  Requesting an invalide action type                   *PPCTLRPT
007300*                                                                *PPCTLRPT
007400*     Action taken upon an abnormal termination                  *PPCTLRPT
007500*       --  Force the print file open if it is not already       *PPCTLRPT
007600*       --  Advance to a new page and print headings             *PPCTLRPT
007700*       --  Format ane print a message line that identifies the  *PPCTLRPT
007800*           abend situations                                     *PPCTLRPT
007900*       --  Retrieve and print message CT-001                    *PPCTLRPT
008000*       --  Force the "Severity" field to a value indicating     *PPCTLRPT
008100*           that the report module has abended                   *PPCTLRPT
008200*       --  Close the print file.                                *PPCTLRPT
008300*                                                                *PPCTLRPT
008400******************************************************************PPCTLRPT
008500     EJECT                                                        PPCTLRPT
008600 ENVIRONMENT DIVISION.                                            PPCTLRPT
008700 CONFIGURATION SECTION.                                           PPCTLRPT
008800 SOURCE-COMPUTER.    IBM-390.                                     PPCTLRPT
008900 OBJECT-COMPUTER.    IBM-390.                                     PPCTLRPT
009000 SPECIAL-NAMES.                                                   PPCTLRPT
009100     C01 IS NEW-PAGE,                                             PPCTLRPT
009200     CSP IS NO-LINES.                                             PPCTLRPT
009300 INPUT-OUTPUT SECTION.                                            PPCTLRPT
009400 FILE-CONTROL.                                                    PPCTLRPT
009500     SELECT  MESSAGE-PRINT-FILE      COPY CPSLXMPF.               PPCTLRPT
009600     EJECT                                                        PPCTLRPT
009700 DATA DIVISION.                                                   PPCTLRPT
009800 FILE SECTION.                                                    PPCTLRPT
009900     SKIP1                                                        PPCTLRPT
010000 FD  MESSAGE-PRINT-FILE          COPY CPFDXPRT.                   PPCTLRPT
010100     EJECT                                                        PPCTLRPT
010200 WORKING-STORAGE SECTION.                                         PPCTLRPT
010300     SKIP1                                                        PPCTLRPT
010400 01  SWITCHS-EMPLOYED.                                            PPCTLRPT
010500     05  PRINT-FILE-OPEN-SW      PIC X           VALUE 'N'.       PPCTLRPT
010600         88  PRINT-FILE-OPEN                     VALUE 'Y'.       PPCTLRPT
010700         88  PRINT-FILE-CLOSED                   VALUE 'N'.       PPCTLRPT
010800     05  FIRST-CALL-SW           PIC X           VALUE 'Y'.       PPCTLRPT
010900         88  FIRST-CALL                          VALUE 'Y'.       PPCTLRPT
011000         88  NOT-FIRST-CALL                      VALUE 'N'.       PPCTLRPT
011100     05  SUPRESS-PRINT-SW        PIC X           VALUE 'N'.       PPCTLRPT
011200         88  SUPRESS-PRINTING                    VALUE 'Y'.       PPCTLRPT
011300         88  DONT-SUPRESS-PRINTING               VALUE 'N'.       PPCTLRPT
011400     SKIP2                                                        PPCTLRPT
011500 01  WS-WORK-AREA.                                                PPCTLRPT
011600*****05  WS-RPT-ID               PIC X(7)   VALUE 'PPP0100'.      30871401
011610     05  WS-RPT-ID               PIC X(7)   VALUE 'PPP0400'.      30871401
011700     05  WS-PROG-ID              PIC X(8)   VALUE 'PPCTLRPT'.     PPCTLRPT
011800     05  WS-REPORT-TITLE         PIC X(40)  VALUE                 PPCTLRPT
011900         '  Control Table Transaction Processing  '.              PPCTLRPT
012000     05  HOLD-AREA               PIC X(132) VALUE SPACES.         PPCTLRPT
012100     05  PAGE-LIMIT              PIC S9(4)  COMP SYNC VALUE +57.  PPCTLRPT
012200     05  LINE-COUNT              PIC S9(4)  COMP SYNC VALUE +99.  PPCTLRPT
012300     05  PAGE-COUNT              PIC S9(4)  COMP SYNC VALUE ZERO. PPCTLRPT
012400     05  NO-OF-LINES             PIC S9(4)  COMP SYNC VALUE +1.   PPCTLRPT
012500     SKIP2                                                        PPCTLRPT
012600 01  MESSAGE-LINE1.                                               PPCTLRPT
012700     05  FILLER                  PIC X(8).                        PPCTLRPT
012800     05  ML1-MESSAGE-NO          PIC XXBXXX.                      PPCTLRPT
012900     05  ML1-XMESSAGE REDEFINES ML1-MESSAGE-NO.                   PPCTLRPT
013000         10  ML1-XMSG-PROG       PIC XX.                          PPCTLRPT
013100         10  ML1-XMSG-DASH       PIC X.                           PPCTLRPT
013200         10  ML1-XMSG-NO         PIC X(3).                        PPCTLRPT
013300     05  FILLER                  PIC X(2).                        PPCTLRPT
013400     05  ML1-MSG-SEVERITY        PIC X(13).                       PPCTLRPT
013500     05  FILLER                  PIC X.                           PPCTLRPT
013600     05  ML1-MESSAGE-TEXT        PIC X(65).                       PPCTLRPT
013700     SKIP2                                                        PPCTLRPT
013800 01  TRANSACTION-LINE.                                            PPCTLRPT
013900     05  TRANSACTION-IMAGE       PIC X(80).                       PPCTLRPT
014000     05  TRANSACTION-SEPARATOR   PIC X(03).                       PPCTLRPT
014100     05  TRANSACTION-DISPO       PIC X(40).                       PPCTLRPT
014200     SKIP2                                                        PPCTLRPT
014300 01  HEADER-LINE4                PIC X(132)      VALUE SPACES.    PPCTLRPT
014400     EJECT                                                        PPCTLRPT
014500******************************************************************PPCTLSRT
014600****                                                             *PPCTLSRT
014700****     C O P I E D  W O R K I N G  S T O R A G E               *PPCTLSRT
014800****                                                             *PPCTLSRT
014900******************************************************************PPCTLSRT
015000     SKIP2                                                        PPCTLSRT
015100 01  XWHC-COMPILE-WORK-AREA.     COPY CPWSXWHC.                   PPCTLRPT
015200     SKIP3                                                        PPCTLRPT
015300 01  CTH-CTL-TABLE-MAINT-HEADERS.                                 PPCTLRPT
015400                                 COPY CPWSXCHR.                   PPCTLRPT
015500     EJECT                                                        PPCTLRPT
015600******************************************************************PPCTLSRT
015700****                                                             *PPCTLSRT
015800****  L I N K A G E S  T O  C A L L E D  M O D U L E S           *PPCTLSRT
015900****                                                             *PPCTLSRT
016000******************************************************************PPCTLSRT
016100     SKIP2                                                        PPCTLSRT
016200 01  MESSAGE-TABLE.              COPY CPWSXMTI.                   PPCTLRPT
016300     03  MSSG-RECORDS            OCCURS 20 TIMES.                 PPCTLRPT
016400         05  FILLER              PIC X(86).                       PPCTLRPT
016500         05  FILLER              PIC S9(4)     COMP SYNC.         PPCTLRPT
016600     EJECT                                                        PPCTLRPT
016700 LINKAGE SECTION.                                                 PPCTLRPT
016800     SKIP1                                                        PPCTLRPT
016900 01  CTRI-CTL-REPORT-INTERFACE.     COPY CPLNCTRI.                PPCTLRPT
017000     EJECT                                                        PPCTLRPT
017100 PROCEDURE DIVISION USING CTRI-CTL-REPORT-INTERFACE.              PPCTLRPT
017200     SKIP2                                                        PPCTLRPT
017300 MAIN-LINE-000.                                                   PPCTLRPT
017400     SKIP1                                                        PPCTLRPT
017500     MOVE ZERO TO CTRI-MESSAGE-SEVERITY.                          PPCTLRPT
017600     SKIP1                                                        PPCTLRPT
017700     IF FIRST-CALL                                                PPCTLRPT
017800         IF CTRI-ACTION-CODE = 'I'                                PPCTLRPT
017900            PERFORM INITIALIZATION-CALL-RTN-100                   PPCTLRPT
018000         ELSE                                                     PPCTLRPT
018100             PERFORM ABEND-RTN-9999                               PPCTLRPT
018200     ELSE                                                         PPCTLRPT
018300         EVALUATE CTRI-ACTION-CODE                                PPCTLRPT
018400             WHEN 'P'                                             PPCTLRPT
018500                 PERFORM PRINT-CALL-RTN-200                       PPCTLRPT
018600             WHEN 'B'                                             PPCTLRPT
018700                 PERFORM BREAK-CALL-RTN-300                       PPCTLRPT
018800             WHEN 'F'                                             PPCTLRPT
018900                 PERFORM FINAL-CALL-RTN-400                       PPCTLRPT
019000             WHEN OTHER                                           PPCTLRPT
019100                 PERFORM ABEND-RTN-9999                           PPCTLRPT
019200         END-EVALUATE                                             PPCTLRPT
019300     END-IF.                                                      PPCTLRPT
019400     SKIP3                                                        PPCTLRPT
019500     GOBACK.                                                      PPCTLRPT
019600     EJECT                                                        PPCTLRPT
019700 INITIALIZATION-CALL-RTN-100.                                     PPCTLRPT
019800     SKIP1                                                        PPCTLRPT
019900******************************************************************PPCTLRPT
020000*                                                                *PPCTLRPT
020100* The I (Initialization) call should always be the first call    *PPCTLRPT
020200* made to PPCTLRPT and should only be made once, or the program  *PPCTLRPT
020300* will be abnormally terminated.                                 *PPCTLRPT
020400*                                                                *PPCTLRPT
020500* During initialization, the module initializes the report       *PPCTLRPT
020600* headings, using information passed from the calling program as *PPCTLRPT
020700* an overlay to the  "transaction" area of the interface. If the *PPCTLRPT
020800* interface "text" area is non-blank, the contents become the    *PPCTLRPT
020900* fourth header line for the report. Once the headers are        *PPCTLRPT
021000* initialized, the print file is opened, and the first page is   *PPCTLRPT
021100* begun.                                                         *PPCTLRPT
021200*                                                                *PPCTLRPT
021300* The interface "transaction disposition" and "message" fields   *PPCTLRPT
021400* are ignored on this call.                                      *PPCTLRPT
021500*                                                                *PPCTLRPT
021600* The interface severity field returns a value of zero (0),      *PPCTLRPT
021700* unless an abnormal termination is signalled.                   *PPCTLRPT
021800*                                                                *PPCTLRPT
021900******************************************************************PPCTLRPT
022000     SKIP1                                                        PPCTLRPT
022100     MOVE WS-PROG-ID TO XWHC-DISPLAY-MODULE.                      PPCTLRPT
022200     COPY CPPDXWHC.                                               PPCTLRPT
022300     SKIP1                                                        PPCTLRPT
022400     SET NOT-FIRST-CALL TO TRUE.                                  PPCTLRPT
022500     MOVE +20 TO MSSG-TABLE-SIZE.                                 PPCTLRPT
022600     MOVE ZEROS TO MSSG-DESIRED.                                  PPCTLRPT
022700     MOVE SPACES TO MSSG-READ-MODE.                               PPCTLRPT
022800     MOVE ZERO TO MSSG-SEVERITY                                   PPCTLRPT
022900                  MSSG-HIGHEST-SEVERITY.                          PPCTLRPT
023000     SKIP1                                                        PPCTLRPT
023100     OPEN OUTPUT MESSAGE-PRINT-FILE.                              PPCTLRPT
023200     SET PRINT-FILE-OPEN TO TRUE.                                 PPCTLRPT
023300     SKIP1                                                        PPCTLRPT
023400     MOVE WS-RPT-ID TO CTH-RPT-ID.                                PPCTLRPT
023500     MOVE WS-PROG-ID TO CTH-PROG-ID.                              PPCTLRPT
023600     MOVE XWHC-MONTH-COMPILED TO CTH-COMPILE-MM.                  PPCTLRPT
023700     MOVE XWHC-DAY-COMPILED TO CTH-COMPILE-DD.                    PPCTLRPT
023800     MOVE XWHC-YEAR-COMPILED TO CTH-COMPILE-YY.                   PPCTLRPT
023900     SKIP1                                                        PPCTLRPT
024000     MOVE CTRI-PASS-INST TO CTH-RPT-INST.                         PPCTLRPT
024100     MOVE CTRI-PASS-DATE TO CTH-RPT-DATE.                         PPCTLRPT
024200     MOVE CTRI-PASS-TIME TO CTH-RPT-TIME.                         PPCTLRPT
024300     SKIP1                                                        PPCTLRPT
024400     MOVE WS-REPORT-TITLE TO CTH-RPT-TTL.                         PPCTLRPT
024500     SKIP1                                                        PPCTLRPT
024600     IF CTRI-TEXT-LINE NOT = SPACES                               PPCTLRPT
024700         MOVE CTRI-TEXT-LINE TO HEADER-LINE4                      PPCTLRPT
024800         MOVE SPACES TO CTRI-TEXT-LINE                            PPCTLRPT
024900     END-IF.                                                      PPCTLRPT
025000     SKIP1                                                        PPCTLRPT
025100     PERFORM WRITE-HEADING-RTN-900.                               PPCTLRPT
025200     SKIP1                                                        PPCTLRPT
025300     MOVE 2 TO NO-OF-LINES.                                       PPCTLRPT
025400     SKIP1                                                        PPCTLRPT
025500     MOVE SPACES TO CTRI-SPACING-OVERRIDE-FLAG,                   PPCTLRPT
025600                    CTRI-TRANSACTION,                             PPCTLRPT
025700                    CTRI-MESSAGE-NUMBER.                          PPCTLRPT
025800     EJECT                                                        PPCTLRPT
025900 PRINT-CALL-RTN-200.                                              PPCTLRPT
026000     SKIP1                                                        PPCTLRPT
026100******************************************************************PPCTLRPT
026200*                                                                *PPCTLRPT
026300* The P (Print) call results in the printing of up to three      *PPCTLRPT
026400* lines on the report, depending upon which interface fields     *PPCTLRPT
026500* contain non-blank entries:                                     *PPCTLRPT
026600*                                                                *PPCTLRPT
026700*   1) If the "Transaction" field is non-blank, the transaction  *PPCTLRPT
026800*      image is printed. In addition, if the "Transaction        *PPCTLRPT
026900*      Disposition" field is also non-blank, its contents are    *PPCTLRPT
027000*      printed on the same line as the transaction image.        *PPCTLRPT
027100*   2) If the "Message" field is non-blank, the appropriate      *PPCTLRPT
027200*      error message is retrieved and printed .                  *PPCTLRPT
027300*   3) If the "Text" field is non-blank, it is printed.          *PPCTLRPT
027400*                                                                *PPCTLRPT
027500* NOTE: If the "Message" field is non-blank, and the severity    *PPCTLRPT
027600*       of the requested message is zero (Supress Print), then   *PPCTLRPT
027700*       ALL printing for the call is supressed, as if the call   *PPCTLRPT
027800*       had never been made.                                     *PPCTLRPT
027900* ALSO: If the "Message" field is non-blank, the severity of the *PPCTLRPT
028000*       message issued is returned to the calling program in the *PPCTLRPT
028100*       "Severity" field. A value of zero (0) is always returned *PPCTLRPT
028200*       if the "Message" field is blank.                         *PPCTLRPT
028300*                                                                *PPCTLRPT
028400******************************************************************PPCTLRPT
028500     SKIP1                                                        PPCTLRPT
028600*---> First check to see if message printing is supressed         PPCTLRPT
028700     IF CTRI-MESSAGE-NUMBER = SPACES                              PPCTLRPT
028800         SET DONT-SUPRESS-PRINTING TO TRUE                        PPCTLRPT
028900     ELSE                                                         PPCTLRPT
029000         MOVE CTRI-MESSAGE-NUMBER TO MSSG-DESIRED                 PPCTLRPT
029100         PERFORM GET-MESSAGE-RTN-920                              PPCTLRPT
029200         IF MSSG-SEVERITY = ZERO                                  PPCTLRPT
029300             SET SUPRESS-PRINTING TO TRUE                         PPCTLRPT
029400         ELSE                                                     PPCTLRPT
029500             SET DONT-SUPRESS-PRINTING TO TRUE                    PPCTLRPT
029600         END-IF                                                   PPCTLRPT
029700     END-IF.                                                      PPCTLRPT
029800     SKIP1                                                        PPCTLRPT
029900     IF SUPRESS-PRINTING                                          PPCTLRPT
030000         CONTINUE                                                 PPCTLRPT
030100     ELSE                                                         PPCTLRPT
030200*--------> If transaction is present, print first                 PPCTLRPT
030300         IF CTRI-TRANSACTION NOT = SPACES                         PPCTLRPT
030400             MOVE CTRI-TRANSACTION TO TRANSACTION-IMAGE           PPCTLRPT
030500             IF CTRI-TRANSACTION-DISPO NOT = SPACES               PPCTLRPT
030600                 MOVE ' : ' TO TRANSACTION-SEPARATOR              PPCTLRPT
030700                 MOVE CTRI-TRANSACTION-DISPO TO TRANSACTION-DISPO PPCTLRPT
030800                 MOVE SPACES TO CTRI-TRANSACTION-DISPO            PPCTLRPT
030900             ELSE                                                 PPCTLRPT
031000                 MOVE SPACES TO TRANSACTION-SEPARATOR,            PPCTLRPT
031100                                TRANSACTION-DISPO                 PPCTLRPT
031200             END-IF                                               PPCTLRPT
031300             MOVE TRANSACTION-LINE TO PRINT-LN                    PPCTLRPT
031400             PERFORM WRITE-RECORD-910                             PPCTLRPT
031500             MOVE SPACES TO CTRI-TRANSACTION                      PPCTLRPT
031600         END-IF                                                   PPCTLRPT
031700*--------> If message was requested, print it now                 PPCTLRPT
031800         IF CTRI-MESSAGE-NUMBER NOT = SPACES                      PPCTLRPT
031900             MOVE MESSAGE-LINE1 TO PRINT-LN                       PPCTLRPT
032000             PERFORM WRITE-RECORD-910                             PPCTLRPT
032100             MOVE SPACES TO CTRI-MESSAGE-NUMBER                   PPCTLRPT
032200         END-IF                                                   PPCTLRPT
032300*--------> If text line is present, print it now                  PPCTLRPT
032400         IF CTRI-TEXT-LINE NOT = SPACES                           PPCTLRPT
032500             MOVE CTRI-TEXT-LINE TO PRINT-LN                      PPCTLRPT
032600             PERFORM WRITE-RECORD-910                             PPCTLRPT
032700             MOVE SPACES TO CTRI-TEXT-LINE                        PPCTLRPT
032800         END-IF                                                   PPCTLRPT
032900     END-IF.                                                      PPCTLRPT
033000     EJECT                                                        PPCTLRPT
033100 BREAK-CALL-RTN-300.                                              PPCTLRPT
033200     SKIP1                                                        PPCTLRPT
033300******************************************************************PPCTLRPT
033400*                                                                *PPCTLRPT
033500*  The B (Break) call causes the module to begin a new page.     *PPCTLRPT
033600*  If the "Text" field is non-blank, the contents replace the    *PPCTLRPT
033700*  contents of the fourth header line, are printed on the new    *PPCTLRPT
033800*  page, and retained to be printed on every following page,     *PPCTLRPT
033900*  until changed again. NOTE: If the "Text" field contains a     *PPCTLRPT
034000*  single asterisk (*) in the first position, the contents of    *PPCTLRPT
034100*  the fourth header line is deleted.                            *PPCTLRPT
034200*                                                                *PPCTLRPT
034300*  The input "Transaction", "Transaction Disposition' and        *PPCTLRPT
034400*  "Message" fields are ignored on this call.                    *PPCTLRPT
034500*                                                                *PPCTLRPT
034600*  The "Severity" field always returns a zero (0).               *PPCTLRPT
034700*                                                                *PPCTLRPT
034800******************************************************************PPCTLRPT
034900     SKIP1                                                        PPCTLRPT
035000*---> If a text line is provided, it becomes the fourth header    PPCTLRPT
035100*---> line, unless it consists of a single '*', in which case     PPCTLRPT
035200*---> the fourth header line is cleared on the call               PPCTLRPT
035300     IF CTRI-TEXT-LINE NOT = SPACES                               PPCTLRPT
035400         IF CTRI-TEXT-LINE = '*'                                  PPCTLRPT
035500             MOVE SPACES TO HEADER-LINE4                          PPCTLRPT
035600         ELSE                                                     PPCTLRPT
035700             MOVE CTRI-TEXT-LINE TO HEADER-LINE4                  PPCTLRPT
035800         END-IF                                                   PPCTLRPT
035900         MOVE SPACES TO CTRI-TEXT-LINE                            PPCTLRPT
036000     END-IF.                                                      PPCTLRPT
036100     SKIP1                                                        PPCTLRPT
036200     PERFORM WRITE-HEADING-RTN-900.                               PPCTLRPT
036300     EJECT                                                        PPCTLRPT
036400 FINAL-CALL-RTN-400.                                              PPCTLRPT
036500     SKIP1                                                        PPCTLRPT
036600******************************************************************PPCTLRPT
036700*                                                                *PPCTLRPT
036800*  The F (Final) call must be the last call to the print module. *PPCTLRPT
036900*  If the "Text" field is non-blank, the contents is printed as  *PPCTLRPT
037000*  the final line of the report. The print file is closed and    *PPCTLRPT
037100*  all other termination tasks are done.                         *PPCTLRPT
037200*                                                                *PPCTLRPT
037300*  The input "Transaction", "Transaction Disposition' and        *PPCTLRPT
037400*  "Message" fields are ignored on this call.                    *PPCTLRPT
037500*                                                                *PPCTLRPT
037600*  The highest message severity encountered by the program       *PPCTLRPT
037700*  during any previous print calls is returned in the "Severity" *PPCTLRPT
037800*  field.                                                        *PPCTLRPT
037900*                                                                *PPCTLRPT
038000******************************************************************PPCTLRPT
038100     SKIP1                                                        PPCTLRPT
038200*---> If a text line is provided, it is printed as the final      PPCTLRPT
038300*---> line of the report.                                         PPCTLRPT
038400     IF CTRI-TEXT-LINE NOT = SPACES                               PPCTLRPT
038500         MOVE CTRI-TEXT-LINE TO PRINT-LN                          PPCTLRPT
038600         PERFORM WRITE-RECORD-910                                 PPCTLRPT
038700         MOVE SPACES TO CTRI-TEXT-LINE                            PPCTLRPT
038800     END-IF.                                                      PPCTLRPT
038900*---> Return the highest message severity encountered during run  PPCTLRPT
039000     MOVE MSSG-HIGHEST-SEVERITY                                   PPCTLRPT
039100          TO CTRI-MESSAGE-SEVERITY.                               PPCTLRPT
039200*---> and close the print file to complete this run               PPCTLRPT
039300     IF PRINT-FILE-OPEN                                           PPCTLRPT
039400         CLOSE MESSAGE-PRINT-FILE                                 PPCTLRPT
039500         SET PRINT-FILE-CLOSED TO TRUE                            PPCTLRPT
039600     END-IF.                                                      PPCTLRPT
039700*---> But, we'll reset first call so that we could be re-entered  PPCTLRPT
039800     SET FIRST-CALL TO TRUE.                                      PPCTLRPT
039900     EJECT                                                        PPCTLRPT
040000 WRITE-HEADING-RTN-900.                                           PPCTLRPT
040100     SKIP1                                                        PPCTLRPT
040200     COPY CPPDXCHR.                                               PPCTLRPT
040300     SKIP1                                                        PPCTLRPT
040400     IF HEADER-LINE4 NOT = SPACES                                 PPCTLRPT
040500         MOVE HEADER-LINE4 TO PRINT-LN                            PPCTLRPT
040600         WRITE PRINT-REC AFTER ADVANCING 2 LINES                  PPCTLRPT
040700         ADD 2 TO LINE-COUNT                                      PPCTLRPT
040800     END-IF.                                                      PPCTLRPT
040900     SKIP3                                                        PPCTLRPT
041000 WRITE-RECORD-910.                                                PPCTLRPT
041100     SKIP1                                                        PPCTLRPT
041200     IF CTRI-SPACING-OVERRIDE-FLAG IS NUMERIC                     PPCTLRPT
041300         MOVE CTRI-SPACING-OVERRIDE TO NO-OF-LINES                PPCTLRPT
041400         MOVE SPACE TO CTRI-SPACING-OVERRIDE-FLAG                 PPCTLRPT
041500     END-IF.                                                      PPCTLRPT
041600     SKIP1                                                        PPCTLRPT
041700     IF (LINE-COUNT + NO-OF-LINES) > PAGE-LIMIT                   PPCTLRPT
041800         MOVE PRINT-LN TO HOLD-AREA                               PPCTLRPT
041900         PERFORM WRITE-HEADING-RTN-900                            PPCTLRPT
042000         MOVE HOLD-AREA TO PRINT-LN                               PPCTLRPT
042100         MOVE 2 TO NO-OF-LINES                                    PPCTLRPT
042200     END-IF.                                                      PPCTLRPT
042300     SKIP1                                                        PPCTLRPT
042400     WRITE PRINT-REC AFTER NO-OF-LINES.                           PPCTLRPT
042500     ADD   NO-OF-LINES TO LINE-COUNT.                             PPCTLRPT
042600     MOVE  1 TO NO-OF-LINES.                                      PPCTLRPT
042700     MOVE  SPACES TO PRINT-REC.                                   PPCTLRPT
042800     SKIP3                                                        PPCTLRPT
042900 GET-MESSAGE-RTN-920.                                             PPCTLRPT
043000     SKIP1                                                        PPCTLRPT
043100     MOVE  ZEROS  TO  MSSG-REFERENCE.                             PPCTLRPT
043200     MOVE SPACES  TO  MSSG-TEXT.                                  PPCTLRPT
043300     SKIP1                                                        PPCTLRPT
043400     CALL  'PPMSSG2'  USING MESSAGE-TABLE.                        PPCTLRPT
043500     SKIP1                                                        PPCTLRPT
043600     IF MSSG-SEVERITY > MSSG-HIGHEST-SEVERITY                     PPCTLRPT
043700         MOVE MSSG-SEVERITY TO MSSG-HIGHEST-SEVERITY              PPCTLRPT
043800     END-IF.                                                      PPCTLRPT
043900*---> Note that messages processed by this routine ignore the     PPCTLRPT
044000*---> "referenced code returned by the message utility. If a      PPCTLRPT
044100*---> second line is desired, it should be in the "Text" field    PPCTLRPT
044200*---> on the "Print" call.                                        PPCTLRPT
044300     MOVE MSSG-SEVERITY   TO  CTRI-MESSAGE-SEVERITY.              PPCTLRPT
044400     MOVE SPACES          TO  MESSAGE-LINE1.                      PPCTLRPT
044500     MOVE MSSG-PGM-NO     TO  ML1-XMSG-PROG.                      PPCTLRPT
044600     MOVE MSSG-DESIRED-NO TO  ML1-XMSG-NO.                        PPCTLRPT
044700     MOVE '-'             TO  ML1-XMSG-DASH.                      PPCTLRPT
044800     MOVE MSSG-TEXT       TO  ML1-MESSAGE-TEXT.                   PPCTLRPT
044900     MOVE MSSG-SEV-TEXT   TO  ML1-MSG-SEVERITY.                   PPCTLRPT
045000     EJECT                                                        PPCTLRPT
045100 ABEND-RTN-9999.                                                  PPCTLRPT
045200     SKIP1                                                        PPCTLRPT
045300*---> ABENDS on:                                                  PPCTLRPT
045400*--->  1. First call is not initialization call                   PPCTLRPT
045500*--->  2. A second initialization call without a final call       PPCTLRPT
045600*--->  3. An invalid call type                                    PPCTLRPT
045700*---> Report is forced open, if necessary, Message CT-001 is      PPCTLRPT
045800*---> retrieved and printed, and a message severity of 99 is      PPCTLRPT
045900*---> returned to the calling program.                            PPCTLRPT
046000     SKIP1                                                        PPCTLRPT
046100*---> Force the report open, if necessary                         PPCTLRPT
046200     IF FIRST-CALL                                                PPCTLRPT
046300         MOVE ZEROS TO MSSG-TABLE-SIZE                            PPCTLRPT
046400         MOVE SPACES TO MSSG-READ-MODE                            PPCTLRPT
046500         IF PRINT-FILE-CLOSED                                     PPCTLRPT
046600             SET PRINT-FILE-OPEN TO TRUE                          PPCTLRPT
046700             OPEN OUTPUT MESSAGE-PRINT-FILE                       PPCTLRPT
046800     END-IF.                                                      PPCTLRPT
046900*---> Print a line indicating that the report program abended     PPCTLRPT
047000     MOVE '>>>>> PPCTLRPT IS ABENDING <<<<<' TO HEADER-LINE4.     PPCTLRPT
047100     PERFORM WRITE-HEADING-RTN-900.                               PPCTLRPT
047200*---> Print a line explaining exactly why                         PPCTLRPT
047300     IF FIRST-CALL AND NOT CTRI-INIT-CALL                         PPCTLRPT
047400         MOVE 'First call to PPCTLRPT was not Init call' TO       PPCTLRPT
047500             PRINT-LN                                             PPCTLRPT
047600     ELSE                                                         PPCTLRPT
047700         IF CTRI-INIT-CALL                                        PPCTLRPT
047800             MOVE 'Multiple Init calls made to PPCTLRPT' TO       PPCTLRPT
047900                 PRINT-LN                                         PPCTLRPT
048000         ELSE                                                     PPCTLRPT
048100             MOVE SPACES TO PRINT-LN                              PPCTLRPT
048200             STRING CTRI-ACTION-CODE,                             PPCTLRPT
048300                    ' is not a valid PPCTLRPT action code'        PPCTLRPT
048400                 DELIMITED BY SIZE INTO PRINT-LN                  PPCTLRPT
048500         END-IF                                                   PPCTLRPT
048600     END-IF.                                                      PPCTLRPT
048700     SKIP1                                                        PPCTLRPT
048800     MOVE  2  TO  NO-OF-LINES.                                    PPCTLRPT
048900     PERFORM WRITE-RECORD-910.                                    PPCTLRPT
049000*---> Issue message CT-001                                        PPCTLRPT
049100     MOVE 'CT001' TO  MSSG-DESIRED.                               PPCTLRPT
049200     PERFORM GET-MESSAGE-RTN-920.                                 PPCTLRPT
049300     SKIP1                                                        PPCTLRPT
049400     MOVE  MESSAGE-LINE1  TO  PRINT-LN.                           PPCTLRPT
049500     MOVE  2  TO  NO-OF-LINES.                                    PPCTLRPT
049600     PERFORM WRITE-RECORD-910.                                    PPCTLRPT
049700*---> Force the severity to the special ABEND value               PPCTLRPT
049800     MOVE 99 TO CTRI-MESSAGE-SEVERITY.                            PPCTLRPT
049900*---> Close the print file                                        PPCTLRPT
050000     IF PRINT-FILE-OPEN                                           PPCTLRPT
050100         CLOSE MESSAGE-PRINT-FILE                                 PPCTLRPT
050200         SET PRINT-FILE-CLOSED TO TRUE                            PPCTLRPT
050300     END-IF.                                                      PPCTLRPT
050400*---> and make it look like the module was never called           PPCTLRPT
050500     SET FIRST-CALL TO TRUE.                                      PPCTLRPT
