000100**************************************************************/   30871413
000200*  PROGRAM: PPCTT14E                                         */   30871413
000300*  RELEASE: ___1413______ SERVICE REQUEST(S): _____3087____  */   30871413
000400*  NAME:___SRS___________ CREATION DATE:      ___05/21/02__  */   30871413
000500*  DESCRIPTION:                                              */   30871413
000600*  PPPBRE TABLE TRANSACTION ASSEMBLY MODULE                  */   30871413
000700**************************************************************/   30871413
000800 IDENTIFICATION DIVISION.                                         PPCTT14E
000900 PROGRAM-ID. PPCTT14E.                                            PPCTT14E
001000 INSTALLATION. UNIVERSITY OF CALIFORNIA.                          PPCTT14E
001100 DATE-COMPILED.                                                   PPCTT14E
001200 DATA DIVISION.                                                   PPCTT14E
001300 FILE SECTION.                                                    PPCTT14E
001400 WORKING-STORAGE SECTION.                                         PPCTT14E
001500                                                                  PPCTT14E
001600 01  WA-WORK-VARIABLES.                                           PPCTT14E
001700     05  WA-READ-ERROR.                                           PPCTT14E
001800         10 FILLER                     PIC X(37) VALUE            PPCTT14E
001900                 'PPCTLTRD ERROR ON TRANS CALL: RETURN='.         PPCTT14E
002000         10 WA-RTN-CODE                PIC XX.                    PPCTT14E
002100         10 FILLER                     PIC X(07) VALUE            PPCTT14E
002200                 ' COUNT='.                                       PPCTT14E
002300         10 WA-WORK-Z5                 PIC ZZ,ZZ9.                PPCTT14E
002400 01  WB-PROGRAM-CONSTANTS.                                        PPCTT14E
002500     05  WB-TABLE-NO                   PIC X(2) VALUE '14'.       PPCTT14E
002600 01  WC-PROGRAM-COUNTERS COMP SYNC.                               PPCTT14E
002700     05  WC-ERR-IX                     PIC S9(04) VALUE ZERO.     PPCTT14E
002800     05  WC-SET-CNT                    PIC S9(04) VALUE ZERO.     PPCTT14E
002900     05  WC-TALLY                      PIC S9(04) VALUE ZERO.     PPCTT14E
003000     05  IX                            PIC S9(04) VALUE ZERO.     PPCTT14E
003100 01  WF-PROGRAM-FLAGS.                                            PPCTT14E
003200     05  WF-ERROR-FLAG                 PIC 9(2) VALUE ZERO.       PPCTT14E
003300         88  WF-NO-ERRORS                       VALUE ZERO.       PPCTT14E
003400         88  WF-ACCEPT-SET                      VALUES 00 THRU 04.PPCTT14E
003500         88  WF-REJECT-SET                      VALUES 05 THRU 99.PPCTT14E
003600     05  WF-E-TRANS-FLAG               PIC X    VALUE 'N'.        PPCTT14E
003700         88  WF-E-TRANS-END                     VALUE 'Y'.        PPCTT14E
003800         88  WF-E-TRANS-NOT-END                 VALUE 'N'.        PPCTT14E
003900 01  WM-ERROR-MESSAGE-CODES.                                      PPCTT14E
004000     05  MCT001                     PIC X(05) VALUE 'CT001'.      PPCTT14E
004100     05  MCT011                     PIC X(05) VALUE 'CT011'.      PPCTT14E
004200     05  MCT020                     PIC X(05) VALUE 'CT020'.      PPCTT14E
004300     05  MCT021                     PIC X(05) VALUE 'CT021'.      PPCTT14E
004400     05  MCT022                     PIC X(05) VALUE 'CT022'.      PPCTT14E
004500     05  MCT023                     PIC X(05) VALUE 'CT023'.      PPCTT14E
004600 01  SAVE-CONSTANTS.                                              PPCTT14E
004700     05  SVE-DATA                   PIC X(18) VALUE               PPCTT14E
004800                                     '163540455055606570'.        PPCTT14E
004900     05  SVE-MIN-TABLE REDEFINES SVE-DATA.                        PPCTT14E
005000         10 SVE-MIN-AGE       OCCURS 09 TIMES                     PPCTT14E
005100                                    PIC 99.                       PPCTT14E
005200     05  SVE-MAX-TABLE.                                           PPCTT14E
005300         10 SVE-MAX-AGE       OCCURS 09 TIMES                     PPCTT14E
005400                                    PIC S9(04) COMP.              PPCTT14E
005500 01  SAVE-DATA.                                                   PPCTT14E
005600     05  SVE-MAX-SAL-X.                                           PPCTT14E
005700         10 SVE-MAX-SAL             PIC 9(05).                    PPCTT14E
005800     05  SVE-RATES OCCURS 09 TIMES.                               PPCTT14E
005900         10 SVE-RATE-07-X.                                        PPCTT14E
006000            15 SVE-RATE-07          PIC V9(04).                   PPCTT14E
006100         10 SVE-RATE-30-X.                                        PPCTT14E
006200            15 SVE-RATE-30          PIC V9(04).                   PPCTT14E
006300         10 SVE-RATE-90-X.                                        PPCTT14E
006400            15 SVE-RATE-90          PIC V9(04).                   PPCTT14E
006500         10 SVE-RATE-180-X.                                       PPCTT14E
006600            15 SVE-RATE-180         PIC V9(04).                   PPCTT14E
006700 01  WS-SET-WORK-AREA.                                            PPCTT14E
006800     05  WS-VALID-NEXT-SEQ-NOS      PIC X(10) VALUE LOW-VALUES.   PPCTT14E
006900     05  WS-SET-END-FLAG            PIC X(01) VALUE 'N'.          PPCTT14E
007000         88  WS-SET-END-NOT-OK                VALUE 'N'.          PPCTT14E
007100         88  WS-SET-END-OK                    VALUE 'Y'.          PPCTT14E
007200     05  WS-SET-STATUS-FLAG         PIC X(01) VALUE 'N'.          PPCTT14E
007300         88  WS-SET-OK                        VALUE 'Y'.          PPCTT14E
007400         88  WS-SET-NOT-OK                    VALUE 'N'.          PPCTT14E
007500     05  WS-SET-KEY.                                              PPCTT14E
007600         10  WS-SET-ACTION          PIC X(01).                    PPCTT14E
007700             88  WS-ADD-SET                   VALUE 'A'.          PPCTT14E
007800             88  WS-CHANGE-SET                VALUE 'C'.          PPCTT14E
007900             88  WS-DELETE-SET                VALUE 'D'.          PPCTT14E
008000         10  WS-SET-CBUC            PIC X(02).                    PPCTT14E
008100         10  WS-SET-REP             PIC X(01).                    PPCTT14E
008200         10  WS-SET-SHC             PIC X(01).                    PPCTT14E
008300         10  WS-SET-DUC             PIC X(01).                    PPCTT14E
008400     05  WS-HOLD-KEY                PIC X(06) VALUE LOW-VALUES.   PPCTT14E
008500                                                                  PPCTT14E
008600 01  BRE-EPD-TABLE-TRANS.                                         PPCTT14E
008700     05  BRET-ACTION-CODE           PIC X.                        PPCTT14E
008800         88  COMMENT-TRANSACTION               VALUE '*'.         PPCTT14E
008900         88  ADD-TRANSACTION                   VALUE 'A'.         PPCTT14E
009000         88  CHANGE-TRANSACTION                VALUE 'C'.         PPCTT14E
009100         88  DELETE-TRANSACTION                VALUE 'D'.         PPCTT14E
009200     05  FILLER                     PIC X(05).                    PPCTT14E
009300     05  BRET-TRAN-SEQ-NO           PIC XX.                       PPCTT14E
009400         88  BRET-TRAN-SEQ-NO-VALID VALUES '00' '01' '02'         PPCTT14E
009500                                           '03' '04'.             PPCTT14E
009600     05  FILLER                     PIC X.                        PPCTT14E
009700     05  BRET-DATA-0.                                             PPCTT14E
009800         10 FILLER                  PIC X(41).                    PPCTT14E
009900         10 BRET-MAX-SAL-X.                                       PPCTT14E
010000            15 BRET-MAX-SAL         PIC 9(05).                    PPCTT14E
010100         10 FILLER                  PIC X(05).                    PPCTT14E
010200     05  BRET-DATA-1 REDEFINES BRET-DATA-0.                       PPCTT14E
010300         10 BRET-RATE1 OCCURS 09 TIMES.                           PPCTT14E
010400            15 BRET-RATE-07-X.                                    PPCTT14E
010500               20 BRET-RATE-07          PIC V9(04).               PPCTT14E
010600         10 FILLER                  PIC X(15).                    PPCTT14E
010700     05  BRET-DATA-2 REDEFINES BRET-DATA-0.                       PPCTT14E
010800         10 BRET-RATE2 OCCURS 09 TIMES.                           PPCTT14E
010900            15 BRET-RATE-30-X.                                    PPCTT14E
011000               20 BRET-RATE-30          PIC V9(04).               PPCTT14E
011100         10 FILLER                  PIC X(15).                    PPCTT14E
011200     05  BRET-DATA-3 REDEFINES BRET-DATA-0.                       PPCTT14E
011300         10 BRET-RATE3 OCCURS 09 TIMES.                           PPCTT14E
011400            15 BRET-RATE-90-X.                                    PPCTT14E
011500               20 BRET-RATE-90          PIC V9(04).               PPCTT14E
011600         10 FILLER                  PIC X(15).                    PPCTT14E
011700     05  BRET-DATA-4 REDEFINES BRET-DATA-0.                       PPCTT14E
011800         10 BRET-RATE4 OCCURS 09 TIMES.                           PPCTT14E
011900            15 BRET-RATE-180-X.                                   PPCTT14E
012000               20 BRET-RATE-180         PIC V9(04).               PPCTT14E
012100         10 FILLER                  PIC X(15).                    PPCTT14E
012200     05  BRET-CBUC                  PIC XX.                       PPCTT14E
012300     05  BRET-REP                   PIC X.                        PPCTT14E
012400     05  BRET-SHC                   PIC X.                        PPCTT14E
012500     05  BRET-DUC                   PIC X.                        PPCTT14E
012600     05  BRET-EFFECTIVE-DATE        PIC X(06).                    PPCTT14E
012700     05  FILLER                     PIC X(09).                    PPCTT14E
012800                                                                  PPCTT14E
012900 01  XWHC-COMPILE-WORK-AREA.           COPY CPWSXWHC.             PPCTT14E
013000 01  CTRI-CTL-REPORT-INTERFACE.        COPY CPLNCTRI.             PPCTT14E
013100 01  CONTROL-TABLE-EDIT-INTERFACE.     COPY CPLNKCTE.             PPCTT14E
013200 01  CONTROL-TABLE-UPDT-INTERFACE.     COPY CPLNKCTU.             PPCTT14E
013300 01  BRE-EPD-TABLE-INPUT.              COPY CPCTBREI.             PPCTT14E
013400 01  BRE-EPD-TABLE-DATA.                                          PPCTT14E
013500     EXEC SQL                                                     PPCTT14E
013600         INCLUDE PPPVZBRE                                         PPCTT14E
013700     END-EXEC.                                                    PPCTT14E
013800                                                                  PPCTT14E
013900 LINKAGE SECTION.                                                 PPCTT14E
014000                                                                  PPCTT14E
014100 01  CTTI-CTL-TBL-TRANS-INTERFACE.     COPY CPLNCTTI.             PPCTT14E
014200 01  CSRI-CTL-SORTED-READ-INTERFACE.   COPY CPLNCSRI.             PPCTT14E
014300                                                                  PPCTT14E
014400 PROCEDURE DIVISION USING CTTI-CTL-TBL-TRANS-INTERFACE            PPCTT14E
014500                          CSRI-CTL-SORTED-READ-INTERFACE.         PPCTT14E
014600                                                                  PPCTT14E
014700 0000-MAIN SECTION.                                               PPCTT14E
014800                                                                  PPCTT14E
015300     PERFORM 1000-PROGRAM-INITIALIZATION.                         PPCTT14E
015400     PERFORM 2000-PROCESS-TRANSACTIONS                            PPCTT14E
015500       UNTIL CSRI-TABLE-TRANS-END                                 PPCTT14E
015600          OR WF-E-TRANS-END.                                      PPCTT14E
015700     PERFORM 3000-FINISH-PREVIOUS-SET.                            PPCTT14E
015800                                                                  PPCTT14E
015900 0999-END.                                                        PPCTT14E
016000                                                                  PPCTT14E
016100     GOBACK.                                                      PPCTT14E
016200                                                                  PPCTT14E
016300 1000-PROGRAM-INITIALIZATION SECTION.                             PPCTT14E
016400                                                                  PPCTT14E
016500     MOVE 'PPCTT14E'            TO XWHC-DISPLAY-MODULE.           PPCTT14E
016600     COPY CPPDXWHC.                                               PPCTT14E
016700     SET CTTI-NORMAL            TO TRUE.                          PPCTT14E
016800     SET WF-E-TRANS-NOT-END     TO TRUE.                          PPCTT14E
016900     SET CTRI-PRINT-CALL        TO TRUE.                          PPCTT14E
016910     MOVE LOW-VALUES            TO WS-HOLD-KEY.                   PPCTT14E
017000     MOVE SPACES                TO CTRI-SPACING-OVERRIDE-FLAG     PPCTT14E
017100                                   CTRI-TRANSACTION               PPCTT14E
017200                                   CTRI-TRANSACTION-DISPO         PPCTT14E
017300                                   CTRI-TEXT-LINE                 PPCTT14E
017400                                   CTRI-MESSAGE-NUMBER.           PPCTT14E
017500     MOVE ZERO                  TO CTRI-MESSAGE-SEVERITY          PPCTT14E
017600                                   CTTI-ERROR-SEVERITY.           PPCTT14E
017700     MOVE WB-TABLE-NO           TO CSRI-CALL-TYPE-NUM.            PPCTT14E
017800     MOVE CSRI-TRANSACTION      TO BRE-EPD-TABLE-TRANS.           PPCTT14E
017900     MOVE CSRI-TRANSACTION(1:1) TO WS-SET-ACTION.                 PPCTT14E
018000     MOVE BRET-CBUC             TO WS-SET-CBUC.                   PPCTT14E
018100     MOVE BRET-REP              TO WS-SET-REP.                    PPCTT14E
018200     MOVE BRET-SHC              TO WS-SET-SHC.                    PPCTT14E
018300     MOVE BRET-DUC              TO WS-SET-DUC.                    PPCTT14E
018400                                                                  PPCTT14E
018500 1999-INITIALIZATION-EXIT.                                        PPCTT14E
018600     EXIT.                                                        PPCTT14E
018700                                                                  PPCTT14E
018800 2000-PROCESS-TRANSACTIONS SECTION.                               PPCTT14E
018900                                                                  PPCTT14E
019000     IF WS-SET-KEY NOT = WS-HOLD-KEY                              PPCTT14E
019100        PERFORM 3000-FINISH-PREVIOUS-SET                          PPCTT14E
019200        PERFORM 2100-BEGIN-NEW-SET                                PPCTT14E
019300     END-IF.                                                      PPCTT14E
019400     MOVE BRE-EPD-TABLE-TRANS TO CTRI-TRANSACTION.                PPCTT14E
019500     MOVE BRET-ACTION-CODE TO KCTE-ACTION.                        PPCTT14E
019600     ADD 1 TO WC-SET-CNT.                                         PPCTT14E
019700     IF BRET-TRAN-SEQ-NO-VALID                                    PPCTT14E
019800        MOVE ZERO TO WC-TALLY                                     PPCTT14E
019900        INSPECT WS-VALID-NEXT-SEQ-NOS TALLYING WC-TALLY           PPCTT14E
020000            FOR ALL BRET-TRAN-SEQ-NO                              PPCTT14E
020100        IF WC-TALLY = ZERO                                        PPCTT14E
020200           MOVE MCT021 TO CTRI-MESSAGE-NUMBER                     PPCTT14E
020300           PERFORM 9100-CALL-PPCTLRPT                             PPCTT14E
020400           SET WS-SET-NOT-OK TO TRUE                              PPCTT14E
020500        ELSE                                                      PPCTT14E
020600           PERFORM 2200-MOVE-TRANSACTION-DATA                     PPCTT14E
020700        END-IF                                                    PPCTT14E
020800        IF WS-ADD-SET                                             PPCTT14E
020900           EVALUATE BRET-TRAN-SEQ-NO                              PPCTT14E
021000            WHEN '00'                                             PPCTT14E
021100              MOVE '01        '  TO WS-VALID-NEXT-SEQ-NOS         PPCTT14E
021200            WHEN '01'                                             PPCTT14E
021300              MOVE '02        '  TO WS-VALID-NEXT-SEQ-NOS         PPCTT14E
021400            WHEN '02'                                             PPCTT14E
021500              MOVE '03        '  TO WS-VALID-NEXT-SEQ-NOS         PPCTT14E
021600            WHEN '03'                                             PPCTT14E
021700              MOVE '04        '  TO WS-VALID-NEXT-SEQ-NOS         PPCTT14E
021800            WHEN '04'                                             PPCTT14E
021900              MOVE '          '  TO WS-VALID-NEXT-SEQ-NOS         PPCTT14E
022000              SET WS-SET-END-OK TO TRUE                           PPCTT14E
022100           END-EVALUATE                                           PPCTT14E
022200        ELSE                                                      PPCTT14E
022300            SET WS-SET-END-OK TO TRUE                             PPCTT14E
022400        END-IF                                                    PPCTT14E
022500        IF CTRI-TRANSACTION NOT = SPACES                          PPCTT14E
022600            PERFORM 9100-CALL-PPCTLRPT                            PPCTT14E
022700        END-IF                                                    PPCTT14E
022800     ELSE                                                         PPCTT14E
022900        MOVE MCT020 TO CTRI-MESSAGE-NUMBER                        PPCTT14E
023000        PERFORM 9100-CALL-PPCTLRPT                                PPCTT14E
023100        SET WS-SET-NOT-OK TO TRUE                                 PPCTT14E
023200     END-IF.                                                      PPCTT14E
023300                                                                  PPCTT14E
023400     PERFORM 9300-FETCH-NEXT-TRANSACTION.                         PPCTT14E
023500                                                                  PPCTT14E
023600 2099-EXIT.                                                       PPCTT14E
023700     EXIT.                                                        PPCTT14E
023800                                                                  PPCTT14E
023900 2100-BEGIN-NEW-SET SECTION.                                      PPCTT14E
024000                                                                  PPCTT14E
024100     MOVE WS-SET-KEY TO WS-HOLD-KEY.                              PPCTT14E
024200     SET WS-SET-OK TO TRUE.                                       PPCTT14E
024300     SET WS-SET-END-NOT-OK TO TRUE.                               PPCTT14E
024400     MOVE ZERO TO WC-SET-CNT.                                     PPCTT14E
024500     MOVE SPACES TO BRE-EPD-TABLE-INPUT.                          PPCTT14E
024600     MOVE BRET-CBUC       TO BREI-CBUC.                           PPCTT14E
024700     MOVE BRET-REP        TO BREI-REP.                            PPCTT14E
024800     MOVE BRET-SHC        TO BREI-SHC.                            PPCTT14E
024900     MOVE BRET-DUC        TO BREI-DUC.                            PPCTT14E
025000     MOVE BRET-EFFECTIVE-DATE TO BREI-EFFECTIVE-DATE.             PPCTT14E
025100     INITIALIZE SAVE-DATA                                         PPCTT14E
025200                SVE-MAX-TABLE.                                    PPCTT14E
025300     EVALUATE TRUE                                                PPCTT14E
025400      WHEN WS-ADD-SET                                             PPCTT14E
025500         MOVE '00        ' TO WS-VALID-NEXT-SEQ-NOS               PPCTT14E
025600      WHEN WS-DELETE-SET                                          PPCTT14E
025700         MOVE '00        ' TO WS-VALID-NEXT-SEQ-NOS               PPCTT14E
025800     END-EVALUATE.                                                PPCTT14E
025900                                                                  PPCTT14E
026000 2199-EXIT.                                                       PPCTT14E
026100     EXIT.                                                        PPCTT14E
026200                                                                  PPCTT14E
026300 2200-MOVE-TRANSACTION-DATA SECTION.                              PPCTT14E
026400                                                                  PPCTT14E
026500     EVALUATE BRET-TRAN-SEQ-NO                                    PPCTT14E
026600      WHEN '00'                                                   PPCTT14E
026700        IF BRET-MAX-SAL-X       NOT = SPACES                      PPCTT14E
026800           MOVE BRET-MAX-SAL-X         TO SVE-MAX-SAL-X           PPCTT14E
026900        END-IF                                                    PPCTT14E
027000      WHEN '01'                                                   PPCTT14E
027100        PERFORM VARYING IX FROM 1 BY 1                            PPCTT14E
027200          UNTIL IX > 09                                           PPCTT14E
027300         IF BRET-RATE-07-X (IX) NOT = SPACES                      PPCTT14E
027400            MOVE BRET-RATE-07-X (IX) TO SVE-RATE-07-X (IX)        PPCTT14E
027500         END-IF                                                   PPCTT14E
027600        END-PERFORM                                               PPCTT14E
027700      WHEN '02'                                                   PPCTT14E
027800        PERFORM VARYING IX FROM 1 BY 1                            PPCTT14E
027900          UNTIL IX > 09                                           PPCTT14E
028000         IF BRET-RATE-30-X (IX) NOT = SPACES                      PPCTT14E
028100            MOVE BRET-RATE-30-X (IX) TO SVE-RATE-30-X (IX)        PPCTT14E
028200         END-IF                                                   PPCTT14E
028300        END-PERFORM                                               PPCTT14E
028400      WHEN '03'                                                   PPCTT14E
028500        PERFORM VARYING IX FROM 1 BY 1                            PPCTT14E
028600          UNTIL IX > 09                                           PPCTT14E
028700         IF BRET-RATE-90-X (IX) NOT = SPACES                      PPCTT14E
028800            MOVE BRET-RATE-90-X (IX) TO SVE-RATE-90-X (IX)        PPCTT14E
028900         END-IF                                                   PPCTT14E
029000        END-PERFORM                                               PPCTT14E
029100      WHEN '04'                                                   PPCTT14E
029200        PERFORM VARYING IX FROM 1 BY 1                            PPCTT14E
029300          UNTIL IX > 09                                           PPCTT14E
029400         IF BRET-RATE-180-X (IX) NOT = SPACES                     PPCTT14E
029500            MOVE BRET-RATE-180-X (IX) TO SVE-RATE-180-X (IX)      PPCTT14E
029600         END-IF                                                   PPCTT14E
029700        END-PERFORM                                               PPCTT14E
029800     END-EVALUATE.                                                PPCTT14E
029900                                                                  PPCTT14E
030000 2299-EXIT.                                                       PPCTT14E
030100     EXIT.                                                        PPCTT14E
030200                                                                  PPCTT14E
030300 3000-FINISH-PREVIOUS-SET SECTION.                                PPCTT14E
030400                                                                  PPCTT14E
030500     IF WS-HOLD-KEY = LOW-VALUES                                  PPCTT14E
030600        GO TO 3099-EXIT                                           PPCTT14E
030700     END-IF.                                                      PPCTT14E
030800     IF KCTE-ACTION = 'C'                                         PPCTT14E
030900        MOVE MCT011 TO CTRI-MESSAGE-NUMBER                        PPCTT14E
031000        PERFORM 9100-CALL-PPCTLRPT                                PPCTT14E
031100        SET WS-SET-NOT-OK TO TRUE                                 PPCTT14E
031200     END-IF.                                                      PPCTT14E
031300     IF WS-SET-END-NOT-OK                                         PPCTT14E
031400        MOVE MCT023 TO CTRI-MESSAGE-NUMBER                        PPCTT14E
031500        PERFORM 9100-CALL-PPCTLRPT                                PPCTT14E
031600        SET WS-SET-NOT-OK TO TRUE                                 PPCTT14E
031700     END-IF.                                                      PPCTT14E
031800     IF WS-SET-NOT-OK                                             PPCTT14E
031900        MOVE 'SET REJECTED' TO CTRI-TEXT-DISPO                    PPCTT14E
032000        ADD WC-SET-CNT TO CTTI-TRANS-REJECTED                     PPCTT14E
032100        PERFORM 9100-CALL-PPCTLRPT                                PPCTT14E
032200        MOVE 2 TO CTRI-SPACING-OVERRIDE                           PPCTT14E
032300        GO TO 3099-EXIT                                           PPCTT14E
032400     END-IF.                                                      PPCTT14E
032500     SET WF-NO-ERRORS TO TRUE.                                    PPCTT14E
032600     MOVE CTTI-ACTION-DATE TO KCTE-LAST-ACTION-DT.                PPCTT14E
032700     IF KCTE-ACTION = 'D'                                         PPCTT14E
032800        CALL 'PPCTBREE' USING CONTROL-TABLE-EDIT-INTERFACE        PPCTT14E
032900                              BRE-EPD-TABLE-INPUT                 PPCTT14E
033000                              BRE-EPD-TABLE-DATA                  PPCTT14E
033100        IF KCTE-ERR > ZERO                                        PPCTT14E
033200           PERFORM 3100-PRINT-ERROR                               PPCTT14E
033300             VARYING WC-ERR-IX FROM 1 BY 1                        PPCTT14E
033400               UNTIL WC-ERR-IX > KCTE-ERR                         PPCTT14E
033500           IF WF-REJECT-SET OR KCTE-STATUS-NOT-COMPLETED          PPCTT14E
033600              MOVE MCT022 TO CTRI-MESSAGE-NUMBER                  PPCTT14E
033700              SET WS-SET-NOT-OK TO TRUE                           PPCTT14E
033800           END-IF                                                 PPCTT14E
033900        END-IF                                                    PPCTT14E
034000        IF WS-SET-OK                                              PPCTT14E
034100           MOVE 'SET ACCEPTED' TO CTRI-TEXT-DISPO                 PPCTT14E
034200           ADD WC-SET-CNT TO CTTI-TRANS-ACCEPTED                  PPCTT14E
034300           PERFORM 3200-UPDATE-DB2-TABLE                          PPCTT14E
034400        ELSE                                                      PPCTT14E
034500           MOVE 'SET REJECTED' TO CTRI-TEXT-DISPO                 PPCTT14E
034600           ADD WC-SET-CNT TO CTTI-TRANS-REJECTED                  PPCTT14E
034700        END-IF                                                    PPCTT14E
034800        PERFORM 9100-CALL-PPCTLRPT                                PPCTT14E
034900        MOVE 2 TO CTRI-SPACING-OVERRIDE                           PPCTT14E
035000        GO TO 3099-EXIT                                           PPCTT14E
035100     END-IF.                                                      PPCTT14E
035200     PERFORM VARYING IX FROM 1 BY 1                               PPCTT14E
035300       UNTIL IX > 09                                              PPCTT14E
035400       MOVE SVE-MAX-SAL-X              TO BREI-MAX-SAL-X          PPCTT14E
035500       MOVE SVE-RATE-07-X (IX)         TO BREI-RATE-07-X          PPCTT14E
035600       MOVE SVE-RATE-30-X (IX)         TO BREI-RATE-30-X          PPCTT14E
035700       MOVE SVE-RATE-90-X (IX)         TO BREI-RATE-90-X          PPCTT14E
035800       MOVE SVE-RATE-180-X (IX)        TO BREI-RATE-180-X         PPCTT14E
035900       MOVE SVE-MIN-AGE   (IX)         TO BREI-MIN-AGE            PPCTT14E
036000       CALL 'PPCTBREE' USING CONTROL-TABLE-EDIT-INTERFACE         PPCTT14E
036100                             BRE-EPD-TABLE-INPUT                  PPCTT14E
036200                             BRE-EPD-TABLE-DATA                   PPCTT14E
036300       MOVE BREI-MAX-SAL-X         TO SVE-MAX-SAL-X               PPCTT14E
036400       MOVE BRE-MAX-AGE            TO SVE-MAX-AGE (IX)            PPCTT14E
036500       MOVE BREI-RATE-07-X         TO SVE-RATE-07-X (IX)          PPCTT14E
036600       MOVE BREI-RATE-30-X         TO SVE-RATE-30-X (IX)          PPCTT14E
036700       MOVE BREI-RATE-90-X         TO SVE-RATE-90-X (IX)          PPCTT14E
036800       MOVE BREI-RATE-180-X        TO SVE-RATE-180-X (IX)         PPCTT14E
036900       IF KCTE-ERR > ZERO                                         PPCTT14E
037000          MOVE SVE-RATES (IX) TO CTRI-TRANSACTION(10:16)          PPCTT14E
037100          PERFORM 3100-PRINT-ERROR                                PPCTT14E
037200            VARYING WC-ERR-IX FROM 1 BY 1                         PPCTT14E
037300              UNTIL WC-ERR-IX > KCTE-ERR                          PPCTT14E
037400          IF WF-REJECT-SET OR KCTE-STATUS-NOT-COMPLETED           PPCTT14E
037500             MOVE MCT022 TO CTRI-MESSAGE-NUMBER                   PPCTT14E
037600             SET WS-SET-NOT-OK TO TRUE                            PPCTT14E
037700          END-IF                                                  PPCTT14E
037800       END-IF                                                     PPCTT14E
037900     END-PERFORM.                                                 PPCTT14E
038000     IF WS-SET-OK                                                 PPCTT14E
038100        MOVE 'SET ACCEPTED' TO CTRI-TEXT-DISPO                    PPCTT14E
038200        ADD WC-SET-CNT   TO CTTI-TRANS-ACCEPTED                   PPCTT14E
038300        PERFORM VARYING IX FROM 1 BY 1                            PPCTT14E
038400          UNTIL IX > 09                                           PPCTT14E
038500         MOVE SVE-MAX-SAL             TO BRE-MAX-SAL              PPCTT14E
038600         MOVE SVE-MIN-AGE (IX)        TO BRE-MIN-AGE              PPCTT14E
038700         MOVE SVE-MAX-AGE (IX)        TO BRE-MAX-AGE              PPCTT14E
038800         MOVE SVE-RATE-07 (IX)        TO BRE-RATE-07              PPCTT14E
038900         MOVE SVE-RATE-30 (IX)        TO BRE-RATE-30              PPCTT14E
039000         MOVE SVE-RATE-90 (IX)        TO BRE-RATE-90              PPCTT14E
039100         MOVE SVE-RATE-180 (IX)       TO BRE-RATE-180             PPCTT14E
039200         PERFORM 3200-UPDATE-DB2-TABLE                            PPCTT14E
039300        END-PERFORM                                               PPCTT14E
039400     ELSE                                                         PPCTT14E
039500        MOVE 'SET REJECTED' TO CTRI-TEXT-DISPO                    PPCTT14E
039600        ADD WC-SET-CNT TO CTTI-TRANS-REJECTED                     PPCTT14E
039700     END-IF.                                                      PPCTT14E
039800     PERFORM 9100-CALL-PPCTLRPT.                                  PPCTT14E
039900     MOVE 2 TO CTRI-SPACING-OVERRIDE.                             PPCTT14E
040000                                                                  PPCTT14E
040100 3099-EXIT.                                                       PPCTT14E
040200     EXIT.                                                        PPCTT14E
040300                                                                  PPCTT14E
040400 3100-PRINT-ERROR SECTION.                                        PPCTT14E
040500                                                                  PPCTT14E
040600     MOVE KCTE-ERR-NO (WC-ERR-IX) TO CTRI-MESSAGE-NUMBER.         PPCTT14E
040700     PERFORM 9100-CALL-PPCTLRPT.                                  PPCTT14E
040800     IF CTRI-MESSAGE-SEVERITY > WF-ERROR-FLAG                     PPCTT14E
040900         MOVE CTRI-MESSAGE-SEVERITY TO WF-ERROR-FLAG              PPCTT14E
041000     END-IF.                                                      PPCTT14E
041100                                                                  PPCTT14E
041200 3199-EXIT.                                                       PPCTT14E
041300     EXIT.                                                        PPCTT14E
041400                                                                  PPCTT14E
041500 3200-UPDATE-DB2-TABLE SECTION.                                   PPCTT14E
041600                                                                  PPCTT14E
041700     MOVE KCTE-ACTION TO KCTU-ACTION.                             PPCTT14E
041800     CALL 'PPCTBREU' USING CONTROL-TABLE-UPDT-INTERFACE,          PPCTT14E
041900                           BRE-EPD-TABLE-DATA.                    PPCTT14E
042000     IF KCTU-STATUS-OK                                            PPCTT14E
042100        EVALUATE TRUE                                             PPCTT14E
042200          WHEN KCTU-ACTION-ADD                                    PPCTT14E
042300            ADD 1 TO CTTI-ENTRIES-ADDED                           PPCTT14E
042400          WHEN KCTU-ACTION-CHANGE                                 PPCTT14E
042500            ADD 1 TO CTTI-ENTRIES-UPDATED                         PPCTT14E
042600          WHEN KCTU-ACTION-DELETE                                 PPCTT14E
042700            ADD 1 TO CTTI-ENTRIES-DELETED                         PPCTT14E
042800          WHEN OTHER                                              PPCTT14E
042900            GO TO 3300-BAD-UPDATE-CALL                            PPCTT14E
043000        END-EVALUATE                                              PPCTT14E
043100     ELSE                                                         PPCTT14E
043200        GO TO 3300-BAD-UPDATE-CALL                                PPCTT14E
043300     END-IF.                                                      PPCTT14E
043400                                                                  PPCTT14E
043500 3299-EXIT.                                                       PPCTT14E
043600     EXIT.                                                        PPCTT14E
043700                                                                  PPCTT14E
043800 3300-BAD-UPDATE-CALL SECTION.                                    PPCTT14E
043900                                                                  PPCTT14E
044000     MOVE MCT001 TO CTRI-MESSAGE-NUMBER.                          PPCTT14E
044100     MOVE CTTI-TRANS-PROCESSED TO WA-WORK-Z5.                     PPCTT14E
044200     STRING 'PPCTBREU ERROR: ACTION WAS "' KCTU-ACTION            PPCTT14E
044300            '" STATUS WAS "'               KCTU-STATUS            PPCTT14E
044400            ' COUNT='                      WA-WORK-Z5             PPCTT14E
044500            DELIMITED BY SIZE INTO CTRI-TEXT-LINE.                PPCTT14E
044600     PERFORM 9100-CALL-PPCTLRPT.                                  PPCTT14E
044700     GO TO 9999-ABEND.                                            PPCTT14E
044800                                                                  PPCTT14E
044900 3399-EXIT.                                                       PPCTT14E
045000     EXIT.                                                        PPCTT14E
045100                                                                  PPCTT14E
045200 9100-CALL-PPCTLRPT SECTION.                                      PPCTT14E
045300                                                                  PPCTT14E
045400     CALL 'PPCTLRPT' USING CTRI-CTL-REPORT-INTERFACE.             PPCTT14E
045500     IF CTRI-MESSAGE-SEVERITY > CTTI-ERROR-SEVERITY               PPCTT14E
045600         MOVE CTRI-MESSAGE-SEVERITY TO CTTI-ERROR-SEVERITY        PPCTT14E
045700     END-IF.                                                      PPCTT14E
045800     IF CTRI-RUN-ABORTED                                          PPCTT14E
045900        GO TO 9999-ABEND                                          PPCTT14E
046000     END-IF.                                                      PPCTT14E
046100                                                                  PPCTT14E
046200 9199-EXIT.                                                       PPCTT14E
046300     EXIT.                                                        PPCTT14E
046400                                                                  PPCTT14E
046500 9300-FETCH-NEXT-TRANSACTION SECTION.                             PPCTT14E
046600                                                                  PPCTT14E
046700     PERFORM WITH TEST AFTER                                      PPCTT14E
046800       UNTIL CSRI-TABLE-TRANS-END                                 PPCTT14E
046900          OR CSRI-TRANSACTION(1:1) NOT = '*'                      PPCTT14E
047000      CALL 'PPCTLTRD' USING CSRI-CTL-SORTED-READ-INTERFACE        PPCTT14E
047100      IF CSRI-NORMAL                                              PPCTT14E
047200         ADD 1 TO CTTI-TRANS-PROCESSED                            PPCTT14E
047300         IF CSRI-TRANSACTION(1:1) = '*'                           PPCTT14E
047400            MOVE CSRI-TRANSACTION TO CTRI-TRANSACTION             PPCTT14E
047500            MOVE 'COMMENT ACCEPTED' TO CTRI-TRANSACTION-DISPO     PPCTT14E
047600            PERFORM 9100-CALL-PPCTLRPT                            PPCTT14E
047700            ADD 1 TO CTTI-TRANS-ACCEPTED                          PPCTT14E
047800         ELSE                                                     PPCTT14E
047900          IF CSRI-TRANSACTION(4:3) = 'EPD'                        PPCTT14E
048000            MOVE CSRI-TRANSACTION TO BRE-EPD-TABLE-TRANS          PPCTT14E
048100            MOVE CSRI-TRANSACTION(1:1) TO WS-SET-ACTION           PPCTT14E
048200            MOVE BRET-CBUC             TO WS-SET-CBUC             PPCTT14E
048300            MOVE BRET-REP              TO WS-SET-REP              PPCTT14E
048400            MOVE BRET-SHC              TO WS-SET-SHC              PPCTT14E
048500            MOVE BRET-DUC              TO WS-SET-DUC              PPCTT14E
048600          ELSE                                                    PPCTT14E
048700            SET WF-E-TRANS-END         TO TRUE                    PPCTT14E
048800          END-IF                                                  PPCTT14E
048900         END-IF                                                   PPCTT14E
049000      ELSE                                                        PPCTT14E
049100        IF NOT CSRI-TABLE-TRANS-END                               PPCTT14E
049200           MOVE MCT001              TO CTRI-MESSAGE-NUMBER        PPCTT14E
049300           MOVE CSRI-RETURN-CODE    TO WA-RTN-CODE                PPCTT14E
049400           MOVE CTTI-TRANS-PROCESSED TO WA-WORK-Z5                PPCTT14E
049500           MOVE WA-READ-ERROR       TO CTRI-TEXT-LINE             PPCTT14E
049600           PERFORM 9100-CALL-PPCTLRPT                             PPCTT14E
049700           GO TO 9999-ABEND                                       PPCTT14E
049800        END-IF                                                    PPCTT14E
049900      END-IF                                                      PPCTT14E
050000     END-PERFORM.                                                 PPCTT14E
050100                                                                  PPCTT14E
050200 9399-EXIT.                                                       PPCTT14E
050300     EXIT.                                                        PPCTT14E
050400                                                                  PPCTT14E
050500 9999-ABEND SECTION.                                              PPCTT14E
050600                                                                  PPCTT14E
050700     SET CTTI-ABORT TO TRUE.                                      PPCTT14E
050800     GOBACK.                                                      PPCTT14E
050900*************************END OF SOURCE CODE***********************PPCTT14E
