000108**************************************************************/   36260760
000109*  PROGRAM: PPEC120                                          */   36260760
000110*  RELEASE: ___0760______ SERVICE REQUEST(S): 3626,11266___  */   36260760
000111*  NAME:__PHIL THOMPSON__ MODIFICATION DATE:  ___04/30/93__  */   36260760
000112*  DESCRIPTION:                                              */   36260760
000113*  3626 -                                                    */   36260760
000114*    WHEN REVERTING TO SAVED VALUES OR ZAPPING VALUES,       */   36260760
000115*    PERFORM SAME FUNCTION ON NEW BENEFITS MEMBERSHIP DATA:  */   36260760
000116*    EFFECTIVE DATE (ECED) AND DEPENDENT COVERAGE EFFECTIVE  */   36260760
000117*    DATES (DCED).                                           */   36260760
000118*  11266 -                                                   */   12660760
000119*    COMBINE MISSING PLAN DATA MESSAGES INTO ONE             */   12660760
000120*  ERROR REPORT 980                                          */   36260760
000123*    WHEN DEFAULTING BENEFIT, MAKE COVERAGE 'U'              */   36260760
000124**************************************************************/   36260760
000100*----------------------------------------------------------------*36410717
000200*|**************************************************************|*36410717
000300*|* PROGRAM: PPEC120                                           *|*36410717
000400*|*  RELEASE: __0717_______ SERVICE REQUEST(S): _____3641____  *|*36410717
000500*|*  NAME:______UCOP_______ MODIFICATION DATE:  ___11/19/92__  *|*36410717
000600*|*  DESCRIPTION:                                              *|*36410717
000700*|*  - EDB MAINTENANCE RE-ENGINEERING PROJECT                  *|*36410717
000800*|*    OPTICAL/VISION INSURANCE CONSISTENCY EDITS              *|*36410717
000900*|**************************************************************|*36410717
001000*----------------------------------------------------------------*36410717
001100                                                                  PPEC120
001200 IDENTIFICATION DIVISION.                                         PPEC120
001300 PROGRAM-ID. PPEC120.                                             PPEC120
001400 AUTHOR. UCOP.                                                    PPEC120
001500 INSTALLATION. UNIVERSITY OF CALIFORNIA.                          PPEC120
001600                                                                  PPEC120
001700 DATE-WRITTEN.  AUGUST 05,1992.                                   PPEC120
001800 DATE-COMPILED.                                                   PPEC120
001900                                                                  PPEC120
002000******************************************************************PPEC120
002100**    THIS ROUTINE WILL PERFORM THE OPTICAL/VISION INSURANCE    **PPEC120
002200**    CONSISTENCY EDITS                                         **PPEC120
002300******************************************************************PPEC120
002400                                                                  PPEC120
002500 ENVIRONMENT DIVISION.                                            PPEC120
002600 CONFIGURATION SECTION.                                           PPEC120
002700 SOURCE-COMPUTER.                       COPY CPOTXUCS.            PPEC120
002800 OBJECT-COMPUTER.                       COPY CPOTXOBJ.            PPEC120
002900 SPECIAL-NAMES.                C01 IS NEW-PAGE.                   PPEC120
003000                                                                  PPEC120
003100 INPUT-OUTPUT SECTION.                                            PPEC120
003200 FILE-CONTROL.                                                    PPEC120
003300                                                                  PPEC120
003400 DATA DIVISION.                                                   PPEC120
003500 FILE SECTION.                                                    PPEC120
003600     EJECT                                                        PPEC120
003700*----------------------------------------------------------------*PPEC120
003800 WORKING-STORAGE SECTION.                                         PPEC120
003900*----------------------------------------------------------------*PPEC120
004000                                                                  PPEC120
004100 01  A-STND-PROG-ID                   PIC X(15) VALUE             PPEC120
004200     'PPEC120 /111992'.                                           PPEC120
004300                                                                  PPEC120
004400 01  A-STND-MSG-PARMS                 REDEFINES                   PPEC120
004500     A-STND-PROG-ID.                                              PPEC120
004600     05  FILLER                       PIC X(03).                  PPEC120
004700     05  WS-ROUTINE-TYPE              PIC X(01).                  PPEC120
004800     05  WS-ROUTINE-NUM               PIC 9(03).                  PPEC120
004900     05  FILLER                       PIC X(08).                  PPEC120
005000                                                                  PPEC120
005100 01  MESSAGES-USED.                                               PPEC120
005200*****05  M08163                       PIC X(05) VALUE '08163'.    12660760
005300*****05  M08164                       PIC X(05) VALUE '08164'.    12660760
005400*****05  M08165                       PIC X(05) VALUE '08165'.    12660760
005500     05  M08166                       PIC X(05) VALUE '08166'.    PPEC120
005600     05  M08307                       PIC X(05) VALUE '08307'.    PPEC120
005610     05  M08496                       PIC X(05) VALUE '08496'.    12660760
005700     05  M12323                       PIC X(05) VALUE '12323'.    PPEC120
005800     05  M12324                       PIC X(05) VALUE '12324'.    PPEC120
005900     05  M12325                       PIC X(05) VALUE '12325'.    PPEC120
006000     05  M12326                       PIC X(05) VALUE '12326'.    PPEC120
006100                                                                  PPEC120
006200 01  ELEMENTS-USED.                                               PPEC120
006300******************************************************************PPEC120
006400**   THE FOLLOWING ELEMENTS ARE DEFINED IN COPY MEMBER CPWSBZAP **PPEC120
006500**   BELOW:                                                     **PPEC120
006600**--------------------------------------------------------------**PPEC120
006700**   05  E0347                        PIC 9(04) VALUE 0347.     **PPEC120
006800**   05  E0348                        PIC 9(04) VALUE 0348.     **PPEC120
006900**   05  E0349                        PIC 9(04) VALUE 0349.     **PPEC120
006910**   05  E0456                        PIC 9(04) VALUE 0454.     **36260760
007000******************************************************************PPEC120
007100     05  E0379                        PIC 9(04) VALUE 0379.       PPEC120
007200                                                                  PPEC120
007300 01  MISC-WORK-AREAS.                                             PPEC120
007400     05  FIRST-TIME-SW                PIC X(01) VALUE LOW-VALUES. PPEC120
007500         88  THIS-IS-THE-FIRST-TIME             VALUE LOW-VALUES. PPEC120
007600         88  NOT-THE-FIRST-TIME                 VALUE 'Y'.        PPEC120
007700     05  ISO-HIRE-DATE.                                           PPEC120
007800         10  ISO-HIRE-DATE-YYYY-MM.                               PPEC120
007900             15  ISO-HIRE-DATE-YYYY   PIC 9(4).                   PPEC120
008000             15  FILLER               PIC X(1)       VALUE '-'.   PPEC120
008100             15  ISO-HIRE-DATE-MM     PIC 9(2).                   PPEC120
008200         10  FILLER                   PIC X(1)       VALUE '-'.   PPEC120
008300         10  ISO-HIRE-DATE-DD         PIC 9(2).                   PPEC120
008400                                                                  PPEC120
008500                                                                  PPEC120
008600     EJECT                                                        PPEC120
008610 01  INIT-DCED-LINKAGE.                            COPY CPWSDCED. 36260760
008620                                                                  36260760
008630     EJECT                                                        36260760
008700 01  DL-FIELD-WORK-AREA.                           COPY CPWSXDLS. PPEC120
008800                                                                  PPEC120
008900     EJECT                                                        PPEC120
009000 01  DATE-CONVERSION-WORK-AREAS.                   COPY CPWSXDC2. PPEC120
009100                                                                  PPEC120
009200     EJECT                                                        PPEC120
009300 01  XWHC-COMPILE-WORK-AREA.                       COPY CPWSXWHC. PPEC120
009400                                                                  PPEC120
009500     EJECT                                                        PPEC120
009600 01  COLUMN-88-WORK.                               COPY CPWSW88S. PPEC120
009700                                                                  PPEC120
009800     EJECT                                                        PPEC120
009900 01  DATE-WORK-AREA.                               COPY CPWSDATE. PPEC120
010000                                                                  PPEC120
010100     EJECT                                                        PPEC120
010200 01  APPT-DIST-LOC-WORK-AREAS.                     COPY CPWSADLC. PPEC120
010300                                                                  PPEC120
010400     EJECT                                                        PPEC120
010500 01  INSTALLATION-DEPENDT-CONSTANTS.               COPY CPWSXIDC. PPEC120
010600                                                                  PPEC120
010700     EJECT                                                        PPEC120
010800 01  ZAP-BENEFIT-ELEMENTS-USED.                    COPY CPWSBZAP. PPEC120
010900                                                                  PPEC120
011000     EJECT                                                        PPEC120
011100******************************************************************PPEC120
011200**     E  X  T  E  R  N  A  L  S      S  E  C  T  I  O  N       **PPEC120
011300**--------------------------------------------------------------**PPEC120
011400** THE FOLLOWING EXTERNAL AREAS WILL BE USED BY OTHER PROCESSES **PPEC120
011500******************************************************************PPEC120
011600                                                                  PPEC120
011700 01  DATA-ELEMENT-CHANGE-INDICATORS      EXTERNAL. COPY CPWSXDEC. PPEC120
011800                                                                  PPEC120
011900     EJECT                                                        PPEC120
012000 01  XCSS-COMMON-SYSTEM-SWITCHES         EXTERNAL. COPY CPWSSWCH. PPEC120
012100                                                                  PPEC120
012200     EJECT                                                        PPEC120
012300 01  XDTS-COMMON-SYSTEM-DATES            EXTERNAL. COPY CPWSXDTS. PPEC120
012400                                                                  PPEC120
012500     EJECT                                                        PPEC120
012600 01  ECES-CON-EDIT-SWITCH                EXTERNAL. COPY CPWSECES. PPEC120
012700                                                                  PPEC120
012800 01  EGES-GTN-EDIT-SWITCH                EXTERNAL. COPY CPWSEGES. PPEC120
012900                                                                  PPEC120
013000 01  EIMS-IMPL-MAINT-SWITCH              EXTERNAL. COPY CPWSEIMS. PPEC120
013100                                                                  PPEC120
013200 01  EAXD-APPT-ARRAY-SWITCH              EXTERNAL. COPY CPWSEAXD. PPEC120
013300                                                                  PPEC120
013400     EJECT                                                        PPEC120
013500 01  XDER-DATA-ELMT-RTN-POINTERS         EXTERNAL. COPY CPWSXDER. PPEC120
013600                                                                  PPEC120
013700     EJECT                                                        PPEC120
013800 01  XDRT-DET-ROUTINE-TRIGGERS           EXTERNAL. COPY CPWSXDRT. PPEC120
013900                                                                  PPEC120
014000     EJECT                                                        PPEC120
014100 01  EDB-MAINTENANCE-PASS-AREA           EXTERNAL. COPY CPWSEMPA. PPEC120
014200                                                                  PPEC120
014300     EJECT                                                        PPEC120
014400******************************************************************PPEC120
014500**  DATA BASE AREAS                                             **PPEC120
014600******************************************************************PPEC120
014700                                                                  PPEC120
014800 01  SCR-ROW                             EXTERNAL.                PPEC120
014900     EXEC SQL INCLUDE PPPVSCR1 END-EXEC.                          PPEC120
015000                                                                  PPEC120
015100     EJECT                                                        PPEC120
015200 01  PER-ROW                             EXTERNAL.                PPEC120
015300     EXEC SQL INCLUDE PPPVPER1 END-EXEC.                          PPEC120
015400                                                                  PPEC120
015500     EJECT                                                        PPEC120
015600 01  BEL-ROW                             EXTERNAL.                PPEC120
015700     EXEC SQL INCLUDE PPPVBEL1 END-EXEC.                          PPEC120
015800                                                                  PPEC120
015900     EJECT                                                        PPEC120
016000 01  BEN-ROW                             EXTERNAL.                PPEC120
016100     EXEC SQL INCLUDE PPPVBEN1 END-EXEC.                          PPEC120
016200                                                                  PPEC120
016300     EJECT                                                        PPEC120
016400******************************************************************PPEC120
016500**  DATA BASE SAVE AREAS                                        **PPEC120
016600******************************************************************PPEC120
016700                                                                  PPEC120
016800     EJECT                                                        PPEC120
016900 01  BEN-ROW-HOLD                        EXTERNAL. COPY CPWSRBEN  PPEC120
017000                                                                  PPEC120
017100         REPLACING  HLTH-OPTOUT       BY SAVE-HLTH-OPTOUT         PPEC120
017200                    HLTH-PLAN         BY SAVE-HLTH-PLAN           PPEC120
017300                    HLTH-COVERCODE    BY SAVE-HLTH-COVERCODE      PPEC120
017400                    HLTH-COVEFFDATE   BY SAVE-HLTH-COVEFFDATE     PPEC120
017410                    EMP-HLTH-COVEFFDT BY SAVE-EMP-HLTH-COVEFFDT   36260760
017500                    ADD-OPTOUT        BY SAVE-ADD-OPTOUT          PPEC120
017600                    ADD-COVERAGE      BY SAVE-ADD-COVERAGE        PPEC120
017700                    ADD-PRINC-SUM     BY SAVE-ADD-PRINC-SUM       PPEC120
017800                    ADD-COVEFFDATE    BY SAVE-ADD-COVEFFDATE      PPEC120
017900                    EPD-OPTOUT        BY SAVE-EPD-OPTOUT          PPEC120
018000                    EPD-SALARY-BASE   BY SAVE-EPD-SALARY-BASE     PPEC120
018100                    EPD-WAIT-PERIOD   BY SAVE-EPD-WAIT-PERIOD     PPEC120
018200                    EPD-COVRGE-DATE   BY SAVE-EPD-COVRGE-DATE     PPEC120
018300                    DENTAL-OPTOUT     BY SAVE-DENTAL-OPTOUT       PPEC120
018400                    DENTAL-PLAN       BY SAVE-DENTAL-PLAN         PPEC120
018500                    DENTAL-COVERAGE   BY SAVE-DENTAL-COVERAGE     PPEC120
018600                    DENTAL-COVEFFDATE BY SAVE-DENTAL-COVEFFDATE   PPEC120
018610                    EMP-DENTL-COVEFFDT BY SAVE-EMP-DENTL-COVEFFDT 36260760
018700                    VIS-OPTOUT        BY SAVE-VIS-OPTOUT          PPEC120
018800                    VIS-PLAN          BY SAVE-VIS-PLAN            PPEC120
018900                    VIS-COVERAGE      BY SAVE-VIS-COVERAGE        PPEC120
019000                    VIS-COVEFFDATE    BY SAVE-VIS-COVEFFDATE      PPEC120
019010                    EMP-VIS-COVEFFDT  BY SAVE-EMP-VIS-COVEFFDT    36260760
019100                    LEGAL-OPTOUT      BY SAVE-LEGAL-OPTOUT        PPEC120
019200                    LEGAL-PLAN        BY SAVE-LEGAL-PLAN          PPEC120
019300                    LEGAL-COVERAGE    BY SAVE-LEGAL-COVERAGE      PPEC120
019310*****               LEGAL-COVEFFDATE  BY SAVE-LEGAL-COVEFFDATE.   36260760
019320                    LEGAL-COVEFFDATE  BY SAVE-LEGAL-COVEFFDATE    36260760
019330                    EMP-LEGAL-COVEFFDT BY SAVE-EMP-LEGAL-COVEFFDT.36260760
019500                                                                  PPEC120
019600                                                                  PPEC120
019700     EJECT                                                        PPEC120
019800******************************************************************PPEC120
019900**          L  I  N  K  A  G  E      S  E  C  T  I  O  N        **PPEC120
020000******************************************************************PPEC120
020100                                                                  PPEC120
020200*----------------------------------------------------------------*PPEC120
020300 LINKAGE SECTION.                                                 PPEC120
020400*----------------------------------------------------------------*PPEC120
020500                                                                  PPEC120
020600******************************************************************PPEC120
020700**  THE KRMI AREA IS A COMMON AREA THAT IS USED TO PASS         **PPEC120
020800**  INFORMATION THAT IS REQUIRED FOR THIS MODULE TO EXECUTE     **PPEC120
020900******************************************************************PPEC120
021000                                                                  PPEC120
021100 01  KRMI-LINKAGE-SECTION.                         COPY CPLNKRMI. PPEC120
021200                                                                  PPEC120
021300     EJECT                                                        PPEC120
021400******************************************************************PPEC120
021500**  THIS MESSAGE TABLE ARRAY WILL CONTAIN ALL MESSAGES THAT     **PPEC120
021600**  THIS ROUTINE CAN LOGICALLY ISSUE AT ONE TIME                **PPEC120
021700******************************************************************PPEC120
021800                                                                  PPEC120
021900 01  KMTA-MESSAGE-TABLE-ARRAY.                     COPY CPLNKMTA. PPEC120
022000                                                                  PPEC120
022100     EJECT                                                        PPEC120
022200******************************************************************PPEC120
022300**    P  R  O  C  E  D  U  R  E      D  I  V  I  S  I  O  N     **PPEC120
022400******************************************************************PPEC120
022500                                                                  PPEC120
022600 PROCEDURE DIVISION USING KRMI-LINKAGE-SECTION,                   PPEC120
022700                          KMTA-MESSAGE-TABLE-ARRAY.               PPEC120
022800                                                                  PPEC120
022900                                                                  PPEC120
023000*----------------------------------------------------------------*PPEC120
023100 0000-DRIVER.                                                     PPEC120
023200*----------------------------------------------------------------*PPEC120
023300                                                                  PPEC120
023400******************************************************************PPEC120
023500**  PERFORM THE INITIALIZATION ROUTINE NOW                      **PPEC120
023600******************************************************************PPEC120
023700                                                                  PPEC120
023800     IF  THIS-IS-THE-FIRST-TIME                                   PPEC120
023900         PERFORM 0100-INITIALIZE                                  PPEC120
024000     END-IF.                                                      PPEC120
024100                                                                  PPEC120
024200******************************************************************PPEC120
024300**  PERFORM THE MAIN ROUTINE NOW - AFTER WHICH WE WILL RETURN   **PPEC120
024400**  TO THE CALLING PROGRAM                                      **PPEC120
024500******************************************************************PPEC120
024600                                                                  PPEC120
024700     PERFORM 1000-MAINLINE-ROUTINE.                               PPEC120
024800                                                                  PPEC120
024900     EXIT PROGRAM.                                                PPEC120
025000                                                                  PPEC120
025100                                                                  PPEC120
025200     EJECT                                                        PPEC120
025300*----------------------------------------------------------------*PPEC120
025400 0100-INITIALIZE    SECTION.                                      PPEC120
025500*----------------------------------------------------------------*PPEC120
025600                                                                  PPEC120
025700******************************************************************PPEC120
025800**  DISPLAY THE PROGRAM ID AND DATE/TIME COMPILED               **PPEC120
025900******************************************************************PPEC120
026000                                                                  PPEC120
026100     MOVE A-STND-PROG-ID           TO XWHC-DISPLAY-MODULE.        PPEC120
026200                                                                  PPEC120
026300*                                               *-------------*   PPEC120
026400                                                 COPY CPPDXWHC.   PPEC120
026500*                                               *-------------*   PPEC120
026600                                                                  PPEC120
026700*                                               *-------------*   PPEC120
026800                                                 COPY CPPDDATE.   PPEC120
026900*                                               *-------------*   PPEC120
027000                                                                  PPEC120
027100     MOVE PRE-EDIT-DATE            TO DATE-WO-CC.                 PPEC120
027200                                                                  PPEC120
027300******************************************************************PPEC120
027400**   SET FIRST CALL SWITCH OFF                                  **PPEC120
027500******************************************************************PPEC120
027600                                                                  PPEC120
027700     SET NOT-THE-FIRST-TIME        TO TRUE.                       PPEC120
027800                                                                  PPEC120
027900     EJECT                                                        PPEC120
028000*----------------------------------------------------------------*PPEC120
028100 1000-MAINLINE-ROUTINE SECTION.                                   PPEC120
028200*----------------------------------------------------------------*PPEC120
028300                                                                  PPEC120
028400                                                                  PPEC120
028500     IF  KRMI-REQUESTED-BY-08                                     PPEC120
028600         PERFORM 1100-CONEDITS-MAINLINE                           PPEC120
028700     ELSE                                                         PPEC120
028800         PERFORM 5100-IMPLIED-MAINT-MAINLINE                      PPEC120
028900     END-IF.                                                      PPEC120
029000                                                                  PPEC120
029100                                                                  PPEC120
029200     EJECT                                                        PPEC120
029300******************************************************************PPEC120
029400**     C O N S I S T E N C Y    E D I T S   M A I N L I N E     **PPEC120
029500******************************************************************PPEC120
029600*----------------------------------------------------------------*PPEC120
029700 1100-CONEDITS-MAINLINE SECTION.                                  PPEC120
029800*----------------------------------------------------------------*PPEC120
029900                                                                  PPEC120
030000     MOVE 'Y'                 TO VERIFY-BUT-INS-SW.               PPEC120
030100                                                                  PPEC120
030200     IF      VIS-PLAN       = SPACES                              PPEC120
030300         AND VIS-COVERAGE   = SPACES                              PPEC120
030400         AND VIS-COVEFFDATE = ISO-ZERO-DATE                       PPEC120
030500         CONTINUE                                                 PPEC120
030600     ELSE                                                         PPEC120
030700         IF      VIS-PLAN       NOT = SPACES                      PPEC120
030800             AND VIS-COVERAGE   NOT = SPACES                      PPEC120
030900             AND VIS-COVEFFDATE NOT = ISO-ZERO-DATE               PPEC120
031000             IF  VIS-OPTOUT = 'X'                                 PPEC120
031100                 ADD 1        TO KMTA-CTR                         PPEC120
031200                 MOVE M08307  TO KMTA-MSG-NUMBER        (KMTA-CTR)PPEC120
031300                 MOVE WS-ROUTINE-TYPE                             PPEC120
031400                              TO KMTA-ROUTINE-TYPE      (KMTA-CTR)PPEC120
031500                 MOVE WS-ROUTINE-NUM                              PPEC120
031600                              TO KMTA-ROUTINE-NUM       (KMTA-CTR)PPEC120
031700             ELSE                                                 PPEC120
031800                 IF  BELI-IND NOT = '1'                           PPEC120
031900                     ADD 1    TO KMTA-CTR                         PPEC120
032000                     MOVE M08166                                  PPEC120
032100                              TO KMTA-MSG-NUMBER        (KMTA-CTR)PPEC120
032200                     MOVE WS-ROUTINE-TYPE                         PPEC120
032300                              TO KMTA-ROUTINE-TYPE      (KMTA-CTR)PPEC120
032400                     MOVE WS-ROUTINE-NUM                          PPEC120
032500                              TO KMTA-ROUTINE-NUM       (KMTA-CTR)PPEC120
032600                 END-IF                                           PPEC120
032700             END-IF                                               PPEC120
032800         ELSE                                                     PPEC120
032900             IF      VIS-PLAN NOT = SPACES                        PPEC120
033000                 AND VIS-COVERAGE = SPACES                        PPEC120
033100                 ADD 1        TO KMTA-CTR                         PPEC120
033200                 MOVE E0347   TO KMTA-FIELD-NUM         (KMTA-CTR)PPEC120
033300                 MOVE VIS-PLAN                                    PPEC120
033400                              TO KMTA-DATA-FIELD        (KMTA-CTR)PPEC120
033500                 MOVE 2       TO KMTA-LENGTH            (KMTA-CTR)PPEC120
033600*****            MOVE M08163  TO KMTA-MSG-NUMBER        (KMTA-CTR)12660760
033610                 MOVE M08496  TO KMTA-MSG-NUMBER        (KMTA-CTR)12660760
033700                 MOVE WS-ROUTINE-TYPE                             PPEC120
033800                              TO KMTA-ROUTINE-TYPE      (KMTA-CTR)PPEC120
033900                 MOVE WS-ROUTINE-NUM                              PPEC120
034000                              TO KMTA-ROUTINE-NUM       (KMTA-CTR)PPEC120
034100                 ADD 1        TO KMTA-CTR                         PPEC120
034200                 MOVE E0348   TO KMTA-FIELD-NUM         (KMTA-CTR)PPEC120
034300                 MOVE VIS-COVERAGE                                PPEC120
034400                              TO KMTA-DATA-FIELD        (KMTA-CTR)PPEC120
034500                 MOVE 3       TO KMTA-LENGTH            (KMTA-CTR)PPEC120
034600*****            MOVE M08163  TO KMTA-MSG-NUMBER        (KMTA-CTR)12660760
034610                 MOVE M08496  TO KMTA-MSG-NUMBER        (KMTA-CTR)12660760
034700                 MOVE WS-ROUTINE-TYPE                             PPEC120
034800                              TO KMTA-ROUTINE-TYPE      (KMTA-CTR)PPEC120
034900                 MOVE WS-ROUTINE-NUM                              PPEC120
035000                              TO KMTA-ROUTINE-NUM       (KMTA-CTR)PPEC120
035100             ELSE                                                 PPEC120
035200                 IF      VIS-PLAN       NOT = SPACES              PPEC120
035300                     AND VIS-COVEFFDATE     = ISO-ZERO-DATE       PPEC120
035400                     ADD 1    TO KMTA-CTR                         PPEC120
035500                     MOVE E0347                                   PPEC120
035600                              TO KMTA-FIELD-NUM         (KMTA-CTR)PPEC120
035700                     MOVE VIS-PLAN                                PPEC120
035800                              TO KMTA-DATA-FIELD        (KMTA-CTR)PPEC120
035900                     MOVE 2   TO KMTA-LENGTH            (KMTA-CTR)PPEC120
036000*****                MOVE M08164 TO KMTA-MSG-NUMBER     (KMTA-CTR)12660760
036010                     MOVE M08496 TO KMTA-MSG-NUMBER     (KMTA-CTR)12660760
036100                     MOVE WS-ROUTINE-TYPE                         PPEC120
036200                              TO KMTA-ROUTINE-TYPE      (KMTA-CTR)PPEC120
036300                     MOVE WS-ROUTINE-NUM                          PPEC120
036400                              TO KMTA-ROUTINE-NUM       (KMTA-CTR)PPEC120
036500                                                                  PPEC120
036600                     ADD 1    TO KMTA-CTR                         PPEC120
036700                     MOVE E0349                                   PPEC120
036800                              TO KMTA-FIELD-NUM         (KMTA-CTR)PPEC120
036900                     MOVE VIS-COVEFFDATE                          PPEC120
037000                              TO DB2-DATE                         PPEC120
037100                     PERFORM CONVERT-DB2-DATE                     PPEC120
037200                     MOVE WSX-STD-DATE                            PPEC120
037300                              TO KMTA-DATA-FIELD        (KMTA-CTR)PPEC120
037400                     MOVE 6   TO KMTA-LENGTH            (KMTA-CTR)PPEC120
037500*****                MOVE M08164                                  12660760
037510                     MOVE M08496                                  12660760
037600                              TO KMTA-MSG-NUMBER        (KMTA-CTR)PPEC120
037700                     MOVE WS-ROUTINE-TYPE                         PPEC120
037800                              TO KMTA-ROUTINE-TYPE      (KMTA-CTR)PPEC120
037900                     MOVE WS-ROUTINE-NUM                          PPEC120
038000                              TO KMTA-ROUTINE-NUM       (KMTA-CTR)PPEC120
038100                 END-IF                                           PPEC120
038200             END-IF                                               PPEC120
038300             IF      VIS-PLAN         = SPACES                    PPEC120
038400                 AND VIS-COVERAGE NOT = SPACES                    PPEC120
038500                 ADD 1        TO KMTA-CTR                         PPEC120
038600                 MOVE E0347    TO KMTA-FIELD-NUM        (KMTA-CTR)PPEC120
038700                 MOVE VIS-PLAN                                    PPEC120
038800                              TO KMTA-DATA-FIELD        (KMTA-CTR)PPEC120
038900                 MOVE 2       TO KMTA-LENGTH            (KMTA-CTR)PPEC120
039000*****            MOVE M08165  TO KMTA-MSG-NUMBER        (KMTA-CTR)12660760
039010                 MOVE M08496  TO KMTA-MSG-NUMBER        (KMTA-CTR)12660760
039100                 MOVE WS-ROUTINE-TYPE                             PPEC120
039200                              TO KMTA-ROUTINE-TYPE      (KMTA-CTR)PPEC120
039300                 MOVE WS-ROUTINE-NUM                              PPEC120
039400                              TO KMTA-ROUTINE-NUM       (KMTA-CTR)PPEC120
039500                                                                  PPEC120
039600                 ADD 1        TO KMTA-CTR                         PPEC120
039700                 MOVE E0348    TO KMTA-FIELD-NUM        (KMTA-CTR)PPEC120
039800                 MOVE VIS-COVERAGE                                PPEC120
039900                              TO KMTA-DATA-FIELD        (KMTA-CTR)PPEC120
040000                 MOVE 2       TO KMTA-LENGTH            (KMTA-CTR)PPEC120
040100*****            MOVE M08165  TO KMTA-MSG-NUMBER        (KMTA-CTR)12660760
040110                 MOVE M08496  TO KMTA-MSG-NUMBER        (KMTA-CTR)12660760
040200                 MOVE WS-ROUTINE-TYPE                             PPEC120
040300                              TO KMTA-ROUTINE-TYPE      (KMTA-CTR)PPEC120
040400                 MOVE WS-ROUTINE-NUM                              PPEC120
040500                              TO KMTA-ROUTINE-NUM       (KMTA-CTR)PPEC120
040600             ELSE                                                 PPEC120
040700                 IF      VIS-PLAN           = SPACES              PPEC120
040800                     AND VIS-COVEFFDATE NOT = ISO-ZERO-DATE       PPEC120
040900                     ADD 1    TO KMTA-CTR                         PPEC120
041000                     MOVE E0347                                   PPEC120
041100                              TO KMTA-FIELD-NUM         (KMTA-CTR)PPEC120
041200                     MOVE VIS-PLAN                                PPEC120
041300                              TO KMTA-DATA-FIELD        (KMTA-CTR)PPEC120
041400                     MOVE 2   TO KMTA-LENGTH            (KMTA-CTR)PPEC120
041500*****                MOVE M08165                                  12660760
041510                     MOVE M08496                                  12660760
041600                              TO KMTA-MSG-NUMBER        (KMTA-CTR)PPEC120
041700                     MOVE WS-ROUTINE-TYPE                         PPEC120
041800                              TO KMTA-ROUTINE-TYPE      (KMTA-CTR)PPEC120
041900                     MOVE WS-ROUTINE-NUM                          PPEC120
042000                              TO KMTA-ROUTINE-NUM       (KMTA-CTR)PPEC120
042100                     ADD 1    TO KMTA-CTR                         PPEC120
042200                     MOVE E0349                                   PPEC120
042300                              TO KMTA-FIELD-NUM         (KMTA-CTR)PPEC120
042400                     MOVE VIS-COVEFFDATE                          PPEC120
042500                              TO DB2-DATE                         PPEC120
042600                     PERFORM CONVERT-DB2-DATE                     PPEC120
042700                     MOVE WSX-STD-DATE                            PPEC120
042800                              TO KMTA-DATA-FIELD        (KMTA-CTR)PPEC120
042900                     MOVE 6   TO KMTA-LENGTH            (KMTA-CTR)PPEC120
043000*****                MOVE M08165                                  12660760
043010                     MOVE M08496                                  12660760
043100                              TO KMTA-MSG-NUMBER        (KMTA-CTR)PPEC120
043200                     MOVE WS-ROUTINE-TYPE                         PPEC120
043300                              TO KMTA-ROUTINE-TYPE      (KMTA-CTR)PPEC120
043400                     MOVE WS-ROUTINE-NUM                          PPEC120
043500                              TO KMTA-ROUTINE-NUM       (KMTA-CTR)PPEC120
043600                 END-IF                                           PPEC120
043700             END-IF                                               PPEC120
043800             IF  VIS-OPTOUT = 'X'                                 PPEC120
043900                 ADD 1        TO KMTA-CTR                         PPEC120
044000                 MOVE M08307  TO KMTA-MSG-NUMBER        (KMTA-CTR)PPEC120
044100                 MOVE 'C'     TO KMTA-ROUTINE-TYPE      (KMTA-CTR)PPEC120
044200                 MOVE 120     TO KMTA-ROUTINE-NUM       (KMTA-CTR)PPEC120
044300             ELSE                                                 PPEC120
044400                 IF  BELI-IND NOT = '1'                           PPEC120
044500                     ADD 1    TO KMTA-CTR                         PPEC120
044600                     MOVE M08166                                  PPEC120
044700                              TO KMTA-MSG-NUMBER        (KMTA-CTR)PPEC120
044800                     MOVE WS-ROUTINE-TYPE                         PPEC120
044900                              TO KMTA-ROUTINE-TYPE      (KMTA-CTR)PPEC120
045000                     MOVE WS-ROUTINE-NUM                          PPEC120
045100                              TO KMTA-ROUTINE-NUM       (KMTA-CTR)PPEC120
045200                 END-IF                                           PPEC120
045300             END-IF                                               PPEC120
045400         END-IF                                                   PPEC120
045500     END-IF.                                                      PPEC120
045600                                                                  PPEC120
045700                                                                  PPEC120
045800     EJECT                                                        PPEC120
045900******************************************************************PPEC120
046000**   I M P L I E D   M A I N T E N A N C E   M A I N L I N E    **PPEC120
046100******************************************************************PPEC120
046200*----------------------------------------------------------------*PPEC120
046300 5100-IMPLIED-MAINT-MAINLINE SECTION.                             PPEC120
046400*----------------------------------------------------------------*PPEC120
046500                                                                  PPEC120
046600******************************************************************PPEC120
046700**             V I S I O N   M A I N T E N A N C E              **PPEC120
046800******************************************************************PPEC120
046900                                                                  PPEC120
047000     SET PERFORM-REST-OF-CONEDIT  TO TRUE.                        PPEC120
047100                                                                  PPEC120
047200     IF  VIS-OPTOUT = 'X'                                         PPEC120
047300         IF  SAVE-VIS-PLAN = SPACES                               PPEC120
047400             IF      VIS-PLAN       = SPACES                      PPEC120
047500                 AND VIS-COVERAGE   = SPACES                      PPEC120
047600                 AND VIS-COVEFFDATE = ISO-ZERO-DATE               PPEC120
047700                 CONTINUE                                         PPEC120
047800             ELSE                                                 PPEC120
047900                 MOVE SPACE       TO VIS-PLAN                     PPEC120
048000                                     VIS-COVERAGE                 PPEC120
048100                 MOVE ISO-ZERO-DATE                               PPEC120
048200                                  TO VIS-COVEFFDATE               PPEC120
048210                 MOVE ISO-ZERO-DATE TO EMP-VIS-COVEFFDT           36260760
048220                                                                  36260760
048230                 SET INIT-ALL-OCCURRENCES TO TRUE                 36260760
048240                 SET INIT-VISION-PLAN-DCED TO TRUE                36260760
048250                 CALL 'PPDEPINT' USING INIT-DCED-LINKAGE          36260760
048260                                                                  36260760
048300                 ADD 1            TO KMTA-CTR                     PPEC120
048400                 MOVE ZEROS       TO KMTA-ADA-OFFSET (KMTA-CTR)   PPEC120
048500                 MOVE VIS-OPTOUT  TO KMTA-DATA-FIELD (KMTA-CTR)   PPEC120
048600                 MOVE WS-ROUTINE-TYPE                             PPEC120
048700                                  TO KMTA-ROUTINE-TYPE (KMTA-CTR) PPEC120
048800                 MOVE WS-ROUTINE-NUM                              PPEC120
048900                                  TO KMTA-ROUTINE-NUM (KMTA-CTR)  PPEC120
049000                 MOVE M12323      TO KMTA-MSG-NUMBER (KMTA-CTR)   PPEC120
049100             END-IF                                               PPEC120
049200         ELSE                                                     PPEC120
049300             ADD 1                TO KMTA-CTR                     PPEC120
049400             MOVE ZEROS           TO KMTA-ADA-OFFSET (KMTA-CTR)   PPEC120
049500             MOVE VIS-OPTOUT      TO KMTA-DATA-FIELD (KMTA-CTR)   PPEC120
049600             MOVE WS-ROUTINE-TYPE TO KMTA-ROUTINE-TYPE (KMTA-CTR) PPEC120
049700             MOVE WS-ROUTINE-NUM  TO KMTA-ROUTINE-NUM (KMTA-CTR)  PPEC120
049800             MOVE M12324          TO KMTA-MSG-NUMBER (KMTA-CTR)   PPEC120
049900             PERFORM XXXX-ZAP-OPTICAL                             PPEC120
049910                                                                  36260760
049920             SET INIT-ALL-OCCURRENCES TO TRUE                     36260760
049930             SET INIT-VISION-PLAN-DCED TO TRUE                    36260760
049940             CALL 'PPDEPINT' USING INIT-DCED-LINKAGE              36260760
050000         END-IF                                                   PPEC120
050100     ELSE                                                         PPEC120
050200                                                                  PPEC120
050300******************************************************************PPEC120
050400**   AT THIS POINT, OPTICAL OPT OUT INDICATOR IS NOT = X        **PPEC120
050500******************************************************************PPEC120
050600                                                                  PPEC120
050700         IF  BELI-NUMERIC-VALUE > 1                               PPEC120
050800             PERFORM 7640-EDIT-OPTC-BELI-GRTR-1                   PPEC120
050900         ELSE                                                     PPEC120
051000             PERFORM 7650-EDIT-OPTC-BELI-EQUAL-1                  PPEC120
051100         END-IF                                                   PPEC120
051200                                                                  PPEC120
051300         IF  BYPASS-REST-OF-CONEDIT                               PPEC120
051400             CONTINUE                                             PPEC120
051500         ELSE                                                     PPEC120
051600             IF      VIS-PLAN       NOT = SPACES                  PPEC120
051700                 AND VIS-COVERAGE   NOT = SPACES                  PPEC120
051800                 AND VIS-COVEFFDATE NOT = ISO-ZERO-DATE           PPEC120
051900                 CONTINUE                                         PPEC120
052000             ELSE                                                 PPEC120
052100                 PERFORM XXXX-ZAP-OPTICAL                         PPEC120
052120                                                                  36260760
052130                 SET INIT-ALL-OCCURRENCES TO TRUE                 36260760
052140                 SET INIT-VISION-PLAN-DCED TO TRUE                36260760
052150                 CALL 'PPDEPINT' USING INIT-DCED-LINKAGE          36260760
052200             END-IF                                               PPEC120
052300         END-IF                                                   PPEC120
052400     END-IF.                                                      PPEC120
052500                                                                  PPEC120
052600                                                                  PPEC120
052700     EJECT                                                        PPEC120
052800*----------------------------------------------------------------*PPEC120
052900 7640-EDIT-OPTC-BELI-GRTR-1  SECTION.                             PPEC120
053000*----------------------------------------------------------------*PPEC120
053100                                                                  PPEC120
053200     IF  VIS-PLAN NOT = SPACES                                    PPEC120
053300         MOVE SAVE-VIS-PLAN    TO VIS-PLAN                        PPEC120
053400         MOVE SAVE-VIS-COVERAGE                                   PPEC120
053500                               TO VIS-COVERAGE                    PPEC120
053600         MOVE SAVE-VIS-COVEFFDATE                                 PPEC120
053700                               TO VIS-COVEFFDATE                  PPEC120
053710         MOVE SAVE-EMP-VIS-COVEFFDT TO EMP-VIS-COVEFFDT           36260760
053720                                                                  36260760
053730         SET INIT-ROLL-OCCURRENCES TO TRUE                        36260760
053740         SET INIT-VISION-PLAN-DCED TO TRUE                        36260760
053750         CALL 'PPDEPINT' USING INIT-DCED-LINKAGE                  36260760
053760                                                                  36260760
053800         SET BYPASS-REST-OF-CONEDIT                               PPEC120
053900                               TO TRUE                            PPEC120
054000         ADD 1                 TO KMTA-CTR                        PPEC120
054100         MOVE ZEROS            TO KMTA-ADA-OFFSET (KMTA-CTR)      PPEC120
054200         MOVE WS-ROUTINE-TYPE  TO KMTA-ROUTINE-TYPE (KMTA-CTR)    PPEC120
054300         MOVE WS-ROUTINE-NUM   TO KMTA-ROUTINE-NUM (KMTA-CTR)     PPEC120
054400         MOVE M12325           TO KMTA-MSG-NUMBER (KMTA-CTR)      PPEC120
054500     END-IF.                                                      PPEC120
054600                                                                  PPEC120
054700                                                                  PPEC120
054800     EJECT                                                        PPEC120
054900*----------------------------------------------------------------*PPEC120
055000 7650-EDIT-OPTC-BELI-EQUAL-1 SECTION.                             PPEC120
055100*----------------------------------------------------------------*PPEC120
055200                                                                  PPEC120
055300     IF  VIS-PLAN = SPACES                                        PPEC120
055400         IF  SAVE-VIS-PLAN = SPACES                               PPEC120
055500             IF  VIS-OPTOUT NOT = 'D'                             PPEC120
055600                 PERFORM 7655-ENROLL-IN-BASE-OPTICAL              PPEC120
055700                 SET BYPASS-REST-OF-CONEDIT TO TRUE               PPEC120
055800             END-IF                                               PPEC120
055900         ELSE                                                     PPEC120
056000             IF  VIS-OPTOUT NOT = 'D'                             PPEC120
056100                 MOVE SAVE-VIS-PLAN                               PPEC120
056200                                  TO VIS-PLAN                     PPEC120
056300                 MOVE SAVE-VIS-COVERAGE                           PPEC120
056400                                  TO VIS-COVERAGE                 PPEC120
056500                 MOVE SAVE-VIS-COVEFFDATE                         PPEC120
056600                                  TO VIS-COVEFFDATE               PPEC120
056610                 MOVE SAVE-EMP-VIS-COVEFFDT TO EMP-VIS-COVEFFDT   36260760
056620                                                                  36260760
056630                 SET INIT-ROLL-OCCURRENCES TO TRUE                36260760
056640                 SET INIT-VISION-PLAN-DCED TO TRUE                36260760
056650                 CALL 'PPDEPINT' USING INIT-DCED-LINKAGE          36260760
056660                                                                  36260760
056700                 ADD 1            TO KMTA-CTR                     PPEC120
056800                 MOVE ZEROS       TO KMTA-ADA-OFFSET (KMTA-CTR)   PPEC120
056900                 MOVE WS-ROUTINE-TYPE                             PPEC120
057000                                  TO KMTA-ROUTINE-TYPE (KMTA-CTR) PPEC120
057100                 MOVE WS-ROUTINE-NUM                              PPEC120
057200                                  TO KMTA-ROUTINE-NUM (KMTA-CTR)  PPEC120
057300                 MOVE M12326      TO KMTA-MSG-NUMBER (KMTA-CTR)   PPEC120
057400                 SET BYPASS-REST-OF-CONEDIT TO TRUE               PPEC120
057500             END-IF                                               PPEC120
057600         END-IF                                                   PPEC120
057700     ELSE                                                         PPEC120
057800         PERFORM 7658-VAL-OPTICAL-ENROLL                          PPEC120
057900         SET BYPASS-REST-OF-CONEDIT TO TRUE                       PPEC120
058000         IF  VIS-OPTOUT NOT = SPACE                               PPEC120
058100             MOVE SPACE           TO VIS-OPTOUT                   PPEC120
058200             MOVE E0379           TO DL-FIELD                     PPEC120
058300             PERFORM 9050-AUDITING-RESPONSIBILITIES               PPEC120
058400         END-IF                                                   PPEC120
058500     END-IF.                                                      PPEC120
058600                                                                  PPEC120
058700                                                                  PPEC120
058800*----------------------------------------------------------------*PPEC120
058900 7655-ENROLL-IN-BASE-OPTICAL  SECTION.                            PPEC120
059000*----------------------------------------------------------------*PPEC120
059100                                                                  PPEC120
059200     MOVE 'VI'                    TO VIS-PLAN.                    PPEC120
059300     MOVE E0347                   TO DL-FIELD                     PPEC120
059400                                                                  PPEC120
059500     PERFORM 9050-AUDITING-RESPONSIBILITIES.                      PPEC120
059600                                                                  PPEC120
059700     MOVE 'U'                     TO VIS-COVERAGE.                PPEC120
059800     MOVE E0348                   TO DL-FIELD                     PPEC120
059900                                                                  PPEC120
060000     PERFORM 9050-AUDITING-RESPONSIBILITIES.                      PPEC120
060010                                                                  36260760
060011     SET INIT-ALL-OCCURRENCES TO TRUE.                            36260760
060020     SET INIT-VISION-PLAN-DCED TO TRUE.                           36260760
060030     CALL 'PPDEPINT' USING INIT-DCED-LINKAGE.                     36260760
060100                                                                  PPEC120
060200     MOVE HIRE-DATE               TO ISO-HIRE-DATE.               PPEC120
060300     MOVE SCR-CURRENT-DATE        TO ISO-TEMP-DATE.               PPEC120
060400     MOVE BELI-EFF-DATE           TO VIS-COVEFFDATE.              PPEC120
060500     MOVE E0349 TO DL-FIELD                                       PPEC120
060600                                                                  PPEC120
060700     PERFORM 9050-AUDITING-RESPONSIBILITIES.                      PPEC120
060701                                                                  36260760
060710     MOVE BELI-EFF-DATE           TO EMP-VIS-COVEFFDT.            36260760
060720     MOVE E0456 TO DL-FIELD.                                      36260760
060740     PERFORM 9050-AUDITING-RESPONSIBILITIES.                      36260760
060800                                                                  PPEC120
060900                                                                  PPEC120
061000*----------------------------------------------------------------*PPEC120
061100 7658-VAL-OPTICAL-ENROLL  SECTION.                                PPEC120
061200*----------------------------------------------------------------*PPEC120
061300                                                                  PPEC120
061400     IF  VIS-COVERAGE = SPACES                                    PPEC120
061500         MOVE 'U'                 TO VIS-COVERAGE                 PPEC120
061600         MOVE E0348               TO DL-FIELD                     PPEC120
061700         PERFORM 9050-AUDITING-RESPONSIBILITIES                   PPEC120
061710         SET INIT-ALL-OCCURRENCES TO TRUE                         36260760
061720         SET INIT-VISION-PLAN-DCED TO TRUE                        36260760
061730         CALL 'PPDEPINT' USING INIT-DCED-LINKAGE                  36260760
061800     END-IF.                                                      PPEC120
061900                                                                  PPEC120
062000     IF  VIS-COVEFFDATE = ISO-ZERO-DATE                           PPEC120
062100         MOVE E0349               TO DL-FIELD                     PPEC120
062200         MOVE HIRE-DATE           TO ISO-HIRE-DATE                PPEC120
062300         MOVE SCR-CURRENT-DATE    TO ISO-TEMP-DATE                PPEC120
062400         MOVE BELI-EFF-DATE       TO VIS-COVEFFDATE               PPEC120
062500         PERFORM 9050-AUDITING-RESPONSIBILITIES                   PPEC120
062510         MOVE VIS-COVEFFDATE      TO EMP-VIS-COVEFFDT             36260760
062511         MOVE E0456               TO DL-FIELD                     36260760
062520         PERFORM 9050-AUDITING-RESPONSIBILITIES                   36260760
062521******************************************************************36260760
062522**       MISSING PCED WILL HAVE CAUSED INITIALIZED DCED'S BY    **36260760
062523**       THIS POINT, SO DEFAULT TO 'U' COVERAGE                 **36260760
062524******************************************************************36260760
062530         MOVE 'U'                 TO VIS-COVERAGE                 36260760
062540         MOVE E0348               TO DL-FIELD                     36260760
062550         PERFORM 9050-AUDITING-RESPONSIBILITIES                   36260760
062600     END-IF.                                                      PPEC120
062700                                                                  PPEC120
062800                                                                  PPEC120
062900                                                                  PPEC120
063000     EJECT                                                        PPEC120
063100*----------------------------------------------------------------*PPEC120
063200 9050-AUDITING-RESPONSIBILITIES  SECTION.                         PPEC120
063300*----------------------------------------------------------------*PPEC120
063400                                                                  PPEC120
063500*                                                 *-------------* PPEC120
063600                                                   COPY CPPDXDEC. PPEC120
063700*                                                 *-------------* PPEC120
063800                                                                  PPEC120
063900*----------------------------------------------------------------*PPEC120
064000 9060-APPT-DIST-LOC-CALCULATION  SECTION.                         PPEC120
064100*----------------------------------------------------------------*PPEC120
064200                                                                  PPEC120
064300*                                                 *-------------* PPEC120
064400                                                   COPY CPPDADLC. PPEC120
064500*                                                 *-------------* PPEC120
064600                                                                  PPEC120
064700     EJECT                                                        PPEC120
064800*----------------------------------------------------------------*PPEC120
064900 9300-DATE-CONVERSION-DB2  SECTION.                               PPEC120
065000*----------------------------------------------------------------*PPEC120
065100                                                                  PPEC120
065200*                                                 *-------------* PPEC120
065300                                                   COPY CPPDXDC2. PPEC120
065400*                                                 *-------------* PPEC120
065500                                                                  PPEC120
065600     EJECT                                                        PPEC120
065700*----------------------------------------------------------------*PPEC120
065800 XXXX-ZAP-BENEFIT-PLANS  SECTION.                                 PPEC120
065900*----------------------------------------------------------------*PPEC120
066000                                                                  PPEC120
066100*                                                 *-------------* PPEC120
066200                                                   COPY CPPDBZAP. PPEC120
066300*                                                 *-------------* PPEC120
066400                                                                  PPEC120
066500******************************************************************PPEC120
066600**   E N D  S O U R C E   ----  PPEC120 ----                    **PPEC120
066700******************************************************************PPEC120
