000100*----------------------------------------------------------------*36410717
000200*|**************************************************************|*36410717
000300*|* PROGRAM: PPEC113                                           *|*36410717
000400*|*  RELEASE: __0717_______ SERVICE REQUEST(S): _____3641____  *|*36410717
000500*|*  NAME:______UCOP_______ MODIFICATION DATE:  ___11/19/92__  *|*36410717
000600*|*  DESCRIPTION:                                              *|*36410717
000700*|*  - EDB MAINTENANCE RE-ENGINEERING PROJECT                  *|*36410717
000800*|*    ADDRESS CONSISTENCY EDITS                               *|*36410717
000900*|**************************************************************|*36410717
001000*----------------------------------------------------------------*36410717
001100                                                                  PPEC113
001200 IDENTIFICATION DIVISION.                                         PPEC113
001300 PROGRAM-ID. PPEC113.                                             PPEC113
001400 AUTHOR. UCOP.                                                    PPEC113
001500 INSTALLATION. UNIVERSITY OF CALIFORNIA.                          PPEC113
001600                                                                  PPEC113
001700 DATE-WRITTEN.  AUGUST 04,1992.                                   PPEC113
001800 DATE-COMPILED.                                                   PPEC113
001900                                                                  PPEC113
002000******************************************************************PPEC113
002100**    THIS ROUTINE WILL PERFORM THE ADDRESS                     **PPEC113
002200**    CONSISTENCY EDITS                                         **PPEC113
002300******************************************************************PPEC113
002400                                                                  PPEC113
002500 ENVIRONMENT DIVISION.                                            PPEC113
002600 CONFIGURATION SECTION.                                           PPEC113
002700 SOURCE-COMPUTER.                       COPY CPOTXUCS.            PPEC113
002800 OBJECT-COMPUTER.                       COPY CPOTXOBJ.            PPEC113
002900 SPECIAL-NAMES.                C01 IS NEW-PAGE.                   PPEC113
003000                                                                  PPEC113
003100 INPUT-OUTPUT SECTION.                                            PPEC113
003200 FILE-CONTROL.                                                    PPEC113
003300                                                                  PPEC113
003400 DATA DIVISION.                                                   PPEC113
003500 FILE SECTION.                                                    PPEC113
003600     EJECT                                                        PPEC113
003700*----------------------------------------------------------------*PPEC113
003800 WORKING-STORAGE SECTION.                                         PPEC113
003900*----------------------------------------------------------------*PPEC113
004000                                                                  PPEC113
004100 01  A-STND-PROG-ID                   PIC X(15) VALUE             PPEC113
004200     'PPEC113 /111992'.                                           PPEC113
004300                                                                  PPEC113
004400 01  A-STND-MSG-PARMS                 REDEFINES                   PPEC113
004500     A-STND-PROG-ID.                                              PPEC113
004600     05  FILLER                       PIC X(03).                  PPEC113
004700     05  WS-ROUTINE-TYPE              PIC X(01).                  PPEC113
004800     05  WS-ROUTINE-NUM               PIC 9(03).                  PPEC113
004900     05  FILLER                       PIC X(08).                  PPEC113
005000                                                                  PPEC113
005100 01  MESSAGES-USED.                                               PPEC113
005200     05  M08215                       PIC X(05) VALUE '08215'.    PPEC113
005300     05  M08216                       PIC X(05) VALUE '08216'.    PPEC113
005400     05  M08218                       PIC X(05) VALUE '08218'.    PPEC113
005500     05  M12916                       PIC X(05) VALUE '12916'.    PPEC113
005600     05  M12919                       PIC X(05) VALUE '12919'.    PPEC113
005700                                                                  PPEC113
005800 01  ELEMENTS-USED.                                               PPEC113
005900     05  E0204                        PIC 9(04) VALUE 0204.       PPEC113
006000     05  E0205                        PIC 9(04) VALUE 0205.       PPEC113
006100     05  E0207                        PIC 9(04) VALUE 0207.       PPEC113
006200     05  E0208                        PIC 9(04) VALUE 0208.       PPEC113
006300     05  E0291                        PIC 9(04) VALUE 0291.       PPEC113
006400     05  E1118                        PIC 9(04) VALUE 1118.       PPEC113
006500     05  E1119                        PIC 9(04) VALUE 1119.       PPEC113
006600     05  E1120                        PIC 9(04) VALUE 1120.       PPEC113
006700                                                                  PPEC113
006800 01  MISC-WORK-AREAS.                                             PPEC113
006900     05  FIRST-TIME-SW                PIC X(01) VALUE LOW-VALUES. PPEC113
007000         88  THIS-IS-THE-FIRST-TIME             VALUE LOW-VALUES. PPEC113
007100         88  NOT-THE-FIRST-TIME                 VALUE 'Y'.        PPEC113
007200     05  WORK-STREET-ADDRESS-60       PIC X(61).                  PPEC113
007300     05  LONG-STREET                  REDEFINES                   PPEC113
007400         WORK-STREET-ADDRESS-60.                                  PPEC113
007500         10  L-STREET                 PIC X(01) OCCURS 61.        PPEC113
007600     05  SUB                          PIC 9(02) VALUE ZEROS.      PPEC113
007700                                                                  PPEC113
007800     EJECT                                                        PPEC113
007900 01  DL-FIELD-WORK-AREA.                           COPY CPWSXDLS. PPEC113
008000                                                                  PPEC113
008100     EJECT                                                        PPEC113
008200 01  DATE-CONVERSION-WORK-AREAS.                   COPY CPWSXDC2. PPEC113
008300                                                                  PPEC113
008400     EJECT                                                        PPEC113
008500 01  XWHC-COMPILE-WORK-AREA.                       COPY CPWSXWHC. PPEC113
008600                                                                  PPEC113
008700     EJECT                                                        PPEC113
008800 01  COLUMN-88-WORK.                               COPY CPWSW88S. PPEC113
008900                                                                  PPEC113
009000     EJECT                                                        PPEC113
009100 01  DATE-WORK-AREA.                               COPY CPWSDATE. PPEC113
009200                                                                  PPEC113
009300     EJECT                                                        PPEC113
009400 01  APPT-DIST-LOC-WORK-AREAS.                     COPY CPWSADLC. PPEC113
009500                                                                  PPEC113
009600     EJECT                                                        PPEC113
009700 01  INSTALLATION-DEPENDT-CONSTANTS.               COPY CPWSXIDC. PPEC113
009800                                                                  PPEC113
009900     EJECT                                                        PPEC113
010000******************************************************************PPEC113
010100**     E  X  T  E  R  N  A  L  S      S  E  C  T  I  O  N       **PPEC113
010200**--------------------------------------------------------------**PPEC113
010300** THE FOLLOWING EXTERNAL AREAS WILL BE USED BY OTHER PROCESSES **PPEC113
010400******************************************************************PPEC113
010500                                                                  PPEC113
010600 01  DATA-ELEMENT-CHANGE-INDICATORS      EXTERNAL. COPY CPWSXDEC. PPEC113
010700                                                                  PPEC113
010800     EJECT                                                        PPEC113
010900 01  XCSS-COMMON-SYSTEM-SWITCHES         EXTERNAL. COPY CPWSSWCH. PPEC113
011000                                                                  PPEC113
011100     EJECT                                                        PPEC113
011200 01  XDTS-COMMON-SYSTEM-DATES            EXTERNAL. COPY CPWSXDTS. PPEC113
011300                                                                  PPEC113
011400     EJECT                                                        PPEC113
011500 01  ECES-CON-EDIT-SWITCH                EXTERNAL. COPY CPWSECES. PPEC113
011600                                                                  PPEC113
011700 01  EGES-GTN-EDIT-SWITCH                EXTERNAL. COPY CPWSEGES. PPEC113
011800                                                                  PPEC113
011900 01  EIMS-IMPL-MAINT-SWITCH              EXTERNAL. COPY CPWSEIMS. PPEC113
012000                                                                  PPEC113
012100 01  EAXD-APPT-ARRAY-SWITCH              EXTERNAL. COPY CPWSEAXD. PPEC113
012200                                                                  PPEC113
012300     EJECT                                                        PPEC113
012400 01  XDER-DATA-ELMT-RTN-POINTERS         EXTERNAL. COPY CPWSXDER. PPEC113
012500                                                                  PPEC113
012600     EJECT                                                        PPEC113
012700 01  XDRT-DET-ROUTINE-TRIGGERS           EXTERNAL. COPY CPWSXDRT. PPEC113
012800                                                                  PPEC113
012900     EJECT                                                        PPEC113
013000 01  EDB-MAINTENANCE-PASS-AREA           EXTERNAL. COPY CPWSEMPA. PPEC113
013100                                                                  PPEC113
013200     EJECT                                                        PPEC113
013300******************************************************************PPEC113
013400**  DATA BASE AREAS                                             **PPEC113
013500******************************************************************PPEC113
013600                                                                  PPEC113
013700 01  SCR-ROW                             EXTERNAL.                PPEC113
013800     EXEC SQL INCLUDE PPPVSCR1 END-EXEC.                          PPEC113
013900                                                                  PPEC113
014000     EJECT                                                        PPEC113
014100 01  FAD-ROW                             EXTERNAL.                PPEC113
014200     EXEC SQL INCLUDE PPPVFAD1 END-EXEC.                          PPEC113
014300                                                                  PPEC113
014400     EJECT                                                        PPEC113
014500 01  PAY-ROW                             EXTERNAL.                PPEC113
014600     EXEC SQL INCLUDE PPPVPAY1 END-EXEC.                          PPEC113
014700                                                                  PPEC113
014800     EJECT                                                        PPEC113
014900******************************************************************PPEC113
015000**          L  I  N  K  A  G  E      S  E  C  T  I  O  N        **PPEC113
015100******************************************************************PPEC113
015200                                                                  PPEC113
015300*----------------------------------------------------------------*PPEC113
015400 LINKAGE SECTION.                                                 PPEC113
015500*----------------------------------------------------------------*PPEC113
015600                                                                  PPEC113
015700******************************************************************PPEC113
015800**  THE KRMI AREA IS A COMMON AREA THAT IS USED TO PASS         **PPEC113
015900**  INFORMATION THAT IS REQUIRED FOR THIS MODULE TO EXECUTE     **PPEC113
016000******************************************************************PPEC113
016100                                                                  PPEC113
016200 01  KRMI-LINKAGE-SECTION.                         COPY CPLNKRMI. PPEC113
016300                                                                  PPEC113
016400     EJECT                                                        PPEC113
016500******************************************************************PPEC113
016600**  THIS MESSAGE TABLE ARRAY WILL CONTAIN ALL MESSAGES THAT     **PPEC113
016700**  THIS ROUTINE CAN LOGICALLY ISSUE AT ONE TIME                **PPEC113
016800******************************************************************PPEC113
016900                                                                  PPEC113
017000 01  KMTA-MESSAGE-TABLE-ARRAY.                     COPY CPLNKMTA. PPEC113
017100                                                                  PPEC113
017200     EJECT                                                        PPEC113
017300******************************************************************PPEC113
017400**    P  R  O  C  E  D  U  R  E      D  I  V  I  S  I  O  N     **PPEC113
017500******************************************************************PPEC113
017600                                                                  PPEC113
017700 PROCEDURE DIVISION USING KRMI-LINKAGE-SECTION,                   PPEC113
017800                          KMTA-MESSAGE-TABLE-ARRAY.               PPEC113
017900                                                                  PPEC113
018000                                                                  PPEC113
018100*----------------------------------------------------------------*PPEC113
018200 0000-DRIVER.                                                     PPEC113
018300*----------------------------------------------------------------*PPEC113
018400                                                                  PPEC113
018500******************************************************************PPEC113
018600**  PERFORM THE INITIALIZATION ROUTINE NOW                      **PPEC113
018700******************************************************************PPEC113
018800                                                                  PPEC113
018900     IF  THIS-IS-THE-FIRST-TIME                                   PPEC113
019000         PERFORM 0100-INITIALIZE                                  PPEC113
019100     END-IF.                                                      PPEC113
019200                                                                  PPEC113
019300******************************************************************PPEC113
019400**  PERFORM THE MAIN ROUTINE NOW - AFTER WHICH WE WILL RETURN   **PPEC113
019500**  TO THE CALLING PROGRAM                                      **PPEC113
019600******************************************************************PPEC113
019700                                                                  PPEC113
019800     PERFORM 1000-MAINLINE-ROUTINE.                               PPEC113
019900                                                                  PPEC113
020000     EXIT PROGRAM.                                                PPEC113
020100                                                                  PPEC113
020200                                                                  PPEC113
020300     EJECT                                                        PPEC113
020400*----------------------------------------------------------------*PPEC113
020500 0100-INITIALIZE    SECTION.                                      PPEC113
020600*----------------------------------------------------------------*PPEC113
020700                                                                  PPEC113
020800******************************************************************PPEC113
020900**  DISPLAY THE PROGRAM ID AND DATE/TIME COMPILED               **PPEC113
021000******************************************************************PPEC113
021100                                                                  PPEC113
021200     MOVE A-STND-PROG-ID           TO XWHC-DISPLAY-MODULE.        PPEC113
021300                                                                  PPEC113
021400*                                               *-------------*   PPEC113
021500                                                 COPY CPPDXWHC.   PPEC113
021600*                                               *-------------*   PPEC113
021700                                                                  PPEC113
021800*                                               *-------------*   PPEC113
021900                                                 COPY CPPDDATE.   PPEC113
022000*                                               *-------------*   PPEC113
022100                                                                  PPEC113
022200     MOVE PRE-EDIT-DATE            TO DATE-WO-CC.                 PPEC113
022300                                                                  PPEC113
022400******************************************************************PPEC113
022500**   SET FIRST CALL SWITCH OFF                                  **PPEC113
022600******************************************************************PPEC113
022700                                                                  PPEC113
022800     SET NOT-THE-FIRST-TIME        TO TRUE.                       PPEC113
022900                                                                  PPEC113
023000     EJECT                                                        PPEC113
023100*----------------------------------------------------------------*PPEC113
023200 1000-MAINLINE-ROUTINE SECTION.                                   PPEC113
023300*----------------------------------------------------------------*PPEC113
023400                                                                  PPEC113
023500     IF  KRMI-REQUESTED-BY-08                                     PPEC113
023600         PERFORM 1100-CONEDITS-MAINLINE                           PPEC113
023700     ELSE                                                         PPEC113
023800         PERFORM 5100-IMPLIED-MAINT-MAINLINE                      PPEC113
023900     END-IF.                                                      PPEC113
024000                                                                  PPEC113
024100                                                                  PPEC113
024200     EJECT                                                        PPEC113
024300******************************************************************PPEC113
024400**     C O N S I S T E N C Y    E D I T S   M A I N L I N E     **PPEC113
024500******************************************************************PPEC113
024600*----------------------------------------------------------------*PPEC113
024700 1100-CONEDITS-MAINLINE SECTION.                                  PPEC113
024800*----------------------------------------------------------------*PPEC113
024900                                                                  PPEC113
025000******************************************************************PPEC113
025100**   FOREIGN ADDRESS                                            **PPEC113
025200******************************************************************PPEC113
025300                                                                  PPEC113
025400     MOVE FOREIGN-ADDR-IND     TO W88-FOREIGN-ADDR-IND.           PPEC113
025500                                                                  PPEC113
025600     IF       FOREIGN-ADDR-IND-ADDRESS-FOREI                      PPEC113
025700         AND (   ADDRESS-STATE NOT = SPACES                       PPEC113
025800              OR ADDRESS-ZIP   NOT = SPACES                       PPEC113
025900              OR FAD-COUNTRY       = SPACES)                      PPEC113
026000         ADD 1                 TO KMTA-CTR                        PPEC113
026100         MOVE M08215           TO KMTA-MSG-NUMBER       (KMTA-CTR)PPEC113
026200         MOVE E0291            TO KMTA-FIELD-NUM        (KMTA-CTR)PPEC113
026300         MOVE 1                TO KMTA-LENGTH           (KMTA-CTR)PPEC113
026400         MOVE FOREIGN-ADDR-IND TO KMTA-DATA-FIELD       (KMTA-CTR)PPEC113
026500         MOVE WS-ROUTINE-TYPE  TO KMTA-ROUTINE-TYPE     (KMTA-CTR)PPEC113
026600         MOVE WS-ROUTINE-NUM   TO KMTA-ROUTINE-NUM      (KMTA-CTR)PPEC113
026700                                                                  PPEC113
026800         ADD 1                 TO KMTA-CTR                        PPEC113
026900         MOVE M08215           TO KMTA-MSG-NUMBER       (KMTA-CTR)PPEC113
027000         MOVE E0207            TO KMTA-FIELD-NUM        (KMTA-CTR)PPEC113
027100         MOVE 30               TO KMTA-LENGTH           (KMTA-CTR)PPEC113
027200         MOVE ADDRESS-STATE    TO KMTA-DATA-FIELD       (KMTA-CTR)PPEC113
027300         MOVE WS-ROUTINE-TYPE  TO KMTA-ROUTINE-TYPE     (KMTA-CTR)PPEC113
027400         MOVE WS-ROUTINE-NUM   TO KMTA-ROUTINE-NUM      (KMTA-CTR)PPEC113
027500                                                                  PPEC113
027600         ADD 1                 TO KMTA-CTR                        PPEC113
027700         MOVE M08215           TO KMTA-MSG-NUMBER       (KMTA-CTR)PPEC113
027800         MOVE E0208            TO KMTA-FIELD-NUM        (KMTA-CTR)PPEC113
027900         MOVE 30               TO KMTA-LENGTH           (KMTA-CTR)PPEC113
028000         MOVE ADDRESS-ZIP      TO KMTA-DATA-FIELD       (KMTA-CTR)PPEC113
028100         MOVE WS-ROUTINE-TYPE  TO KMTA-ROUTINE-TYPE     (KMTA-CTR)PPEC113
028200         MOVE WS-ROUTINE-NUM   TO KMTA-ROUTINE-NUM      (KMTA-CTR)PPEC113
028300                                                                  PPEC113
028400         ADD 1                 TO KMTA-CTR                        PPEC113
028500         MOVE M08215           TO KMTA-MSG-NUMBER       (KMTA-CTR)PPEC113
028600         MOVE E1118            TO KMTA-FIELD-NUM        (KMTA-CTR)PPEC113
028700         MOVE 2                TO KMTA-LENGTH           (KMTA-CTR)PPEC113
028800         MOVE FAD-COUNTRY      TO KMTA-DATA-FIELD       (KMTA-CTR)PPEC113
028900         MOVE WS-ROUTINE-TYPE  TO KMTA-ROUTINE-TYPE     (KMTA-CTR)PPEC113
029000         MOVE WS-ROUTINE-NUM   TO KMTA-ROUTINE-NUM      (KMTA-CTR)PPEC113
029100                                                                  PPEC113
029200         ADD 1                 TO KMTA-CTR                        PPEC113
029300         MOVE M08215           TO KMTA-MSG-NUMBER       (KMTA-CTR)PPEC113
029400         MOVE E1119            TO KMTA-FIELD-NUM        (KMTA-CTR)PPEC113
029500         MOVE 10               TO KMTA-LENGTH           (KMTA-CTR)PPEC113
029600         MOVE FAD-POSTAL-CODE  TO KMTA-DATA-FIELD       (KMTA-CTR)PPEC113
029700         MOVE WS-ROUTINE-TYPE  TO KMTA-ROUTINE-TYPE     (KMTA-CTR)PPEC113
029800         MOVE WS-ROUTINE-NUM   TO KMTA-ROUTINE-NUM      (KMTA-CTR)PPEC113
029900                                                                  PPEC113
030000         ADD 1                 TO KMTA-CTR                        PPEC113
030100         MOVE M08215           TO KMTA-MSG-NUMBER       (KMTA-CTR)PPEC113
030200         MOVE E1120            TO KMTA-FIELD-NUM        (KMTA-CTR)PPEC113
030300         MOVE 15               TO KMTA-LENGTH           (KMTA-CTR)PPEC113
030400         MOVE FAD-PROVINCE     TO KMTA-DATA-FIELD       (KMTA-CTR)PPEC113
030500         MOVE WS-ROUTINE-TYPE  TO KMTA-ROUTINE-TYPE     (KMTA-CTR)PPEC113
030600         MOVE WS-ROUTINE-NUM   TO KMTA-ROUTINE-NUM      (KMTA-CTR)PPEC113
030700     END-IF.                                                      PPEC113
030800                                                                  PPEC113
030900     MOVE FOREIGN-ADDR-IND     TO W88-FOREIGN-ADDR-IND.           PPEC113
031000                                                                  PPEC113
031100     IF       FOREIGN-ADDR-IND-ADDRESS-NON-F                      PPEC113
031200         AND (   ADDRESS-STATE        = SPACES                    PPEC113
031300              OR ADDRESS-ZIP          = SPACES                    PPEC113
031400              OR FAD-COUNTRY      NOT = SPACES                    PPEC113
031500              OR FAD-POSTAL-CODE  NOT = SPACES                    PPEC113
031600              OR FAD-PROVINCE     NOT = SPACES)                   PPEC113
031700         ADD 1                 TO KMTA-CTR                        PPEC113
031800         MOVE M08218           TO KMTA-MSG-NUMBER       (KMTA-CTR)PPEC113
031900         MOVE E0291            TO KMTA-FIELD-NUM        (KMTA-CTR)PPEC113
032000         MOVE 1                TO KMTA-LENGTH           (KMTA-CTR)PPEC113
032100         MOVE FOREIGN-ADDR-IND TO KMTA-DATA-FIELD       (KMTA-CTR)PPEC113
032200         MOVE WS-ROUTINE-TYPE  TO KMTA-ROUTINE-TYPE     (KMTA-CTR)PPEC113
032300         MOVE WS-ROUTINE-NUM   TO KMTA-ROUTINE-NUM      (KMTA-CTR)PPEC113
032400                                                                  PPEC113
032500         ADD 1                 TO KMTA-CTR                        PPEC113
032600         MOVE M08218           TO KMTA-MSG-NUMBER       (KMTA-CTR)PPEC113
032700         MOVE E0207            TO KMTA-FIELD-NUM        (KMTA-CTR)PPEC113
032800         MOVE 30               TO KMTA-LENGTH           (KMTA-CTR)PPEC113
032900         MOVE ADDRESS-STATE    TO KMTA-DATA-FIELD       (KMTA-CTR)PPEC113
033000         MOVE WS-ROUTINE-TYPE  TO KMTA-ROUTINE-TYPE     (KMTA-CTR)PPEC113
033100         MOVE WS-ROUTINE-NUM   TO KMTA-ROUTINE-NUM      (KMTA-CTR)PPEC113
033200                                                                  PPEC113
033300         ADD 1                 TO KMTA-CTR                        PPEC113
033400         MOVE M08218           TO KMTA-MSG-NUMBER       (KMTA-CTR)PPEC113
033500         MOVE E0208            TO KMTA-FIELD-NUM        (KMTA-CTR)PPEC113
033600         MOVE 30               TO KMTA-LENGTH           (KMTA-CTR)PPEC113
033700         MOVE ADDRESS-ZIP      TO KMTA-DATA-FIELD       (KMTA-CTR)PPEC113
033800         MOVE WS-ROUTINE-TYPE  TO KMTA-ROUTINE-TYPE     (KMTA-CTR)PPEC113
033900         MOVE WS-ROUTINE-NUM   TO KMTA-ROUTINE-NUM      (KMTA-CTR)PPEC113
034000                                                                  PPEC113
034100         ADD 1                 TO KMTA-CTR                        PPEC113
034200         MOVE M08218           TO KMTA-MSG-NUMBER       (KMTA-CTR)PPEC113
034300         MOVE E1118            TO KMTA-FIELD-NUM        (KMTA-CTR)PPEC113
034400         MOVE 2                TO KMTA-LENGTH           (KMTA-CTR)PPEC113
034500         MOVE FAD-COUNTRY      TO KMTA-DATA-FIELD       (KMTA-CTR)PPEC113
034600         MOVE WS-ROUTINE-TYPE  TO KMTA-ROUTINE-TYPE     (KMTA-CTR)PPEC113
034700         MOVE WS-ROUTINE-NUM   TO KMTA-ROUTINE-NUM      (KMTA-CTR)PPEC113
034800                                                                  PPEC113
034900         ADD 1                 TO KMTA-CTR                        PPEC113
035000         MOVE M08218           TO KMTA-MSG-NUMBER       (KMTA-CTR)PPEC113
035100         MOVE E1119            TO KMTA-FIELD-NUM        (KMTA-CTR)PPEC113
035200         MOVE 10               TO KMTA-LENGTH           (KMTA-CTR)PPEC113
035300         MOVE FAD-POSTAL-CODE  TO KMTA-DATA-FIELD       (KMTA-CTR)PPEC113
035400         MOVE WS-ROUTINE-TYPE  TO KMTA-ROUTINE-TYPE     (KMTA-CTR)PPEC113
035500         MOVE WS-ROUTINE-NUM   TO KMTA-ROUTINE-NUM      (KMTA-CTR)PPEC113
035600                                                                  PPEC113
035700         ADD 1                 TO KMTA-CTR                        PPEC113
035800         MOVE M08218           TO KMTA-MSG-NUMBER       (KMTA-CTR)PPEC113
035900         MOVE E1120            TO KMTA-FIELD-NUM        (KMTA-CTR)PPEC113
036000         MOVE 15               TO KMTA-LENGTH           (KMTA-CTR)PPEC113
036100         MOVE FAD-PROVINCE     TO KMTA-DATA-FIELD       (KMTA-CTR)PPEC113
036200         MOVE WS-ROUTINE-TYPE  TO KMTA-ROUTINE-TYPE     (KMTA-CTR)PPEC113
036300         MOVE WS-ROUTINE-NUM   TO KMTA-ROUTINE-NUM      (KMTA-CTR)PPEC113
036400     END-IF.                                                      PPEC113
036500                                                                  PPEC113
036600     MOVE ADDRESS-LINE1        TO WORK-STREET-ADDRESS-60.         PPEC113
036700                                                                  PPEC113
036800     PERFORM                                                      PPEC113
036900         VARYING SUB FROM 30 BY -1                                PPEC113
037000           UNTIL L-STREET (SUB) NOT = SPACES                      PPEC113
037100              OR SUB < 1                                          PPEC113
037200     END-PERFORM.                                                 PPEC113
037300                                                                  PPEC113
037400     ADD 2                     TO SUB.                            PPEC113
037500                                                                  PPEC113
037600     STRING ADDRESS-LINE2 DELIMITED                               PPEC113
037700         BY SIZE INTO WORK-STREET-ADDRESS-60 WITH POINTER SUB.    PPEC113
037800                                                                  PPEC113
037900     PERFORM                                                      PPEC113
038000         VARYING SUB FROM 61 BY -1                                PPEC113
038100           UNTIL L-STREET (SUB) NOT = SPACES                      PPEC113
038200              OR SUB < 1                                          PPEC113
038300     END-PERFORM.                                                 PPEC113
038400                                                                  PPEC113
038500     IF  SUB > 40                                                 PPEC113
038600         ADD 1                 TO KMTA-CTR                        PPEC113
038700         MOVE M08216           TO KMTA-MSG-NUMBER       (KMTA-CTR)PPEC113
038800         MOVE E0204            TO KMTA-FIELD-NUM        (KMTA-CTR)PPEC113
038900         MOVE 30               TO KMTA-LENGTH           (KMTA-CTR)PPEC113
039000         MOVE ADDRESS-LINE1    TO KMTA-DATA-FIELD       (KMTA-CTR)PPEC113
039100         MOVE WS-ROUTINE-TYPE  TO KMTA-ROUTINE-TYPE     (KMTA-CTR)PPEC113
039200         MOVE WS-ROUTINE-NUM   TO KMTA-ROUTINE-NUM      (KMTA-CTR)PPEC113
039300                                                                  PPEC113
039400         ADD 1                 TO KMTA-CTR                        PPEC113
039500         MOVE M08216           TO KMTA-MSG-NUMBER       (KMTA-CTR)PPEC113
039600         MOVE E0205            TO KMTA-FIELD-NUM        (KMTA-CTR)PPEC113
039700         MOVE 30               TO KMTA-LENGTH           (KMTA-CTR)PPEC113
039800         MOVE ADDRESS-LINE2    TO KMTA-DATA-FIELD       (KMTA-CTR)PPEC113
039900         MOVE WS-ROUTINE-TYPE  TO KMTA-ROUTINE-TYPE     (KMTA-CTR)PPEC113
040000         MOVE WS-ROUTINE-NUM   TO KMTA-ROUTINE-NUM      (KMTA-CTR)PPEC113
040100     END-IF.                                                      PPEC113
040200                                                                  PPEC113
040300     EJECT                                                        PPEC113
040400******************************************************************PPEC113
040500**   I M P L I E D   M A I N T E N A N C E   M A I N L I N E    **PPEC113
040600******************************************************************PPEC113
040700*----------------------------------------------------------------*PPEC113
040800 5100-IMPLIED-MAINT-MAINLINE SECTION.                             PPEC113
040900*----------------------------------------------------------------*PPEC113
041000                                                                  PPEC113
041100******************************************************************PPEC113
041200**   FOREIGN ADDRESS EDITS                                      **PPEC113
041300******************************************************************PPEC113
041400                                                                  PPEC113
041500     MOVE FOREIGN-ADDR-IND     TO W88-FOREIGN-ADDR-IND.           PPEC113
041600                                                                  PPEC113
041700     IF       FOREIGN-ADDR-IND-ADDRESS-FOREI                      PPEC113
041800         AND (   ADDRESS-STATE  NOT = SPACES                      PPEC113
041900              OR ADDRESS-ZIP    NOT = SPACES                      PPEC113
042000              OR FAD-COUNTRY        = SPACES )                    PPEC113
042100                                                                  PPEC113
042200         ADD 1                 TO KMTA-CTR                        PPEC113
042300         MOVE E0291            TO KMTA-FIELD-NUM        (KMTA-CTR)PPEC113
042400         MOVE 1                TO KMTA-LENGTH           (KMTA-CTR)PPEC113
042500         MOVE M12916           TO KMTA-MSG-NUMBER       (KMTA-CTR)PPEC113
042600         MOVE FOREIGN-ADDR-IND TO KMTA-DATA-FIELD       (KMTA-CTR)PPEC113
042700         MOVE WS-ROUTINE-TYPE  TO KMTA-ROUTINE-TYPE     (KMTA-CTR)PPEC113
042800         MOVE WS-ROUTINE-NUM   TO KMTA-ROUTINE-NUM      (KMTA-CTR)PPEC113
042900                                                                  PPEC113
043000         ADD 1                 TO KMTA-CTR                        PPEC113
043100         MOVE E0207            TO KMTA-FIELD-NUM        (KMTA-CTR)PPEC113
043200         MOVE 30               TO KMTA-LENGTH           (KMTA-CTR)PPEC113
043300         MOVE M12916           TO KMTA-MSG-NUMBER       (KMTA-CTR)PPEC113
043400         MOVE ADDRESS-STATE    TO KMTA-DATA-FIELD       (KMTA-CTR)PPEC113
043500         MOVE WS-ROUTINE-TYPE  TO KMTA-ROUTINE-TYPE     (KMTA-CTR)PPEC113
043600         MOVE WS-ROUTINE-NUM   TO KMTA-ROUTINE-NUM      (KMTA-CTR)PPEC113
043700                                                                  PPEC113
043800         ADD 1                 TO KMTA-CTR                        PPEC113
043900         MOVE E0208            TO KMTA-FIELD-NUM        (KMTA-CTR)PPEC113
044000         MOVE 30               TO KMTA-LENGTH           (KMTA-CTR)PPEC113
044100         MOVE M12916           TO KMTA-MSG-NUMBER       (KMTA-CTR)PPEC113
044200         MOVE ADDRESS-ZIP      TO KMTA-DATA-FIELD       (KMTA-CTR)PPEC113
044300         MOVE WS-ROUTINE-TYPE  TO KMTA-ROUTINE-TYPE     (KMTA-CTR)PPEC113
044400         MOVE WS-ROUTINE-NUM   TO KMTA-ROUTINE-NUM      (KMTA-CTR)PPEC113
044500                                                                  PPEC113
044600         ADD 1                 TO KMTA-CTR                        PPEC113
044700         MOVE E1118            TO KMTA-FIELD-NUM        (KMTA-CTR)PPEC113
044800         MOVE 2                TO KMTA-LENGTH           (KMTA-CTR)PPEC113
044900         MOVE M12916           TO KMTA-MSG-NUMBER       (KMTA-CTR)PPEC113
045000         MOVE FAD-COUNTRY      TO KMTA-DATA-FIELD       (KMTA-CTR)PPEC113
045100         MOVE WS-ROUTINE-TYPE  TO KMTA-ROUTINE-TYPE     (KMTA-CTR)PPEC113
045200         MOVE WS-ROUTINE-NUM   TO KMTA-ROUTINE-NUM      (KMTA-CTR)PPEC113
045300                                                                  PPEC113
045400         ADD 1                 TO KMTA-CTR                        PPEC113
045500         MOVE E1119            TO KMTA-FIELD-NUM        (KMTA-CTR)PPEC113
045600         MOVE 10               TO KMTA-LENGTH           (KMTA-CTR)PPEC113
045700         MOVE M12916           TO KMTA-MSG-NUMBER       (KMTA-CTR)PPEC113
045800         MOVE FAD-POSTAL-CODE  TO KMTA-DATA-FIELD       (KMTA-CTR)PPEC113
045900         MOVE WS-ROUTINE-TYPE  TO KMTA-ROUTINE-TYPE     (KMTA-CTR)PPEC113
046000         MOVE WS-ROUTINE-NUM   TO KMTA-ROUTINE-NUM      (KMTA-CTR)PPEC113
046100                                                                  PPEC113
046200         ADD 1                 TO KMTA-CTR                        PPEC113
046300         MOVE E1120            TO KMTA-FIELD-NUM        (KMTA-CTR)PPEC113
046400         MOVE 15               TO KMTA-LENGTH           (KMTA-CTR)PPEC113
046500         MOVE M12916           TO KMTA-MSG-NUMBER       (KMTA-CTR)PPEC113
046600         MOVE FAD-PROVINCE     TO KMTA-DATA-FIELD       (KMTA-CTR)PPEC113
046700         MOVE WS-ROUTINE-TYPE  TO KMTA-ROUTINE-TYPE     (KMTA-CTR)PPEC113
046800         MOVE WS-ROUTINE-NUM   TO KMTA-ROUTINE-NUM      (KMTA-CTR)PPEC113
046900                                                                  PPEC113
047000     END-IF.                                                      PPEC113
047100                                                                  PPEC113
047200                                                                  PPEC113
047300     MOVE FOREIGN-ADDR-IND        TO W88-FOREIGN-ADDR-IND.        PPEC113
047400                                                                  PPEC113
047500     IF       FOREIGN-ADDR-IND-ADDRESS-NON-F                      PPEC113
047600         AND (   ADDRESS-STATE        = SPACES                    PPEC113
047700              OR ADDRESS-ZIP          = SPACES                    PPEC113
047800              OR FAD-COUNTRY      NOT = SPACES                    PPEC113
047900              OR FAD-POSTAL-CODE  NOT = SPACES                    PPEC113
048000              OR FAD-PROVINCE     NOT = SPACES)                   PPEC113
048100                                                                  PPEC113
048200         ADD 1                    TO KMTA-CTR                     PPEC113
048300         MOVE E0291               TO KMTA-FIELD-NUM     (KMTA-CTR)PPEC113
048400         MOVE 1                   TO KMTA-LENGTH        (KMTA-CTR)PPEC113
048500         MOVE M12919              TO KMTA-MSG-NUMBER    (KMTA-CTR)PPEC113
048600         MOVE FOREIGN-ADDR-IND    TO KMTA-DATA-FIELD    (KMTA-CTR)PPEC113
048700         MOVE WS-ROUTINE-TYPE     TO KMTA-ROUTINE-TYPE  (KMTA-CTR)PPEC113
048800         MOVE WS-ROUTINE-NUM      TO KMTA-ROUTINE-NUM   (KMTA-CTR)PPEC113
048900                                                                  PPEC113
049000         ADD 1                    TO KMTA-CTR                     PPEC113
049100         MOVE E0207               TO KMTA-FIELD-NUM     (KMTA-CTR)PPEC113
049200         MOVE 30                  TO KMTA-LENGTH        (KMTA-CTR)PPEC113
049300         MOVE M12919              TO KMTA-MSG-NUMBER    (KMTA-CTR)PPEC113
049400         MOVE ADDRESS-STATE       TO KMTA-DATA-FIELD    (KMTA-CTR)PPEC113
049500         MOVE WS-ROUTINE-TYPE     TO KMTA-ROUTINE-TYPE  (KMTA-CTR)PPEC113
049600         MOVE WS-ROUTINE-NUM      TO KMTA-ROUTINE-NUM   (KMTA-CTR)PPEC113
049700                                                                  PPEC113
049800         ADD 1                    TO KMTA-CTR                     PPEC113
049900         MOVE E0208               TO KMTA-FIELD-NUM     (KMTA-CTR)PPEC113
050000         MOVE 30                  TO KMTA-LENGTH        (KMTA-CTR)PPEC113
050100         MOVE M12919              TO KMTA-MSG-NUMBER    (KMTA-CTR)PPEC113
050200         MOVE ADDRESS-ZIP         TO KMTA-DATA-FIELD    (KMTA-CTR)PPEC113
050300         MOVE WS-ROUTINE-TYPE     TO KMTA-ROUTINE-TYPE  (KMTA-CTR)PPEC113
050400         MOVE WS-ROUTINE-NUM      TO KMTA-ROUTINE-NUM   (KMTA-CTR)PPEC113
050500                                                                  PPEC113
050600         ADD 1                    TO KMTA-CTR                     PPEC113
050700         MOVE E1118               TO KMTA-FIELD-NUM     (KMTA-CTR)PPEC113
050800         MOVE 2                   TO KMTA-LENGTH        (KMTA-CTR)PPEC113
050900         MOVE M12919              TO KMTA-MSG-NUMBER    (KMTA-CTR)PPEC113
051000         MOVE FAD-COUNTRY         TO KMTA-DATA-FIELD    (KMTA-CTR)PPEC113
051100         MOVE WS-ROUTINE-TYPE     TO KMTA-ROUTINE-TYPE  (KMTA-CTR)PPEC113
051200         MOVE WS-ROUTINE-NUM      TO KMTA-ROUTINE-NUM   (KMTA-CTR)PPEC113
051300                                                                  PPEC113
051400         ADD 1                    TO KMTA-CTR                     PPEC113
051500         MOVE E1119               TO KMTA-FIELD-NUM     (KMTA-CTR)PPEC113
051600         MOVE 10                  TO KMTA-LENGTH        (KMTA-CTR)PPEC113
051700         MOVE M12919              TO KMTA-MSG-NUMBER    (KMTA-CTR)PPEC113
051800         MOVE FAD-POSTAL-CODE     TO KMTA-DATA-FIELD    (KMTA-CTR)PPEC113
051900         MOVE WS-ROUTINE-TYPE     TO KMTA-ROUTINE-TYPE  (KMTA-CTR)PPEC113
052000         MOVE WS-ROUTINE-NUM      TO KMTA-ROUTINE-NUM   (KMTA-CTR)PPEC113
052100                                                                  PPEC113
052200         ADD 1                    TO KMTA-CTR                     PPEC113
052300         MOVE E1120               TO KMTA-FIELD-NUM     (KMTA-CTR)PPEC113
052400         MOVE 15                  TO KMTA-LENGTH        (KMTA-CTR)PPEC113
052500         MOVE M12919              TO KMTA-MSG-NUMBER    (KMTA-CTR)PPEC113
052600         MOVE FAD-PROVINCE        TO KMTA-DATA-FIELD    (KMTA-CTR)PPEC113
052700         MOVE WS-ROUTINE-TYPE     TO KMTA-ROUTINE-TYPE  (KMTA-CTR)PPEC113
052800         MOVE WS-ROUTINE-NUM      TO KMTA-ROUTINE-NUM   (KMTA-CTR)PPEC113
052900                                                                  PPEC113
053000     END-IF.                                                      PPEC113
053100     EJECT                                                        PPEC113
053200*----------------------------------------------------------------*PPEC113
053300 9050-AUDITING-RESPONSIBILITIES  SECTION.                         PPEC113
053400*----------------------------------------------------------------*PPEC113
053500                                                                  PPEC113
053600*                                                 *-------------* PPEC113
053700                                                   COPY CPPDXDEC. PPEC113
053800*                                                 *-------------* PPEC113
053900                                                                  PPEC113
054000*----------------------------------------------------------------*PPEC113
054100 9060-APPT-DIST-LOC-CALCULATION  SECTION.                         PPEC113
054200*----------------------------------------------------------------*PPEC113
054300                                                                  PPEC113
054400*                                                 *-------------* PPEC113
054500                                                   COPY CPPDADLC. PPEC113
054600*                                                 *-------------* PPEC113
054700                                                                  PPEC113
054800     EJECT                                                        PPEC113
054900*----------------------------------------------------------------*PPEC113
055000 9300-DATE-CONVERSION-DB2  SECTION.                               PPEC113
055100*----------------------------------------------------------------*PPEC113
055200                                                                  PPEC113
055300*                                                 *-------------* PPEC113
055400                                                   COPY CPPDXDC2. PPEC113
055500*                                                 *-------------* PPEC113
055600                                                                  PPEC113
055700******************************************************************PPEC113
055800**   E N D  S O U R C E   ----  PPEC113 ----                    **PPEC113
055900******************************************************************PPEC113
