000000**************************************************************/   28521205
000001*  PROGRAM: PPEDTMGR                                         */   28521205
000002*  RELEASE: ___1205______ SERVICE REQUEST(S): ____12852____  */   28521205
000003*  REF RLSE:___1087______                                    */   28521205
000004*  NAME:_______QUAN______ MODIFICATION DATE:  ___08/13/98__  */   28521205
000005*  DESCRIPTION:                                              */   28521205
000007*                                                            */   28521205
000008*  - ERROR REPORT 1581:                                      */   28521205
000009*    CORRECTED DATE CONVERSION CODE THAT WHEN 1 IS SUBTRACTED*/   28521205
000010*    FROM THE MONTH, AND PRIOR TO CALLING DATE CONVERSION    */   28521205
000011*    ROUTINE, SET THE DAY TO 1 AND THEN CALL DATE CONVERSION */   28521205
000012*    ROUTINE TO GET THE CORRECT LAST DAY OF MONTH.           */   28521205
000013*                                                            */   28521205
000014**************************************************************/   28521205
000015**************************************************************/   28521087
000016*  PROGRAM: PPEDTMGR                                         */   28521087
000017*  RELEASE: ___1087______ SERVICE REQUEST(S): ____12852____  */   28521087
000018*  NAME:_______QUAN______ MODIFICATION DATE:  ___07/08/96__  */   28521087
000019*  DESCRIPTION:                                              */   28521087
000020*  ** DATE CONVERSION II **                                  */   28521087
000021*  - REPLACED CPWSXDC2 AND CPPDXDC2 WITH CPWSXDC3 AND CPPDXDC3/   28521087
000022*  - INCLUDE THE CENTURY PRIOR TO DATE CALCULATION.          */   28521087
000030**************************************************************/   28521087
000100**************************************************************/   36370967
000200*  PROGRAM: PPEDTMGR                                         */   36370967
000300*  RELEASE: ___0967______ SERVICE REQUEST(S): _____3637____  */   36370967
000400*  NAME:_______JLT_______ MODIFICATION DATE:  __03/10/95____ */   36370967
000500*  DESCRIPTION:                                              */   36370967
000600*     PPS COMPUTE TRANSACTION EDIT MANAGER.                  */   36370967
000700**************************************************************/   36370967
000800*-----------------------------------------------------------------PPEDTMGR
000900* *                                                               PPEDTMGR
001000* *  PPEDTMGR COORDINATES THE FOLLOWING TRANSACTION EDIT          PPEDTMGR
001100* *  FUNCTIONS:                                                   PPEDTMGR
001200* *                                                               PPEDTMGR
001300* *  1) LOAD OF CTL TABLES USED BY MULTIPLE MODULES.              PPEDTMGR
001400* *  2) INITIALIZE EXTERNAL DATA FIELDS                           PPEDTMGR
001500* *  3) RETRIEVE SELECTED EDB ROWS                                PPEDTMGR
001600* *  4) THE DETERMINATION/CALL OF APPROPRIATE EDITOR MODULES.     PPEDTMGR
001700* *  5) RETURNS A LIST OF EDIT MESSAGES DEVELOPED BY THE          PPEDTMGR
001800* *     ASSOCIATED EDIT MODULE.                                   PPEDTMGR
001900* *                                                               PPEDTMGR
002000*-----------------------------------------------------------------PPEDTMGR
002100 IDENTIFICATION DIVISION.                                         PPEDTMGR
002200 PROGRAM-ID. PPEDTMGR.                                            PPEDTMGR
002300 ENVIRONMENT DIVISION.                                            PPEDTMGR
002400 CONFIGURATION SECTION.                                           PPEDTMGR
002500 SPECIAL-NAMES.                                                   PPEDTMGR
002600     SYSPCH  IS DEBUGOUT.                                         PPEDTMGR
002700 SOURCE-COMPUTER.                                                 PPEDTMGR
002800 COPY  CPOTXUCS.                                                  PPEDTMGR
002900 DATA DIVISION.                                                   PPEDTMGR
003000*-----------------------------------------------------------------PPEDTMGR
003100 WORKING-STORAGE SECTION.                                         PPEDTMGR
003200*-----------------------------------------------------------------PPEDTMGR
003300 01  A-STND-PROG-ID             PIC X(15) VALUE                   PPEDTMGR
003400*****'PPEDTMGR/062094'.                                           28521087
003410     'PPEDTMGR/070896'.                                           28521087
003500*                                                                 PPEDTMGR
003600 01  WS-COMN.                                                     PPEDTMGR
003700     05  WS-START                          PIC X(27) VALUE        PPEDTMGR
003800         'WORKING STORAGE STARTS HERE'.                           PPEDTMGR
003900     05  WS-PGM-NAME.                                             PPEDTMGR
004000         10  FILLER                    PIC X(05) VALUE 'PPEDT'.   PPEDTMGR
004100         10  PGM-CALL-SUFFIX           PIC X(03).                 PPEDTMGR
004200     05  CALL-STATUS-SW                PIC X(01) VALUE SPACE.     PPEDTMGR
004300         88 CALL-OK  VALUE 'O'.                                   PPEDTMGR
004400         88 CALL-FAILED VALUE 'F'.                                PPEDTMGR
004500*                                                                 PPEDTMGR
004600 01  TRANS-TYP-CALL-PGM-SUFFIX-TBL.                               PPEDTMGR
004700     05  SUFX-INDX             PIC S9(04) COMP  VALUE ZERO.       PPEDTMGR
004800     05  SUFX-INDX-MAX         PIC S9(04) COMP  VALUE +16.        PPEDTMGR
004900     05  SUFX-TABLE.                                              PPEDTMGR
005000* *       CALL MODULE SUFFIXES                                    PPEDTMGR
005100         10  FILLER  PIC X(05) VALUE 'TXTEX'.                     PPEDTMGR
005200         10  FILLER  PIC X(05) VALUE 'TETEX'.                     PPEDTMGR
005300         10  FILLER  PIC X(05) VALUE 'LXLAR'.                     PPEDTMGR
005400         10  FILLER  PIC X(05) VALUE 'RXLAR'.                     PPEDTMGR
005500         10  FILLER  PIC X(05) VALUE 'APLAR'.                     PPEDTMGR
005600         10  FILLER  PIC X(05) VALUE 'FTFT '.                     PPEDTMGR
005700         10  FILLER  PIC X(05) VALUE 'RARST'.                     PPEDTMGR
005800         10  FILLER  PIC X(05) VALUE 'STRST'.                     PPEDTMGR
005900         10  FILLER  PIC X(05) VALUE 'PSPDR'.                     PPEDTMGR
006000         10  FILLER  PIC X(05) VALUE 'DSPDR'.                     PPEDTMGR
006100         10  FILLER  PIC X(05) VALUE 'RFPDR'.                     PPEDTMGR
006200         10  FILLER  PIC X(05) VALUE 'DAADJ'.                     PPEDTMGR
006300         10  FILLER  PIC X(05) VALUE 'HAADJ'.                     PPEDTMGR
006400         10  FILLER  PIC X(05) VALUE 'LAADJ'.                     PPEDTMGR
006500         10  FILLER  PIC X(05) VALUE 'SBSBU'.                     PPEDTMGR
006600         10  FILLER  PIC X(05) VALUE 'UBSBU'.                     PPEDTMGR
006700     05  SUFX-TBL           REDEFINES                             PPEDTMGR
006800         SUFX-TABLE.                                              PPEDTMGR
006900         10  SUFX-ENTRY                         OCCURS 16.        PPEDTMGR
007000             15 SUFX-TRANS-TYP           PIC X(2).                PPEDTMGR
007100             15 SUFX-PGM-SUFFIX          PIC X(3).                PPEDTMGR
007200*  *                                                              PPEDTMGR
007300*  *                                                              PPEDTMGR
007400 01  WS-CALLED-ROUTINES.                                          PPEDTMGR
007500     05  PGM-PPPERUTL              PIC X(08) VALUE 'PPPERUTL'.    PPEDTMGR
007600     05  PGM-PPPCMUTL              PIC X(08) VALUE 'PPPCMUTL'.    PPEDTMGR
007700*                                                                 PPEDTMGR
007800 01  WS-SUBSCRIPTS.                                               PPEDTMGR
007900     05  TEMP-X                PIC S9(4) COMP VALUE ZERO.         PPEDTMGR
008000     05  WS-SAVE-EMP-ID        PIC X(09)      VALUE LOW-VALUES.   PPEDTMGR
008100     05  FINISHED-SW           PIC 9          VALUE ZERO.         PPEDTMGR
008200         88  FINISHED-SW-OFF                  VALUE ZERO.         PPEDTMGR
008300         88  FINISHED-SW-ON                   VALUE 1.            PPEDTMGR
008400                                                                  PPEDTMGR
008500* *                                                               PPEDTMGR
008600*                                                                 PPEDTMGR
008700 01  WS-MISC-DATA.                                                PPEDTMGR
008800     05  WS-REQUEST-PRM-NUM         PIC S9(4) COMP VALUE ZERO.    PPEDTMGR
008900     05  FIRST-TIME-SW              PIC 9   VALUE ZERO.           PPEDTMGR
009000         88  FIRST-TIME-SW-OFF              VALUE ZERO.           PPEDTMGR
009100         88  FIRST-TIME-SW-ON               VALUE 1.              PPEDTMGR
009200     05  I                          PIC 9(02)      VALUE ZERO.    PPEDTMGR
009300     05  WS-XSP-PARAM-VALUE         PIC S9(5)V9(4) COMP-3.        PPEDTMGR
009400     05  PRIOR-YEARS-PARM           PIC 9(03)      VALUE 049.     PPEDTMGR
009500     05  PRIOR-YEARS                PIC 9(02)      VALUE ZERO.    PPEDTMGR
009510     05  LEAVE-OPTION-PARM          PIC 9(03)      VALUE 051.     PPEDTMGR
009600*****05  DATE-VALIDATION-LOW-YEAR   PIC 99.                       28521087
009700*****05  DATE-VALIDATION-HIGH-YEAR  PIC 99.                       28521087
009710     05  DATE-VALIDATION-LOW-YEAR-CCYY   PIC 9999.                28521087
009720     05  DATE-VALIDATION-HIGH-YEAR-CCYY  PIC 9999.                28521087
009800*                                                                 PPEDTMGR
009900*01  DATE-CONVERSION-WORK-AREAS.                   COPY CPWSXDC2. 28521087
009910 01  DATE-CONVERSION-WORK-AREAS.                   COPY CPWSXDC3. 28521087
010000     EJECT                                                        PPEDTMGR
010100 01  XWHC-COMPILE-WORK-AREA.                       COPY CPWSXWHC. PPEDTMGR
010200     EJECT                                                        PPEDTMGR
010300 01  DATE-WORK-AREA.                               COPY CPWSDATE. PPEDTMGR
010400*                                                                 PPEDTMGR
010500 01  LIMIT-DATES.                                                 PPEDTMGR
010600     05  RF-LIMIT-DATE.                                           PPEDTMGR
010700         10  RF-LIMIT-DATE-YEAR   PIC 99.                         PPEDTMGR
010800         10  RF-LIMIT-DATE-MONTH  PIC 99.                         PPEDTMGR
010900         10  RF-LIMIT-DATE-DAY    PIC 99.                         PPEDTMGR
011000     05  LAST-PR-LIMIT-DATE       PIC 9(6).                       PPEDTMGR
011100 01  WORK-DATE-FOR-LIMIT.                                         PPEDTMGR
011200     05  WORK-DATE.                                               PPEDTMGR
011300         10  WORK-YEAR           PIC 99.                          PPEDTMGR
011400         10  WORK-MONTH          PIC 99.                          PPEDTMGR
011500         10  WORK-DAY            PIC 99.                          PPEDTMGR
011600     05  WORK-ADJ-MOS            PIC 99.                          PPEDTMGR
011700                                                                  PPEDTMGR
011800 01  PAYROLL-PROCESS-IC1.        COPY CPWSXIC1.                   PPEDTMGR
011900                                                                  PPEDTMGR
012000 01  PAYROLL-PROCESS-IC2.        COPY CPWSXIC2.                   PPEDTMGR
012100                                                                  PPEDTMGR
012200 01  PPPERUTL-INTERFACE.     COPY CPLN2PER.                       PPEDTMGR
012300                                                                  PPEDTMGR
012400 01  PER-ROW.                COPY CPWSRPER.                       PPEDTMGR
012500                                                                  PPEDTMGR
012600 01  PPPCMUTL-INTERFACE.     COPY CPLNKPCM.                       PPEDTMGR
012700                                                                  PPEDTMGR
012800 01  PCM-ROW.                COPY CPWSRPCM.                       PPEDTMGR
012900                                                                  PPEDTMGR
013000 01  DFHEIBLK                         PIC X(1).                   PPEDTMGR
013100                                                                  PPEDTMGR
013200 01  XPCR-RECORD.                               COPY CPWSXPCR.    PPEDTMGR
013300                                                                  PPEDTMGR
013400 01  DET-SWITCHES.                                                PPEDTMGR
013500     05  FILLER                    PIC X(01) VALUE SPACE.         PPEDTMGR
013600           88 DET-ROW-RETURNED     VALUE '0'.                     PPEDTMGR
013700           88 DET-AT-END           VALUE '1'.                     PPEDTMGR
013800           88 DET-DB2-ERROR        VALUE '2'.                     PPEDTMGR
013900     05  FILLER                    PIC X(01) VALUE SPACE.         PPEDTMGR
014000           88 DET-ROW-OPEN VALUE 'Y'.                             PPEDTMGR
014100           88 NOT-DET-ROW-OPEN VALUE SPACE.                       PPEDTMGR
014200                                                                  PPEDTMGR
014300 01  WRK-DET-51-55-ELMTS.                                         PPEDTMGR
014400     05  WRK-DET-NAME-TEST           PIC X(3).                    PPEDTMGR
014500         88  FILLER-ELEMENT              VALUE 'FIL'.             PPEDTMGR
014600     05  WRK-DET-ELEM-NO      PIC 9(4).                           PPEDTMGR
014700     05  WRK-DET-SEG-NO  REDEFINES WRK-DET-ELEM-NO.               PPEDTMGR
014800         10  WRK-DET-SEG      PIC 9(2).                           PPEDTMGR
014900         10  WRK-DET-SER      PIC 9(2).                           PPEDTMGR
015000*                                                                 PPEDTMGR
015100******************************************************************PPEDTMGR
015200*  TABLE TO IDENTIFY VALID 5100 SEGMENT ELEMENTS                  PPEDTMGR
015300******************************************************************PPEDTMGR
015400 01  HRS-BALANCES-ELEM-NOS      EXTERNAL.                         PPEDTMGR
015500     05  HRS-ELEM-TABLE-MAX      PIC S9(4) COMP.                  PPEDTMGR
015600     05  HRS-ELEM-NOS-XX         PIC X(99).                       PPEDTMGR
015700     05  FILLER                  REDEFINES HRS-ELEM-NOS-XX.       PPEDTMGR
015800         10  ELEMENT-NOS-51XX    OCCURS 99 PIC X.                 PPEDTMGR
015900******************************************************************PPEDTMGR
016000*  TABLE TO IDENTIFY VALID 5500 SEGMENT ELEMENTS                  PPEDTMGR
016100******************************************************************PPEDTMGR
016200 01  DOLLARS-BALANCES-ELEM-NOS  EXTERNAL.                         PPEDTMGR
016300     05  DLRS-ELEM-TABLE-MAX     PIC S9(4) COMP.                  PPEDTMGR
016400     05  DLRS-ELEM-NOS-XX        PIC X(99).                       PPEDTMGR
016500     05  FILLER                  REDEFINES DLRS-ELEM-NOS-XX.      PPEDTMGR
016600         10  ELEMENT-NOS-55XX    OCCURS 99 PIC X.                 PPEDTMGR
016700                                                                  PPEDTMGR
016800******************************************************************PPEDTMGR
016900**     E  X  T  E  R  N  A  L  S      S  E  C  T  I  O  N       **PPEDTMGR
017000**--------------------------------------------------------------**PPEDTMGR
017100*                                                                 PPEDTMGR
017200 01  ONLINE-SIGNALS                EXTERNAL.    COPY CPWSONLI.    PPEDTMGR
017300*                                                                 PPEDTMGR
017400 01  UCCOMMON                      EXTERNAL.                      PPEDTMGR
017500                                                COPY UCCOMMON.    PPEDTMGR
017600 01  UCWSABND                      EXTERNAL.                      PPEDTMGR
017700                                                COPY UCWSABND.    PPEDTMGR
017800                                                                  PPEDTMGR
017900 01  CTRN-COMPUTE-TRANSACTION      EXTERNAL.                      PPEDTMGR
018000                                                COPY CPWSCTRN.    PPEDTMGR
018100 01  CEMS-COMPUTE-EDIT-MSSG-STACK  EXTERNAL.    COPY CPWSCEMS.    PPEDTMGR
018200                                                                  PPEDTMGR
018300 01  KEDT-INTERFACE                EXTERNAL.    COPY CPLNKEDT.    PPEDTMGR
018400                                                                  PPEDTMGR
018510 01  EXTRN-PCR-RECORD   EXTERNAL.                                 PPEDTMGR
018520     05  EXTRN-PCR-RECORD-224    PIC X(224).                      PPEDTMGR
018530     05  FILLER                  PIC X(800).                      PPEDTMGR
018600                                                                  PPEDTMGR
018700 01  EXTRN-PER-ROW                 EXTERNAL.    COPY CPWSRPER.    PPEDTMGR
018800                                                                  PPEDTMGR
018900 01  EXTRN-PCM-ROW                 EXTERNAL.    COPY CPWSRPCM.    PPEDTMGR
019000                                                                  PPEDTMGR
019100*                                                                 PPEDTMGR
019200 01  PPDB2MSG-INTERFACE. COPY CPLNKDB2.                           PPEDTMGR
019300*                                                                 PPEDTMGR
019400******************************************************************PPEDTMGR
019500*          SQL - WORKING STORAGE                                 *PPEDTMGR
019600******************************************************************PPEDTMGR
019700*  THE VIEWS USED IN THIS PROGRAM ARE:                           *PPEDTMGR
019800*     VIEW              VIEW DDL AND DCL INCLUDE                 *PPEDTMGR
019900*                        MEMBER NAMES                            *PPEDTMGR
020000*                                                                *PPEDTMGR
020100*  PPPVZCCR_CCR          PPPVZCCR                                *PPEDTMGR
020200*  PPPVZPRM_PRM          PPPVZPRM                                *PPEDTMGR
020300*  PPPVZDET_DET          PPPVZDET                                *PPEDTMGR
020400*                                                                *PPEDTMGR
020500******************************************************************PPEDTMGR
020600 01  CCR-ROW-DATA.                                                PPEDTMGR
020700     EXEC SQL                                                     PPEDTMGR
020800         INCLUDE PPPVZCCR                                         PPEDTMGR
020900     END-EXEC.                                                    PPEDTMGR
021000                                                                  PPEDTMGR
021100 01  PRM-ROW-DATA.                                                PPEDTMGR
021200     EXEC SQL                                                     PPEDTMGR
021300         INCLUDE PPPVZPRM                                         PPEDTMGR
021400     END-EXEC.                                                    PPEDTMGR
021500                                                                  PPEDTMGR
021600 01  DET-ROW-DATA.                                                PPEDTMGR
021700     EXEC SQL                                                     PPEDTMGR
021800          INCLUDE PPPVZDET                                        PPEDTMGR
021900     END-EXEC.                                                    PPEDTMGR
022000                                                                  PPEDTMGR
022100     EXEC SQL                                                     PPEDTMGR
022200          DECLARE DET_ROW CURSOR FOR                              PPEDTMGR
022320              SELECT DET_CARD_TYPE                                PPEDTMGR
022321                   , DET_ELEM_NO                                  PPEDTMGR
022330                   , DET_ELEMENT_NAME                             PPEDTMGR
022400              FROM PPPVZDET_DET                                   PPEDTMGR
022500              WHERE (DET_CARD_TYPE = '  ')                        PPEDTMGR
022600                AND (DET_ELEM_NO > +5100)                         PPEDTMGR
022700                AND (DET_ELEM_NO < +5599)                         PPEDTMGR
022800              ORDER BY                                            PPEDTMGR
022900                  DET_ELEM_NO                                     PPEDTMGR
023000     END-EXEC.                                                    PPEDTMGR
023100     EXEC SQL                                                     PPEDTMGR
023200          INCLUDE SQLCA                                           PPEDTMGR
023300     END-EXEC.                                                    PPEDTMGR
023400     EJECT                                                        PPEDTMGR
023500*----------------------------------------------------------------*PPEDTMGR
023600 LINKAGE SECTION.                                                 PPEDTMGR
023700*-------------------------------------------------------------    PPEDTMGR
023800 PROCEDURE DIVISION.                                              PPEDTMGR
023900*----------------------------------------------------------------*PPEDTMGR
024000     EXEC SQL                                                     PPEDTMGR
024100          INCLUDE CPPDXE99                                        PPEDTMGR
024200     END-EXEC.                                                    PPEDTMGR
024300     MOVE A-STND-PROG-ID TO DB2MSG-PGM-ID.                        PPEDTMGR
024400                                                                  PPEDTMGR
024500*-------------------------------------------------------------    PPEDTMGR
024600 0000-MAIN-LINE   SECTION.                                        PPEDTMGR
024700*-------------------------------------------------------------    PPEDTMGR
024800* *                                                               PPEDTMGR
024900* * THIS MODULE IS THE DRIVER FOR THE COMPUTE TRANSACTION         PPEDTMGR
025000* * EDIT.  IN BATCH MODE, PPEDTMGR IS CALLED BY PPP360; IN        PPEDTMGR
025100* * CICS MODE, PPEDTMGR IS CALLED BY CALLED BY PPVRTHFO AND       PPEDTMGR
025200* * PPAPTFFE.                                                     PPEDTMGR
025210* *                                                               PPEDTMGR
025300* * THIS MAIN SECTION INITIALIZES PRIMARY LINKAGE AREAS AND       PPEDTMGR
025400* * THEN PERFORMS THE ROUTINE WHICH MAKES DYNAMIC CALLS           PPEDTMGR
025500* * TO THE EDIT MODULES.                                          PPEDTMGR
025600* *                                                               PPEDTMGR
025700*-------------------------------------------------------------    PPEDTMGR
025800                                                                  PPEDTMGR
025900     SET CEMS-RETURN-OK    TO TRUE.                               PPEDTMGR
026000     MOVE A-STND-PROG-ID   TO DB2MSG-PGM-ID.                      PPEDTMGR
026100     MOVE ZERO             TO CEMS-CTR.                           PPEDTMGR
026200     MOVE +30              TO CEMS-CTR-MAX.                       PPEDTMGR
026300     MOVE CTRN-EMPL-ID     TO CEMS-EMPLOYEE-ID.                   PPEDTMGR
026310     MOVE SPACES           TO CEMS-ABEND-REF.                     PPEDTMGR
026320     MOVE SPACES           TO CEMS-V-R-EDIT-FAIL-SW.              PPEDTMGR
026400     MOVE SPACES  TO KEDT-REF.                                    PPEDTMGR
026410     MOVE ZERO    TO KEDT-ELM-PTR.                                PPEDTMGR
026500     IF FIRST-TIME-SW-OFF                                         PPEDTMGR
026600         SET  FIRST-TIME-SW-ON   TO TRUE                          PPEDTMGR
026700         PERFORM 0050-PGM-INITIALIZE                              PPEDTMGR
026800     END-IF.                                                      PPEDTMGR
026900*                                                                 PPEDTMGR
027000     PERFORM 1000-EVERY-CALL-INITIALIZE.                          PPEDTMGR
027100     IF  CEMS-RETURN-OK                                           PPEDTMGR
027200         PERFORM 2000-EDIT-TRANSACTION                            PPEDTMGR
027300     END-IF.                                                      PPEDTMGR
027400 0000-RETURN.                                                     PPEDTMGR
027500     IF  NOT CEMS-RETURN-OK                                       PPEDTMGR
027600         MOVE ZEROS  TO EMPLOYEE-ID  OF EXTRN-PER-ROW             PPEDTMGR
027610         MOVE KEDT-REF   TO CEMS-ABEND-REF                        PPEDTMGR
027700     END-IF.                                                      PPEDTMGR
027800     GOBACK.                                                      PPEDTMGR
027900                                                                  PPEDTMGR
028000 0000-EXIT.                                                       PPEDTMGR
028100     EXIT.                                                        PPEDTMGR
028200                                                                  PPEDTMGR
028300*-------------------------------------------------------------    PPEDTMGR
028400 0050-PGM-INITIALIZE   SECTION.                                   PPEDTMGR
028500*-------------------------------------------------------------    PPEDTMGR
028600     MOVE A-STND-PROG-ID   TO XWHC-DISPLAY-MODULE.                PPEDTMGR
028700*                                                 *-------------* PPEDTMGR
028800                                                   COPY CPPDXWHC. PPEDTMGR
028900*                                                 *-------------* PPEDTMGR
029000     MOVE +99 TO HRS-ELEM-TABLE-MAX,                              PPEDTMGR
029100                 DLRS-ELEM-TABLE-MAX                              PPEDTMGR
029200     MOVE SPACES   TO HRS-ELEM-NOS-XX,                            PPEDTMGR
029300                      DLRS-ELEM-NOS-XX.                           PPEDTMGR
029400*                                                                 PPEDTMGR
029500     PERFORM 0100-LOAD-DET-51-55-ELMTS.                           PPEDTMGR
029600     IF DET-DB2-ERROR                                             PPEDTMGR
029700         SET CEMS-DB2-ERROR         TO TRUE                       PPEDTMGR
029800         MOVE 'MODULE PPEDTMGR RETURNED DB2 ERROR'                PPEDTMGR
029900                               TO KEDT-REF (1:35)                 PPEDTMGR
030000         MOVE DB2MSG-TAG       TO KEDT-REF (36:24)                PPEDTMGR
030100         GO TO  0000-RETURN                                       PPEDTMGR
030200     END-IF.                                                      PPEDTMGR
030500 0050-EXIT.    EXIT.                                              PPEDTMGR
030600*                                                                 PPEDTMGR
030700*-------------------------------------------------------------    PPEDTMGR
030800 0100-LOAD-DET-51-55-ELMTS  SECTION.                              PPEDTMGR
030900*-------------------------------------------------------------    PPEDTMGR
031000     PERFORM SQL-OPEN-DET.                                        PPEDTMGR
031100     IF DET-DB2-ERROR                                             PPEDTMGR
031200         GO TO 0100-EXIT                                          PPEDTMGR
031300     END-IF.                                                      PPEDTMGR
031400     SET DET-ROW-RETURNED   TO TRUE.                              PPEDTMGR
031500     PERFORM SQL-FETCH-DET.                                       PPEDTMGR
031600     PERFORM  WITH TEST BEFORE                                    PPEDTMGR
031700        UNTIL NOT DET-ROW-RETURNED                                PPEDTMGR
031800         MOVE DET-ELEM-NO        TO WRK-DET-ELEM-NO               PPEDTMGR
031900         MOVE DET-ELEMENT-NAME   TO WRK-DET-NAME-TEST             PPEDTMGR
032000         IF WRK-DET-SEG = HOURS-SGMT-SEG-NO                       PPEDTMGR
032100            IF WRK-DET-SER  NOT < 1  AND                          PPEDTMGR
032200               WRK-DET-SER  NOT > HRS-ELEM-TABLE-MAX  AND         PPEDTMGR
032300               NOT FILLER-ELEMENT                                 PPEDTMGR
032400                MOVE WRK-DET-SER TO I                             PPEDTMGR
032500                MOVE 'Y' TO ELEMENT-NOS-51XX (I)                  PPEDTMGR
032600            END-IF                                                PPEDTMGR
032700         ELSE                                                     PPEDTMGR
032800            IF WRK-DET-SEG = GRS-SGMT-SEG-NO                      PPEDTMGR
032900               IF WRK-DET-SER  NOT < 1  AND                       PPEDTMGR
033000                  WRK-DET-SER  NOT > DLRS-ELEM-TABLE-MAX  AND     PPEDTMGR
033100                  NOT FILLER-ELEMENT                              PPEDTMGR
033200                   MOVE WRK-DET-SER TO I                          PPEDTMGR
033300                   MOVE 'Y' TO ELEMENT-NOS-55XX (I)               PPEDTMGR
033400               END-IF                                             PPEDTMGR
033500            END-IF                                                PPEDTMGR
033600         END-IF                                                   PPEDTMGR
033700         PERFORM SQL-FETCH-DET                                    PPEDTMGR
033800     END-PERFORM.                                                 PPEDTMGR
033900     PERFORM SQL-CLOSE-DET.                                       PPEDTMGR
034000 0100-EXIT.   EXIT.                                               PPEDTMGR
034100                                                                  PPEDTMGR
034200*-------------------------------------------------------------    PPEDTMGR
034300 1000-EVERY-CALL-INITIALIZE SECTION.                              PPEDTMGR
034400*-------------------------------------------------------------    PPEDTMGR
034500     MOVE EXTRN-PCR-RECORD     TO XPCR-RECORD.                    PPEDTMGR
034600*                                                                 PPEDTMGR
034700* * LOAD CAMPUS CONTROL RECORD                                    PPEDTMGR
034800*                                                                 PPEDTMGR
034900     PERFORM SQL-SELECT-CCR.                                      PPEDTMGR
035000     IF SQLCODE  NOT = ZERO                                       PPEDTMGR
035100         SET CEMS-CCR-NOT-FOUND     TO TRUE                       PPEDTMGR
035200         MOVE 'MODULE PPEDTMGR; CCR NOT FOUND '                   PPEDTMGR
035300                                       TO KEDT-REF-DESC           PPEDTMGR
035400         MOVE DB2MSG-TAG               TO KEDT-REF-DATA           PPEDTMGR
035500         GO TO  0000-RETURN                                       PPEDTMGR
035600     END-IF.                                                      PPEDTMGR
035700     MOVE CCR-LOCATION          TO KEDT-CMP-LOCATION.             PPEDTMGR
035800     MOVE CCR-STATEWIDE         TO KEDT-CMP-SYSWIDE.              PPEDTMGR
035900*                                                                 PPEDTMGR
036000* * GET SYSTEM PARAMETERS                                         PPEDTMGR
036100     MOVE PRIOR-YEARS-PARM    TO WS-REQUEST-PRM-NUM.              PPEDTMGR
036300     PERFORM SQL-SELECT-PRM                                       PPEDTMGR
036500     MOVE  WS-XSP-PARAM-VALUE  TO PRIOR-YEARS.                    PPEDTMGR
036520     MOVE LEAVE-OPTION-PARM   TO WS-REQUEST-PRM-NUM.              PPEDTMGR
036530     PERFORM SQL-SELECT-PRM                                       PPEDTMGR
036540     MOVE  WS-XSP-PARAM-VALUE  TO KEDT-LEAVE-PARM.                PPEDTMGR
036600* * GET EDB PER ROW                                               PPEDTMGR
036700     IF  CEMS-EMPLOYEE-ID    NOT = EMPLOYEE-ID OF EXTRN-PER-ROW   PPEDTMGR
036800         PERFORM 8600-GET-PER-ROW                                 PPEDTMGR
036900         IF  NOT CEMS-RETURN-OK                                   PPEDTMGR
037000             GO TO 1000-EXIT                                      PPEDTMGR
037100         END-IF                                                   PPEDTMGR
037200     END-IF.                                                      PPEDTMGR
037300     PERFORM 1500-DATE-INITIALIZATIONS.                           PPEDTMGR
037400 1000-EXIT.    EXIT.                                              PPEDTMGR
037500*                                                                 PPEDTMGR
037600*-------------------------------------------------------------    PPEDTMGR
037700 1500-DATE-INITIALIZATIONS  SECTION.                              PPEDTMGR
037800*-------------------------------------------------------------    PPEDTMGR
037900     MOVE XPCR-CHECK-DATE  TO KEDT-CHK-DATE.                      PPEDTMGR
038000     MOVE XPCR-END-DATE    TO KEDT-END-DATE.                      PPEDTMGR
038100*                                                                 PPEDTMGR
038200     MOVE XPCR-CYCLE-TYPE (1) TO KEDT-CYCL-1.                     PPEDTMGR
038300     MOVE XPCR-CYCLE-TYPE (2) TO KEDT-CYCL-2.                     PPEDTMGR
038400     MOVE XPCR-CYCLE-TYPE (3) TO KEDT-CYCL-3.                     PPEDTMGR
038500     MOVE XPCR-CYCLE-TYPE (4) TO KEDT-CYCL-4.                     PPEDTMGR
038600*                                                                 PPEDTMGR
038700     MOVE XPCR-END-MONTH TO RF-LIMIT-DATE-MONTH.                  PPEDTMGR
038800     MOVE XPCR-END-DAY   TO RF-LIMIT-DATE-DAY.                    PPEDTMGR
038900     MOVE XPCR-END-YEAR  TO RF-LIMIT-DATE-YEAR.                   PPEDTMGR
039000     MOVE RF-LIMIT-DATE TO WORK-DATE.                             PPEDTMGR
039100     MOVE IDC-RF-MOS     TO WORK-ADJ-MOS.                         PPEDTMGR
039200     PERFORM 1510-DATE-ADJUSTMENT                                 PPEDTMGR
039300         UNTIL WORK-ADJ-MOS = 0.                                  PPEDTMGR
039400     MOVE WORK-DATE  TO KEDT-LIMIT-DATE.                          PPEDTMGR
039500*                                                                 PPEDTMGR
039600* * ESTABLISH VALID YEAR LIMITS (HIGH & LOW)                      PPEDTMGR
039700*****MOVE XPCR-END-YEAR      TO DATE-VALIDATION-LOW-YEAR          28521087
039800*****                           DATE-VALIDATION-HIGH-YEAR.        28521087
040100*****SUBTRACT PRIOR-YEARS  FROM DATE-VALIDATION-LOW-YEAR.         28521087
040200*****ADD 1                   TO DATE-VALIDATION-HIGH-YEAR.        28521087
040500*****MOVE DATE-VALIDATION-LOW-YEAR  TO KEDT-VALID-LOW-YEAR.       28521087
040600*****MOVE DATE-VALIDATION-HIGH-YEAR TO KEDT-VALID-HIGH-YEAR.      28521087
040610     MOVE XPCR-END-YEAR      TO XDC3-STD-YY.                      28521087
040620     MOVE XPCR-END-MONTH     TO XDC3-STD-MM.                      28521087
040630     MOVE XPCR-END-DAY       TO XDC3-STD-DD.                      28521087
040640     PERFORM XDC3-CONVERT-STD-TO-ISO.                             28521087
040650     MOVE XDC3-ISO-CCYY TO DATE-VALIDATION-LOW-YEAR-CCYY          28521087
040660                           DATE-VALIDATION-HIGH-YEAR-CCYY         28521087
040670     SUBTRACT PRIOR-YEARS  FROM DATE-VALIDATION-LOW-YEAR-CCYY.    28521087
040680     ADD 1                   TO DATE-VALIDATION-HIGH-YEAR-CCYY.   28521087
040690     MOVE DATE-VALIDATION-LOW-YEAR-CCYY                           28521087
040691                                   TO KEDT-VALID-LOW-YEAR-CCYY.   28521087
040692     MOVE DATE-VALIDATION-HIGH-YEAR-CCYY                          28521087
040693                                   TO KEDT-VALID-HIGH-YEAR-CCYY.  28521087
040700 1500-EXIT.    EXIT.                                              PPEDTMGR
040800*                                                                 PPEDTMGR
040900*-------------------------------------------------------------    PPEDTMGR
041000 1510-DATE-ADJUSTMENT  SECTION.                                   PPEDTMGR
041100*-------------------------------------------------------------    PPEDTMGR
041200     SUBTRACT 1 FROM WORK-ADJ-MOS                                 PPEDTMGR
041300                     WORK-MONTH.                                  PPEDTMGR
041310     IF WORK-MONTH NOT = ZERO                                     28521205
041320        MOVE WORK-DATE TO XDC3-STD-DATE                           28521205
041321        PERFORM XDC3-CONVERT-STD-TO-ISO                           28521205
041322        IF XDC3-INVALID-DATE                                      28521205
041330           MOVE 1 TO XDC3-STD-DD                                  28521205
041340           PERFORM XDC3-CONVERT-STD-TO-ISO                        28521205
041341           PERFORM XDC3-GET-END-OF-MONTH-DATE                     28521205
041342           MOVE XDC3-ISO-DD TO WORK-DAY                           28521205
041343        END-IF                                                    28521205
041370     END-IF.                                                      28521205
041380                                                                  28521205
041400     IF WORK-MONTH = ZERO                                         PPEDTMGR
041500       MOVE 12 TO WORK-MONTH                                      PPEDTMGR
041600*******SUBTRACT 1 FROM WORK-YEAR.                                 28521087
041610       MOVE WORK-DATE TO XDC3-STD-DATE                            28521087
041620       PERFORM XDC3-CONVERT-STD-TO-ISO                            28521087
041630       SUBTRACT 1 FROM XDC3-ISO-CCYY                              28521087
041640       MOVE  XDC3-ISO-CCYY (3:2) TO WORK-YEAR                     28521087
041650     END-IF.                                                      28521087
041700 1510-EXIT.    EXIT.                                              PPEDTMGR
041800*                                                                 PPEDTMGR
041900*-------------------------------------------------------------    PPEDTMGR
042000 2000-EDIT-TRANSACTION  SECTION.                                  PPEDTMGR
042100*-------------------------------------------------------------    PPEDTMGR
042110     IF ENVIRON-IS-CICS   AND                                     PPEDTMGR
042120        CTRN-TRAN-CD   = 'ST'                                     PPEDTMGR
042130         MOVE +1           TO CEMS-CTR                            PPEDTMGR
042140         MOVE ZEROS        TO CEMS-MSG-NUMBER   (CEMS-CTR)        PPEDTMGR
042150         MOVE ZEROS        TO CEMS-TRN-ELEMENTS (CEMS-CTR)        PPEDTMGR
042160         MOVE 0090         TO CEMS-TRN-ELMT     (CEMS-CTR, 1)     PPEDTMGR
042170         MOVE SPACES       TO CEMS-MSG-REF      (CEMS-CTR)        PPEDTMGR
042180         MOVE ZERO         TO CEMS-KEDT-ELM-PTR (CEMS-CTR)        PPEDTMGR
042190         SET CEMS-V-R-FAILED    TO TRUE                           PPEDTMGR
042191         GO TO  2000-EXIT                                         PPEDTMGR
042192     END-IF.                                                      PPEDTMGR
042200     PERFORM                                                      PPEDTMGR
042300      VARYING SUFX-INDX  FROM +1 BY +1                            PPEDTMGR
042400        UNTIL SUFX-INDX  > SUFX-INDX-MAX                          PPEDTMGR
042500           OR SUFX-TRANS-TYP (SUFX-INDX)  = CTRN-TRAN-CD          PPEDTMGR
042600     END-PERFORM.                                                 PPEDTMGR
042700     IF SUFX-INDX  > SUFX-INDX-MAX                                PPEDTMGR
042710       IF ENVIRON-IS-CICS                                         PPEDTMGR
042720         MOVE +1           TO CEMS-CTR                            PPEDTMGR
042721         MOVE ZEROS        TO CEMS-MSG-NUMBER   (CEMS-CTR)        PPEDTMGR
042722         MOVE ZEROS        TO CEMS-TRN-ELEMENTS (CEMS-CTR)        PPEDTMGR
042723         MOVE 0090         TO CEMS-TRN-ELMT     (CEMS-CTR, 1)     PPEDTMGR
042724         MOVE SPACES       TO CEMS-MSG-REF      (CEMS-CTR)        PPEDTMGR
042725         MOVE ZERO         TO CEMS-KEDT-ELM-PTR (CEMS-CTR)        PPEDTMGR
042726         SET CEMS-V-R-FAILED    TO TRUE                           PPEDTMGR
042730       ELSE                                                       PPEDTMGR
042800         SET CEMS-LOGIC-1-ERROR    TO TRUE                        PPEDTMGR
042900         MOVE 'PPEDTMGR LOGIC ERR - TRAN CD = ' TO KEDT-REF-DESC  PPEDTMGR
043000         MOVE CTRN-TRAN-CD                      TO KEDT-REF-DATA  PPEDTMGR
043010       END-IF                                                     PPEDTMGR
043100     ELSE                                                         PPEDTMGR
043200         PERFORM 2010-CALL-PROCESSR                               PPEDTMGR
043300     END-IF.                                                      PPEDTMGR
043400 2000-EXIT.   EXIT.                                               PPEDTMGR
043500*                                                                 PPEDTMGR
043600*-------------------------------------------------------------    PPEDTMGR
043700 2010-CALL-PROCESSR  SECTION.                                     PPEDTMGR
043800*-------------------------------------------------------------    PPEDTMGR
043900     MOVE SUFX-PGM-SUFFIX (SUFX-INDX)    TO PGM-CALL-SUFFIX.      PPEDTMGR
044000     CALL WS-PGM-NAME                                             PPEDTMGR
044100       ON EXCEPTION                                               PPEDTMGR
044200         SET CEMS-CALL-FAILED      TO TRUE                        PPEDTMGR
044300         MOVE 'CALL FROM PPEDTMGR FAILED; MODULE IS '             PPEDTMGR
044400                                   TO KEDT-REF (1:37)             PPEDTMGR
044500         MOVE WS-PGM-NAME          TO KEDT-REF (38:8)             PPEDTMGR
044600     END-CALL.                                                    PPEDTMGR
044700 2010-EXIT.     EXIT.                                             PPEDTMGR
044800                                                                  PPEDTMGR
044900*                                                                 PPEDTMGR
045000*-------------------------------------------------------------    PPEDTMGR
045100 8600-GET-PER-ROW            SECTION.                             PPEDTMGR
045200*-------------------------------------------------------------    PPEDTMGR
045300*                                                                 PPEDTMGR
045400     SET KEDT-EMPL-MISSING     TO TRUE.                           PPEDTMGR
045500     MOVE CEMS-EMPLOYEE-ID      TO PPPERUTL-EMPLOYEE-ID.          PPEDTMGR
045600     CALL PGM-PPPERUTL  USING                                     PPEDTMGR
045700                        PPPERUTL-INTERFACE                        PPEDTMGR
045800                        PER-ROW                                   PPEDTMGR
045900       ON EXCEPTION                                               PPEDTMGR
046000         SET CEMS-CALL-FAILED      TO TRUE                        PPEDTMGR
046100         MOVE 'CALL FROM PPEDTMGR FAILED; MODULE IS '             PPEDTMGR
046200                                   TO KEDT-REF (1:37)             PPEDTMGR
046300         MOVE PGM-PPPERUTL         TO KEDT-REF (38:8)             PPEDTMGR
046400         GO TO 8600-EXIT                                          PPEDTMGR
046500     END-CALL.                                                    PPEDTMGR
046600     IF PPPERUTL-ERROR                                            PPEDTMGR
046700         SET CEMS-PPPERUTL-ERROR      TO TRUE                     PPEDTMGR
046800         MOVE 'MODULE PPPERUTL RETURNED SQL ERROR'                PPEDTMGR
046900                                   TO KEDT-REF                    PPEDTMGR
047000     ELSE                                                         PPEDTMGR
047100         MOVE PER-ROW          TO EXTRN-PER-ROW                   PPEDTMGR
047200         IF  PPPERUTL-PER-FOUND                                   PPEDTMGR
047300             SET KEDT-EMPL-FOUND       TO TRUE                    PPEDTMGR
047400             PERFORM 8800-GET-PCM-ROW                             PPEDTMGR
047500         ELSE                                                     PPEDTMGR
047600             SET KEDT-EMPL-MISSING     TO TRUE                    PPEDTMGR
047700         END-IF                                                   PPEDTMGR
047800     END-IF.                                                      PPEDTMGR
047900 8600-EXIT.   EXIT.                                               PPEDTMGR
048000*                                                                 PPEDTMGR
048100*-------------------------------------------------------------    PPEDTMGR
048200 8800-GET-PCM-ROW  SECTION.                                       PPEDTMGR
048300*-------------------------------------------------------------    PPEDTMGR
048400     MOVE CEMS-EMPLOYEE-ID      TO PPPCMUTL-EMPLOYEE-ID.          PPEDTMGR
048500     CALL PGM-PPPCMUTL  USING                                     PPEDTMGR
048600                        PPPCMUTL-INTERFACE                        PPEDTMGR
048700                        PCM-ROW                                   PPEDTMGR
048800       ON EXCEPTION                                               PPEDTMGR
048900         SET CEMS-CALL-FAILED      TO TRUE                        PPEDTMGR
049000         MOVE 'CALL FROM PPEDTMGR FAILED; MODULE IS '             PPEDTMGR
049100                                   TO KEDT-REF (1:37)             PPEDTMGR
049200         MOVE PGM-PPPCMUTL         TO KEDT-REF (38:8)             PPEDTMGR
049300         GO TO 8800-EXIT                                          PPEDTMGR
049400     END-CALL.                                                    PPEDTMGR
049500     IF PPPCMUTL-ERROR                                            PPEDTMGR
049600         SET CEMS-PPPCMUTL-ERROR      TO TRUE                     PPEDTMGR
049700         MOVE 'MODULE PPPCMUTL RETURNED SQL ERROR'                PPEDTMGR
049800                                   TO KEDT-REF                    PPEDTMGR
049900     ELSE                                                         PPEDTMGR
050000         MOVE PCM-ROW          TO EXTRN-PCM-ROW                   PPEDTMGR
050100         IF  PPPCMUTL-PCM-FOUND  AND                              PPEDTMGR
050200             MIN-RCD-FLAG  OF PCM-ROW  NOT = 1                    PPEDTMGR
050300              CONTINUE                                            PPEDTMGR
050400         ELSE                                                     PPEDTMGR
050500              SET KEDT-EMPL-NOT-MIN-DATA   TO TRUE                PPEDTMGR
050600         END-IF                                                   PPEDTMGR
050700     END-IF.                                                      PPEDTMGR
050800 8800-EXIT.   EXIT.                                               PPEDTMGR
050900*                                                                 PPEDTMGR
051000*----------------------------------------------------------------*PPEDTMGR
051100 9300-DATE-CONVERSION-DB2  SECTION.                               PPEDTMGR
051200*----------------------------------------------------------------*PPEDTMGR
051300*                                                 *-------------* PPEDTMGR
051400************************************************** COPY CPPDXDC2. 28521087
051410                                                   COPY CPPDXDC3. 28521087
051500*                                                 *-------------* PPEDTMGR
051600*                                                                 PPEDTMGR
051700*----------------------------------------------------------------*PPEDTMGR
051800 SQL-OPEN-DET      SECTION.                                       PPEDTMGR
051900*----------------------------------------------------------------*PPEDTMGR
052000     IF  NOT DET-ROW-OPEN                                         PPEDTMGR
052100         MOVE 'OPEN DET CURSOR'  TO DB2MSG-TAG                    PPEDTMGR
052200         SET DET-ROW-RETURNED    TO TRUE                          PPEDTMGR
052300         EXEC SQL                                                 PPEDTMGR
052400             OPEN DET_ROW                                         PPEDTMGR
052500         END-EXEC                                                 PPEDTMGR
052600         SET DET-ROW-OPEN        TO TRUE                          PPEDTMGR
052700     ELSE                                                         PPEDTMGR
052800         SET DET-DB2-ERROR    TO TRUE                             PPEDTMGR
052900     END-IF.                                                      PPEDTMGR
053000*----------------------------------------------------------------*PPEDTMGR
053100 SQL-CLOSE-DET      SECTION.                                      PPEDTMGR
053200*----------------------------------------------------------------*PPEDTMGR
053300     IF  DET-ROW-OPEN                                             PPEDTMGR
053400         MOVE 'CLOSE DET CURSOR' TO DB2MSG-TAG                    PPEDTMGR
053500         EXEC SQL                                                 PPEDTMGR
053600             CLOSE DET_ROW                                        PPEDTMGR
053700         END-EXEC                                                 PPEDTMGR
053800         SET NOT-DET-ROW-OPEN    TO TRUE                          PPEDTMGR
053900     END-IF.                                                      PPEDTMGR
054000*----------------------------------------------------------------*PPEDTMGR
054100 SQL-FETCH-DET      SECTION.                                      PPEDTMGR
054200*----------------------------------------------------------------*PPEDTMGR
054300     MOVE 'FETCH DET ROW'        TO DB2MSG-TAG.                   PPEDTMGR
054400     EXEC SQL                                                     PPEDTMGR
054401         FETCH DET_ROW                                            PPEDTMGR
054420         INTO :DET-ROW-DATA.DET-CARD-TYPE                         PPEDTMGR
054421            , :DET-ROW-DATA.DET-ELEM-NO                           PPEDTMGR
054430            , :DET-ROW-DATA.DET-ELEMENT-NAME                      PPEDTMGR
054700     END-EXEC.                                                    PPEDTMGR
054800     IF SQLCODE = +100                                            PPEDTMGR
054900         SET DET-AT-END           TO TRUE                         PPEDTMGR
055000     ELSE                                                         PPEDTMGR
055100         IF SQLCODE = ZERO                                        PPEDTMGR
055200             SET DET-ROW-RETURNED TO TRUE                         PPEDTMGR
055300         ELSE                                                     PPEDTMGR
055400             SET DET-DB2-ERROR    TO TRUE                         PPEDTMGR
055500         END-IF                                                   PPEDTMGR
055600     END-IF.                                                      PPEDTMGR
055700*-------------------------------------------------------------    PPEDTMGR
055800 SQL-SELECT-CCR     SECTION.                                      PPEDTMGR
055900*-------------------------------------------------------------    PPEDTMGR
056000     MOVE 'SELECT CCR ROW' TO DB2MSG-TAG.                         PPEDTMGR
056010     EXEC SQL                                                     PPEDTMGR
056011         SELECT CCR_LOCATION                                      PPEDTMGR
056012              , CCR_STATEWIDE                                     PPEDTMGR
056013         INTO  :CCR-LOCATION                                      PPEDTMGR
056014            ,  :CCR-STATEWIDE                                     PPEDTMGR
056030             FROM PPPVZCCR_CCR                                    PPEDTMGR
056040     END-EXEC.                                                    PPEDTMGR
056500*----------------------------------------------------------------*PPEDTMGR
056600 SQL-SELECT-PRM     SECTION.                                      PPEDTMGR
056700*----------------------------------------------------------------*PPEDTMGR
056800     MOVE 'SELECT PRM ROW' TO DB2MSG-TAG.                         PPEDTMGR
056900     EXEC SQL                                                     PPEDTMGR
057000         SELECT PRM_NUMBER                                        PPEDTMGR
057100              , PRM_DATA                                          PPEDTMGR
057200         INTO  :PRM-NUMBER                                        PPEDTMGR
057300            ,  :PRM-DATA                                          PPEDTMGR
057400             FROM PPPVZPRM_PRM                                    PPEDTMGR
057500              WHERE PRM_NUMBER = :WS-REQUEST-PRM-NUM              PPEDTMGR
057600     END-EXEC.                                                    PPEDTMGR
057700     IF SQLCODE  = +100                                           PPEDTMGR
057800         MOVE ZERO      TO WS-XSP-PARAM-VALUE                     PPEDTMGR
057900     ELSE                                                         PPEDTMGR
058000         MOVE PRM-DATA  TO WS-XSP-PARAM-VALUE                     PPEDTMGR
058100     END-IF.                                                      PPEDTMGR
058200*-------------------------------------------------------------    PPEDTMGR
058300 NEGATIVE-SQL-AREA     SECTION.                                   PPEDTMGR
058400*-------------------------------------------------------------    PPEDTMGR
058500******************************************************************PPEDTMGR
058600**                     DB2 ABEND ROUTINE                         *PPEDTMGR
058700******************************************************************PPEDTMGR
058800     EXEC SQL                                                     PPEDTMGR
058900          INCLUDE CPPDXP99                                        PPEDTMGR
059000     END-EXEC.                                                    PPEDTMGR
059100     SET CEMS-NEGATIVE-SQL      TO TRUE.                          PPEDTMGR
059200     MOVE 'MODULE PPEDTMGR RETURNED SQL ERROR '                   PPEDTMGR
059300                                   TO KEDT-REF (1:36)             PPEDTMGR
059400     MOVE DB2MSG-TAG               TO KEDT-REF (37:24).           PPEDTMGR
059500     GO TO  0000-RETURN.                                          PPEDTMGR
059600******************************************************************PPEDTMGR
059700***************    END OF SOURCE - PPEDTMGR    *******************PPEDTMGR
