000100*==========================================================%      PPR30705
000200*=    PROGRAM:  PPEDTRST                                  =%      PPR30705
000300*=    CHANGE # PPR30705     PROJ. REQUEST: PPR307         =%      PPR30705
000400*=    NAME: J.E. MCCLANE    MODIFICATION DATE: 11/02/95   =%      PPR30705
000500*=                                                        =%      PPR30705
000600*=    DESCRIPTION:                                        =%      PPR30705
000700*=      ADD EDITS WHICH ALLOW ONLY NON-SALARY PAYROLL     =%      PPR30705
000800*=      CODES TO BE CHANGED TO FUND 00000A.               =%      PPR30705
000900*==========================================================%      PPR30705
000100*==========================================================%      UCSD0033
000200*=    PROGRAM:  PPEDTRST                                  =%      UCSD0033
000300*=    CHANGE #DT033         PROJ. REQUEST: DT-033         =%      UCSD0033
000400*=    NAME: J.E. MCCLANE    MODIFICATION DATE: 9/10/91    =%      UCSD0033
000500*=                                                        =%      UCSD0033
000600*=    DESCRIPTION:                                        =%      UCSD0033
000700*=      REMOVE REFERENCES TO PPINAFP AND REPLACE WITH     =%      UCSD0033
000800*=      CALLS TO PLINIFS FOR IFIS IMPLEMENTATION.         =%      UCSD0033
000900*==========================================================%      UCSD0033
000000**************************************************************/   36030759
000001*  PROGRAM: PPEDTRST                                         */   36030759
000002*  RELEASE: ___0759______ SERVICE REQUEST(S): _3603, 4021__  */   36030759
000003*  REF REL: ___0454, 0592                                    */   36030759
000004*  NAME:_____J. QUAN_____ MODIFICATION DATE:  ___04/13/93__  */   36030759
000005*  DESCRIPTION:                                              */   36030759
000006*  -  ADDED CODE TO MOVE '??' TO KEDT-STATUS-FLAG IN         */   36030759
000007*     PARAGRAPH 7000-CALL-PPDOSUTL WHEN RETURNING FROM A     */   36030759
000008*     CALL TO PPDOSUTL WHICH RESULTS IN A DOS TABLE OVERFLOW */   36030759
000009*     OR A DOS TABLE DELIMITER IS MISSING.                   */   36030759
000015*  -  ADDED CODE TO CHECK KEDT-STATUS-FLAG VALUE OF '??'     */   36030759
000016*     AFTER RETURNING FROM PPEDTRPT.                         */   36030759
000017*  -  PARAGRAPH 9000-CONTROL-FILE-IO HAS BEEN COMMENTED OUT. */   36030759
000018*     THIS PARAGRAPH HAS BEEN OBSOLETED IN RELEASE 750.      */   36030759
000019*  -  DEFINE MESSAGE NUMBERS IN WORKING STORAGE.             */   36030759
000030**************************************************************/   36030759
000100******************************************************************36360750
000200*  PROGRAM: PPEDTRST                                             *36360750
000300*  RELEASE: ___0750______ SERVICE REQUEST NO(S):___3636____      *36360750
000400*  NAME:    M.CLARK______ MODIFICATION DATE:  ___03/15/93__      *36360750
000500*                                                                *36360750
000600*  DESCRIPTION: MODIFIED RETRIEVAL-PROCESSING FOR TITLE CODE     *36360750
000700*               INFORMATION.                                     *36360750
000800*                                                                *36360750
000900*       WORKING-STORAGE: 01/PPTCTUTL-INTERFACE REPLACED          *36360750
001000*               01/XTTL-TITLE-CODE-RECORD COPY CPWSXTTL.         *36360750
001100*       PROCEDURE DIVISION:                                      *36360750
001200*            4000-RA-ST-EDITS:                                   *36360750
001300*               1. ELEMENT XTCL-CHOSEN-TITLE-CODE REPLACED       *36360750
001400*                  XCFK-TTL-CODE IN KEY-VALUE REFERENCE.         *36360750
001500*            6100-MATCH-JOB-CLASS:                               *36360750
001600*               MODIFIED CONTROL LOGIC FOR TITLE CODE RETRIEVALS.*36360750
001700******************************************************************36360750
000100**************************************************************/   03020649
000200*  PROGRAM: PPEDTRST                                         */   03020649
000300*  RELEASE: ___0649______ SERVICE REQUEST(S): ____10302____  */   03020649
000400*  NAME:_____M. SANO_____ MODIFICATION DATE:  ___01/13/92__  */   03020649
000500*  DESCRIPTION:                                              */   03020649
000600*  - ADDED EDIT FOR DOS OF SVE OR SVM TO CHECK FOR VALID     */   03020649
000700*    SPP DATA                                                */   03020649
000800**************************************************************/   03020649
000100**************************************************************/   36060628
000200*  PROGRAM: PPEDTRST                                         */   36060628
000300*  RELEASE: ___0628______      SERVICE REQUEST ___3606___    */   36060628
000400*  NAME: ___G. STEINITZ__      DATE MODIFIED:  _01/10/92__   */   36060628
000500*  DESCRIPTION:                                              */   36060628
000600*  -   REPLACED WORK STUDY PROCESSING WITH UTILITY PPWSPUTL  */   36060628
000700*  -   REPLACED SOME RECORD DESCRIPTIONS WITH COPY MEMBERS   */   36060628
000000**************************************************************/   40210592
000001*  PROGRAM: PPEDTRST                                         */   40210592
000210*  RELEASE: __0592______  SERVICE REQUEST(S): ____4021____   */   40210592
000300*  NAME:_____J. QUAN____  MODIFICATION DATE:  __05/23/91__   */   40210592
000004*  DESCRIPTION:                                              */   40210592
000005*  DOS EXPANSION:                                            */   40210592
000006*     - REWRITE 7000-CALL-PPDOSUT1 PROC                      */   40210592
000007*        * COMMENT OUT CALL TO PPDOSUT1                      */   40210592
000008*        * REPLACE PPDOSUT1 WITH PPDOSUTL TO RETURN          */   40210592
000660*          DOS RECORDS                                       */   40210592
000010*     - ADD NEW COPYLIB(S): CPLN2DOS, CPWSDOST               */   40210592
000011*     - COPYLIB(S) CHANGE : CPWSXIC2                         */   40210592
000020**************************************************************/   40210592
000100**************************************************************/   30630454
000200*  PROGRAM: PPEDTRST                                         */   30630454
000210*  RELEASE: __0454__  REF: ____  SERVICE REQUEST __3063___   */   30630454
000300*  NAME:__BRUCE JAMES__   MODIFICATION DATE:  __03/08/90__   */   30630454
000400*  DESCRIPTION:                                              */   30630454
000660*  - NEW PROGRAM ADDED FOR PPP360 AND PPRCEDIT               */   30630454
000670**************************************************************/   30630454
000700**************************************************************/   PPEDTRST
000800 IDENTIFICATION DIVISION.                                         PPEDTRST
000900 PROGRAM-ID. PPEDTRST.                                            PPEDTRST
001000 INSTALLATION. UNIVERSITY OF CALIFORNIA.                          PPEDTRST
001100 AUTHOR.                                                          PPEDTRST
001200**************************************************************/   PPEDTRST
001300**************************************************************/   PPEDTRST
001400 DATE-WRITTEN.                                                    PPEDTRST
001500 DATE-COMPILED.                                                   PPEDTRST
001600     SKIP3                                                        PPEDTRST
001700*REMARKS.                                                         PPEDTRST
001800**************************************************************/   PPEDTRST
001900*                                                            */   PPEDTRST
002000*  - PPEDTRST PERFORMS UNIQUE EDITS REQUIRED FOR PAY TRANS-  */   PPEDTRST
002100*    ACTIONS RA (RETROACTIVE PAY) AND ST (PAYMENT IN LIEU    */   PPEDTRST
002200*    OF NOTICE).  IT VERIFIES THAT SUFFICIENT DATA IS        */   PPEDTRST
002300*    CONTAINED ON THE EDB FOR THE EMPLOYEE TO PROCESS THE    */   PPEDTRST
002400*    TRANSACTION.  IT CHECKS NUMERIC FIELDS FOR SPACES AND   */   PPEDTRST
002500*    REFORMATS THEM INTO WHOLLY NUMERIC CONTENTS.  DATES     */   PPEDTRST
002600*    ARE INPUT ARE EDITED FOR VALID MONTH, DAY, AND YEAR     */   PPEDTRST
002700*    RANGES.  CONTEXTUAL EDITS ARE PERFORMED TO VERIFY THAT  */   PPEDTRST
002800*    THE PAY TRANSACTION CONTAINS VALID COLLECTIVE BARGAINING*/   PPEDTRST
002900*    UNIT CODES, THAT IT IS IN THE CORRECT BATCH TYPE, AND   */   PPEDTRST
003000*    THAT A WORK STUDY CODE, WHEN ENTERED, IS VALID.         */   PPEDTRST
003100*    LOCATION, ACCOUNT, FUND, AND SUB-BUDGET CODES ARE ALSO  */   PPEDTRST
003200*    CHECKED FOR VALIDITY.  EMPLOYMENT STATUS AND ACTIVITY   */   PPEDTRST
003300*    IS EDITED TO VERIFY LEGITIMACY OF THE TRANSACTION IN    */   PPEDTRST
003400*    RELATION TO THE PAY CYCLE IN WHICH IT HAS BEEN SUBMIT-  */   PPEDTRST
003500*    TED.  PPEDTRST MAY BE CALLED BY THE REGULAR PAYROLL     */   PPEDTRST
003600*    COMPUTE PROGRAM PPP360 OR THE RUCH CHECK CYCLE PROGRAM  */   PPEDTRST
003700*    PPRCEDIT.  PPEDTRST WILL CALL PPEDTRPT TO DISPLAY THE   */   PPEDTRST
003800*    EDIT MESSAGES IT GENERATES DURING PROCESSING FOR THE    */   PPEDTRST
003900*    ERROR CORRECTION REPORT (I.E. PPP3601).                 */   PPEDTRST
004000*                                                            */   PPEDTRST
004100**************************************************************/   PPEDTRST
004200     SKIP3                                                        PPEDTRST
004300 ENVIRONMENT DIVISION.                                            PPEDTRST
004400 CONFIGURATION SECTION.                                           PPEDTRST
004500 SOURCE-COMPUTER. COPY CPOTXUCS.                                  PPEDTRST
004600 OBJECT-COMPUTER. COPY CPOTXOBJ.                                  PPEDTRST
006800     EJECT                                                        PPEDTRST
006900 DATA DIVISION.                                                   PPEDTRST
004700     SKIP3                                                        PPEDTRST
005200 FILE SECTION.                                                    PPEDTRST
007200     SKIP2                                                        36060628
007300 WORKING-STORAGE SECTION.                                         PPEDTRST
007400*                                                                 36060628
007500 01  WA-COMPILE-WORK-AREA.       COPY CPWSXWHC.                   36060628
007600*                                                                 36060628
007700 01  77-LEVELS.                                                   36060628
007800     05  FIRST-TIME-SW           PIC  X(01)           VALUE 'Y'.  36060628
007900         88  FIRST-TIME                               VALUE 'Y'.  36060628
008000         88  NOT-FIRST-TIME                           VALUE 'N'.  36060628
008100     05  WRK-PAY-CYCLE           PIC  X(01).                      36060628
008200     05  PCR-INDX                PIC S9(04) COMP SYNC VALUE ZERO. 36060628
008300     05  K                       PIC S9(04) COMP SYNC VALUE ZERO. 36060628
008400     05  SAVED-TOC-RATE          PIC  9(02)V9(02)     VALUE ZERO. 36060628
008500     05  WS-DATE-HOLD            PIC  X(10)           VALUE SPACE.36060628
008600     05  DTV-TIME-FLAG           PIC  X(01)           VALUE SPACE.36060628
008700         88  DTV-RATED-DOS                            VALUE '1'.  36060628
008800         SKIP1                                                    36060628
011310 01  MESSAGE-NUMBERS.                                             36030759
011320     05  M00010                  PIC X(5)        VALUE '00010'.   36030759
011330     05  M36010                  PIC X(5)        VALUE '36010'.   36030759
011340     05  M36011                  PIC X(5)        VALUE '36011'.   36030759
011350     05  M36012                  PIC X(5)        VALUE '36012'.   36030759
011351     05  M36014                  PIC X(5)        VALUE '36014'.   36030759
011352     05  M36016                  PIC X(5)        VALUE '36016'.   36030759
011360     05  M36031                  PIC X(5)        VALUE '36031'.   36030759
011361     05  M36032                  PIC X(5)        VALUE '36032'.   36030759
011362     05  M36033                  PIC X(5)        VALUE '36033'.   36030759
011363     05  M36034                  PIC X(5)        VALUE '36034'.   36030759
011364     05  M36038                  PIC X(5)        VALUE '36038'.   36030759
011365     05  M36040                  PIC X(5)        VALUE '36040'.   36030759
011370     05  M36042                  PIC X(5)        VALUE '36042'.   36030759
011380     05  M36044                  PIC X(5)        VALUE '36044'.   36030759
011390     05  M36060                  PIC X(5)        VALUE '36060'.   36030759
011391     05  M36061                  PIC X(5)        VALUE '36061'.   36030759
011392     05  M36062                  PIC X(5)        VALUE '36062'.   36030759
011393     05  M36063                  PIC X(5)        VALUE '36063'.   36030759
011394     05  M36064                  PIC X(5)        VALUE '36064'.   36030759
011395     05  M36067                  PIC X(5)        VALUE '36067'.   36030759
011396     05  M36068                  PIC X(5)        VALUE '36068'.   36030759
011397     05  M36069                  PIC X(5)        VALUE '36069'.   36030759
011398     05  M36070                  PIC X(5)        VALUE '36070'.   36030759
011399     05  M36080                  PIC X(5)        VALUE '36080'.   36030759
011400     05  M36081                  PIC X(5)        VALUE '36081'.   36030759
011410     05  M36082                  PIC X(5)        VALUE '36082'.   36030759
011420     05  M36083                  PIC X(5)        VALUE '36083'.   36030759
011430     05  M36084                  PIC X(5)        VALUE '36084'.   36030759
011440     05  M36100                  PIC X(5)        VALUE '36100'.   36030759
011441     05  M36102                  PIC X(5)        VALUE '36102'.   36030759
011450     05  M36191                  PIC X(5)        VALUE '36191'.   36030759
011450     05  M36195                  PIC X(5)        VALUE '36195'.   PPR30705
011451     05  M36242                  PIC X(5)        VALUE '36242'.   36030759
011460     05  M36406                  PIC X(5)        VALUE '36406'.   36030759
011470     05  M36408                  PIC X(5)        VALUE '36408'.   36030759
011480     05  M36914                  PIC X(5)        VALUE '36914'.   36030759
011481     05  M36930                  PIC X(5)        VALUE '36930'.   36030759
011490     05  M36931                  PIC X(5)        VALUE '36931'.   36030759
011491     05  M36932                  PIC X(5)        VALUE '36932'.   36030759
011500*****                                                          CD 36030759
010000     SKIP3                                                        PPEDTRST
010100 01  WORK-STUDY-INTERFACE.                                        36060628
010200                                 COPY CPWSXWSI.                   36060628
012710*****                                                          CD 36030759
010600     SKIP3                                                        PPEDTRST
006820 01  GROUP-WORK-AREA.                                             PPEDTRST
006830     05   WORK-GROSSX.                                            PPEDTRST
006840          10  WORK-GROSS9        PIC 9(7).                        PPEDTRST
006850     05   WORK-TIMEX.                                             PPEDTRST
006860          10  WORK-TIME9         PIC 9(5).                        PPEDTRST
008600                                                                  UCSD0033
008700 01  WS-IFIS-INDEX-FUND.                                          UCSD0033
008800     05   WS-IFIS-LOC            PIC X.                           UCSD0033
008900     05   WS-IFIS-INDEX          PIC X(7).                        UCSD0033
009000     05   WS-IFIS-FUND.                                           PRR30705
009000          10   WS-IFIS-FND       PIC X(5).                        PRR30705
009100          10   WS-IFIS-FND-EXT   PIC X.                           PRR30705
009200
009300 01  WS-TITLE-SUB.                                                UCSD0033
009400     05   WS-TITLE-TEST          PIC 9(4).                        UCSD0033
009500          88  WS-TITLE-ACAD          VALUES 0800 THRU 3999.       UCSD0033
009600     05   WS-DOS-TEST            PIC X(3).                        UCSD0033
009700          88  WS-DOS-POSTDOC         VALUE 'FEL' 'FES' 'FEN'.     UCSD0033
009800     05   WS-SUB-TEST            PIC 9.                           UCSD0033
009900          88  WS-SUB-ACAD-OK         VALUE 0, 2.                  UCSD0033
010000          88  WS-SUB-STAFF-OK        VALUE 1, 2.                  UCSD0033
010100          88  WS-SUB-POSTD-OK        VALUE 3.                     UCSD0033
006900     SKIP3                                                        PPEDTRST
013710*****                                                          CD 36030759
007010 01  KDOS-INTERFACE.             COPY CPLN2DOS.                   40210592
007100     SKIP3                                                        PPEDTRST
007200 01  PAYROLL-PROCESS-IC1.        COPY CPWSXIC1.                   PPEDTRST
007300     EJECT                                                        PPEDTRST
007400 01  PAYROLL-PROCESS-IC2.        COPY CPWSXIC2.                   PPEDTRST
007500     EJECT                                                        PPEDTRST
007600 01  DATE-VALIDATION-WORK-AREA.                                   PPEDTRST
007700     05  DATE-VALIDATION-ERROR-FLAG  PIC X.                       PPEDTRST
007800     05  DATE-VALIDATION-DATE        PIC X(6).                    PPEDTRST
007900     05  FILLER          REDEFINES DATE-VALIDATION-DATE.          PPEDTRST
008000         10  DATE-VALIDATION-MONTH   PIC 99.                      PPEDTRST
008100             88  DATE-VALIDATION-30-DAY-MONTH VALUES 04 06 09 11. PPEDTRST
008200         10  DATE-VALIDATION-MONTHX REDEFINES                     PPEDTRST
008300             DATE-VALIDATION-MONTH   PIC XX.                      PPEDTRST
008400         10  DATE-VALIDATION-DAY     PIC 99.                      PPEDTRST
008500         10  DATE-VALIDATION-DAYX REDEFINES                       PPEDTRST
008600             DATE-VALIDATION-DAY     PIC XX.                      PPEDTRST
008700         10  DATE-VALIDATION-YEAR    PIC 99.                      PPEDTRST
008800         10  DATE-VALIDATION-YEARX REDEFINES                      PPEDTRST
008900             DATE-VALIDATION-YEAR    PIC XX.                      PPEDTRST
009000     05  DATE-VALIDATION-YR-Q        PIC S999 COMP-3.             PPEDTRST
009100     05  DATE-VALIDATION-YR-REM      PIC S999 COMP-3.             PPEDTRST
009200     05  DATE-VALIDATION-LOW-YEAR    PIC 99.                      PPEDTRST
009300     05  DATE-VALIDATION-HIGH-YEAR   PIC 99.                      PPEDTRST
009400     05  DATE-VALIDATION-WRK-DATE1.                               PPEDTRST
009500         10  DATE-VAL-DATE1-YR       PIC 99.                      PPEDTRST
009600         10  DATE-VAL-DATE1-MO       PIC 99.                      PPEDTRST
009700         10  DATE-VAL-DATE1-DY       PIC 99.                      PPEDTRST
009800     05  DATE-VALIDATION-WRK-DATE2.                               PPEDTRST
009900         10  DATE-VAL-DATE2-YR       PIC 99.                      PPEDTRST
010000         10  FILLER                  PIC X(4).                    PPEDTRST
010100     05  DATE-VAL-MOEND-IND          PIC X.                       PPEDTRST
010200         88  LAST-DAY-OF-MONTH       VALUE 'Y'.                   PPEDTRST
010300     SKIP1                                                        PPEDTRST
017210*****                                                          CD 36030759
016100 01  WORK-SPP-DATA.                                               03020649
016200     05  WS-EMPLOYEE-ID      PIC X(09) VALUE SPACES.              03020649
016300     05  WS-SPP-PROG         PIC X VALUE SPACE.                   03020649
016400     05  WS-SPP-AMOUNT       PIC 9(7)V99 VALUE ZEROES.            03020649
011000     EJECT                                                        PPEDTRST
011100******************************************************************PPEDTRST
011200*                                                                 PPEDTRST
011300*  CONTROL FILE RELATED DEFINITIONS                               PPEDTRST
011400*                                                                 PPEDTRST
011500******************************************************************PPEDTRST
011600     SKIP1                                                        PPEDTRST
011700 01  IO-FUNCTIONS.               COPY CPWSXIOF.                   PPEDTRST
011800     EJECT                                                        PPEDTRST
011900 01  XCFK-CTL-FILE-DELIMITER-KEYS.    COPY CPWSXCFK.              PPEDTRST
012000     EJECT                                                        PPEDTRST
012100 01  CTL-SEGMENT-TABLE.               COPY CPWSXCST.              PPEDTRST
012200     EJECT                                                        PPEDTRST
019410*****                                                          CD 36030759
019700 01  PPTCTUTL-INTERFACE          EXTERNAL. COPY CPLNKTCL.         36360750
012500     EJECT                                                        PPEDTRST
019810*****                                                          CD 36030759
012710 01  DOST-DESCR-OF-SERV-TABLE.                                    40210592
012711                                      COPY CPWSDOST.              40210592
012800     EJECT                                                        PPEDTRST
020310*****                                                          CD 36030759
020500*****EJECT                                                        36030759
013100 01  TEST-FIELDS.                                                 PPEDTRST
013200     05  TEST-COMPARE-DATE-YYMMDD.                                PPEDTRST
013300         10  TEST-COMPARE-DATE-YY PIC X(2)     VALUE SPACE.       PPEDTRST
013400         10  TEST-COMPARE-DATE-MM PIC X(2)     VALUE SPACE.       PPEDTRST
013500         10  TEST-COMPARE-DATE-DD PIC X(2)     VALUE SPACE.       PPEDTRST
013510 01  DATE-WORK-AREA.             COPY CPWSXDC2.                   PPEDTRST
013600     EJECT                                                        PPEDTRST
019500 01  PPDB2MSG-INTERFACE.                     COPY CPLNKDB2.       03020649
019600 01  WS-SPP-DATA.                                                 03020649
019700     EXEC SQL                                                     03020649
019800        INCLUDE PPPVEDT2                                          03020649
019900     END-EXEC.                                                    03020649
020000     SKIP1                                                        03020649
020100     EXEC SQL                                                     03020649
020200        INCLUDE SQLCA                                             03020649
020300     END-EXEC.                                                    03020649
020400     EJECT                                                        03020649
013700 LINKAGE SECTION.                                                 PPEDTRST
013800     SKIP1                                                        PPEDTRST
013820 01  KEDT-INTERFACE.             COPY CPLNKEDT.                   PPEDTRST
013830     EJECT                                                        PPEDTRST
013900 01  TRANSACTION-SET-ARRAY.                                       PPEDTRST
018800                                 COPY CPLNKTSA.                   36060628
018900     SKIP1                                                        36060628
019000 01  FILLER REDEFINES TRANSACTION-SET-ARRAY.                      36060628
019100     03  FILLER                  PIC  X(73).                      36060628
019200     03  XC2T-C-O-H-INPUT-CARD-2.                                 36060628
019300         COPY CPWSXC2T.                                           36060628
019400     SKIP1                                                        36060628
019500     03  FILLER                  PIC  X(15444).                   36060628
019600     SKIP1                                                        36060628
023610*****                                                          CD 36030759
018500     EJECT                                                        PPEDTRST
018600 01  BATCH-TRANSACTION.                                           PPEDTRST
024400                                 COPY CPLNKBTR.                   36060628
024500     SKIP1                                                        36060628
028510*****                                                          CD 36030759
022700     EJECT                                                        PPEDTRST
022800 01  EMPLOYEE-DATA.              COPY CPLNKEMP.                   PPEDTRST
022900     EJECT                                                        PPEDTRST
023000 01  CTL-INTERFACE.              COPY CPWSXCIF.                   PPEDTRST
023300     EJECT                                                        PPEDTRST
023400 01  MESSAGE-TABLE.              COPY CPWSXMTI.                   PPEDTRST
023500     03  MSSG-RECORDS            OCCURS 20.                       PPEDTRST
023600         05  FILLER              PIC X(86).                       PPEDTRST
023700         05  MSSG-USAGE          PIC S9(4) COMP SYNC.             PPEDTRST
023800     EJECT                                                        PPEDTRST
027300*01  ACCOUNT-FUND-INTERFACE.     COPY CPWSXAFI.                   UCSD0033
027400 01  KIFS-INTERFACE.             COPY CLLNKIFS.                   UCSD0033
029600 01  ACCOUNT-FUND-INTERFACE.     COPY CPLNKAFI.                   36060628
029700     SKIP1                                                        36060628
033710*****                                                          CD 36030759
024000     EJECT                                                        PPEDTRST
024900 01  XPCR-RECORD.                                                 PPEDTRST
025000                                 COPY CPWSXPCR.                   PPEDTRST
025100 EJECT                                                            PPEDTRST
025200 PROCEDURE DIVISION USING TRANSACTION-SET-ARRAY                   PPEDTRST
025300                          BATCH-TRANSACTION                       PPEDTRST
025400                          EMPLOYEE-DATA                           PPEDTRST
025500                          CTL-INTERFACE                           PPEDTRST
025600                          KEDT-INTERFACE                          PPEDTRST
025700                          MESSAGE-TABLE                           PPEDTRST
029300***                       ACCOUNT-FUND-INTERFACE                  UCSD0033
029400                          KIFS-INTERFACE                          UCSD0033
035710*****                                                          CD 36030759
026100                          XPCR-RECORD.                            PPEDTRST
026200     SKIP2                                                        PPEDTRST
034400*                SQL FROM PRE-COMPILER                           *03020649
034500******************************************************************03020649
034600     SKIP2                                                        03020649
034700******************************************************************03020649
034800*   THE FOLLOWING SQL WILL CAUSE ANY 'ABNORMAL' SQLCODE TO       *03020649
034900*         CAUSE A BRANCH TO 999999-ERROR.                        *03020649
035000******************************************************************03020649
035100     EXEC SQL                                                     03020649
035200         WHENEVER SQLERROR GO TO 999999-SQL-ERROR                 03020649
035300     END-EXEC.                                                    03020649
035400******************************************************************03020649
026300 1000-MAINLINE SECTION.                                           PPEDTRST
026400     SKIP1                                                        PPEDTRST
026500     IF FIRST-TIME                                                PPEDTRST
026600        PERFORM 3000-INITIALIZATION.                              PPEDTRST
026700     SKIP1                                                        PPEDTRST
026800     PERFORM 4000-RA-ST-EDITS.                                    PPEDTRST
026900     SKIP1                                                        PPEDTRST
027000 2000-RETURN-CONTROL SECTION.                                     PPEDTRST
027100     SKIP1                                                        PPEDTRST
027200     GOBACK.                                                      PPEDTRST
038210*****                                                          CD 36030759
033300     SKIP2                                                        36060628
027400 3000-INITIALIZATION SECTION.                                     PPEDTRST
027500     SKIP1                                                        PPEDTRST
027600     SET NOT-FIRST-TIME TO TRUE.                                  PPEDTRST
033700     MOVE 'PPEDTRST' TO XWHC-DISPLAY-MODULE                       36060628
033800     COPY CPPDXWHC.                                               36060628
027700     SKIP1                                                        PPEDTRST
027800 3999-INITIALIZE-EXIT.                                            PPEDTRST
027900     EXIT.                                                        PPEDTRST
028000     EJECT                                                        PPEDTRST
028100 4000-RA-ST-EDITS SECTION.                                        PPEDTRST
028200     SKIP1                                                        PPEDTRST
039510*****                                                          CD 36030759
028500     SKIP1                                                        PPEDTRST
028600     MOVE ZERO TO TRAN-SET-SEVERITY.                              PPEDTRST
028700     SKIP1                                                        PPEDTRST
028800     IF KEDT-EMPL-MISSING                                         PPEDTRST
040200*****  MOVE '36010' TO MSSG-DESIRED                               36030759
040210       MOVE M36010  TO MSSG-DESIRED                               36030759
029000       MOVE SPACES TO TA-NAME (1)                                 PPEDTRST
029100       PERFORM 8500-CALL-PPEDTRPT                                 PPEDTRST
029200     ELSE                                                         PPEDTRST
029300       IF KEDT-EMPL-NOT-MIN-DATA                                  PPEDTRST
040700*****     MOVE '36011' TO MSSG-DESIRED                            36030759
040710          MOVE M36011  TO MSSG-DESIRED                            36030759
029500          PERFORM 8500-CALL-PPEDTRPT.                             PPEDTRST
029600     SKIP1                                                        PPEDTRST
033300***  MOVE XC2T-LOC               TO XAFI-LOC.                     UCSD0033
033400***  MOVE XC2T-ACCT              TO XAFI-ACCT.                    UCSD0033
033500***  MOVE XC2T-FND               TO XAFI-FUND.                    UCSD0033
033600     MOVE XC2T-LOC               TO WS-IFIS-LOC.                  UCSD0033
033700     MOVE XC2T-ACCOUNT-INDEX     TO WS-IFIS-INDEX.                UCSD0033
033800     MOVE XC2T-FND               TO WS-IFIS-FND.                  UCSD0033
033900     MOVE XC2T-FUND-EXTENSION    TO WS-IFIS-FND-EXT.              UCSD0033
034000     MOVE XC2T-DOS               TO WS-DOS-TEST.                  UCSD0033
034100     MOVE XC2T-TTL-CODE          TO WS-TITLE-TEST.                UCSD0033
034200     MOVE XC2T-SUB               TO WS-SUB-TEST.                  UCSD0033
030000     PERFORM 6050-ACCOUNT-MATCH.                                  PPEDTRST
030100     SKIP1                                                        PPEDTRST
041410*****                                                          CD 36030759
041600     MOVE    XC2T-TTL-CODE       TO   XTCL-CHOSEN-TITLE-CODE.     36360750
030300     PERFORM 6100-MATCH-JOB-CLASS.                                PPEDTRST
030400     SKIP1                                                        PPEDTRST
030500     SKIP1                                                        PPEDTRST
030600     PERFORM 4200-DOS-TIME-VALIDATION.                            PPEDTRST
030700     SKIP1                                                        PPEDTRST
030800     IF DTV-RATED-DOS                                             PPEDTRST
030900       IF XC2T-HR-PCT = 'H' OR '%'                                PPEDTRST
031000         NEXT SENTENCE                                            PPEDTRST
031100       ELSE                                                       PPEDTRST
042600*****    MOVE '36100' TO MSSG-DESIRED                             36030759
042610         MOVE M36100  TO MSSG-DESIRED                             36030759
031300         PERFORM 8500-CALL-PPEDTRPT.                              PPEDTRST
031400     SKIP1                                                        PPEDTRST
031500     IF XC2T-PAY-CYCLE = 'M' OR 'S' OR 'B'                        PPEDTRST
031600       NEXT SENTENCE                                              PPEDTRST
031700     ELSE                                                         PPEDTRST
043200*****  MOVE '36191' TO MSSG-DESIRED                               36030759
043210       MOVE M36191  TO MSSG-DESIRED                               36030759
031900       PERFORM 8500-CALL-PPEDTRPT.                                PPEDTRST
032000     SKIP1                                                        PPEDTRST
032100     IF XC2T-TRAN-CD = 'RA'                                       PPEDTRST
032200       IF XC2T-RATE-ADJ-IND = ' ' OR 'A'                          PPEDTRST
032300         NEXT SENTENCE                                            PPEDTRST
032400       ELSE                                                       PPEDTRST
043900*****    MOVE '36242' TO MSSG-DESIRED                             36030759
043910         MOVE M36242  TO MSSG-DESIRED                             36030759
032600         PERFORM 8500-CALL-PPEDTRPT.                              PPEDTRST
032700     SKIP1                                                        PPEDTRST
032800     IF XC2T-WSP NOT EQUAL SPACES                                 PPEDTRST
044210*****                                                          CD 36030759
033000       PERFORM 6200-WSP-VALIDATION.                               PPEDTRST
033100     SKIP1                                                        PPEDTRST
033200     MOVE XC2T-PAY-CYCLE      TO WRK-PAY-CYCLE.                   PPEDTRST
033300     PERFORM 4300-CB-CODE-EDIT.                                   PPEDTRST
033400     SKIP1                                                        PPEDTRST
033500     MOVE XC2T-PAY-END TO DATE-VALIDATION-DATE.                   PPEDTRST
033600     PERFORM 8050-DATE-VALIDATION                                 PPEDTRST
033700        THRU 8059-DATE-VALIDATION-EXIT.                           PPEDTRST
033800     SKIP1                                                        PPEDTRST
033810     MOVE XC2T-GROSSX TO WORK-GROSSX.                             PPEDTRST
033900     INSPECT WORK-GROSSX REPLACING LEADING SPACES BY ZEROS.       PPEDTRST
034000     IF WORK-GROSS9 IS NOT NUMERIC                                PPEDTRST
045600*****   MOVE '36102'                TO MSSG-DESIRED               36030759
045610        MOVE M36102                 TO MSSG-DESIRED               36030759
034500        PERFORM 8500-CALL-PPEDTRPT                                PPEDTRST
034510     ELSE                                                         PPEDTRST
034520        MOVE WORK-GROSS9 TO XC2T-GROSSX.                          PPEDTRST
034600     IF BATCH-TYPE NOT =                                          PPEDTRST
034700       IDC-LEGAL-BATCH-FOR-TRAN (TRAN-CODE-TABLE-PTR)             PPEDTRST
046200*****    MOVE '36012' TO MSSG-DESIRED                             36030759
046210         MOVE M36012  TO MSSG-DESIRED                             36030759
034900         PERFORM 8500-CALL-PPEDTRPT.                              PPEDTRST
035000     SKIP1                                                        PPEDTRST
035100     IF KEDT-EMPL-MISSING                                         PPEDTRST
035200       OR KEDT-EMPL-NOT-MIN-DATA                                  PPEDTRST
035300         NEXT SENTENCE                                            PPEDTRST
035400     ELSE                                                         PPEDTRST
035500       MOVE XC2T-PAY-CYCLE TO WRK-PAY-CYCLE                       PPEDTRST
035600       PERFORM 5000-EMPLOYMENT-STATUS-1.                          PPEDTRST
035700     SKIP1                                                        PPEDTRST
047110*****                                                          CD 36030759
036000     SKIP1                                                        PPEDTRST
045500     IF KDOS-FOUND-ONE AND                                        03020649
045600        XC2T-DOS = ('SVE' OR 'SVM')                               03020649
045700        IF XC2T-DOS = 'SVE'                                       03020649
045800           MOVE 'E' TO WS-SPP-PROG                                03020649
045900        ELSE                                                      03020649
046000           MOVE 'H' TO WS-SPP-PROG                                03020649
046100        END-IF                                                    03020649
046200        MOVE TA-EMPL-ID (1) TO WS-EMPLOYEE-ID                     03020649
046300        INITIALIZE WS-SPP-DATA                                    03020649
046400        PERFORM 8010-SEVERANCE-PAYOUT                             03020649
046500     END-IF.                                                      03020649
046600     SKIP1                                                        03020649
036100 4199-RA-ST-EXIT.                                                 PPEDTRST
036200     EXIT.                                                        PPEDTRST
036300     EJECT                                                        PPEDTRST
036400 4200-DOS-TIME-VALIDATION SECTION.                                PPEDTRST
036500     SKIP1                                                        PPEDTRST
036600     MOVE SPACE TO DTV-TIME-FLAG.                                 PPEDTRST
049110*****                                                          CD 36030759
036710     PERFORM 7000-CALL-PPDOSUTL.                                  40210592
036800     SKIP1                                                        PPEDTRST
036900     IF KDOS-NOT-FOUND                                            PPEDTRST
037000       GO TO 4299-DOS-TIME-EXIT.                                  PPEDTRST
037100     SKIP1                                                        PPEDTRST
037300     IF XC2T-DOS = 'PRQ'                                          PPEDTRST
037310        IF XC2T-TIMEX = SPACES                                    PPEDTRST
037320           MOVE ZEROS TO XC2T-TIMEX                               PPEDTRST
037330        END-IF                                                    PPEDTRST
037400        GO TO 4250-DOS-TIME.                                      PPEDTRST
037500     SKIP1                                                        PPEDTRST
037510     MOVE XC2T-TIMEX TO WORK-TIMEX.                               PPEDTRST
037520     INSPECT WORK-TIMEX REPLACING LEADING SPACES BY ZEROS.        PPEDTRST
037600     IF WORK-TIME9 IS NOT NUMERIC                                 PPEDTRST
050700*****   MOVE '36044'                TO MSSG-DESIRED               36030759
050710        MOVE M36044                 TO MSSG-DESIRED               36030759
038100        PERFORM 8500-CALL-PPEDTRPT                                PPEDTRST
038101        MOVE ZEROS TO XC2T-TIMEX                                  PPEDTRST
038102     ELSE                                                         PPEDTRST
038103        MOVE WORK-TIME9 TO XC2T-TIMEX.                            PPEDTRST
038110     SKIP1                                                        PPEDTRST
038120     MOVE XC2T-TIMEX TO KEDT-TIME-CONTROLX.                       PPEDTRST
038200     SKIP1                                                        PPEDTRST
051410*****                                                          CD 36030759
038310     IF DOST-CALC-FUNCTION (1) = 'R' OR 'F'                       40210592
038400       GO TO 4250-DOS-TIME.                                       PPEDTRST
038500     SKIP1                                                        PPEDTRST
051810*****                                                          CD 36030759
038610     IF    DOST-HOURS-CODE (1) = SPACE                            40210592
038700       AND XC2T-TIMEX NOT = ZEROS                                 PPEDTRST
052200*****      MOVE '36042' TO  MSSG-DESIRED                          36030759
052210           MOVE M36042  TO  MSSG-DESIRED                          36030759
038900           PERFORM 8500-CALL-PPEDTRPT.                            PPEDTRST
039000     SKIP1                                                        PPEDTRST
039100     GO TO 4299-DOS-TIME-EXIT.                                    PPEDTRST
039200     SKIP3                                                        PPEDTRST
039300 4250-DOS-TIME.                                                   PPEDTRST
039400     SKIP1                                                        PPEDTRST
052810*****                                                          CD 36030759
039510     IF DOST-CALC-FUNCTION (1) = 'R' OR 'F'                       40210592
039600        SET DTV-RATED-DOS TO TRUE                                 PPEDTRST
053110*****                                                          CD 36030759
039700        IF        DOST-PAY-CATEGORY (1) = 'S'                     40210592
039800          OR     (DOST-HOURS-CODE (1) NOT = SPACE                 40210592
039900             AND  XC2T-TIMEX         = ZEROES)                    PPEDTRST
053700*****             MOVE '36040' TO  MSSG-DESIRED                   36030759
053710                  MOVE M36040  TO  MSSG-DESIRED                   36030759
040100                  PERFORM 8500-CALL-PPEDTRPT.                     PPEDTRST
040200     SKIP1                                                        PPEDTRST
040300 4299-DOS-TIME-EXIT.                                              PPEDTRST
040400     EXIT.                                                        PPEDTRST
040500     EJECT                                                        PPEDTRST
040600 4300-CB-CODE-EDIT SECTION.                                       PPEDTRST
040700     SKIP1                                                        PPEDTRST
040800     PERFORM 4610-PAY-CYCLE-SCAN.                                 PPEDTRST
040900*    ** REFORMAT FROM MMDDYY TO YYMMDD, FOR COMPARISON            PPEDTRST
041000     MOVE XC2T-PAY-DAY   TO TEST-COMPARE-DATE-DD.                 PPEDTRST
041100     MOVE XC2T-PAY-MONTH TO TEST-COMPARE-DATE-MM.                 PPEDTRST
041200     MOVE XC2T-PAY-YEAR  TO TEST-COMPARE-DATE-YY.                 PPEDTRST
041300     SKIP1                                                        PPEDTRST
041400     SKIP1                                                        PPEDTRST
041500     IF (XC2T-EMP-REL-CODE < 'A' OR > 'G')                        PPEDTRST
041600       IF XC2T-EMP-REL-CODE  NOT = SPACE                          PPEDTRST
055400         MOVE '36062' TO MSSG-DESIRED                             36030759
055410         MOVE M36062  TO MSSG-DESIRED                             36030759
041800         PERFORM 8500-CALL-PPEDTRPT.                              PPEDTRST
041900     SKIP1                                                        PPEDTRST
042000     IF (XC2T-APPT-TYPE-CODE < '1' OR > '6')                      PPEDTRST
042100       IF XC2T-APPT-TYPE-CODE  NOT = SPACE                        PPEDTRST
055900*****    MOVE '36063' TO MSSG-DESIRED                             36030759
055910         MOVE M36063  TO MSSG-DESIRED                             36030759
042300         PERFORM 8500-CALL-PPEDTRPT.                              PPEDTRST
042400     SKIP1                                                        PPEDTRST
042500     IF (XC2T-DIST-UNIT-CODE < 'A' OR > 'Z')                      PPEDTRST
042600       IF (XC2T-DIST-UNIT-CODE < '0' OR > '9')                    PPEDTRST
042700         IF (XC2T-DIST-UNIT-CODE  NOT = '?'                       PPEDTRST
042800                                 AND NOT = '$'                    PPEDTRST
042900                                 AND NOT = SPACE)                 PPEDTRST
056700*****    MOVE '36064' TO MSSG-DESIRED                             36030759
056710         MOVE M36064  TO MSSG-DESIRED                             36030759
043100         PERFORM 8500-CALL-PPEDTRPT.                              PPEDTRST
043200     SKIP1                                                        PPEDTRST
043300     IF  XPCR-BEGIN-DATE (PCR-INDX) IS GREATER THAN               PPEDTRST
043400            TEST-COMPARE-DATE-YYMMDD                              PPEDTRST
043500         GO TO 4399-CB-CODE-EXIT.                                 PPEDTRST
043600     SKIP1                                                        PPEDTRST
043700     IF XC2T-EMP-REL-CODE  NOT = SPACE                            PPEDTRST
057500*****  MOVE '36067' TO MSSG-DESIRED                               36030759
057510       MOVE M36067  TO MSSG-DESIRED                               36030759
043900       PERFORM 8500-CALL-PPEDTRPT.                                PPEDTRST
044000     SKIP1                                                        PPEDTRST
044100     IF XC2T-APPT-TYPE-CODE  NOT = SPACE                          PPEDTRST
057900*****  MOVE '36068' TO MSSG-DESIRED                               36030759
057910       MOVE M36068  TO MSSG-DESIRED                               36030759
044300       PERFORM 8500-CALL-PPEDTRPT.                                PPEDTRST
044400     SKIP1                                                        PPEDTRST
044500 4399-CB-CODE-EXIT.                                               PPEDTRST
044600     EXIT.                                                        PPEDTRST
044700     EJECT                                                        PPEDTRST
044800 4610-PAY-CYCLE-SCAN SECTION.                                     PPEDTRST
044900     SKIP1                                                        PPEDTRST
045000     MOVE ZERO TO PCR-INDX.                                       PPEDTRST
045100     SKIP1                                                        PPEDTRST
045200     IF WRK-PAY-CYCLE = SPACES                                    PPEDTRST
045300       MOVE 1 TO PCR-INDX                                         PPEDTRST
045400     ELSE                                                         PPEDTRST
045500       IF WRK-PAY-CYCLE = KEDT-CYCL-1ST                           PPEDTRST
045600         MOVE 1 TO PCR-INDX                                       PPEDTRST
045700       ELSE                                                       PPEDTRST
045800         IF WRK-PAY-CYCLE = KEDT-CYCL-2ND                         PPEDTRST
045900           MOVE 2 TO PCR-INDX                                     PPEDTRST
046000         ELSE                                                     PPEDTRST
046100           IF WRK-PAY-CYCLE = KEDT-CYCL-3RD                       PPEDTRST
046200             MOVE 3 TO PCR-INDX                                   PPEDTRST
046300           ELSE                                                   PPEDTRST
046400             IF WRK-PAY-CYCLE = KEDT-CYCL-4TH                     PPEDTRST
046500               MOVE 4 TO PCR-INDX.                                PPEDTRST
046600     SKIP1                                                        PPEDTRST
046700 4619-PAY-CYCLE-EXIT.                                             PPEDTRST
046800     EXIT.                                                        PPEDTRST
046900     EJECT                                                        PPEDTRST
047000 5000-EMPLOYMENT-STATUS-1 SECTION.                                PPEDTRST
047100     SKIP1                                                        PPEDTRST
047200     IF ACTIVE-STATUS OF EMPLOYEE-DATA                            PPEDTRST
047300       OR LV-WTH-PAY-STATUS OF EMPLOYEE-DATA                      PPEDTRST
047400       OR LV-WO-PAY-STATUS OF EMPLOYEE-DATA                       PPEDTRST
047500         GO TO 5999-EMP-STATUS-1-EXIT.                            PPEDTRST
047600     SKIP1                                                        PPEDTRST
047700     IF INACTIVE-STATUS OF EMPLOYEE-DATA                          PPEDTRST
047710       MOVE KEDT-LIMIT-DATE TO WSX-STD-DATE                       PPEDTRST
047720       PERFORM CONVERT-STD-DATE                                   PPEDTRST
047800       IF LAST-PAY-DATE OF EMPLOYEE-DATA < DB2-DATE               PPEDTRST
061800*****    MOVE '36014' TO MSSG-DESIRED                             36030759
061810         MOVE M36014  TO MSSG-DESIRED                             36030759
048000         PERFORM 8500-CALL-PPEDTRPT                               PPEDTRST
048100         GO TO 5999-EMP-STATUS-1-EXIT.                            PPEDTRST
048200     SKIP1                                                        PPEDTRST
055800***   4610- WAS ALREADY RUN FROM 4000--RA-ST-EDITS                36060628
055900*****PERFORM 4610-PAY-CYCLE-SCAN.                                 36060628
048400     SKIP1                                                        PPEDTRST
048410     MOVE XPCR-BEGIN-DATE (PCR-INDX) TO WSX-STD-DATE.             PPEDTRST
048420     PERFORM CONVERT-STD-DATE.                                    PPEDTRST
048430     MOVE DB2-DATE TO WS-DATE-HOLD.                               PPEDTRST
048440     MOVE KEDT-LIMIT-DATE TO WSX-STD-DATE.                        PPEDTRST
048450     PERFORM CONVERT-STD-DATE.                                    PPEDTRST
048500     IF    SEPARATED-STATUS OF EMPLOYEE-DATA                      PPEDTRST
048600       AND PCR-INDX > 0                                           PPEDTRST
048700       AND SEPARATE-DATE OF EMPLOYEE-DATA < WS-DATE-HOLD          PPEDTRST
048800       AND SEPARATE-DATE OF EMPLOYEE-DATA < DB2-DATE              PPEDTRST
063400           MOVE '36016' TO MSSG-DESIRED                           36030759
063410           MOVE M36016  TO MSSG-DESIRED                           36030759
049000           PERFORM 8500-CALL-PPEDTRPT.                            PPEDTRST
049100     SKIP1                                                        PPEDTRST
049200 5999-EMP-STATUS-1-EXIT.                                          PPEDTRST
049300     EXIT.                                                        PPEDTRST
049400     EJECT                                                        PPEDTRST
049500 6050-ACCOUNT-MATCH SECTION.                                      PPEDTRST
049600     SKIP1                                                        PPEDTRST
055200***  IF XAFI-LOC = KEDT-CMP-LOC OR KEDT-CMP-SYSWIDE               UCSD0033
055300     IF XC2T-LOC = KEDT-CMP-LOC OR KEDT-CMP-SYSWIDE               UCSD0033
049800       NEXT SENTENCE                                              PPEDTRST
049900     ELSE                                                         PPEDTRST
055600***    MOVE KEDT-CMP-LOC TO XAFI-LOC                              UCSD0033
055700       MOVE KEDT-CMP-LOC TO XC2T-LOC                              UCSD0033
064600*****  MOVE '36930' TO MSSG-DESIRED                               36030759
064610       MOVE M36930  TO MSSG-DESIRED                               36030759
050200       PERFORM 8500-CALL-PPEDTRPT.                                PPEDTRST
050300     SKIP1                                                        PPEDTRST
056100     IF WS-DOS-POSTDOC                                            UCSD0033
056200         IF WS-SUB-POSTD-OK                                       UCSD0033
056300             NEXT SENTENCE                                        UCSD0033
056400         ELSE                                                     UCSD0033
056500             MOVE '36033' TO MSSG-DESIRED                         UCSD0033
056600             PERFORM 8500-CALL-PPEDTRPT                           UCSD0033
056700     ELSE                                                         UCSD0033
056800         IF WS-TITLE-ACAD                                         UCSD0033
056900             IF WS-SUB-ACAD-OK                                    UCSD0033
057000                 NEXT SENTENCE                                    UCSD0033
057100             ELSE                                                 UCSD0033
057200                 MOVE '36033' TO MSSG-DESIRED                     UCSD0033
057300                 PERFORM 8500-CALL-PPEDTRPT                       UCSD0033
057400         ELSE                                                     UCSD0033
057500             IF WS-SUB-STAFF-OK                                   UCSD0033
057600                 NEXT SENTENCE                                    UCSD0033
057700             ELSE                                                 UCSD0033
057800                 MOVE '36033' TO MSSG-DESIRED                     UCSD0033
057900                 PERFORM 8500-CALL-PPEDTRPT.                      UCSD0033
058000                                                                  UCSD0033
050400     IF XC2T-SUB NOT NUMERIC                                      PPEDTRST
065000*****  MOVE '36034' TO MSSG-DESIRED                               36030759
065010       MOVE M36034  TO MSSG-DESIRED                               36030759
050600       PERFORM 8500-CALL-PPEDTRPT                                 PPEDTRST
050700     ELSE                                                         PPEDTRST
050800       MOVE XC2T-SUB TO IDC-VALID-CAMPUS-SUB-BUDGETS              PPEDTRST
050900       IF IDC-VALID-SUB-BUDGET-CODE                               PPEDTRST
051000         NEXT SENTENCE                                            PPEDTRST
051100       ELSE                                                       PPEDTRST
065700*****    MOVE '36031' TO MSSG-DESIRED                             36030759
065710         MOVE M36031  TO MSSG-DESIRED                             36030759
051300         PERFORM 8500-CALL-PPEDTRPT.                              PPEDTRST
051400     SKIP1                                                        PPEDTRST
059200***  IF XAFI-ACCT NOT NUMERIC OR                                  UCSD0033
059300***     XAFI-FUND NOT NUMERIC                                     UCSD0033
059400     IF XC2T-FND NOT NUMERIC                                      UCSD0033
066200*****     MOVE '36034' TO MSSG-DESIRED                            36030759
066210          MOVE M36034  TO MSSG-DESIRED                            36030759
051800          PERFORM 8500-CALL-PPEDTRPT                              PPEDTRST
051900          GO TO 6099-ACCOUNT-MATCH-EXIT.                          PPEDTRST
052000     SKIP1                                                        PPEDTRST
059900***  MOVE 'READ'       TO XAFI-ACCESS-FUNCTION.                   UCSD0033
060000***  MOVE XAFI-SEEK    TO XAFI-SEEK-ACCT-FUND.                    UCSD0033
060100***  MOVE XAFI-NO-SEEK TO XAFI-SEEK-ACCT                          UCSD0033
060200***                       XAFI-SEEK-FUND.                         UCSD0033
052500     SKIP1                                                        PPEDTRST
060400***  CALL 'PPINAFP' USING ACCOUNT-FUND-INTERFACE.                 UCSD0033
060500***  IF  XAFI-ERROR-CODE NOT = ZERO                               UCSD0033
060600***    IF  XAFI-ERROR-CODE = 57 OR 58                             UCSD0033
060700     MOVE '1' TO KIFS-INQ-MODE-INDEX.                             UCSD0033
060800     MOVE XC2T-ACCOUNT-INDEX TO KIFS-INQ-KEY-INDEX.               UCSD0033
060900     CALL 'PLINIFS' USING KIFS-INTERFACE.                         UCSD0033
061000     IF KIFS-INDEX-SQL-CODE NOT = ZERO                            UCSD0033
061100       IF KIFS-INDEX-SQL-CODE = +100                              UCSD0033
052900           NEXT SENTENCE                                          PPEDTRST
053000       ELSE                                                       PPEDTRST
067600*****      MOVE '36931' TO MSSG-DESIRED                           36030759
067610           MOVE M36931  TO MSSG-DESIRED                           36030759
061500***        MOVE 'XAFI ERROR CODE' TO KEDT-REF-ID1                 UCSD0033
061600***        MOVE XAFI-ERROR-CODE TO KEDT-REF-VAR1                  UCSD0033
061700           MOVE 'SQL ERROR CODE ' TO KEDT-REF-ID1                 UCSD0033
061800           MOVE KIFS-INDEX-SQL-CODE TO KEDT-REF-VAR1              UCSD0033
053400           MOVE '??' TO KEDT-STATUS-FLAG                          PPEDTRST
053500           GO TO 2000-RETURN-CONTROL.                             PPEDTRST
053600     SKIP1                                                        PPEDTRST
062200***  IF NOT XAFI-AFR-OK                                           UCSD0033
062300     IF KIFS-INDEX-SQL-CODE = +100                                UCSD0033
068300*****  MOVE '36032'                TO MSSG-DESIRED                36030759
068310       MOVE M36032                 TO MSSG-DESIRED                36030759
062500       MOVE 'LOC/INDX/FND'         TO KEDT-REF-ID1                UCSD0033
062600***    MOVE 'LOC/ACCT/FND'         TO KEDT-REF-ID1                UCSD0033
062700***    MOVE XAFI-KEYS-INTERFACE    TO KEDT-REF-VAR1               UCSD0033
062800       MOVE WS-IFIS-INDEX-FUND     TO KEDT-REF-VAR1               UCSD0033
054100       PERFORM 8500-CALL-PPEDTRPT                                 PPEDTRST
054200       GO TO 6099-ACCOUNT-MATCH-EXIT.                             PPEDTRST
054300     SKIP1                                                        PPEDTRST
054400     IF WS-IFIS-FUND = '00000A'                                   PPR30705
054400          MOVE M36195 TO MSSG-DESIRED                             PPR30705
054400          PERFORM 8500-CALL-PPEDTRPT.                             PPR30705
054400                                                                  PPR30705
054400     IF XC2T-SUB NOT NUMERIC                                      PPEDTRST
054500       GO TO 6099-ACCOUNT-MATCH-EXIT.                             PPEDTRST
054600     SKIP1                                                        PPEDTRST
063500***  PERFORM VARYING K FROM 1 BY 1                                UCSD0033
063600***    UNTIL K > +15                                              UCSD0033
063700***    OR XAFI-AFR-SUB-ACCT (K) = XC2T-SUB                        UCSD0033
063800***  END-PERFORM                                                  UCSD0033
063900***  SKIP1                                                        UCSD0033
064000***  IF K > +15                                                   UCSD0033
064100***    OR XC2T-SUB = SPACE                                        UCSD0033
064200     IF XC2T-SUB = SPACE                                          UCSD0033
069900*****    MOVE '36033' TO MSSG-DESIRED                             36030759
069910         MOVE M36033  TO MSSG-DESIRED                             36030759
055500         PERFORM 8500-CALL-PPEDTRPT.                              PPEDTRST
055600     SKIP1                                                        PPEDTRST
055700 6099-ACCOUNT-MATCH-EXIT.                                         PPEDTRST
055800     EXIT.                                                        PPEDTRST
055900     EJECT                                                        PPEDTRST
056000 6100-MATCH-JOB-CLASS SECTION.                                    PPEDTRST
056100     SKIP1                                                        PPEDTRST
070700     IF XTCL-CHOSEN-TITLE-CODE IS EQUAL TO SPACES                 36360750
070710*****                                                          CD 36030759
070900*****  MOVE '36061' TO MSSG-DESIRED                               36030759
070910       MOVE M36061  TO MSSG-DESIRED                               36030759
056400       PERFORM 8500-CALL-PPEDTRPT                                 PPEDTRST
071010*****                                                          CD 36030759
056600       GO TO  6109-MATCH-JOB-CLASS-EXIT.                          PPEDTRST
071300*                                                                 36360750
071400     SET     XTCL-VERIFY-CHOSEN-TITLE                             36360750
071500                                 TO   TRUE.                       36360750
071600     CALL    'PPTCTUTL'                                           36360750
071700             END-CALL.                                            36360750
071800     IF      XTCL-STATUS-NORMAL-END                               36360750
071900        AND  XTCL-TITLE-EXISTS                                    36360750
072000             THEN      CONTINUE                                   36360750
072100*************ELSE      MOVE      '36060'                          36030759
072110             ELSE      MOVE      M36060                           36030759
072200                                 TO   MSSG-DESIRED                36360750
072300                       PERFORM   8500-CALL-PPEDTRPT               36360750
072400     END-IF.                                                      36360750
072500*                                                                 36360750
072510*****                                                          CD 36030759
058200 6109-MATCH-JOB-CLASS-EXIT.                                       PPEDTRST
058300     EXIT.                                                        PPEDTRST
058400     EJECT                                                        PPEDTRST
058500 6200-WSP-VALIDATION SECTION.                                     PPEDTRST
058600     SKIP1                                                        PPEDTRST
074410*****                                                          CD 36030759
067300     SET XWSI-GET-APPROVAL TO TRUE.                               36060628
067400     MOVE XC2T-WSP TO XWSI-WSP-CODE.                              36060628
067500     MOVE XC2T-FND TO XWSI-FUND-NEEDED.                           36060628
067600     MOVE XC2T-PAY-MONTH TO XWSI-NEEDED-MONTH.                    36060628
067700     MOVE XC2T-PAY-DAY TO XWSI-NEEDED-DAY.                        36060628
067800     MOVE XC2T-PAY-YEAR TO XWSI-NEEDED-YEAR.                      36060628
067900     CALL 'PPWSPUTL' USING WORK-STUDY-INTERFACE.                  36060628
068000     IF XWSI-NOT-FOUND                                            36060628
075800*****   MOVE '36080' TO MSSG-DESIRED                              36030759
075810        MOVE M36080  TO MSSG-DESIRED                              36030759
059300        PERFORM 8500-CALL-PPEDTRPT                                PPEDTRST
059400        GO TO 6299-WSP-EXIT.                                      PPEDTRST
059500     SKIP1                                                        PPEDTRST
076110*****                                                          CD 36030759
059900     SKIP1                                                        PPEDTRST
060000     SKIP1                                                        PPEDTRST
076610*****                                                          CD 36030759
069100     IF XWSI-DATE-TOO-LATE                                        36060628
076900*****  MOVE '36082' TO MSSG-DESIRED                               36030759
076910       MOVE M36082  TO MSSG-DESIRED                               36030759
060300       PERFORM 8500-CALL-PPEDTRPT                                 PPEDTRST
060400       GO TO 6299-WSP-EXIT.                                       PPEDTRST
060500     SKIP1                                                        PPEDTRST
077210*****                                                          CD 36030759
069700     IF XWSI-DATE-TOO-EARLY                                       36060628
077500*****  MOVE '36083' TO MSSG-DESIRED                               36030759
077510       MOVE M36083  TO MSSG-DESIRED                               36030759
060800       PERFORM 8500-CALL-PPEDTRPT                                 PPEDTRST
060900       GO TO 6299-WSP-EXIT.                                       PPEDTRST
061000     SKIP1                                                        PPEDTRST
077810*****                                                          CD 36030759
072000     IF XWSI-FUND-FOUND                                           36060628
079800*****    MOVE '36081' TO MSSG-DESIRED                             36030759
079810         MOVE M36081  TO MSSG-DESIRED                             36030759
063000         PERFORM 8500-CALL-PPEDTRPT                               PPEDTRST
063100         GO TO 6299-WSP-EXIT.                                     PPEDTRST
063200     SKIP1                                                        PPEDTRST
072500     IF DOST-WSP-EXEMPT (1) = 'X'                                 36060628
080300         MOVE '36084' TO MSSG-DESIRED                             36030759
080310         MOVE M36084  TO MSSG-DESIRED                             36030759
072700         PERFORM 8500-CALL-PPEDTRPT                               36060628
072800         GO TO 6299-WSP-EXIT.                                     36060628
072900     SKIP1                                                        36060628
063300 6299-WSP-EXIT.                                                   PPEDTRST
063400     EXIT.                                                        PPEDTRST
063500     EJECT                                                        PPEDTRST
063600*7000-CALL-PPDOSUT1.                                              40210592
063610 7000-CALL-PPDOSUTL.                                              40210592
063700     SKIP1                                                        PPEDTRST
081210*****                                                          CD 36030759
064001     MOVE 1       TO KDOS-NBR-OF-ERN-TYPES-TO-SEL.                40210592
064002     MOVE XC2T-DOS TO KDOS-EARNINGS-TYPE (1).                     40210592
064100     SKIP1                                                        PPEDTRST
081810*****                                                          CD 36030759
064510     CALL 'PPDOSUTL' USING KDOS-INTERFACE                         40210592
064520                           DOST-DESCR-OF-SERV-TABLE.              40210592
064600     SKIP1                                                        PPEDTRST
082510*****                                                          CD 36030759
065000     SKIP1                                                        40210592
065010     EVALUATE TRUE                                                40210592
065040        WHEN KDOS-CTL-FILE-ERROR                                  40210592
083200*****      MOVE '00010'    TO MSSG-DESIRED                        36030759
083210           MOVE M00010     TO MSSG-DESIRED                        36030759
065051           MOVE KDOS-REF-VAR1     TO KEDT-REF-VAR1                40210592
065052           MOVE 'IO FUNCTION'     TO KEDT-REF-ID1                 40210592
064900           MOVE KDOS-REF-VAR2-REDEF                               40210592
065054                                  TO KEDT-REF-VAR2                40210592
065055           MOVE 'IO-ERROR-CODE'   TO KEDT-REF-ID2                 40210592
065056           MOVE '??'              TO KEDT-STATUS-FLAG             40210592
083900***********PERFORM 8500-CALL-PPEDTRPT                             40210759
076300           GO TO     2000-RETURN-CONTROL                          36060628
084010*****                                                          CD 36030759
065060        WHEN KDOS-NOT-FOUND                                       40210592
084300*****      MOVE '36038' TO MSSG-DESIRED                           36030759
084310           MOVE M36038  TO MSSG-DESIRED                           36030759
065071        WHEN KDOS-NO-DOS-DELIMITER                                40210592
084500*****      MOVE '36932' TO MSSG-DESIRED                           36030759
084501           MOVE M36932  TO MSSG-DESIRED                           36030759
084510           MOVE '??'              TO KEDT-STATUS-FLAG             40210759
084520           GO TO     2000-RETURN-CONTROL                          40210759
065080        WHEN KDOS-TABLE-OVERFLOW                                  40210592
084700*****      MOVE '36914' TO MSSG-DESIRED                           36030759
084701           MOVE M36914  TO MSSG-DESIRED                           36030759
084710           MOVE '??'              TO KEDT-STATUS-FLAG             40210759
084720           GO TO     2000-RETURN-CONTROL                          40210759
064700     END-EVALUATE .                                               40210592
065000     SKIP1                                                        PPEDTRST
065100     IF MSSG-DESIRED NOT = SPACES                                 PPEDTRST
065200       PERFORM 8500-CALL-PPEDTRPT.                                PPEDTRST
065300     SKIP1                                                        PPEDTRST
085210*****                                                          CD 36030759
065430 7999-CALL-PPDOSUTL-EXIT.                                         40210592
065500     EXIT.                                                        PPEDTRST
065600     EJECT                                                        PPEDTRST
082400 8010-SEVERANCE-PAYOUT SECTION.                                   03020649
082500     MOVE 'SELECT SEVERANCE PAY DATA' TO DB2MSG-TAG.              03020649
082600     EXEC SQL                                                     03020649
086000********* SELECT * INTO WS-SPP-DATA                               36030759
086010          SELECT * INTO :WS-SPP-DATA                              36030759
082800                   FROM PPPVEDT2_SPP                              03020649
082900          WHERE EMPLOYEE_ID = :WS-EMPLOYEE-ID AND                 03020649
083000                SPP_PROGRAM = :WS-SPP-PROG                        03020649
083100     END-EXEC.                                                    03020649
083200     IF EMPLOYEE-ID OF WS-SPP-DATA NOT = WS-EMPLOYEE-ID           03020649
086600*****   MOVE '36406' TO MSSG-DESIRED                              36030759
086610        MOVE M36406  TO MSSG-DESIRED                              36030759
083400        PERFORM 8500-CALL-PPEDTRPT                                03020649
083500     ELSE                                                         03020649
083600        IF TOTAL-SPP-PAID > 0                                     03020649
087000*****      MOVE '36408' TO MSSG-DESIRED                           36030759
087010           MOVE M36408  TO MSSG-DESIRED                           36030759
083800           PERFORM 8500-CALL-PPEDTRPT                             03020649
083900        ELSE                                                      03020649
084000           COMPUTE WS-SPP-AMOUNT =                                03020649
084100                            (TOTAL-SPP-CONTRIB    +               03020649
084200                             MONTH1-SPP-CONTRIB   +               03020649
084300                             MONTH2-SPP-CONTRIB   +               03020649
084400                             MONTH3-SPP-CONTRIB   +               03020649
084500                             MONTH4-SPP-CONTRIB   +               03020649
084600                             MONTH5-SPP-CONTRIB   +               03020649
084700                             MONTH6-SPP-CONTRIB   +               03020649
084800                             TOTAL-SPP-INTEREST    )              03020649
084900           IF WS-SPP-AMOUNT = 0                                   03020649
088300*****         MOVE '36406' TO MSSG-DESIRED                        36030759
088310              MOVE M36406  TO MSSG-DESIRED                        36030759
085100              PERFORM 8500-CALL-PPEDTRPT                          03020649
085200           END-IF                                                 03020649
085300        END-IF                                                    03020649
085400     END-IF.                                                      03020649
085500     SKIP1                                                        03020649
085600     EJECT                                                        03020649
065700 8050-DATE-VALIDATION SECTION.                                    PPEDTRST
065800     SKIP1                                                        PPEDTRST
065900     IF DATE-VALIDATION-DATE NOT NUMERIC                          PPEDTRST
066000       GO TO 8051-DATE-VALIDATION-ERROR.                          PPEDTRST
066100     SKIP1                                                        PPEDTRST
066200     IF DATE-VALIDATION-MONTH < 01 OR > 12                        PPEDTRST
066300       GO TO 8051-DATE-VALIDATION-ERROR.                          PPEDTRST
066400     SKIP1                                                        PPEDTRST
066500     IF DATE-VALIDATION-MONTH = 02                                PPEDTRST
066600       DIVIDE 4 INTO DATE-VALIDATION-YEAR                         PPEDTRST
066700              GIVING DATE-VALIDATION-YR-Q                         PPEDTRST
066800       REMAINDER DATE-VALIDATION-YR-REM                           PPEDTRST
066900       IF DATE-VALIDATION-YR-REM = ZERO                           PPEDTRST
067000         IF DATE-VALIDATION-DAY > 29                              PPEDTRST
067100           GO TO 8051-DATE-VALIDATION-ERROR                       PPEDTRST
067200         ELSE                                                     PPEDTRST
067300           NEXT SENTENCE                                          PPEDTRST
067400       ELSE                                                       PPEDTRST
067500         IF DATE-VALIDATION-DAY > 28                              PPEDTRST
067600           GO TO 8051-DATE-VALIDATION-ERROR                       PPEDTRST
067700         ELSE                                                     PPEDTRST
067800           NEXT SENTENCE                                          PPEDTRST
067900     ELSE                                                         PPEDTRST
068000       IF DATE-VALIDATION-MONTH = 04 OR 06 OR 09 OR 11            PPEDTRST
068100         IF DATE-VALIDATION-DAY > 30                              PPEDTRST
068200           GO TO 8051-DATE-VALIDATION-ERROR                       PPEDTRST
068300         ELSE                                                     PPEDTRST
068400           NEXT SENTENCE                                          PPEDTRST
068500       ELSE                                                       PPEDTRST
068600         IF DATE-VALIDATION-DAY > 31                              PPEDTRST
068700           GO TO 8051-DATE-VALIDATION-ERROR.                      PPEDTRST
068800     SKIP1                                                        PPEDTRST
068900     IF DATE-VALIDATION-DAY > ZERO                                PPEDTRST
069000       GO TO 8052-DATE-VALIDATION-2.                              PPEDTRST
069100     SKIP1                                                        PPEDTRST
069200 8051-DATE-VALIDATION-ERROR.                                      PPEDTRST
069300     SKIP1                                                        PPEDTRST
092700*****MOVE '36070' TO MSSG-DESIRED.                                36030759
092710     MOVE M36070  TO MSSG-DESIRED.                                36030759
069500     PERFORM 8500-CALL-PPEDTRPT.                                  PPEDTRST
069600     GO TO 8059-DATE-VALIDATION-EXIT.                             PPEDTRST
069700     SKIP1                                                        PPEDTRST
069800 8052-DATE-VALIDATION-2.                                          PPEDTRST
069900     SKIP1                                                        PPEDTRST
070000     IF DATE-VALIDATION-YEAR < KEDT-VALID-LOW-YEAR                PPEDTRST
070100                          OR > KEDT-VALID-HIGH-YEAR               PPEDTRST
093500*****   MOVE '36069' TO MSSG-DESIRED                              36030759
093510        MOVE M36069  TO MSSG-DESIRED                              36030759
070300        PERFORM 8500-CALL-PPEDTRPT.                               PPEDTRST
070400     SKIP1                                                        PPEDTRST
070500 8059-DATE-VALIDATION-EXIT.                                       PPEDTRST
070600     EXIT.                                                        PPEDTRST
070700     EJECT                                                        PPEDTRST
070800 8500-CALL-PPEDTRPT SECTION.                                      PPEDTRST
070900     SKIP1                                                        PPEDTRST
071000     MOVE 'ERROR' TO KEDT-PRINT-ACTION.                           PPEDTRST
071100     SKIP1                                                        PPEDTRST
071200     CALL 'PPEDTRPT' USING KEDT-INTERFACE                         PPEDTRST
071210                           TRANSACTION-SET-ARRAY                  PPEDTRST
071300                           BATCH-TRANSACTION                      PPEDTRST
071400                           MESSAGE-TABLE.                         PPEDTRST
094810       IF  KEDT-STATUS-FLAG = '??'                                36030759
094820           GO   TO 2000-RETURN-CONTROL                            36030759
094830       END-IF.                                                    36030759
071600     SKIP1                                                        PPEDTRST
071700 8500-CALL-PPEDTRPT-EXIT.                                         PPEDTRST
071800     EXIT.                                                        PPEDTRST
071900     EJECT                                                        PPEDTRST
095300*9000-CONTROL-FILE-IO SECTION.                                    36030759
095400*****CALL 'PPIOCTL' USING CTL-INTERFACE                           36030759
095500*****                     CTL-SEGMENT-TABLE.                      36030759
095600*****IF IO-CTL-ERROR-CODE NOT = 00 AND 13 AND 05 AND 06           36030759
095700*****  MOVE '00010'           TO MSSG-DESIRED                     36030759
095800*****  MOVE IO-CTL-ACTION     TO KEDT-REF-VAR1                    36030759
095900*****  MOVE 'IO FUNCTION'     TO KEDT-REF-ID1                     36030759
096000*****  MOVE IO-CTL-ERROR-CODE TO KEDT-REF-VAR2                    36030759
096100*****  MOVE 'IO-ERROR-CODE'   TO KEDT-REF-ID2                     36030759
096200*****  MOVE '??'              TO KEDT-STATUS-FLAG                 36030759
096300*****  MOVE SPACES            TO XCFK-TTL                         36030759
096410*****  GO                     TO 2000-RETURN-CONTROL.             36030759
096500*9099-CONTROL-FILE-IO-EXIT.                                       36030759
096600*****EXIT.                                                        36030759
073400 9800-DATE-CONVERSION SECTION.          COPY CPPDXDC2.            PPEDTRST
093700********************** DB2 ABEND ROUTINE *************************03020649
093800     COPY CPPDXP99.                                               03020649
093900     MOVE DB2MSG-MESSNO TO MSSG-DESIRED.                          03020649
094000     MOVE '??' TO KEDT-STATUS-FLAG.                               03020649
094100     GOBACK.                                                      03020649
094200******************************************************************03020649
