000110**************************************************************/   36410753
000120*  PROGRAM: PPEI300                                          */   36410753
000130*  RELEASE: ___0753______ SERVICE REQUEST(S): ____3641_____  */   36410753
000140*  NAME:_____JLT_________ MODIFICATION DATE:  ___03/31/93__  */   36410753
000150*  DESCRIPTION:                                              */   36410753
000160*  - CREATE COMBINED ACTION ARRAY FOR USE BY PPRTNMGR;       */   36410753
000161*    E.R. #932.                                              */   36410753
000170**************************************************************/   36410753
000100*----------------------------------------------------------------*36410717
000200*|**************************************************************|*36410717
000300*|* PROGRAM: PPEI300                                           *|*36410717
000400*|*  RELEASE: __0717_______ SERVICE REQUEST(S): _____3641____  *|*36410717
000500*|*  NAME:______UCOP_______ MODIFICATION DATE:  ___11/19/92__  *|*36410717
000600*|*  DESCRIPTION:                                              *|*36410717
000700*|*  - EDB MAINTENANCE RE-ENGINEERING PROJECT                  *|*36410717
000800*|*    PERSONNEL ACTIONS DERIVATION                            *|*36410717
000900*|**************************************************************|*36410717
001000*----------------------------------------------------------------*36410717
001100                                                                  PPEI300
001200 IDENTIFICATION DIVISION.                                         PPEI300
001300 PROGRAM-ID. PPEI300.                                             PPEI300
001400 AUTHOR. BUSINESS INFORMATION TECHNOLOGY.                         PPEI300
001500 INSTALLATION. UNIVERSITY OF CALIFORNIA.                          PPEI300
001600                                                                  PPEI300
001700 DATE-WRITTEN.  SEPTEMBER 8, 1992.                                PPEI300
001800 DATE-COMPILED.                                                   PPEI300
001900                                                                  PPEI300
002000 ENVIRONMENT DIVISION.                                            PPEI300
002100 CONFIGURATION SECTION.                                           PPEI300
002200 SOURCE-COMPUTER.                                  COPY CPOTXUCS. PPEI300
002300 OBJECT-COMPUTER.                                  COPY CPOTXOBJ. PPEI300
002400 SPECIAL-NAMES.                C01 IS NEW-PAGE.                   PPEI300
002500                                                                  PPEI300
002600 INPUT-OUTPUT SECTION.                                            PPEI300
002700 FILE-CONTROL.                                                    PPEI300
002800                                                                  PPEI300
002900 DATA DIVISION.                                                   PPEI300
003000 FILE SECTION.                                                    PPEI300
003100     EJECT                                                        PPEI300
003200*----------------------------------------------------------------*PPEI300
003300 WORKING-STORAGE SECTION.                                         PPEI300
003400*----------------------------------------------------------------*PPEI300
003500                                                                  PPEI300
003600 01  A-STND-PROG-ID                   PIC X(15) VALUE             PPEI300
003700     'PPEI300 /111992'.                                           PPEI300
003800                                                                  PPEI300
003900 01  A-STND-MSG-PARMS                 REDEFINES                   PPEI300
004000     A-STND-PROG-ID.                                              PPEI300
004100     05  FILLER                       PIC X(03).                  PPEI300
004200     05  WS-ROUTINE-TYPE              PIC X(01).                  PPEI300
004300     05  WS-ROUTINE-NUM               PIC 9(03).                  PPEI300
004400     05  FILLER                       PIC X(08).                  PPEI300
004500                                                                  PPEI300
004600 01  MESSAGES-USED.                                               PPEI300
004700     05  M08918                PIC 9(05)  VALUE 08918.            PPEI300
004800     05  M12060                PIC 9(05)  VALUE 12060.            PPEI300
004900     05  M12070                PIC 9(05)  VALUE 12070.            PPEI300
005000                                                                  PPEI300
005100 01  ELEMENTS-USED.                                               PPEI300
005200     05  E0001                 PIC 9(04)  VALUE 0001.             PPEI300
005300                                                                  PPEI300
005400 01  MISC-WORK-AREAS.                                             PPEI300
005500     05  ACTION-ON            PIC X(1)            VALUE 'Y'.      PPEI300
005600     05  FIRST-TIME-SW        PIC X(01) VALUE LOW-VALUES.         PPEI300
005700         88  THIS-IS-THE-FIRST-TIME            VALUE LOW-VALUES.  PPEI300
005800         88  NOT-THE-FIRST-TIME                VALUE 'Y'.         PPEI300
005900                                                                  PPEI300
005910*                                                                 36410753
005920 01  ACN-ACTION-SUBSCRIPTS.                                       36410753
005930     05  ACN-INDX                PIC S9(4) COMP    VALUE ZERO.    36410753
005940     05  ACN-INDX-MAX            PIC S9(4) COMP    VALUE +99.     36410753
005950     05  ACN-LEVEL-INDX          PIC S9(4) COMP    VALUE ZERO.    36410753
005960     05  ACN-LEVEL-INDX-MAX      PIC S9(4) COMP    VALUE +98.     36410753
006000     EJECT                                                        PPEI300
006100 01  DL-FIELD-WORK-AREA.                           COPY CPWSXDLS. PPEI300
006200                                                                  PPEI300
006300     EJECT                                                        PPEI300
006400 01  DATE-CONVERSION-WORK-AREAS.                   COPY CPWSXDC2. PPEI300
006500                                                                  PPEI300
006600     EJECT                                                        PPEI300
006700 01  XWHC-COMPILE-WORK-AREA.                       COPY CPWSXWHC. PPEI300
006800                                                                  PPEI300
006900     EJECT                                                        PPEI300
007000 01  COLUMN-88-WORK.                               COPY CPWSW88S. PPEI300
007100                                                                  PPEI300
007200     EJECT                                                        PPEI300
007300 01  DATE-WORK-AREA.                               COPY CPWSDATE. PPEI300
007400                                                                  PPEI300
007500     EJECT                                                        PPEI300
007600 01  APPT-DIST-LOC-WORK-AREAS.                     COPY CPWSADLC. PPEI300
007700                                                                  PPEI300
007800     EJECT                                                        PPEI300
007900 01  INSTALLATION-DEPENDT-CONSTANTS.               COPY CPWSXIDC. PPEI300
008000                                                                  PPEI300
008100     EJECT                                                        PPEI300
008200 01  OFFSETS-TABLE.                                COPY CPWSXOST. PPEI300
008300                                                                  PPEI300
008400     EJECT                                                        PPEI300
008500******************************************************************PPEI300
008600**     E  X  T  E  R  N  A  L  S      S  E  C  T  I  O  N       **PPEI300
008700**--------------------------------------------------------------**PPEI300
008800** THE FOLLOWING EXTERNAL AREAS WILL BE USED BY OTHER PROCESSES **PPEI300
008900******************************************************************PPEI300
009000                                                                  PPEI300
009100 01  DATA-ELEMENT-CHANGE-INDICATORS      EXTERNAL. COPY CPWSXDEC. PPEI300
009200                                                                  PPEI300
009300     EJECT                                                        PPEI300
009400 01  XCSS-COMMON-SYSTEM-SWITCHES         EXTERNAL. COPY CPWSSWCH. PPEI300
009500                                                                  PPEI300
009600     EJECT                                                        PPEI300
009700 01  XDTS-COMMON-SYSTEM-DATES            EXTERNAL. COPY CPWSXDTS. PPEI300
009800                                                                  PPEI300
009900     EJECT                                                        PPEI300
010000 01  ECES-CON-EDIT-SWITCH                EXTERNAL. COPY CPWSECES. PPEI300
010100                                                                  PPEI300
010200 01  EGES-GTN-EDIT-SWITCH                EXTERNAL. COPY CPWSEGES. PPEI300
010300                                                                  PPEI300
010400 01  EIMS-IMPL-MAINT-SWITCH              EXTERNAL. COPY CPWSEIMS. PPEI300
010500                                                                  PPEI300
010600 01  EAXD-APPT-ARRAY-SWITCH              EXTERNAL. COPY CPWSEAXD. PPEI300
010700                                                                  PPEI300
010800     EJECT                                                        PPEI300
010900 01  XDER-DATA-ELMT-RTN-POINTERS         EXTERNAL. COPY CPWSXDER. PPEI300
011000                                                                  PPEI300
011100     EJECT                                                        PPEI300
011200 01  XDRT-DET-ROUTINE-TRIGGERS           EXTERNAL. COPY CPWSXDRT. PPEI300
011300                                                                  PPEI300
011400     EJECT                                                        PPEI300
011500 01  EDB-MAINTENANCE-PASS-AREA           EXTERNAL. COPY CPWSEMPA. PPEI300
011600                                                                  PPEI300
011700     EJECT                                                        PPEI300
011800 01  XACN-ACTION-ARRAY                   EXTERNAL. COPY CPWSXACN. PPEI300
011900                                                                  PPEI300
011910*                                                                 36410753
011920 01  CACN-COMBINED-ACTION-ARRAY  EXTERNAL.                        36410753
011930                                     COPY CPWSCACN.               36410753
012000     EJECT                                                        PPEI300
012100 01  COMM-TAB                            EXTERNAL. COPY CPOTXCMF. PPEI300
012200                                                                  PPEI300
012300 01  AXD-ARRAY                           EXTERNAL.                PPEI300
012400                                                                  PPEI300
012500     03  FILLER           OCCURS 27.                              PPEI300
012600         07  APP-ROW-DELETE-BYTE          PIC X(1).               PPEI300
012700             88  APP-ROW-DELETED VALUE HIGH-VALUES.               PPEI300
012800         07  APP-ROW-SEG-ID               PIC X(2).               PPEI300
012900         07  FILLER       OCCURS 3.                               PPEI300
013000             08  APP-ROW.                 COPY CPWSRAPP           PPEI300
013100                 REPLACING WORK-STUDY-PGM                         PPEI300
013200                        BY NULL-WORK-STUDY-PGM.                   PPEI300
013300                                                                  PPEI300
013400     03  FILLER           OCCURS 27.                              PPEI300
013500         07  DIS-ROW-DELETE-BYTE          PIC X(1).               PPEI300
013600             88  DIS-ROW-DELETED VALUE HIGH-VALUES.               PPEI300
013700         07  DIS-ROW-SEG-ID               PIC X(2).               PPEI300
013800         07  FILLER       OCCURS 3.                               PPEI300
013900             08  DIS-ROW.                 COPY CPWSRDIS.          PPEI300
014000                                                                  PPEI300
014100 01  WORK-APPT-DATA                      EXTERNAL. COPY CPWSRAPP  PPEI300
014200                                                                  PPEI300
014300         REPLACING  EMPLOYEE-ID        BY  WORK-APPT-EMPLOYEE-ID  PPEI300
014400                    APPT-NUM           BY WORK-APPT-NO            PPEI300
014500                    APPT-ADC-CODE      BY WORK-APPT-ADC-CODE      PPEI300
014600                    RATE-CODE          BY WORK-RATE-CODE          PPEI300
014700                    PAY-SCHEDULE       BY WORK-PAY-SCHED          PPEI300
014800                    TIME-REPT-CODE     BY WORK-TIME-CODE          PPEI300
014900                    APPT-WOS-IND       BY WORK-APPT-WOS           PPEI300
015000                    APPT-BEGIN-DATE    BY WORK-APPT-BEGN-DATE     PPEI300
015100                    APPT-END-DATE      BY WORK-APPT-END-DATE      PPEI300
015200                    APPT-DURATION      BY WORK-DUR-EMPLMT         PPEI300
015300                    TITLE-CODE         BY WORK-TITLE-CODE         PPEI300
015400                    APPT-TYPE          BY WORK-APPT-TYPE          PPEI300
015500                    ACADEMIC-BASIS     BY WORK-BASIS              PPEI300
015600                    WORK-STUDY-PGM     BY NULL-WORK-WORK-STYDY-PGMPPEI300
015700                    PERSONNEL-PGM      BY WORK-PERSNL-PROGRM      PPEI300
015800                    APPT-STEP          BY NULL-WORK-APPT-STEP     PPEI300
015900                    APPT-OFF-SCALE     BY NULL-WORK-APPT-OFF-SCALEPPEI300
016000                    APPT-PAID-OVER     BY WORK-PAID-OVER          PPEI300
016100                    PAY-RATE           BY WORK-ANNL-HRLY-RATE     PPEI300
016200                    LEAVE-ACRUCODE     BY WORK-LEAVE              PPEI300
016300                    RETIREMENT-CODE    BY WORK-RETIRE             PPEI300
016400                    PERCENT-FULLTIME   BY WORK-PCT-FULL-TIME      PPEI300
016500                    FIXED-VAR-CODE     BY WORK-FXD-VAR            PPEI300
016600                    TITLE-UNIT-CODE    BY WORK-PERB-CODE          PPEI300
016700                    APPT-SPCL-HNDLG    BY WORK-APPT-SHC           PPEI300
016800                    APPT-REP-CODE      BY WORK-APPT-AREP          PPEI300
016900                    APPT-DEPT          BY WORK-APPT-DEPT-CODE     PPEI300
017000                    GRADE              BY WORK-GRADE.             PPEI300
017100                                                                  PPEI300
017200                                                                  PPEI300
017300     EJECT                                                        PPEI300
017400******************************************************************PPEI300
017500**  DATA BASE AREAS                                             **PPEI300
017600******************************************************************PPEI300
017700                                                                  PPEI300
017800 01  SCR-ROW                             EXTERNAL.                PPEI300
017900     EXEC SQL INCLUDE PPPVSCR1 END-EXEC.                          PPEI300
018000                                                                  PPEI300
018100     EJECT                                                        PPEI300
018200 01  PER-ROW                             EXTERNAL.                PPEI300
018300     EXEC SQL INCLUDE PPPVPER1 END-EXEC.                          PPEI300
018400                                                                  PPEI300
018500******************************************************************PPEI300
018600**  DATA BASE SAVE ARESA                                        **PPEI300
018700******************************************************************PPEI300
018800                                                                  PPEI300
018900     EJECT                                                        PPEI300
019000 01  PER-ROW-HOLD                        EXTERNAL. COPY CPWSRPER  PPEI300
019100                                                                  PPEI300
019200         REPLACING  LOA-RETURN-DATE     BY SAVE-RETURN-DATE       PPEI300
019300                    SEPARATE-DATE       BY SAVE-SEPARATE-DATE.    PPEI300
019400                                                                  PPEI300
019500     EJECT                                                        PPEI300
019600******************************************************************PPEI300
019700**          L  I  N  K  A  G  E      S  E  C  T  I  O  N        **PPEI300
019800******************************************************************PPEI300
019900                                                                  PPEI300
020000*----------------------------------------------------------------*PPEI300
020100 LINKAGE SECTION.                                                 PPEI300
020200*----------------------------------------------------------------*PPEI300
020300                                                                  PPEI300
020400******************************************************************PPEI300
020500**  THE KRMI AREA IS A COMMON AREA THAT IS USED TO PASS         **PPEI300
020600**  INFORMATION THAT IS REQUIRED FOR THIS MODULE TO EXECUTE     **PPEI300
020700******************************************************************PPEI300
020800                                                                  PPEI300
020900 01  KRMI-LINKAGE-SECTION.                         COPY CPLNKRMI. PPEI300
021000                                                                  PPEI300
021100     EJECT                                                        PPEI300
021200******************************************************************PPEI300
021300**  THIS MESSAGE TABLE ARRAY WILL CONTAIN ALL MESSAGES THAT     **PPEI300
021400**  THIS ROUTINE CAN LOGICALLY ISSUE AT ONE TIME                **PPEI300
021500******************************************************************PPEI300
021600                                                                  PPEI300
021700 01  KMTA-MESSAGE-TABLE-ARRAY.                     COPY CPLNKMTA. PPEI300
021800                                                                  PPEI300
021900     EJECT                                                        PPEI300
022000******************************************************************PPEI300
022100**    P  R  O  C  E  D  U  R  E      D  I  V  I  S  I  O  N     **PPEI300
022200******************************************************************PPEI300
022300                                                                  PPEI300
022400 PROCEDURE DIVISION USING KRMI-LINKAGE-SECTION,                   PPEI300
022500                          KMTA-MESSAGE-TABLE-ARRAY.               PPEI300
022600                                                                  PPEI300
022700                                                                  PPEI300
022800*----------------------------------------------------------------*PPEI300
022900 0000-DRIVER.                                                     PPEI300
023000*----------------------------------------------------------------*PPEI300
023100                                                                  PPEI300
023200******************************************************************PPEI300
023300**  PERFORM THE INITIALIZATION ROUTINE NOW                      **PPEI300
023400******************************************************************PPEI300
023500                                                                  PPEI300
023600     IF  THIS-IS-THE-FIRST-TIME                                   PPEI300
023700         PERFORM 0100-INITIALIZE                                  PPEI300
023800     END-IF.                                                      PPEI300
023900                                                                  PPEI300
024000******************************************************************PPEI300
024100**  PERFORM THE MAIN ROUTINE NOW - AFTER WHICH WE WILL RETURN   **PPEI300
024200**  TO THE CALLING PROGRAM                                      **PPEI300
024300******************************************************************PPEI300
024400                                                                  PPEI300
024500     PERFORM 1000-MAINLINE-ROUTINE.                               PPEI300
024510*                                                                 36410753
024520     PERFORM 7000-COMBINE-SYSTEM-ACTIONS                          36410753
024600                                                                  PPEI300
024700     EXIT PROGRAM.                                                PPEI300
024800                                                                  PPEI300
024900                                                                  PPEI300
025000     EJECT                                                        PPEI300
025100*----------------------------------------------------------------*PPEI300
025200 0100-INITIALIZE    SECTION.                                      PPEI300
025300*----------------------------------------------------------------*PPEI300
025400                                                                  PPEI300
025500******************************************************************PPEI300
025600**  DISPLAY THE PROGRAM ID AND DATE/TIME COMPILED               **PPEI300
025700******************************************************************PPEI300
025800                                                                  PPEI300
025900     MOVE A-STND-PROG-ID           TO XWHC-DISPLAY-MODULE.        PPEI300
026000                                                                  PPEI300
026100*                                               *-------------*   PPEI300
026200                                                 COPY CPPDXWHC.   PPEI300
026300*                                               *-------------*   PPEI300
026400                                                                  PPEI300
026500*                                               *-------------*   PPEI300
026600                                                 COPY CPPDDATE.   PPEI300
026700*                                               *-------------*   PPEI300
026800                                                                  PPEI300
026900     MOVE PRE-EDIT-DATE            TO DATE-WO-CC.                 PPEI300
027000                                                                  PPEI300
027100******************************************************************PPEI300
027200**   SET FIRST CALL SWITCH OFF                                  **PPEI300
027300******************************************************************PPEI300
027400                                                                  PPEI300
027500     SET NOT-THE-FIRST-TIME        TO TRUE.                       PPEI300
027600                                                                  PPEI300
027700                                                                  PPEI300
027800     EJECT                                                        PPEI300
027900*----------------------------------------------------------------*PPEI300
028000 1000-MAINLINE-ROUTINE SECTION.                                   PPEI300
028100*----------------------------------------------------------------*PPEI300
028200                                                                  PPEI300
028300     IF  KRMI-REQUESTED-BY-08                                     PPEI300
028400         PERFORM 1100-CONSISTENCY-EDITS                           PPEI300
028500     ELSE                                                         PPEI300
028600         PERFORM 5100-IMPLIED-MAINTENANCE                         PPEI300
028700     END-IF.                                                      PPEI300
028800                                                                  PPEI300
028900                                                                  PPEI300
029000*----------------------------------------------------------------*PPEI300
029100 1100-CONSISTENCY-EDITS  SECTION.                                 PPEI300
029200*----------------------------------------------------------------*PPEI300
029300                                                                  PPEI300
029400******************************************************************PPEI300
029500** WHEN NO ACTIONS ARE ENTERED, THEN OK TO DERIVE OTHER ACTIONS **PPEI300
029600******************************************************************PPEI300
029700                                                                  PPEI300
029800     IF EMPL-ACTIONS = SPACES                                     PPEI300
029900         PERFORM 1200-DERIVE-ACTIONS                              PPEI300
030000     ELSE                                                         PPEI300
030100                                                                  PPEI300
030200******************************************************************PPEI300
030300** WHEN THE NULL ACTION IS NOT ENTERED, THEN OK TO DERIVE ACTNS **PPEI300
030400******************************************************************PPEI300
030500                                                                  PPEI300
030600         IF EMPL-ACTION-FLAG (91) = SPACES                        PPEI300
030700             PERFORM 1200-DERIVE-ACTIONS                          PPEI300
030800         ELSE                                                     PPEI300
030900                                                                  PPEI300
031000******************************************************************PPEI300
031100** WHEN NULL ACTION IS ENTERED & NO OTHER ACTIONS WERE ENTERED  **PPEI300
031200** ON THE PAF, THEN BYPASS DERIVING ACTION CODES.               **PPEI300
031300******************************************************************PPEI300
031400                                                                  PPEI300
031500             IF PAF-A1-FLAG = SPACES                              PPEI300
031600                 CONTINUE                                         PPEI300
031700             ELSE                                                 PPEI300
031800                                                                  PPEI300
031900******************************************************************PPEI300
032000** ACTION CODE 91 IS IN CONFLIST WITH OTHER PAF ACTIONS SO IT   **PPEI300
032100** MUST BE ADDED TO THE ERROR FILE AND THEN IGNORED.            **PPEI300
032200******************************************************************PPEI300
032300                                                                  PPEI300
032400                 ADD 1        TO KMTA-CTR                         PPEI300
032500                 MOVE M08918  TO KMTA-MSG-NUMBER (KMTA-CTR)       PPEI300
032600                 MOVE E0001   TO KMTA-FIELD-NUM (KMTA-CTR)        PPEI300
032700                 MOVE 2       TO KMTA-LENGTH (KMTA-CTR)           PPEI300
032800                 MOVE '91'    TO KMTA-DATA-FIELD (KMTA-CTR)       PPEI300
032900                 MOVE 'I'     TO KMTA-ROUTINE-TYPE (KMTA-CTR)     PPEI300
033000                 MOVE 201     TO KMTA-ROUTINE-NUM (KMTA-CTR)      PPEI300
033100                 PERFORM 1200-DERIVE-ACTIONS                      PPEI300
033200             END-IF                                               PPEI300
033300         END-IF                                                   PPEI300
033400     END-IF.                                                      PPEI300
033500                                                                  PPEI300
033600                                                                  PPEI300
033700     EJECT                                                        PPEI300
033800*----------------------------------------------------------------*PPEI300
033900 1200-DERIVE-ACTIONS SECTION.                                     PPEI300
034000*----------------------------------------------------------------*PPEI300
034100                                                                  PPEI300
034200     IF     SEPARATE-DATE = SAVE-SEPARATE-DATE                    PPEI300
034300         OR SEPARATE-DATE = ISO-ZERO-DATE                         PPEI300
034400         CONTINUE                                                 PPEI300
034500     ELSE                                                         PPEI300
034600         MOVE ACTION-ON       TO XACN-ACTION-FLAG (01, 06)        PPEI300
034700     END-IF.                                                      PPEI300
034800                                                                  PPEI300
034900     IF     XACN-ACTION-FLAG (01, 07) = ACTION-ON                 PPEI300
035000         OR XACN-ACTION-FLAG (01, 08) = ACTION-ON                 PPEI300
035100         OR LOA-RETURN-DATE           = SAVE-RETURN-DATE          PPEI300
035200         OR SAVE-RETURN-DATE          = ISO-ZERO-DATE             PPEI300
035300         OR LOA-RETURN-DATE           = ISO-ZERO-DATE             PPEI300
035400         CONTINUE                                                 PPEI300
035500     ELSE                                                         PPEI300
035600         MOVE ACTION-ON       TO XACN-ACTION-FLAG (01, 09)        PPEI300
035700     END-IF.                                                      PPEI300
035800                                                                  PPEI300
035900                                                                  PPEI300
036000     EJECT                                                        PPEI300
036100*----------------------------------------------------------------*PPEI300
036200 5100-IMPLIED-MAINTENANCE  SECTION.                               PPEI300
036300*----------------------------------------------------------------*PPEI300
036400******************************************************************PPEI300
036500**            PERSONNEL ACTIONS IMPLIED MAINTENANCE             **PPEI300
036600**--------------------------------------------------------------**PPEI300
036700**   THE FOLLOWING IMPLIED MAINTENANCE IS PERFORMED WHEN        **PPEI300
036800**   APPROPRIATE PERSONNEL ACTIONS HAVE BEEN ENTERED AS         **PPEI300
036900**   DETERMINED BY THE TABLE "PERSONNEL-ACTIONS" IN COMM-TAB    **PPEI300
037000******************************************************************PPEI300
037100                                                                  PPEI300
037200******************************************************************PPEI300
037300** WHEN A NULL ACTION IS NOT ENTERED, THEN OK TO DERIVE ACTIONS **PPEI300
037400******************************************************************PPEI300
037500                                                                  PPEI300
037600******************************************************************PPEI300
037700** WHEN NULL ACTION IS ENTERED AND NO OTHER ACTIONS ARE ENTERED **PPEI300
037800** ON THE PAF, THEN BYPASS DERIVING ACTION CODES.    **           PPEI300
037900******************************************************************PPEI300
038000                                                                  PPEI300
038100     IF  EMPL-ACTIONS NOT = SPACES                                PPEI300
038200         IF  EMPL-ACTION-FLAG (91) NOT = SPACES                   PPEI300
038300             IF  PAF-A1-FLAG           = SPACES                   PPEI300
038400                 CONTINUE                                         PPEI300
038500             ELSE                                                 PPEI300
038600******************************************************************PPEI300
038700**  ACTION 91 IS IN CONFLICT WITH OTHER PAF IT WILL BE IGNORED  **PPEI300
038800******************************************************************PPEI300
038900                 MOVE SPACES       TO XACN-ACTION-FLAG (01, 91)   PPEI300
039000                 PERFORM 5200-DERIVE-ACTION-06                    PPEI300
039100                 PERFORM 5300-DERIVE-ACTION-09                    PPEI300
039200             END-IF                                               PPEI300
039300         ELSE                                                     PPEI300
039400             PERFORM 5200-DERIVE-ACTION-06                        PPEI300
039500             PERFORM 5300-DERIVE-ACTION-09                        PPEI300
039600         END-IF                                                   PPEI300
039700     ELSE                                                         PPEI300
039800         PERFORM 5200-DERIVE-ACTION-06                            PPEI300
039900         PERFORM 5300-DERIVE-ACTION-09                            PPEI300
040000     END-IF.                                                      PPEI300
040100                                                                  PPEI300
040200                                                                  PPEI300
040300*-----------------------------------------------------------------PPEI300
040400 5200-DERIVE-ACTION-06  SECTION.                                  PPEI300
040500*-----------------------------------------------------------------PPEI300
040600                                                                  PPEI300
040700     IF     SEPARATE-DATE  = SAVE-SEPARATE-DATE                   PPEI300
040800         OR SEPARATE-DATE  = ISO-ZERO-DATE                        PPEI300
040900         CONTINUE                                                 PPEI300
041000     ELSE                                                         PPEI300
041100         IF  XACN-LEVEL-FLAG (01) = ACTION-ON                     PPEI300
041200             CONTINUE                                             PPEI300
041300         ELSE                                                     PPEI300
041400             INITIALIZE              XACN-ACTION-DATA (01)        PPEI300
041500             MOVE ACTION-ON       TO XACN-LEVEL-FLAG (01)         PPEI300
041600         END-IF                                                   PPEI300
041700         MOVE ACTION-ON           TO XACN-ACTION-FLAG (01, 06)    PPEI300
041800         MOVE ACTION-ON           TO EMPL-ACTION-FLAG (06)        PPEI300
041900         MOVE ACTION-ON           TO EMP-DERIVED-ACTIONS          PPEI300
042000         MOVE SEPARATE-DATE       TO DB2-DATE                     PPEI300
042100         PERFORM CONVERT-DB2-DATE                                 PPEI300
042200         MOVE WSX-STD-DATE        TO XACN-ACTION-DATE (01, 06)    PPEI300
042300     END-IF.                                                      PPEI300
042400                                                                  PPEI300
042500                                                                  PPEI300
042600*-----------------------------------------------------------------PPEI300
042700 5300-DERIVE-ACTION-09  SECTION.                                  PPEI300
042800*-----------------------------------------------------------------PPEI300
042900                                                                  PPEI300
043000     IF     XACN-ACTION-FLAG (01, 07) = ACTION-ON                 PPEI300
043100         OR XACN-ACTION-FLAG (01, 08) = ACTION-ON                 PPEI300
043200         CONTINUE                                                 PPEI300
043300     ELSE                                                         PPEI300
043400         IF  LOA-RETURN-DATE   = SAVE-RETURN-DATE                 PPEI300
043500             CONTINUE                                             PPEI300
043600         ELSE                                                     PPEI300
043700             IF     SAVE-RETURN-DATE  = ISO-ZERO-DATE             PPEI300
043800                 OR LOA-RETURN-DATE   = ISO-ZERO-DATE             PPEI300
043900                 CONTINUE                                         PPEI300
044000             ELSE                                                 PPEI300
044100                 IF  XACN-LEVEL-FLAG (01) = ACTION-ON             PPEI300
044200                     CONTINUE                                     PPEI300
044300                 ELSE                                             PPEI300
044400                     INITIALIZE     XACN-ACTION-DATA (01)         PPEI300
044500                     MOVE ACTION-ON                               PPEI300
044600                                  TO XACN-LEVEL-FLAG (01)         PPEI300
044700                 END-IF                                           PPEI300
044800                                                                  PPEI300
044900                 MOVE ACTION-ON   TO XACN-ACTION-FLAG (01, 09)    PPEI300
045000                 MOVE ACTION-ON   TO EMPL-ACTION-FLAG (09)        PPEI300
045100                 MOVE ACTION-ON   TO EMP-DERIVED-ACTIONS          PPEI300
045200                 MOVE PRE-EDIT-DATE                               PPEI300
045300                                  TO XACN-ACTION-DATE (01, 09)    PPEI300
045400             END-IF                                               PPEI300
045500         END-IF                                                   PPEI300
045600     END-IF.                                                      PPEI300
045700                                                                  PPEI300
045711*----------------------------------------------------------------*36410753
045720 7000-COMBINE-SYSTEM-ACTIONS  SECTION.                            36410753
045721*----------------------------------------------------------------*36410753
045740     MOVE SPACES     TO CACN-COMBINED-ACTION-ARRAY.               36410753
045750     PERFORM WITH TEST BEFORE                                     36410753
045760      VARYING ACN-LEVEL-INDX FROM +1 BY +1                        36410753
045770        UNTIL ACN-LEVEL-INDX > ACN-LEVEL-INDX-MAX                 36410753
045780         IF XACN-LEVEL-FLAG (ACN-LEVEL-INDX)  = ACTION-ON         36410753
045790             PERFORM WITH TEST BEFORE                             36410753
045791              VARYING ACN-INDX  FROM +1  BY +1                    36410753
045792                UNTIL ACN-INDX  >  ACN-INDX-MAX                   36410753
045793                 IF XACN-ACTION-FLAG                              36410753
045794                     (ACN-LEVEL-INDX, ACN-INDX)  = ACTION-ON      36410753
045795                   MOVE ACTION-ON  TO CACN-ACTION-FLAG (ACN-INDX) 36410753
045796                 END-IF                                           36410753
045797             END-PERFORM                                          36410753
045798         END-IF                                                   36410753
045799     END-PERFORM.                                                 36410753
045800 7000-EXIT.     EXIT.                                             36410753
045800                                                                  PPEI300
045900                                                                  PPEI300
046000     EJECT                                                        PPEI300
046100*----------------------------------------------------------------*PPEI300
046200 9050-AUDITING-RESPONSIBILITIES  SECTION.                         PPEI300
046300*----------------------------------------------------------------*PPEI300
046400                                                                  PPEI300
046500*                                                 *-------------* PPEI300
046600                                                   COPY CPPDXDEC. PPEI300
046700*                                                 *-------------* PPEI300
046800                                                                  PPEI300
046900*----------------------------------------------------------------*PPEI300
047000 9060-APPT-DIST-LOC-CALCULATION  SECTION.                         PPEI300
047100*----------------------------------------------------------------*PPEI300
047200                                                                  PPEI300
047300*                                                 *-------------* PPEI300
047400                                                   COPY CPPDADLC. PPEI300
047500*                                                 *-------------* PPEI300
047600                                                                  PPEI300
047700     EJECT                                                        PPEI300
047800*----------------------------------------------------------------*PPEI300
047900 9300-DATE-CONVERSION-DB2  SECTION.                               PPEI300
048000*----------------------------------------------------------------*PPEI300
048100                                                                  PPEI300
048200*                                                 *-------------* PPEI300
048300                                                   COPY CPPDXDC2. PPEI300
048400*                                                 *-------------* PPEI300
048500                                                                  PPEI300
048600******************************************************************PPEI300
048700**   E N D  S O U R C E   ----  PPEI300 ----                    **PPEI300
048800******************************************************************PPEI300
