       IDENTIFICATION DIVISION.                                         PPL141
       PROGRAM-ID.      PPL141.                                         PPL141
       AUTHOR.          K. BOND.                                        PPL141
       INSTALLATION.                                                    PPL141
       DATE-WRITTEN.                                                    PPL141
       DATE-COMPILED.                                                   PPL141
                                                                        PPL141
      ******************************************************************PPL141
      **  THIS PROGRAM ATTEMPTS TO MATCH THE IFIS INDEX, FUND, ORG,     PPL141
      **  AND PROGRAM FIELDS AGAINST THE CHART OF ACCOUNTS DATA BASE.   PPL141
      **  PLINIFS IS CALLED.  IF THERE IS NO MATCH, AN ERROR REPORT     PPL141
      **  IS WRITTEN.                                                   PPL141
      ******************************************************************PPL141
                                                                        PPL141
       ENVIRONMENT DIVISION.                                            PPL141
       CONFIGURATION SECTION.                                           PPL141
       SOURCE-COMPUTER.  IBM-3090.                                      PPL141
       OBJECT-COMPUTER.  IBM-3090.                                      PPL141
       SPECIAL-NAMES.    C01 IS TOP-PAGE.                               PPL141
                                                                        PPL141
       INPUT-OUTPUT SECTION.                                            PPL141
       FILE-CONTROL.                                                    PPL141
                                                                        PPL141
           SELECT TIMEIN-FILE                                           PPL141
               ASSIGN TO UT-S-TIMEIN.                                   PPL141
                                                                        PPL141
           SELECT TIMEOUT-FILE                                          PPL141
               ASSIGN TO UT-S-TIMEOUT.                                  PPL141
                                                                        PPL141
           SELECT PRINT-FILE                                            PPL141
               ASSIGN TO UT-S-PRNTFIL.                                  PPL141
                                                                        PPL141
           COPY CLSLCRPT.                                               PPL141
                                                                        PPL141
       DATA DIVISION.                                                   PPL141
       FILE  SECTION.                                                   PPL141
                                                                        PPL141
       FD  TIMEIN-FILE                                                  PPL141
           BLOCK CONTAINS 0 RECORDS                                     DS900
           RECORDING MODE IS F                                          DS900
           RECORD CONTAINS 200 CHARACTERS.                              DS900
                                                                        PPL141
       01  TIMEIN-REC.                                                  PPL141
           COPY  CLWSTMTR.                                              PPL141
                                                                        PPL141
       FD  TIMEOUT-FILE                                                 PPL141
           BLOCK CONTAINS 0 RECORDS                                     DS900
           RECORDING MODE IS F                                          DS900
           RECORD CONTAINS 200 CHARACTERS.                              DS900
                                                                        PPL141
       01  TIMEOUT-REC.                                                 PPL141
           COPY  CLWSTMTR.                                              PPL141
                                                                        PPL141
       FD  PRINT-FILE                                                   PPL141
           BLOCK CONTAINS 0 RECORDS                                     PPL141
           RECORDING MODE IS F.                                         PPL141
                                                                        PPL141
       01  PRNT-REC.                                                    PPL141
           05  PRINT-CARR              PIC X.                           PPL141
           05  PRINT-REC               PIC X(132).                      PPL141
                                                                        PPL141
           COPY CLFDCRPT.                                               PPL141
           EJECT                                                        PPL141
       WORKING-STORAGE  SECTION.                                        PPL141
                                                                        PPL141
       01  WS-COUNTS.                                                   PPL141
           05  WS-CNT-READ             PIC 9(5)      VALUE ZEROS.       PPL141
           05  WS-CNT-INDX-EXAM        PIC 9(6)      VALUE ZEROS.       PPL141
           05  WS-CNT-INDX-TRANS       PIC 9(6)      VALUE ZEROS.       PPL141
           05  WS-CNT-DIS-MATCH        PIC 9(6)      VALUE ZEROS.       PPL141
           05  WS-CNT-DIS-NTMTCH       PIC 9(6)      VALUE ZEROS.       PPL141
           05  WS-CNT-INDX-FND         PIC 9(6)      VALUE ZEROS.       PPL141
           05  WS-CNT-INDX-NTFND       PIC 9(6)      VALUE ZEROS.       PPL141
           05  WS-CNT-DEPT-DFLT        PIC 9(6)      VALUE ZEROS.       PPL141
           05  WS-CNT-GLOB-DFLT        PIC 9(6)      VALUE ZEROS.       PPL141
           05  WS-CNT-WRITE            PIC 9(5)      VALUE ZEROS.       PPL141
           05  WS-CNT-LINE             PIC 99        VALUE 56.          PPL141
           05  WS-CNT-PAGE             PIC 999       VALUE ZEROS.       PPL141
           05  WS-CNT-TABLE            PIC 999       VALUE ZEROS.       PPL141
           05  WS-DIST-SUB             PIC S9(3)     VALUE ZEROS COMP-3.PPL141
           05  WS-INDX-SUB             PIC S9(3)     VALUE ZEROS COMP-3.PPL141
           05  WS-SUB                  PIC S9(3)     VALUE ZEROS COMP-3.PPL141
                                                                        PPL141
       01  WS-LITS.                                                     PPL141
           05  WS-LIT-YES              PIC X          VALUE 'Y'.        PPL141
           05  WS-LIT-NO               PIC X          VALUE 'N'.        PPL141
           05  WS-LIT-ONE              PIC 9          VALUE 1.          PPL141
           05  WS-LIT-TWO              PIC 9          VALUE 2.          PPL141
           05  WS-LIT-THREE            PIC 9          VALUE 3.          PPL141
           05  WS-LIT-FIVE             PIC 9          VALUE 5.          PPL141
           05  WS-LIT-UNDRLINE1        PIC X          VALUE '-'.        PPL141
           05  WS-LIT-UNDRLINE5        PIC X(5)       VALUE '-----'.    PPL141
           05  WS-LIT-UNDRLINE6        PIC X(6)       VALUE '------'.   PPL141
           05  WS-LIT-UNDRLINE35       PIC X(35)      VALUE ALL '-'.    PPL141
           05  WS-LIT-DEFAULT-INDX     PIC X(10)   VALUE 'BFS0080   '.  DU0065
           05  WS-LIT-IDNUM            PIC X(9)      VALUE 'ID NUM   '. PPL141
           05  WS-LIT-NWIND            PIC X(9)      VALUE 'NEW INDX '. PPL141
           05  WS-LIT-INDX-VALID       PIC X(18)     VALUE              PPL141
               'VALID DEFAULT INDX'.                                    PPL141
           05  WS-LIT-INDX-ERR         PIC X(18)     VALUE              PPL141
               'INDEX NOT ON TABLE'.                                    PPL141
           05  WS-LIT-INDX-FAIL        PIC X(18)     VALUE              DU0065
               'INDEX COA FAILURE '.                                    DU0065
           05  WS-LIT-DEPT-DEFAULT     PIC X(18)     VALUE              PPL141
               '**DEPARTMENT DEFLT'.                                    PPL141
           05  WS-LIT-GLOB-DEFAULT     PIC X(18)     VALUE              PPL141
               '**GLOBAL DEFAULT  '.                                    PPL141
                                                                        PPL141
       01  TRANS-SW                    PIC 9          VALUE 0.          PPL141
           88  EOF-TRANS                              VALUE 1.          PPL141
       01  TABLE-SW                    PIC 9          VALUE 0.          PPL141
           88  EOF-TABLE                              VALUE 1.          PPL141
       01  ABEND-SW                    PIC X          VALUE 'N'.        PPL141
           88  ABEND-YES                              VALUE 'Y'.        PPL141
       01  WS-MATCH-SW                 PIC X          VALUE 'N'.        PPL141
           88  WS-MATCH-NTFND                         VALUE 'Y'.        PPL141
           EJECT                                                        PPL141
       01  PRT-DET-LINE.                                                PPL141
           05  FILLER                  PIC X(5)       VALUE SPACES.     PPL141
           05  PRT-INDEX-IDNUM         PIC X(9).                        PPL141
           05  FILLER                  PIC X(4)       VALUE SPACES.     PPL141
           05  PRT-INDEX               PIC X(7).                        PPL141
           05  FILLER                  PIC X(4)       VALUE SPACES.     PPL141
           05  PRT-INDEX-TITLE         PIC X(35).                       PPL141
           05  FILLER                  PIC XXX        VALUE SPACES.     PPL141
           05  PRT-INDEX-SUB           PIC X.                           PPL141
           05  FILLER                  PIC X(4)       VALUE SPACES.     PPL141
           05  PRT-INDEX-FUND          PIC X(6).                        PPL141
           05  FILLER                  PIC X(4)       VALUE SPACES.     PPL141
           05  PRT-INDEX-ORG           PIC X(6).                        PPL141
           05  FILLER                  PIC X(4)       VALUE SPACES.     PPL141
           05  PRT-INDEX-PROGRAM       PIC X(6).                        PPL141
           05  FILLER                  PIC X(4)       VALUE SPACES.     PPL141
           05  PRT-INDEX-UCOPACCT      PIC X(6).                        PPL141
           05  FILLER                  PIC XX         VALUE SPACES.     DU0065
           05  PRT-INDEX-LOC           PIC X          VALUE SPACES.     DU0065
           05  FILLER                  PIC X          VALUE SPACES.     DU0065
           05  PRT-INDEX-MSG           PIC X(18).                       PPL141
           05  FILLER                  PIC XX         VALUE SPACES.     PPL141
                                                                        PPL141
       01  PRT-TITLE-LINE.                                              PPL141
           05  FILLER                  PIC X(4)       VALUE SPACES.     PPL141
           05  FILLER                  PIC X(14)      VALUE             PPL141
               'PPL141/PPL1411'.                                        PPL141
           05  FILLER                  PIC X(25)      VALUE SPACES.     PPL141
           05  PRT-TITLE-LIT           PIC X(29)      VALUE             PPL141
               'UCSD PAYROLL/PERSONNEL SYSTEM'.                         PPL141
           05  FILLER                  PIC X(15)      VALUE SPACES.     PPL141
           05  PRT-TITLE-DATE          PIC X(8).                        PPL141
           05  FILLER                  PIC X(15)      VALUE SPACES.     PPL141
           05  PRT-TITLE-PAGE          PIC X(5)       VALUE 'PAGE '.    PPL141
           05  PRT-TITLE-PAGENO        PIC ZZ,ZZ9.                      PPL141
           05  FILLER                  PIC X(11)     VALUE SPACES.      PPL141
                                                                        PPL141
       01  PRT-TITLE-LINE2.                                             PPL141
           05  FILLER                  PIC X(35)      VALUE SPACES.     PPL141
           05  FILLER                  PIC X(47)      VALUE             PPL141
               '        TIMESHEET AUDIT/CORRECTION REPORT      '.       PPL141
           05  FILLER                  PIC X(50)      VALUE SPACES.     PPL141
                                                                        PPL141
       01  PRT-HDR-LINE.                                                PPL141
           05  FILLER             PIC X(5)       VALUE SPACES.          PPL141
           05  PRT-HDR-IDINDX     PIC X(9)       VALUE SPACES.          PPL141
           05  FILLER             PIC X(4)       VALUE SPACES.          PPL141
           05  FILLER             PIC X(6)       VALUE 'INDEX '.        PPL141
           05  FILLER             PIC X(4)       VALUE SPACES.          PPL141
           05  FILLER             PIC X(11)      VALUE 'INDEX TITLE'.   PPL141
           05  FILLER             PIC X(27)      VALUE SPACES.          PPL141
           05  FILLER             PIC XXX        VALUE 'SUB'.           PPL141
           05  FILLER             PIC XXX        VALUE SPACE.           PPL141
           05  FILLER             PIC X(6)       VALUE ' FUND '.        PPL141
           05  FILLER             PIC X(4)       VALUE SPACES.          PPL141
           05  FILLER             PIC X(6)       VALUE ' ORG  '.        PPL141
           05  FILLER             PIC X(4)       VALUE SPACES.          PPL141
           05  FILLER             PIC X(7)       VALUE 'PROGRAM'.       PPL141
           05  FILLER             PIC XX         VALUE SPACES.          PPL141
           05  FILLER             PIC X(4)       VALUE 'ACCT'.          DU0065
           05  FILLER             PIC XXX        VALUE SPACES.          DU0065
           05  FILLER             PIC XXX        VALUE 'LOC'.           DU0065
           05  FILLER             PIC XX         VALUE SPACES.          DU0065
           05  FILLER             PIC X(13)      VALUE                  PPL141
               'ERROR MESSAGE'.                                         DU0065
           05  FILLER             PIC XX         VALUE SPACES.          PPL141
           EJECT                                                        PPL141
           COPY CLWSCRPT.                                               PPL141
           03  CR-DET-LINE10.                                           PPL141
               05  FILLER              PIC X          VALUE SPACES.     PPL141
               05  CR-DET-LINE         PIC X(39)      VALUE             PPL141
                   '**  ABEND SWITCH HAS BEEN TURNED ON  **'.           PPL141
               05  FILLER              PIC X          VALUE SPACES.     PPL141
                                                                        PPL141
                                                                        PPL141
       01  FORMAT-DATE.                COPY CPWSDATE.                   PPL141
                                                                        PPL141
       01  FORMAT-TIME.                COPY CPWSTIME.                   DS795
                                                                        DS795
       01  WS-HOLD-DIST.                                                PPL141
           05  WS-HOLD-DIST-INDEX      PIC X(7).                        PPL141
           05  WS-HOLD-DIST-INDEX-TITLE PIC X(35).                      PPL141
           05  WS-HOLD-DIST-SUB        PIC X.                           PPL141
           05  WS-HOLD-DIST-ORG        PIC X(6).                        PPL141
           05  WS-HOLD-DIST-IFUND      PIC X(6).                        PPL141
           05  WS-HOLD-DIST-PROG       PIC X(6).                        PPL141
           05  WS-HOLD-DIST-UCOPACCT   PIC X(6).                        PPL141
           05  WS-HOLD-DIST-LOCATION   PIC X.                           DU0065
                                                                        PPL141
       01  WS-IFIS-INDEX.                                               PPL141
           05  WS-IFIS-INDX3           PIC X(3).                        PPL141
           05  WS-IFIS-INDX4           PIC X(4).                        PPL141
                                                                        PPL141
       01  WS-DEPART-INDEX.                                             PPL141
           05  WS-DEPART-INDX3         PIC X(3).                        PPL141
           05  WS-DEPART-INDX4         PIC X(4)      VALUE '0000'.      PPL141
           05  WS-DEPART-FILL          PIC XXX       VALUE SPACES.      PPL141
                                                                        PPL141
       01  PPFAU027-INTERFACE.         COPY CPLNF027.                   DU0065
                                                                        DU0065
       01  FAUR-FAU-DATA.              COPY CPWSFAUR.                   DU0065
                                                                        PPL141
       01  BLANK-LINE                  PIC X(132)  VALUE ALL SPACES.    PPL141
           EJECT                                                        PPL141
       01  PLFAU501-INTERFACE.                    COPY CLLNF501.        DU0065
                                                                        DU0065
       01  PPFAU007-INTERFACE.                    COPY CPLNF007.        DU0065
                                                                        DU0065
       01  PPFAU001-INTERFACE.                    COPY CPLNF001.        DU0065
           EJECT                                                        DU0065
       01  PPDB2MSG-INTERFACE.                    COPY CPLNKDB2.        DU0065
           EJECT                                                        DU0065
           EJECT                                                        PPL141
       PROCEDURE DIVISION.                                              PPL141
       MAIN-START SECTION.                                              PPL141
                                                                        PPL141
           PERFORM INITAL-HSKP.                                         PPL141
                                                                        PPL141
           PERFORM PROCESS-TRANS UNTIL EOF-TRANS.                       PPL141
                                                                        PPL141
           PERFORM END-PROCESS.                                         PPL141
                                                                        PPL141
       MAIN-START-EXIT.                                                 PPL141
           EXIT.                                                        PPL141
           EJECT                                                        PPL141
                                                                        PPL141
       INITAL-HSKP SECTION.                                             PPL141
                                                                        PPL141
           OPEN INPUT TIMEIN-FILE.                                      PPL141
           OPEN OUTPUT TIMEOUT-FILE                                     PPL141
                       PRINT-FILE                                       PPL141
                       CONTROLREPORT.                                   PPL141
                                                                        PPL141
           COPY CLPDCRPT.                                               PPL141
                                                                        PPL141
           INITIALIZE     PPFAU001-INTERFACE                            DU0065
                          PPFAU007-INTERFACE                            DU0065
                          PPFAU027-INTERFACE                            DU0065
                          PLFAU501-INTERFACE                            DU0065
                          FAUR-FAU                                      DU0065
                          PRT-DET-LINE                                  PPL141
                          WS-IFIS-INDEX                                 PPL141
                          WS-DEPART-INDEX                               PPL141
                          WS-HOLD-DIST.                                 PPL141
           MOVE WS-LIT-NO TO ABEND-SW.                                  PPL141
           MOVE ZERO      TO TRANS-SW                                   PPL141
                             TABLE-SW.                                  PPL141
           MOVE WS-LIT-NWIND TO PRT-HDR-IDINDX.                         PPL141
                                                                        PPL141
           MOVE WS-LIT-DEFAULT-INDX TO FAUR-INDEX.                      DU0065
           MOVE '2'  TO FAUR-SUB-ACCOUNT.                               DU0065
                                                                        DU0065
           PERFORM CALL-PPFAU001.                                       DU0065
           MOVE F001-FAU TO FAUR-FAU.                                   PPL141
                                                                        PPL141
           IF ABEND-YES                                                 PPL141
               PERFORM END-PROCESS                                      PPL141
           ELSE                                                         PPL141
               MOVE WS-LIT-IDNUM TO PRT-HDR-IDINDX                      PPL141
               MOVE 60 TO WS-CNT-LINE.                                  PPL141
                                                                        PPL141
       INITAL-HSKP-EXIT.                                                PPL141
           EXIT.                                                        PPL141
           EJECT                                                        PPL141
       PROCESS-TRANS SECTION.                                           PPL141
                                                                        PPL141
           READ TIMEIN-FILE                                             PPL141
               AT END                                                   PPL141
                   MOVE WS-LIT-ONE TO TRANS-SW                          PPL141
                   GO TO PROCESS-TRANS-EXIT.                            PPL141
                                                                        PPL141
           ADD 1 TO WS-CNT-READ.                                        PPL141
           IF TIMEIN-REC(6:1) = 'S'
              NEXT SENTENCE
           ELSE
               PERFORM CHK-DIST-INDX                                    PPL141
           END-IF.                                                      PPL141
                                                                        PPL141
           PERFORM WRITE-DIST-TRANS.                                    PPL141
                                                                        PPL141
       PROCESS-TRANS-EXIT.                                              PPL141
           EXIT.                                                        PPL141
           EJECT                                                        PPL141
       CHK-DIST-INDX SECTION.                                           PPL141
                                                                        PPL141
           PERFORM MOVE-DIST-FAU.                                       PPL141
           MOVE FAUR-INDEX               TO WS-HOLD-DIST-INDEX.         DU0065
           MOVE FAUR-ORGANIZATION        TO WS-HOLD-DIST-ORG.           DU0065
           MOVE FAUR-PROGRAM             TO WS-HOLD-DIST-PROG.          DU0065
           MOVE FAUR-FUND                TO WS-HOLD-DIST-IFUND.         DU0065
           MOVE FAUR-LOCATION            TO WS-HOLD-DIST-LOCATION.      DU0065
           MOVE TMTR-TTL-CD     OF TIMEIN-REC                           DU0065
                TO FAU-F501-TITLE.                                      DU0065
           MOVE TMTR-DOS-CD OF TIMEIN-REC   TO FAU-F501-DOS.            DU0065
           MOVE FAUR-SUB-ACCOUNT         TO WS-HOLD-DIST-SUB.           DU0065
           MOVE FAUR-FAU TO F501-FAU.                                   PPL141
           CALL 'PLFAU501' USING PLFAU501-INTERFACE.                    PPL141
                                                                        PPL141
           PERFORM MOVE-DIST-FAU.                                       DU0065
           PERFORM CALL-PPFAU001.                                       DU0065
                                                                        PPL141
           IF F001-FAU-VALID                                            DU0065
               ADD WS-LIT-ONE TO WS-CNT-INDX-FND                        PPL141
               MOVE SPACES TO PRT-INDEX-MSG                             PPL141
               PERFORM CALL-PPFAU027                                    DU0065
               PERFORM FIND-PRT-DIFFS                                   PPL141
               MOVE '6' TO FAUR-FAU (1:1)                               DU0065
               PERFORM RESTORE-DIST-FAU                                 DU0065
               GO TO CHK-DIST-INDX-EXIT.                                PPL141
                                                                        PPL141
           PERFORM CHECK-INDEX-LEVELS.                                  PPL141
           MOVE '6' TO FAUR-FAU (1:1).                                  DU0065
           PERFORM RESTORE-DIST-FAU.                                    PPL141
                                                                        PPL141
       CHK-DIST-INDX-EXIT.                                              PPL141
           EXIT.                                                        PPL141
           EJECT                                                        PPL141
       CALL-PPFAU027   SECTION.                                         DU0065
                                                                        DU0065
           MOVE FAUR-FAU TO F027-FAU.                                   DU0065
           CALL 'PPFAU027' USING PPFAU027-INTERFACE.                    DU0065
                                                                        DU0065
           IF F027-FAILURE-CODE  = ZEROS                                DU0065
               MOVE F027-C001-ACCOUNT TO WS-HOLD-DIST-UCOPACCT          DU0065
           ELSE                                                         DU0065
               MOVE SPACES            TO WS-HOLD-DIST-UCOPACCT          DU0065
           END-IF.                                                      DU0065
                                                                        DU0065
       CALL-PPFAU027-EXIT.                                              DU0065
           EXIT.                                                        DU0065
           EJECT                                                        PPL141
       CHECK-INDEX-LEVELS SECTION.                                      PPL141
                                                                        PPL141
           PERFORM GENERATE-INDEX.                                      PPL141
           IF FAUR-SUB-ACCOUNT = SPACES OR LOW-VALUES                   DU0065
               MOVE '2'  TO FAUR-SUB-ACCOUNT.                           DU0065
           PERFORM CALL-PPFAU001.                                       DU0065
                                                                        DU0065
           IF F001-FAU-VALID                                            DU0065
               ADD WS-LIT-ONE TO WS-CNT-DEPT-DFLT                       PPL141
               PERFORM FIND-PRT-DIFFS                                   PPL141
               GO TO CHECK-INDEX-LEVELS-EXIT.                           PPL141
                                                                        PPL141
           INITIALIZE PPFAU001-INTERFACE.                               DU0065
           MOVE WS-LIT-DEFAULT-INDX TO FAUR-INDEX.                      DU0065
           MOVE '2'                 TO FAUR-SUB-ACCOUNT.                DU0065
           PERFORM CALL-PPFAU001.                                       DU0065
                                                                        DU0065
           IF F001-FAU-VALID                                            DU0065
               ADD WS-LIT-ONE TO WS-CNT-GLOB-DFLT                       PPL141
               PERFORM FIND-PRT-DIFFS                                   PPL141
               GO TO CHECK-INDEX-LEVELS-EXIT                            PPL141
           END-IF.                                                      DU0065
                                                                        PPL141
           MOVE WS-LIT-INDX-ERR TO PRT-INDEX-MSG.                       PPL141
           ADD 1 TO WS-CNT-INDX-NTFND.                                  PPL141
           MOVE WS-LIT-YES TO ABEND-SW.                                 PPL141
           PERFORM WRITE-PRNT-RPT.                                      PPL141
                                                                        PPL141
       CHECK-INDEX-LEVELS-EXIT.                                         PPL141
           EXIT.                                                        PPL141
                                                                        PPL141
                                                                        PPL141
                                                                        PPL141
       GENERATE-INDEX SECTION.                                          PPL141
                                                                        PPL141
           MOVE FAUR-INDEX    TO WS-IFIS-INDEX.                         DU0065
           MOVE WS-IFIS-INDX3 TO WS-DEPART-INDX3.                       PPL141
           MOVE ZEROS         TO WS-DEPART-INDX4.                       PPL141
           MOVE WS-DEPART-INDEX TO FAUR-INDEX.                          DU0065
                                                                        PPL141
       GENERATE-INDEX-EXIT.                                             PPL141
           EXIT.                                                        PPL141
           EJECT                                                        PPL141
       CALL-PPFAU001 SECTION.                                           DU0065
                                                                        PPL141
           MOVE FAUR-FAU TO F001-FAU.                                   DU0065
           CALL 'PPFAU001' USING PPFAU001-INTERFACE.                    DU0065
                                                                        PPL173
           IF F001-FAU-VALID                                            DU0065
               CONTINUE                                                 DU0065
           ELSE                                                         DU0065
               GO TO CALL-PPFAU001-EXIT.                                DU0065
           IF WS-CNT-READ = ZEROS                                       PPL141
               GO TO CALL-PPFAU001-EXIT.                                DU0065
                                                                        PPL141
           MOVE F001-FAU TO FAUR-FAU.                                   DU0065
           MOVE FAUR-FAU TO F007-FAU.                                   DU0065
           CALL 'PPFAU007' USING PPFAU007-INTERFACE.                    DU0065
                                                                        PPL173
           IF F007-FAU-VALID                                            DU0065
               MOVE F007-TITLE TO WS-HOLD-DIST-INDEX-TITLE              DU0065
           ELSE                                                         DU0065
               MOVE SPACES TO WS-HOLD-DIST-INDEX-TITLE                  DU0065
           END-IF.                                                      DU0065
                                                                        PPL141
       CALL-PPFAU001-EXIT.                                              DU0065
           EXIT.                                                        PPL141
       EJECT                                                            PPL141
       FIND-PRT-DIFFS SECTION.                                          PPL141
                                                                        PPL141
           MOVE WS-LIT-NO TO WS-MATCH-SW.                               PPL141
           IF WS-HOLD-DIST-INDEX NOT =                                  PPL141
               FAUR-INDEX                                               DU0065
                   MOVE WS-LIT-YES TO WS-MATCH-SW.                      PPL141
                                                                        PPL141
           IF WS-HOLD-DIST-SUB NOT = FAUR-SUB-ACCOUNT                   DU0065
               MOVE WS-LIT-YES TO WS-MATCH-SW.                          PPL141
                                                                        PPL141
      *    IF (DIST-FINAID-TYPE OF TIMEIN-REC = 'W' OR 'P')             DU0065
      *        MOVE WS-HOLD-DIST-IFUND TO FAUR-FUND                     DU0065
      *    ELSE                                                         DS628
               IF WS-HOLD-DIST-IFUND NOT = FAUR-FUND                    DU0065
                   MOVE WS-LIT-YES TO WS-MATCH-SW.                      DS628
                                                                        PPL141
           IF WS-HOLD-DIST-ORG NOT = FAUR-ORGANIZATION                  DU0065
               MOVE WS-LIT-YES TO WS-MATCH-SW.                          PPL141
                                                                        PPL141
           IF WS-HOLD-DIST-PROG NOT = FAUR-PROGRAM                      DU0065
               MOVE WS-LIT-YES TO WS-MATCH-SW.                          PPL141
                                                                        PPL141
           IF WS-HOLD-DIST-UCOPACCT NOT = F027-C001-ACCOUNT             DU0065
               MOVE WS-LIT-YES TO WS-MATCH-SW.                          PPL141
                                                                        PPL141
      *****THIS IS A TEMPORARY FIX *****                                DU0065
           IF WS-HOLD-DIST-LOCATION NOT = FAUR-LOCATION                 DU0065
               MOVE WS-LIT-YES TO WS-MATCH-SW.                          DU0065
                                                                        PPL141
           IF WS-MATCH-NTFND                                            PPL141
               ADD WS-LIT-ONE TO WS-CNT-DIS-NTMTCH                      PPL141
               PERFORM WRITE-PRNT-RPT                                   PPL141
           ELSE                                                         PPL141
               ADD WS-LIT-ONE TO WS-CNT-DIS-MATCH.                      PPL141
                                                                        PPL141
       FIND-PRT-DIFFS-EXIT.                                             PPL141
           EXIT.                                                        PPL141
           EJECT                                                        PPL141
       WRITE-PRNT-RPT SECTION.                                          PPL141
                                                                        PPL141
           IF WS-CNT-LINE > 54                                          PPL141
               PERFORM WRITE-HDRS.                                      PPL141
                                                                        PPL141
           MOVE TMTR-EMP-ID     OF TIMEIN-REC                           PPL141
             TO PRT-INDEX-IDNUM.                                        PPL141
           MOVE WS-HOLD-DIST-INDEX   TO PRT-INDEX.                      PPL141
           MOVE WS-HOLD-DIST-IFUND   TO PRT-INDEX-FUND.                 PPL141
           MOVE WS-HOLD-DIST-SUB     TO PRT-INDEX-SUB.                  PPL141
           MOVE WS-HOLD-DIST-ORG     TO PRT-INDEX-ORG.                  PPL141
           MOVE WS-HOLD-DIST-PROG    TO PRT-INDEX-PROGRAM.              PPL141
           MOVE WS-HOLD-DIST-UCOPACCT TO PRT-INDEX-UCOPACCT.            PPL141
           MOVE WS-HOLD-DIST-LOCATION TO PRT-INDEX-LOC.                 DU0065
           MOVE SPACES               TO PRT-INDEX-MSG.                  PPL141
                                                                        PPL141
           WRITE PRNT-REC FROM PRT-DET-LINE AFTER                       PPL141
               ADVANCING 2 LINES.                                       PPL141
           ADD 2 TO WS-CNT-LINE.                                        PPL141
                                                                        PPL141
           MOVE SPACES TO PRT-INDEX-IDNUM.                              PPL141
           MOVE FAUR-INDEX              TO PRT-INDEX.                   DU0065
           MOVE WS-HOLD-DIST-INDEX-TITLE TO PRT-INDEX-TITLE.            PPL141
           MOVE FAUR-FUND         TO PRT-INDEX-FUND.                    DU0065
           MOVE FAUR-ORGANIZATION TO PRT-INDEX-ORG.                     DU0065
           MOVE FAUR-PROGRAM      TO PRT-INDEX-PROGRAM.                 DU0065
           MOVE FAUR-LOCATION     TO PRT-INDEX-LOC.                     DU0065
           IF FAUR-INDEX =                                              DU0065
               WS-LIT-DEFAULT-INDX                                      PPL141
                   MOVE WS-LIT-GLOB-DEFAULT TO PRT-INDEX-MSG            PPL141
           ELSE                                                         PPL141
               IF FAUR-INDEX NOT = WS-HOLD-DIST-INDEX                   DU0065
                       MOVE WS-LIT-DEPT-DEFAULT TO PRT-INDEX-MSG.       PPL141
           MOVE FAUR-SUB-ACCOUNT TO PRT-INDEX-SUB.                      DU0065
                                                                        PPL141
           WRITE PRNT-REC FROM PRT-DET-LINE AFTER                       PPL141
               ADVANCING 1 LINES.                                       PPL141
           ADD 1 TO WS-CNT-LINE.                                        PPL141
           MOVE SPACES TO PRT-DET-LINE.                                 PPL141
                                                                        PPL141
           IF FAUR-SUB-ACCOUNT NOT = WS-HOLD-DIST-SUB                   PPL141
               MOVE WS-LIT-UNDRLINE1 TO PRT-INDEX-SUB.                  PPL141
           IF FAUR-FUND    NOT = WS-HOLD-DIST-IFUND                     PPL141
               MOVE WS-LIT-UNDRLINE6 TO PRT-INDEX-FUND.                 PPL141
           IF FAUR-ORGANIZATION NOT = WS-HOLD-DIST-ORG                  PPL141
               MOVE WS-LIT-UNDRLINE6 TO PRT-INDEX-ORG.                  PPL141
           IF FAUR-PROGRAM NOT = WS-HOLD-DIST-PROG                      PPL141
               MOVE WS-LIT-UNDRLINE6 TO PRT-INDEX-PROGRAM.              PPL141
           IF F027-C001-ACCOUNT      NOT = WS-HOLD-DIST-UCOPACCT        PPL141
               MOVE WS-LIT-UNDRLINE6 TO PRT-INDEX-UCOPACCT.             PPL141
           IF FAUR-LOCATION    NOT = WS-HOLD-DIST-LOCATION              DU0065
               MOVE WS-LIT-UNDRLINE1 TO PRT-INDEX-LOC.                  DU0065
      *****TEMPORARY FIX                                                PPL141
           IF FAUR-LOCATION = 'O'                                       DU0065
               MOVE '6' TO FAUR-LOCATION.                               DU0065
           PERFORM RESTORE-DIST-FAU.                                    DU0065
                                                                        PPL141
           WRITE PRNT-REC FROM PRT-DET-LINE AFTER                       PPL141
               ADVANCING 1 LINES.                                       PPL141
           ADD 1 TO WS-CNT-LINE.                                        PPL141
           MOVE SPACES TO PRT-DET-LINE.                                 PPL141
                                                                        PPL141
       WRITE-PRNT-RPT-EXIT.                                             PPL141
           EXIT.                                                        PPL141
           EJECT                                                        PPL141
       WRITE-HDRS SECTION.                                              PPL141
                                                                        PPL141
           ADD 1 TO WS-CNT-PAGE.                                        PPL141
           MOVE WS-CNT-PAGE TO PRT-TITLE-PAGENO.                        PPL141
           MOVE GREGORIAN-DATE TO PRT-TITLE-DATE.                       PPL141
           WRITE PRNT-REC FROM PRT-TITLE-LINE AFTER                     PPL141
               ADVANCING TOP-PAGE.                                      PPL141
           WRITE PRNT-REC FROM PRT-TITLE-LINE2 AFTER                    PPL141
               ADVANCING 1 LINES.                                       PPL141
           WRITE PRNT-REC FROM PRT-HDR-LINE AFTER                       PPL141
               ADVANCING 2 LINES.                                       PPL141
           WRITE PRNT-REC FROM BLANK-LINE AFTER                         PPL141
               ADVANCING 1 LINES.                                       PPL141
           MOVE 4 TO WS-CNT-LINE.                                       PPL141
                                                                        PPL141
       WRITE-HDRS-EXIT.                                                 PPL141
           EXIT.                                                        PPL141
           EJECT                                                        PPL141
       WRITE-DIST-TRANS SECTION.                                        PPL141
                                                                        PPL141
           WRITE TIMEOUT-REC FROM TIMEIN-REC.                           PPL141
           ADD WS-LIT-ONE TO WS-CNT-WRITE.                              PPL141
                                                                        PPL141
           INITIALIZE PPFAU001-INTERFACE                                DU0065
                      PPFAU007-INTERFACE                                DU0065
                      PLFAU501-INTERFACE                                DU0065
                          PRT-DET-LINE                                  PPL141
                          WS-IFIS-INDEX                                 PPL141
                          WS-DEPART-INDEX                               PPL141
                          WS-HOLD-DIST.                                 PPL141
                                                                        PPL141
       WRITE-DIST-TRANS-EXIT.                                           PPL141
           EXIT.                                                        PPL141
           EJECT                                                        PPL141
       MOVE-DIST-FAU SECTION.                                           PPL141
                                                                        PPL141
           MOVE TMTR-BDGT-LOC-CD    OF  TIMEIN-REC  TO                  PPL141
                FAUR-LOCATION .                                         PPL141
           MOVE TMTR-BDGT-ACCOUNT-INDEX OF TIMEIN-REC  TO               PPL141
                FAUR-INDEX .                                            PPL141
           MOVE TMTR-BDGT-ORGANIZATION OF  TIMEIN-REC  TO               PPL141
                FAUR-ORGANIZATION .                                     PPL141
           MOVE TMTR-BDGT-PROGRAM      OF  TIMEIN-REC  TO               PPL141
                FAUR-PROGRAM .                                          PPL141
           MOVE TMTR-BDGT-FUND-EXTENSION OF  TIMEIN-REC  TO             PPL141
                FAUR-FUND(6:1).                                         PPL141
           MOVE TMTR-BDGT-FUND-CD   OF  TIMEIN-REC  TO                  PPL141
                FAUR-FUND(1:5).                                         PPL141
           MOVE TMTR-BDGT-SUB-CD    OF  TIMEIN-REC  TO                  PPL141
                FAUR-SUB-ACCOUNT .                                      PPL141
                                                                        PPL141
       MOVE-DIST-FAU-EXIT.                                              PPL141
           EXIT.                                                        PPL141
                                                                        PPL141
       RESTORE-DIST-FAU SECTION.                                        PPL141
                                                                        PPL141
           MOVE FAUR-LOCATION       TO                                  PPL141
                TMTR-BDGT-LOC-CD    OF  TIMEIN-REC .                    PPL141
           MOVE FAUR-INDEX TO                                           PPL141
                TMTR-BDGT-ACCOUNT-INDEX OF  TIMEIN-REC .                PPL141
           MOVE FAUR-ORGANIZATION   TO                                  PPL141
                TMTR-BDGT-ORGANIZATION OF TIMEIN-REC .                  PPL141
           MOVE FAUR-PROGRAM        TO                                  PPL141
                TMTR-BDGT-PROGRAM OF  TIMEIN-REC .                      PPL141
           MOVE FAUR-FUND(1:5)      TO                                  PPL141
                TMTR-BDGT-FUND-CD OF  TIMEIN-REC .                      PPL141
           MOVE FAUR-FUND(6:1)      TO                                  PPL141
                TMTR-BDGT-FUND-EXTENSION   OF  TIMEIN-REC .             PPL141
           MOVE FAUR-SUB-ACCOUNT    TO                                  PPL141
                TMTR-BDGT-SUB-CD    OF  TIMEIN-REC .                    PPL141
                                                                        PPL141
                                                                        PPL141
       RESTORE-DIST-FAU-EXIT.                                           PPL141
           EXIT.                                                        PPL141
           EJECT                                                        PPL141
       END-PROCESS SECTION.                                             PPL141
                                                                        PPL141
           PERFORM WRITE-PRNT-STATS.                                    PPL141
           CLOSE TIMEIN-FILE                                            PPL141
                 TIMEOUT-FILE                                           PPL141
                 CONTROLREPORT                                          PPL141
                 PRINT-FILE.                                            PPL141
           STOP RUN.                                                    PPL141
                                                                        PPL141
       END-PROCESS-EXIT.                                                PPL141
           EXIT.                                                        PPL141
                                                                        PPL141
                                                                        PPL141
       WRITE-PRNT-STATS SECTION.                                        PPL141
                                                                        PPL141
           MOVE 'PPL139CR'             TO CR-HL1-RPT.                   PPL141
           MOVE CR-HDG-LINE1           TO CONTROL-DATA.                 PPL141
           WRITE CONTROLRECORD AFTER ADVANCING PAGE.                    PPL141
                                                                        PPL141
           MOVE CR-HDG-LINE2           TO CONTROL-DATA.                 PPL141
           WRITE CONTROLRECORD AFTER ADVANCING 1 LINES.                 PPL141
                                                                        PPL141
           MOVE WHEN-COMPILED          TO COMPILE-TIME-AND-DATE.        PPL141
           MOVE COMPILE-TIME           TO CR-HL3-CMP-TIME.              PPL141
           MOVE COMPILE-DATE           TO CR-HL3-CMP-DATE.              PPL141
           MOVE CR-HDG-LINE3           TO CONTROL-DATA.                 PPL141
           WRITE CONTROLRECORD AFTER ADVANCING 2 LINES.                 PPL141
                                                                        PPL141
           MOVE CR-HDG-LINE4           TO CONTROL-DATA.                 PPL141
           WRITE CONTROLRECORD AFTER ADVANCING 3 LINES.                 PPL141
                                                                        PPL141
           MOVE NO-CONTROL-CARD        TO CR-DL5-CTL-CARD.              PPL141
           MOVE CR-DET-LINE5           TO CONTROL-DATA.                 PPL141
           WRITE CONTROLRECORD AFTER ADVANCING 1 LINES.                 PPL141
                                                                        PPL141
           MOVE CR-HDG-LINE6           TO CONTROL-DATA.                 PPL141
           WRITE CONTROLRECORD AFTER ADVANCING 3 LINES.                 PPL141
                                                                        PPL141
           COPY CPPDTIME.                                               DS795
           MOVE PRE-EDIT-TIME          TO TIME-WORK-AREA.               DS795
           MOVE CORR TIME-WORK-AREA    TO TIME-WORK-AREA-SPLIT.         DS795
           MOVE TIME-WORK-AREA-SPLIT   TO CR-DL7-CTL-TIME.              PPL141
           MOVE CR-DET-LINE7           TO CONTROL-DATA.                 PPL141
           WRITE CONTROLRECORD AFTER ADVANCING 2 LINES.                 PPL141
                                                                        PPL141
           MOVE CR-HDG-LINE8           TO CONTROL-DATA.                 PPL141
           WRITE CONTROLRECORD AFTER ADVANCING 3 LINES.                 PPL141
                                                                        PPL141
           MOVE 'INPUT            '    TO CR-DL9-FILE.                  PPL141
           MOVE SO-READ                TO CR-DL9-ACTION.                PPL141
           MOVE WS-CNT-READ            TO CR-DL9-VALUE.                 PPL141
           MOVE CR-DET-LINE9           TO CONTROL-DATA.                 PPL141
           WRITE CONTROLRECORD AFTER ADVANCING 2 LINES.                 PPL141
                                                                        PPL141
           MOVE 'TIMESHEETS       '    TO CR-DL9-FILE.                  PPL141
           MOVE 'EXAMINED'             TO CR-DL9-ACTION.                PPL141
           MOVE WS-CNT-INDX-EXAM       TO CR-DL9-VALUE.                 PPL141
           MOVE CR-DET-LINE9           TO CONTROL-DATA.                 PPL141
           WRITE CONTROLRECORD AFTER ADVANCING 2 LINES.                 PPL141
                                                                        PPL141
           MOVE 'TIMESHEETS       '    TO CR-DL9-FILE.                  PPL141
           MOVE 'TRANSLATED'           TO CR-DL9-ACTION.                PPL141
           MOVE WS-CNT-INDX-TRANS      TO CR-DL9-VALUE.                 PPL141
           MOVE CR-DET-LINE9           TO CONTROL-DATA.                 PPL141
           WRITE CONTROLRECORD AFTER ADVANCING 2 LINES.                 PPL141
                                                                        PPL141
           MOVE 'INDEXES          '    TO CR-DL9-FILE.                  PPL141
           MOVE 'FOUND'                TO CR-DL9-ACTION.                PPL141
           MOVE WS-CNT-INDX-FND        TO CR-DL9-VALUE.                 PPL141
           MOVE CR-DET-LINE9           TO CONTROL-DATA.                 PPL141
           WRITE CONTROLRECORD AFTER ADVANCING 2 LINES.                 PPL141
                                                                        PPL141
           MOVE 'GLOBAL INDEX     '    TO CR-DL9-FILE.                  PPL141
           MOVE 'FOUND'                TO CR-DL9-ACTION.                PPL141
           MOVE WS-CNT-GLOB-DFLT       TO CR-DL9-VALUE.                 PPL141
           MOVE CR-DET-LINE9           TO CONTROL-DATA.                 PPL141
           WRITE CONTROLRECORD AFTER ADVANCING 2 LINES.                 PPL141
                                                                        PPL141
           MOVE 'DEPART INDEX     '    TO CR-DL9-FILE.                  PPL141
           MOVE 'FOUND'                TO CR-DL9-ACTION.                PPL141
           MOVE WS-CNT-DEPT-DFLT       TO CR-DL9-VALUE.                 PPL141
           MOVE CR-DET-LINE9           TO CONTROL-DATA.                 PPL141
           WRITE CONTROLRECORD AFTER ADVANCING 2 LINES.                 PPL141
                                                                        PPL141
           MOVE 'INDEXES          '    TO CR-DL9-FILE.                  PPL141
           MOVE 'NOT FOUND'            TO CR-DL9-ACTION.                PPL141
           MOVE WS-CNT-INDX-NTFND      TO CR-DL9-VALUE.                 PPL141
           MOVE CR-DET-LINE9           TO CONTROL-DATA.                 PPL141
           WRITE CONTROLRECORD AFTER ADVANCING 2 LINES.                 PPL141
                                                                        PPL141
           MOVE 'TIMESHEETS       '    TO CR-DL9-FILE.                  PPL141
           MOVE 'MATCHED  '            TO CR-DL9-ACTION.                PPL141
           MOVE WS-CNT-DIS-MATCH       TO CR-DL9-VALUE.                 PPL141
           MOVE CR-DET-LINE9           TO CONTROL-DATA.                 PPL141
           WRITE CONTROLRECORD AFTER ADVANCING 2 LINES.                 PPL141
                                                                        PPL141
           MOVE 'NO MATCH '            TO CR-DL9-ACTION.                PPL141
           MOVE WS-CNT-DIS-NTMTCH      TO CR-DL9-VALUE.                 PPL141
           MOVE CR-DET-LINE9           TO CONTROL-DATA.                 PPL141
           WRITE CONTROLRECORD AFTER ADVANCING 2 LINES.                 PPL141
                                                                        PPL141
           MOVE 'OUTPUT           '    TO CR-DL9-FILE.                  PPL141
           MOVE 'WRITTEN'              TO CR-DL9-ACTION.                PPL141
           MOVE WS-CNT-WRITE           TO CR-DL9-VALUE.                 PPL141
           MOVE CR-DET-LINE9           TO CONTROL-DATA.                 PPL141
           WRITE CONTROLRECORD AFTER ADVANCING 2 LINES.                 PPL141
                                                                        PPL141
           IF ABEND-YES                                                 PPL141
               MOVE CR-DET-LINE10 TO CONTROL-DATA                       PPL141
               WRITE CONTROLRECORD AFTER ADVANCING 3 LINES.             DU0065
                                                                        PPL141
           MOVE END-OF-REPORT-MSG      TO CONTROL-DATA.                 PPL141
           WRITE CONTROLRECORD AFTER ADVANCING 4 LINES.                 PPL141
                                                                        PPL141
       WRITE-PRNT-STATS-EXIT.                                           PPL141
           EXIT.                                                        PPL141
                                                                        PPL141
