000010**************************************************************/   30871230
000020*  PROGRAM: PPLAFHST                                         */   30871230
000030*  RELEASE: ___1230______ SERVICE REQUEST(S): _____3087____  */   30871230
000040*  NAME:___SRS___________ MODIFICATION DATE:  ___03/08/99__  */   30871230
000050*  DESCRIPTION:                                              */   30871230
000060*  REPLACE MESSAGE UTILITY CALLS WITH DB2 VERSION.           */   30871230
000070**************************************************************/   30871230
000100**************************************************************/   36330704
000200*  PROGRAM: PPLAFHST                                         */   36330704
000300*  RELEASE # ___0704___   SERVICE REQUEST NO(S)____3633______*/   36330704
000400*  NAME __B.I.T._______   CREATION DATE     ____10/02/92_____*/   36330704
000500*  DESCRIPTION                                               */   36330704
000600*                                                            */   36330704
000700*      PPLAFHST IS A NEW PROGRAM FOR RELEASE   # 0704        */   36330704
000800*                                                            */   36330704
000900**************************************************************/   36330704
001000 IDENTIFICATION DIVISION.                                         PPLAFHST
001100 PROGRAM-ID. PPLAFHST.                                            PPLAFHST
001200 AUTHOR. BUSINESS INFORMATION TECH, INC. DWH/BIT.                 PPLAFHST
001300 INSTALLATION. UNIVERSITY OF CALIFORNIA, STANDARD SYSTEM          PPLAFHST
001400*REMARKS.                                                         PPLAFHST
001500*-----------------------------------------------------------------PPLAFHST
001600*  THIS PROGRAM RECEIVES A CALL FROM PPP741 TO CAPTURE CHANGES    PPLAFHST
001700*  MADE ON THE PCD TABLE TO THE CDB DATABASE.                     PPLAFHST
001800*                                                                 PPLAFHST
001900*  THE FOLLOWING CODES ARE RETURN CODES TO PASS BACK THROUGH TO   PPLAFHST
002000*  THE CALLING PROGRAM IN IHDB-ERROR:                             PPLAFHST
002100*                         00  PROCESSING SUCCESSFUL               PPLAFHST
002200*                         02  WARNING MESSAGE SENT                PPLAFHST
002300*                         03  ERROR ON PCD READ                   PPLAFHST
002400*                         04  SYSTEMS MESSAGE SENT                PPLAFHST
002500*  AN ERROR CODE > 2 SHOULD ABEND THE PROCESS                     PPLAFHST
002600*-----------------------------------------------------------------PPLAFHST
002700 DATE-WRITTEN.  04/10/92.  VERSION 1.0.                           PPLAFHST
002800 DATE-COMPILED.                                                   PPLAFHST
002900     SKIP3                                                        PPLAFHST
003000 ENVIRONMENT DIVISION.                                            PPLAFHST
003100 CONFIGURATION SECTION.                                           PPLAFHST
003200 SOURCE-COMPUTER.  COPY CPOTXUCS.                                 PPLAFHST
003300 OBJECT-COMPUTER. COPY CPOTXOBJ.                                  PPLAFHST
003400 SPECIAL-NAMES.                                                   PPLAFHST
003500     EJECT                                                        PPLAFHST
003600 INPUT-OUTPUT SECTION.                                            PPLAFHST
003700 FILE-CONTROL.                                                    PPLAFHST
003800*                                                                 PPLAFHST
003900 DATA DIVISION.                                                   PPLAFHST
004000 FILE SECTION.                                                    PPLAFHST
004100*                                                                 PPLAFHST
004200     EJECT                                                        PPLAFHST
004300******************************************************************PPLAFHST
004400 WORKING-STORAGE SECTION.                                         PPLAFHST
004500******************************************************************PPLAFHST
004600 77  I                           PICTURE S9(5)   COMP-3.          PPLAFHST
004700*                                                                 PPLAFHST
004800*                                                                 PPLAFHST
004900 01  A-STND-PROG-ID            PIC  X(8)  VALUE 'PPLAFHST'.       PPLAFHST
005000*                                                                 PPLAFHST
005100*-----------------------------------------------------------------PPLAFHST
005200*    MISC WORK DEFINITIONS                                        PPLAFHST
005300*-----------------------------------------------------------------PPLAFHST
005400 01  WORK-SWITCHES.                                               PPLAFHST
005500     03  CDB-EOF-SW              PIC X     VALUE 'N'.             PPLAFHST
005600         88  CDB-EOF                       VALUE 'Y'.             PPLAFHST
005700         88  CDB-NOT-EOF                   VALUE 'N'.             PPLAFHST
005800     03  PCD-EOF-SW              PIC X     VALUE 'N'.             PPLAFHST
005900         88  PCD-EOF                       VALUE 'Y'.             PPLAFHST
006000         88  PCD-NOT-EOF                   VALUE 'N'.             PPLAFHST
006100     03  CDB-ROW-OPEN-SW         PIC X     VALUE 'N'.             PPLAFHST
006200         88  CDB-ROW-OPEN                  VALUE 'Y'.             PPLAFHST
006300         88  CDB-ROW-NOTOPEN               VALUE 'N'.             PPLAFHST
006400*                                                                 PPLAFHST
006500 01  WORK-AREA.                                                   PPLAFHST
006600     05  RECORD-COUNTS.                                           PPLAFHST
006700         10  TABLE-ADDS           PIC S9(6) COMP-3 VALUE ZEROS.   PPLAFHST
006800         10  TABLE-DELS           PIC S9(6) COMP-3 VALUE ZEROS.   PPLAFHST
006900         10  TABLE-CHGS           PIC S9(6) COMP-3 VALUE ZEROS.   PPLAFHST
007000     05  RPT-LINE.                                                PPLAFHST
007100         10  FILLER               PIC X(17) VALUE                 PPLAFHST
007200             'TABLE LAF - ADDS:'.                                 PPLAFHST
007300         10  RPT-AMOUNT1          PIC ZZ,ZZ9.                     PPLAFHST
007400         10  FILLER               PIC X(8)  VALUE                 PPLAFHST
007500             '   DELS:'.                                          PPLAFHST
007600         10  RPT-AMOUNT2          PIC ZZ,ZZ9.                     PPLAFHST
007700         10  FILLER               PIC X(8)  VALUE                 PPLAFHST
007800             '   CHGS:'.                                          PPLAFHST
007900         10  RPT-AMOUNT3          PIC ZZ,ZZ9.                     PPLAFHST
008000*                                                                 PPLAFHST
008100     EJECT                                                        PPLAFHST
008200*-----------------------------------------------------------------PPLAFHST
008300*    INDIVIDUAL CDB TABLE AREA DEFINITIONS                        PPLAFHST
008400*-----------------------------------------------------------------PPLAFHST
008500 01  COMPARE-AREA.                                                PPLAFHST
008600     05  CDB-REC.                                                 PPLAFHST
008700         10  CDB-KEY.                                             PPLAFHST
008800             15 LAF-TITLE-TYPE     PIC X(1).                      PPLAFHST
008900             15 LAF-TITLE-UNIT-CD  PIC X(2).                      PPLAFHST
009000             15 LAF-AREP-CODE      PIC X(1).                      PPLAFHST
009100             15 LAF-SHC            PIC X(1).                      PPLAFHST
009200             15 LAF-DUC            PIC X(1).                      PPLAFHST
009300             15 LAF-EFFECTIVE-DATE PIC X(10).                     PPLAFHST
009400             15 LAF-FUND-RANGE-LOW PIC X(5).                      PPLAFHST
009500             15 LAF-FUND-RANGE-HI  PIC X(5).                      PPLAFHST
009600         10  CDB-KEY2              PIC X(18).                     PPLAFHST
009700         10  CDB-DATA              PIC X(500).                    PPLAFHST
009800     05  HOLD-CDB-REC.                                            PPLAFHST
009900         10  HOLD-CDB-KEY.                                        PPLAFHST
010000             15 LAF-TITLE-TYPE     PIC X(1).                      PPLAFHST
010100             15 LAF-TITLE-UNIT-CD  PIC X(2).                      PPLAFHST
010200             15 LAF-AREP-CODE      PIC X(1).                      PPLAFHST
010300             15 LAF-SHC            PIC X(1).                      PPLAFHST
010400             15 LAF-DUC            PIC X(1).                      PPLAFHST
010500             15 LAF-EFFECTIVE-DATE PIC X(10).                     PPLAFHST
010600             15 LAF-FUND-RANGE-LOW PIC X(5).                      PPLAFHST
010700             15 LAF-FUND-RANGE-HI  PIC X(5).                      PPLAFHST
010800         10  HOLD-CDB-KEY2         PIC X(18).                     PPLAFHST
010900         10  HOLD-CDB-DATA         PIC X(500).                    PPLAFHST
011000     05  PCD-REC.                                                 PPLAFHST
011100         10  PCD-KEY.                                             PPLAFHST
011200             15 LAF-TITLE-TYPE     PIC X(1).                      PPLAFHST
011300             15 LAF-TITLE-UNIT-CD  PIC X(2).                      PPLAFHST
011400             15 LAF-AREP-CODE      PIC X(1).                      PPLAFHST
011500             15 LAF-SHC            PIC X(1).                      PPLAFHST
011600             15 LAF-DUC            PIC X(1).                      PPLAFHST
011700             15 LAF-EFFECTIVE-DATE PIC X(10).                     PPLAFHST
011800             15 LAF-FUND-RANGE-LOW PIC X(5).                      PPLAFHST
011900             15 LAF-FUND-RANGE-HI  PIC X(5).                      PPLAFHST
012000         10  PCD-DATA              PIC X(500).                    PPLAFHST
012100     EJECT                                                        PPLAFHST
012200*-----------------------------------------------------------------PPLAFHST
012300*    CDB TABLE AREA                                               PPLAFHST
012400*-----------------------------------------------------------------PPLAFHST
012500 01  PPPCDB-TABLE.                                                PPLAFHST
012600     05  PPPCDB-ROW              OCCURS 1000 INDEXED BY ICDB.     PPLAFHST
012700                                 COPY CPWSLAFH.                   PPLAFHST
012800 01  PPPCDB-TBL-MAX              PIC 9(4)    VALUE 1000.          PPLAFHST
012900 01  PPPCDB-TBL-LOADED           PIC 9(4)    VALUE 0000.          PPLAFHST
013000*                                                                 PPLAFHST
013100     EJECT                                                        PPLAFHST
013200*-----------------------------------------------------------------PPLAFHST
013300*    MESSAGE WORKING STORAGE AREA                                 PPLAFHST
013400*-----------------------------------------------------------------PPLAFHST
013500     EJECT                                                        PPLAFHST
013600 01  MSSG-INTERFACE.             COPY CPWSXMIF.                   PPLAFHST
013610 01  CALLED-ROUTINES.            COPY CPWSXRTN.                   30871230
013700*                                                                 PPLAFHST
013800     EJECT                                                        PPLAFHST
013900 01  MSSG-LITERALS.                                               PPLAFHST
014000     03  M74109                  PIC 9(5) VALUE 74109.            PPLAFHST
014100     03  M74116                  PIC 9(5) VALUE 74116.            PPLAFHST
014200     03  M74117                  PIC 9(5) VALUE 74117.            PPLAFHST
014300     03  M74118                  PIC 9(5) VALUE 74118.            PPLAFHST
014400     03  M74120                  PIC 9(5) VALUE 74120.            PPLAFHST
014500*                                                                 PPLAFHST
014600     EJECT                                                        PPLAFHST
014700*-----------------------------------------------------------------PPLAFHST
014800*    INTERFACE AREA                                               PPLAFHST
014900*-----------------------------------------------------------------PPLAFHST
015000 01  XTIF-INTERFACE.             COPY CPWSXTIF                    PPLAFHST
015100                                 REPLACING ==:TAG:== BY ==XTIF==. PPLAFHST
015200     EJECT                                                        PPLAFHST
015300 01  XPIF-INTERFACE.             COPY CPWSXPIF                    PPLAFHST
015400                                 REPLACING ==:TAG:== BY ==XPIF==. PPLAFHST
015500     EJECT                                                        PPLAFHST
015600*------------------------------------------------------------*    PPLAFHST
015700*          SQL - WORKING STORAGE                             *    PPLAFHST
015800*------------------------------------------------------------*    PPLAFHST
015900 01  PPDB2MSG-INTERFACE.         COPY CPLNKDB2.                   PPLAFHST
016000     EJECT                                                        PPLAFHST
016100 01  PPPLAFH-ROW  EXTERNAL.                                       PPLAFHST
016200     EXEC SQL                                                     PPLAFHST
016300         INCLUDE PPPVLAFH                                         PPLAFHST
016400     END-EXEC.                                                    PPLAFHST
016500     EXEC SQL                                                     PPLAFHST
016600         DECLARE PPPCDB_ROW CURSOR FOR                            PPLAFHST
016700         SELECT * FROM PPPVLAFH_LAFH                              PPLAFHST
016800         ORDER BY LAF_TITLE_TYPE,                                 PPLAFHST
016900                  LAF_TITLE_UNIT_CD,                              PPLAFHST
017000                  LAF_AREP_CODE,                                  PPLAFHST
017100                  LAF_SHC,                                        PPLAFHST
017200                  LAF_DUC,                                        PPLAFHST
017300                  LAF_EFFECTIVE_DATE,                             PPLAFHST
017400                  LAF_FUND_RANGE_LOW,                             PPLAFHST
017500                  LAF_FUND_RANGE_HI,                              PPLAFHST
017600                  SYSTEM_ENTRY_DATE DESC,                         PPLAFHST
017700                  SYSTEM_ENTRY_TIME DESC                          PPLAFHST
017800     END-EXEC.                                                    PPLAFHST
017900 01  PPPLAF-ROW   EXTERNAL.                                       PPLAFHST
018000     EXEC SQL                                                     PPLAFHST
018100         INCLUDE PPPVZLAF                                         PPLAFHST
018200     END-EXEC.                                                    PPLAFHST
018300     EJECT                                                        PPLAFHST
018400     EXEC SQL                                                     PPLAFHST
018500         INCLUDE SQLCA                                            PPLAFHST
018600     END-EXEC.                                                    PPLAFHST
018700*                                                                 PPLAFHST
018800 01  DATE-CONVERSION-WORK-AREAS.         COPY CPWSXDC2.           PPLAFHST
018900*                                                                 PPLAFHST
019000 01  XWHC-COMPILE-WORK-AREA.             COPY CPWSXWHC.           PPLAFHST
019100*                                                                 PPLAFHST
019200     EJECT                                                        PPLAFHST
019300 LINKAGE SECTION.                                                 PPLAFHST
019400*----------------------------------------------------------------*PPLAFHST
019500*    HDB INTERFACE AREA FROM CALLING PROGRAM                      PPLAFHST
019600*----------------------------------------------------------------*PPLAFHST
019700 01  IHDB-INTERFACE.             COPY CPWSIHDB.                   PPLAFHST
019800     EJECT                                                        PPLAFHST
019900*----------------------------------------------------------------*PPLAFHST
020000 PROCEDURE DIVISION USING IHDB-INTERFACE.                         PPLAFHST
020100*----------------------------------------------------------------*PPLAFHST
020200******************************************************************PPLAFHST
020300*----------------------------------------------------------------*PPLAFHST
020400*    MAIN LOOP                                                    PPLAFHST
020500*----------------------------------------------------------------*PPLAFHST
020600*                                                                 PPLAFHST
020700     MOVE A-STND-PROG-ID TO XWHC-DISPLAY-MODULE.                  PPLAFHST
020800     COPY  CPPDXWHC.                                              PPLAFHST
020900*                                                                 PPLAFHST
021000     EXEC SQL                                                     PPLAFHST
021100        INCLUDE CPPDXE99                                          PPLAFHST
021200     END-EXEC.                                                    PPLAFHST
021300*                                                                 PPLAFHST
021400     PERFORM 0100-INITIALIZATION.                                 PPLAFHST
021500*----------------------------------------------------------------*PPLAFHST
021600*    GET FIRST RECORD FROM BOTH TABLES                            PPLAFHST
021700*----------------------------------------------------------------*PPLAFHST
021800     MOVE ZEROS                  TO I.                            PPLAFHST
021900     SET CDB-NOT-EOF             TO TRUE.                         PPLAFHST
022000     SET PCD-NOT-EOF             TO TRUE.                         PPLAFHST
022100     PERFORM 1000-GET-NEXT-CDB.                                   PPLAFHST
022200     PERFORM 2000-GET-NEXT-PCD.                                   PPLAFHST
022300*----------------------------------------------------------------*PPLAFHST
022400*    PERFORM COMPARE UNTIL AT THE END OF BOTH TABLES              PPLAFHST
022500*----------------------------------------------------------------*PPLAFHST
022600     PERFORM 3000-COMPARE-ROW                                     PPLAFHST
022700             UNTIL PCD-EOF                                        PPLAFHST
022800             AND   CDB-EOF.                                       PPLAFHST
022900*                                                                 PPLAFHST
023000*----------------------------------------------------------------*PPLAFHST
023100*    WRITE STATISTICS TO MESSAGE FILE                             PPLAFHST
023200*----------------------------------------------------------------*PPLAFHST
023300     PERFORM 4000-WRITE-STATS.                                    PPLAFHST
023400*----------------------------------------------------------------*PPLAFHST
023500     GOBACK.                                                      PPLAFHST
023600*----------------------------------------------------------------*PPLAFHST
023700*                                                                 PPLAFHST
023800     EJECT                                                        PPLAFHST
023900*----------------------------------------------------------------*PPLAFHST
024000 0100-INITIALIZATION  SECTION.                                    PPLAFHST
024100*----------------------------------------------------------------*PPLAFHST
024200******************************************************************PPLAFHST
024300*----------------------------------------------------------------*PPLAFHST
024400*    IF PROCESSING AS INITIALIZATION THE CDB INTERNAL TABLE IS    PPLAFHST
024500*    NOT LOADED, BUT THE CDB-EOF FLAG IS SET TO ON SO THAT ALL    PPLAFHST
024600*    REMAINING (MEANING ALL) PCD ROWS WILL BE WRITTEN OUT TO THE  PPLAFHST
024700*    CDB TABLE.                                                   PPLAFHST
024800*----------------------------------------------------------------*PPLAFHST
024900     MOVE ZEROS                    TO TABLE-ADDS                  PPLAFHST
025000                                      TABLE-DELS                  PPLAFHST
025100                                      TABLE-CHGS.                 PPLAFHST
025200*                                                                 PPLAFHST
025300     MOVE ZEROS                    TO PPPCDB-TBL-LOADED.          PPLAFHST
025400     MOVE ZEROS                    TO I.                          PPLAFHST
025500     MOVE SPACES                   TO HOLD-CDB-KEY.               PPLAFHST
025600     SET CDB-NOT-EOF               TO TRUE.                       PPLAFHST
025700     PERFORM 0200-LOAD-CDB-TABLE                                  PPLAFHST
025800             UNTIL CDB-EOF.                                       PPLAFHST
025900*                                                                 PPLAFHST
026000 0100-EXIT.    EXIT.                                              PPLAFHST
026100*                                                                 PPLAFHST
026200*                                                                 PPLAFHST
026300     EJECT                                                        PPLAFHST
026400*----------------------------------------------------------------*PPLAFHST
026500 0200-LOAD-CDB-TABLE  SECTION.                                    PPLAFHST
026600*----------------------------------------------------------------*PPLAFHST
026700******************************************************************PPLAFHST
026800     IF CDB-ROW-NOTOPEN                                           PPLAFHST
026900        MOVE 'OPEN PPPCDB CURSOR'  TO DB2MSG-TAG                  PPLAFHST
027000        EXEC SQL                                                  PPLAFHST
027100           OPEN PPPCDB_ROW                                        PPLAFHST
027200        END-EXEC                                                  PPLAFHST
027300        SET CDB-ROW-OPEN           TO TRUE                        PPLAFHST
027400     END-IF.                                                      PPLAFHST
027500     MOVE 'FETCH PPPCDB ROW'       TO DB2MSG-TAG.                 PPLAFHST
027600     EXEC SQL                                                     PPLAFHST
027700        FETCH PPPCDB_ROW INTO :PPPLAFH-ROW                        PPLAFHST
027800     END-EXEC.                                                    PPLAFHST
027900     IF SQLCODE = +100                                            PPLAFHST
028000        SET CDB-EOF                TO TRUE                        PPLAFHST
028100        MOVE 'CLOSE PPPCDB CURSOR' TO DB2MSG-TAG                  PPLAFHST
028200        EXEC SQL                                                  PPLAFHST
028300           CLOSE PPPCDB_ROW                                       PPLAFHST
028400        END-EXEC                                                  PPLAFHST
028500        SET CDB-ROW-NOTOPEN        TO TRUE                        PPLAFHST
028600     ELSE                                                         PPLAFHST
028700        MOVE LAF-EFFECTIVE-DATE OF PPPLAFH-ROW                    PPLAFHST
028800                                   TO XDC2-DB-FMT-DATE            PPLAFHST
028900        IF XDC2-DB-FMT-SEP1 = '/'                                 PPLAFHST
029000           PERFORM CONVERT-DB-FMT-TO-ISO-DATE                     PPLAFHST
029100           MOVE DB2-DATE  TO LAF-EFFECTIVE-DATE OF PPPLAFH-ROW    PPLAFHST
029200        END-IF                                                    PPLAFHST
029300        MOVE PPPLAFH-ROW           TO CDB-REC                     PPLAFHST
029400        IF HOLD-CDB-KEY = CDB-KEY                                 PPLAFHST
029500           NEXT SENTENCE                                          PPLAFHST
029600        ELSE                                                      PPLAFHST
029700           IF LAF-LAST-ACTION OF PPPLAFH-ROW NOT = '*'            PPLAFHST
029800              COMPUTE I = I + 1                                   PPLAFHST
029900              IF I > PPPCDB-TBL-MAX                               PPLAFHST
030000                 MOVE M74120       TO XMSG-NUMBER                 PPLAFHST
030100*****************PERFORM 8100-CALL-PPMSGUTL                       30871230
030110                 PERFORM 8100-CALL-MESSAGE-UTILITY                30871230
030200                 SET IHDB-SYSTEMS  TO TRUE                        PPLAFHST
030300                 GOBACK                                           PPLAFHST
030400              END-IF                                              PPLAFHST
030500              MOVE CDB-REC         TO PPPCDB-ROW(I)               PPLAFHST
030600              COMPUTE PPPCDB-TBL-LOADED = I                       PPLAFHST
030700           END-IF                                                 PPLAFHST
030800           MOVE CDB-KEY            TO HOLD-CDB-KEY                PPLAFHST
030900        END-IF                                                    PPLAFHST
031000     END-IF.                                                      PPLAFHST
031100*                                                                 PPLAFHST
031200 0200-EXIT.    EXIT.                                              PPLAFHST
031300*                                                                 PPLAFHST
031400*                                                                 PPLAFHST
031500     EJECT                                                        PPLAFHST
031600*----------------------------------------------------------------*PPLAFHST
031700 1000-GET-NEXT-CDB  SECTION.                                      PPLAFHST
031800*----------------------------------------------------------------*PPLAFHST
031900******************************************************************PPLAFHST
032000     COMPUTE I = I + 1.                                           PPLAFHST
032100     IF I > PPPCDB-TBL-LOADED                                     PPLAFHST
032200        SET CDB-EOF              TO TRUE                          PPLAFHST
032300        MOVE HIGH-VALUES         TO CDB-KEY                       PPLAFHST
032400        MOVE SPACES              TO CDB-DATA                      PPLAFHST
032500     ELSE                                                         PPLAFHST
032600        MOVE PPPCDB-ROW(I)       TO CDB-REC                       PPLAFHST
032700     END-IF.                                                      PPLAFHST
032800*                                                                 PPLAFHST
032900 1000-EXIT.    EXIT.                                              PPLAFHST
033000*                                                                 PPLAFHST
033100*                                                                 PPLAFHST
033200     EJECT                                                        PPLAFHST
033300*----------------------------------------------------------------*PPLAFHST
033400 2000-GET-NEXT-PCD  SECTION.                                      PPLAFHST
033500*----------------------------------------------------------------*PPLAFHST
033600******************************************************************PPLAFHST
033700     SET XPIF-SEQ-REQUEST        TO TRUE.                         PPLAFHST
033800     MOVE 'LAF'                  TO XPIF-TABLE-REQUEST.           PPLAFHST
033900     CALL 'PPPCDFET' USING XPIF-INTERFACE.                        PPLAFHST
034000     IF XPIF-OK                                                   PPLAFHST
034100        MOVE PPPLAF-ROW          TO PCD-REC                       PPLAFHST
034200     ELSE                                                         PPLAFHST
034300        IF XPIF-INVALID-KEY                                       PPLAFHST
034400           SET PCD-EOF           TO TRUE                          PPLAFHST
034500           MOVE HIGH-VALUES      TO PCD-KEY                       PPLAFHST
034600           MOVE SPACES           TO PCD-DATA                      PPLAFHST
034700        ELSE                                                      PPLAFHST
034800           MOVE XPIF-RETURN-STATUS  TO XMSG-DATA                  PPLAFHST
034900           MOVE M74117           TO XMSG-NUMBER                   PPLAFHST
035000***********PERFORM 8100-CALL-PPMSGUTL                             30871230
035010           PERFORM 8100-CALL-MESSAGE-UTILITY                      30871230
035100           SET IHDB-BAD-RETURN-PCD TO TRUE                        PPLAFHST
035200           GOBACK                                                 PPLAFHST
035300        END-IF                                                    PPLAFHST
035400     END-IF.                                                      PPLAFHST
035500*                                                                 PPLAFHST
035600 2000-EXIT.    EXIT.                                              PPLAFHST
035700*                                                                 PPLAFHST
035800*                                                                 PPLAFHST
035900*                                                                 PPLAFHST
036000     EJECT                                                        PPLAFHST
036100*----------------------------------------------------------------*PPLAFHST
036200 3000-COMPARE-ROW  SECTION.                                       PPLAFHST
036300*----------------------------------------------------------------*PPLAFHST
036400******************************************************************PPLAFHST
036500     IF CDB-KEY > PCD-KEY                                         PPLAFHST
036600        MOVE PCD-KEY             TO HOLD-CDB-KEY                  PPLAFHST
036700        MOVE PCD-DATA            TO HOLD-CDB-DATA                 PPLAFHST
036800        MOVE HOLD-CDB-REC        TO PPPLAFH-ROW                   PPLAFHST
036900        PERFORM 3100-ADD-CDB-ROW                                  PPLAFHST
037000        PERFORM 2000-GET-NEXT-PCD                                 PPLAFHST
037100        COMPUTE TABLE-ADDS = TABLE-ADDS + 1                       PPLAFHST
037200     ELSE                                                         PPLAFHST
037300        IF CDB-KEY < PCD-KEY                                      PPLAFHST
037400           PERFORM 3200-INIT-CDB-ROW                              PPLAFHST
037500           MOVE CDB-KEY          TO HOLD-CDB-KEY                  PPLAFHST
037600           MOVE HOLD-CDB-REC     TO PPPLAFH-ROW                   PPLAFHST
037700           PERFORM 3100-ADD-CDB-ROW                               PPLAFHST
037800           PERFORM 1000-GET-NEXT-CDB                              PPLAFHST
037900           COMPUTE TABLE-DELS = TABLE-DELS + 1                    PPLAFHST
038000        ELSE                                                      PPLAFHST
038100           IF CDB-DATA NOT = PCD-DATA                             PPLAFHST
038200              MOVE PCD-KEY       TO HOLD-CDB-KEY                  PPLAFHST
038300              MOVE PCD-DATA      TO HOLD-CDB-DATA                 PPLAFHST
038400              MOVE HOLD-CDB-REC  TO PPPLAFH-ROW                   PPLAFHST
038500              PERFORM 3100-ADD-CDB-ROW                            PPLAFHST
038600              COMPUTE TABLE-CHGS = TABLE-CHGS + 1                 PPLAFHST
038700           END-IF                                                 PPLAFHST
038800           PERFORM 1000-GET-NEXT-CDB                              PPLAFHST
038900           PERFORM 2000-GET-NEXT-PCD                              PPLAFHST
039000        END-IF                                                    PPLAFHST
039100     END-IF.                                                      PPLAFHST
039200*                                                                 PPLAFHST
039300 3000-EXIT.    EXIT.                                              PPLAFHST
039400*                                                                 PPLAFHST
039500*                                                                 PPLAFHST
039600     EJECT                                                        PPLAFHST
039700*----------------------------------------------------------------*PPLAFHST
039800 3100-ADD-CDB-ROW  SECTION.                                       PPLAFHST
039900*----------------------------------------------------------------*PPLAFHST
040000******************************************************************PPLAFHST
040100*----------------------------------------------------------------*PPLAFHST
040200*    SETUP AND CALL CDBFET TO ADD THE NEW CDB RECORD              PPLAFHST
040300*----------------------------------------------------------------*PPLAFHST
040400     SET XTIF-INSERT-REQUEST     TO TRUE.                         PPLAFHST
040500     MOVE 'LAF'                  TO XTIF-TABLE-REQUEST.           PPLAFHST
040600     MOVE IHDB-PROCESS-DATE      TO XTIF-DATE                     PPLAFHST
040700                                 SYSTEM-ENTRY-DATE OF PPPLAFH-ROW.PPLAFHST
040800     MOVE IHDB-PROCESS-TIME      TO XTIF-TIME                     PPLAFHST
040900                                 SYSTEM-ENTRY-TIME OF PPPLAFH-ROW.PPLAFHST
041000     MOVE HOLD-CDB-KEY           TO XTIF-PPPLAF-KEY.              PPLAFHST
041100     CALL 'PPCDBFET' USING XTIF-INTERFACE.                        PPLAFHST
041200     IF XTIF-OK                                                   PPLAFHST
041300        NEXT SENTENCE                                             PPLAFHST
041400     ELSE                                                         PPLAFHST
041500        MOVE XTIF-RETURN-STATUS  TO XMSG-DATA                     PPLAFHST
041600        MOVE M74116              TO XMSG-NUMBER                   PPLAFHST
041700********PERFORM 8100-CALL-PPMSGUTL                                30871230
041710        PERFORM 8100-CALL-MESSAGE-UTILITY                         30871230
041800        SET IHDB-SYSTEMS         TO TRUE                          PPLAFHST
041900        GOBACK                                                    PPLAFHST
042000     END-IF.                                                      PPLAFHST
042100*                                                                 PPLAFHST
042200 3100-EXIT.    EXIT.                                              PPLAFHST
042300*                                                                 PPLAFHST
042400*                                                                 PPLAFHST
042500     EJECT                                                        PPLAFHST
042600*----------------------------------------------------------------*PPLAFHST
042700 3200-INIT-CDB-ROW  SECTION.                                      PPLAFHST
042800*----------------------------------------------------------------*PPLAFHST
042900******************************************************************PPLAFHST
043000     INITIALIZE PPPLAFH-ROW.                                      PPLAFHST
043100     MOVE '0001-01-01' TO LAF-LAST-ACTION-DT OF PPPLAFH-ROW.      PPLAFHST
043200     MOVE '*'          TO LAF-LAST-ACTION    OF PPPLAFH-ROW.      PPLAFHST
043300*                                                                 PPLAFHST
043400     MOVE PPPLAFH-ROW  TO HOLD-CDB-REC.                           PPLAFHST
043500*                                                                 PPLAFHST
043600 3200-EXIT.    EXIT.                                              PPLAFHST
043700*                                                                 PPLAFHST
043800*                                                                 PPLAFHST
043900     EJECT                                                        PPLAFHST
044000*----------------------------------------------------------------*PPLAFHST
044100 4000-WRITE-STATS  SECTION.                                       PPLAFHST
044200*----------------------------------------------------------------*PPLAFHST
044300******************************************************************PPLAFHST
044400     COMPUTE IHDB-LOADED = TABLE-ADDS + TABLE-DELS + TABLE-CHGS.  PPLAFHST
044500     MOVE TABLE-ADDS             TO RPT-AMOUNT1.                  PPLAFHST
044600     MOVE TABLE-DELS             TO RPT-AMOUNT2.                  PPLAFHST
044700     MOVE TABLE-CHGS             TO RPT-AMOUNT3.                  PPLAFHST
044800     MOVE RPT-LINE               TO XMSG-DATA.                    PPLAFHST
044900     MOVE M74118                 TO XMSG-NUMBER.                  PPLAFHST
045000*****PERFORM 8100-CALL-PPMSGUTL.                                  30871230
045010     PERFORM 8100-CALL-MESSAGE-UTILITY.                           30871230
045100*                                                                 PPLAFHST
045200 4000-EXIT.    EXIT.                                              PPLAFHST
045300*                                                                 PPLAFHST
045400*                                                                 PPLAFHST
045500     EJECT                                                        PPLAFHST
045600*----------------------------------------------------------------*PPLAFHST
045700 8100-CALL-MESSAGE-UTILITY SECTION.                               30871230
045710*8100-CALL-PPMSGUTL    SECTION.                                   30871230
045800*----------------------------------------------------------------*PPLAFHST
045900******************************************************************PPLAFHST
046000*----------------------------------------------------------------*PPLAFHST
046100*    THIS SECTION CALLS THE MESSAGE UTILITY PROGRAM TO PROCESS    PPLAFHST
046200*    MESSAGES AND PRODUCE THE OUTPUT REPORT.                      PPLAFHST
046300*----------------------------------------------------------------*PPLAFHST
046400*****CALL 'PPMSGUTL' USING MSSG-INTERFACE.                        30871230
046410     CALL PGM-PPMSGUTL USING MSSG-INTERFACE.                      30871230
046500*                                                                 PPLAFHST
046600     MOVE SPACES                 TO XMSG-TEXT                     PPLAFHST
046700                                    XMSG-DATA                     PPLAFHST
046800                                    XMSG-USER.                    PPLAFHST
046900*                                                                 PPLAFHST
047000 8100-EXIT.    EXIT.                                              PPLAFHST
047100*                                                                 PPLAFHST
047200*                                                                 PPLAFHST
047300*                                                                 PPLAFHST
047400     EJECT                                                        PPLAFHST
047500     COPY CPPDXDC2.                                               PPLAFHST
047600*                                                                 PPLAFHST
047700     EJECT                                                        PPLAFHST
047800*----------------------------------------------------------------*PPLAFHST
047900*999999-SQL-ERROR.   SECTION HEADING IS IN CPPDXP99              *PPLAFHST
048000*----------------------------------------------------------------*PPLAFHST
048100******************************************************************PPLAFHST
048200     EXEC SQL                                                     PPLAFHST
048300          INCLUDE CPPDXP99                                        PPLAFHST
048400     END-EXEC.                                                    PPLAFHST
048500     SET IHDB-SYSTEMS            TO TRUE.                         PPLAFHST
048600     MOVE M74109                 TO XMSG-NUMBER                   PPLAFHST
048700     MOVE PPDB2MSG-INTERFACE     TO XMSG-DATA                     PPLAFHST
048800*****PERFORM 8100-CALL-PPMSGUTL                                   30871230
048810     PERFORM 8100-CALL-MESSAGE-UTILITY                            30871230
048900     GOBACK.                                                      PPLAFHST
049000*DUMMY                                                            PPLAFHST
