000010**************************************************************/   30871230
000020*  PROGRAM: PPLICHST                                         */   30871230
000030*  RELEASE: ___1230______ SERVICE REQUEST(S): _____3087____  */   30871230
000040*  NAME:___SRS___________ MODIFICATION DATE:  ___03/08/99__  */   30871230
000050*  DESCRIPTION:                                              */   30871230
000060*  REPLACE MESSAGE UTILITY CALLS WITH DB2 VERSION.           */   30871230
000070**************************************************************/   30871230
000100**************************************************************/   28181063
000200*  PROGRAM: PPLICHST                                         */   28181063
000300*  RELEASE: ___1063______ SERVICE REQUEST(S): ____12818____  */   28181063
000400*  NAME:______M SANO_____ MODIFICATION DATE:  ___04/15/96__  */   28181063
000500*  DESCRIPTION:                                              */   28181063
000600*   - ADDED LICENSE NUMBER AND CHANGE FLAG                   */   28181063
000700**************************************************************/   28181063
000000**************************************************************/   36330984
000001*  PROGRAM: PPLICHST                                         */   36330984
000002*  RELEASE: ___0984______ SERVICE REQUEST(S): _____3633____  */   36330984
000003*  REF. RELEASE: ____704____                                 */   36330984
000004*  NAME:___H. TRUONG  ___ MODIFICATION DATE:  ___05/19/95__  */   36330984
000005*  DESCRIPTION:                                              */   36330984
000006*  ERROR REPORT 1240:                                        */   36330984
000007*  MODIFIED CODE TO CORRECTLY SET THE DELETE-FLAG.           */   36330984
000008*                                                            */   36330984
000009*  ERROR REPORT 1272:                                        */   36330984
000010*  MODIFIED CODE TO CORRECTLY RETRIEVE DATA FROM THE HDB.    */   36330984
000011*                                                            */   36330984
000012**************************************************************/   36330984
000000**************************************************************/   36450793
000001*  PROGRAM: PPLICHST                                         */   36450793
000002*  RELEASE: ___0793______ SERVICE REQUEST(S): _____3645____  */   36450793
000003*  NAME:_______DDM_______ MODIFICATION DATE:  __07/09/93____ */   36450793
000004*  DESCRIPTION: ADDED PROCESSING TO ACCOMMODATE MULTIPLE     */   36450793
000005*    LICENSE/CERTIFICATE ROWS PER EMPLOYEE                   */   36450793
000010*    FOR EDB ENTRY/UPDATE IMPLEMENTATION.                    */   36450793
000011*                                                            */   36450793
000012*    ALSO       ADDED STD PPPIDX DATE INITIALIZATION         */   36450793
000013*    FOR EDB ENTRY/UPDATE IMPLEMENTATION.                    */   36450793
000020**************************************************************/   36450793
000100**************************************************************/   36330704
000200*  PROGRAM: PPLICHST                                         */   36330704
000300*  RELEASE # ___0704___   SERVICE REQUEST NO(S)____3633______*/   36330704
000400*  NAME __B.I.T._______   CREATION DATE     ____10/02/92_____*/   36330704
000500*  DESCRIPTION                                               */   36330704
000600*                                                            */   36330704
000700*      PPLICHST IS A NEW PROGRAM FOR RELEASE   # 0704        */   36330704
000800*                                                            */   36330704
000900**************************************************************/   36330704
001000 IDENTIFICATION DIVISION.                                         PPLICHST
001100 PROGRAM-ID. PPLICHST.                                            PPLICHST
001200 AUTHOR. BUSINESS INFORMATION TECH, INC. DWH/BIT.                 PPLICHST
001300 INSTALLATION. UNIVERSITY OF CALIFORNIA, STANDARD SYSTEM          PPLICHST
001400*REMARKS.                                                         PPLICHST
001500*-----------------------------------------------------------------PPLICHST
001600*  THIS PROGRAM RECEIVES A TABLE OF DATA ELEMENTS FROM THE CALLINGPPLICHST
001700*  PROGRAM.                                                       PPLICHST
001800*  THESE ELEMENTS ARE UPDATED ON THE HISTORY DATA BASE.           PPLICHST
001900*  IF THE EDB-AUDIT FLAG IS ON THEN THE EMPLOYEES' FIELDS ARE     PPLICHST
002000*  OBTAINED FROM THE EDB FILE.                                    PPLICHST
002100*                                                                 PPLICHST
002200*  THE FOLLOWING CODES ARE RETURN CODES TO PASS BACK THROUGH TO   PPLICHST
002300*  THE CALLING PROGRAM IN IHDB-ERROR:                             PPLICHST
002400*                         00  PROCESSING SUCCESSFUL               PPLICHST
002500*                         02  WARNING MESSAGE SENT                PPLICHST
002600*                         04  SYSTEMS MESSAGE SENT                PPLICHST
002700*                         05  EMPLOYEE NOT FOUND ON EDB           PPLICHST
002800*                         06  EMPLOYEE NOT FOUND ON HDB           PPLICHST
002900*                         07  BAD RETURN CODE FROM PPEDBFET       PPLICHST
003000*                         08  BAD RETURN CODE FROM PPHDBFET       PPLICHST
003100*  AN ERROR CODE > 2 SHOULD ABEND THE PROCESS                     PPLICHST
003200*-----------------------------------------------------------------PPLICHST
003300 DATE-WRITTEN.  04/10/92.  VERSION 1.0.                           PPLICHST
003400 DATE-COMPILED.                                                   PPLICHST
003500     SKIP3                                                        PPLICHST
003600 ENVIRONMENT DIVISION.                                            PPLICHST
003700 CONFIGURATION SECTION.                                           PPLICHST
003800 SOURCE-COMPUTER.  COPY CPOTXUCS.                                 PPLICHST
003900 OBJECT-COMPUTER. COPY CPOTXOBJ.                                  PPLICHST
004000 SPECIAL-NAMES.                                                   PPLICHST
004100     EJECT                                                        PPLICHST
004200 INPUT-OUTPUT SECTION.                                            PPLICHST
004300 FILE-CONTROL.                                                    PPLICHST
004400*                                                                 PPLICHST
004500 DATA DIVISION.                                                   PPLICHST
004600 FILE SECTION.                                                    PPLICHST
004700*                                                                 PPLICHST
004800     EJECT                                                        PPLICHST
004900******************************************************************PPLICHST
005000 WORKING-STORAGE SECTION.                                         PPLICHST
005100******************************************************************PPLICHST
005200 77  I                           PICTURE S9(5)   COMP-3.          PPLICHST
005300*                                                                 PPLICHST
005400 01  A-STND-PROG-ID            PIC  X(8)  VALUE 'PPLICHST'.       PPLICHST
005500*                                                                 PPLICHST
005600*                                                                 PPLICHST
005700 01  WORK-SWITCHES.                                               PPLICHST
005800     03  SW-ON                   PIC X     VALUE 'Y'.             PPLICHST
005900*                                                                 PPLICHST
006000 01  WORK-AREA.                                                   PPLICHST
006010     05  LCN-ROW-CTR              PIC S9(5)   COMP-3 VALUE ZERO.  36450793
006020     05  OCCKEY-IX                PIC S9(5)   COMP-3 VALUE ZERO.  36450793
006030     05  OCC-DE-IX                PIC S9(5)   COMP-3 VALUE ZERO.  36450793
006040     05  WORK-KEY                 PIC X(18)   VALUE HIGH-VALUES.  36450793
006050     05  WORK-HDE                 PIC X(4)    VALUE HIGH-VALUES.  36450793
006100     05  WORK-HIGH-DATE           PIC X(10) VALUE '9999-12-31'.   PPLICHST
006300     05  WORK-VALUE               PIC X(30).                      PPLICHST
006400     05  WORK-VALUE-NUM REDEFINES WORK-VALUE                      PPLICHST
006500                                  PIC S9(9)V9(9) COMP-3.          PPLICHST
006510     05  WORK-LIC-KEY.                                            36330984
006520         10  WORK-LIC-NUM         PIC X(03).                      36330984
006530         10  FILLER               PIC X(15).                      36330984
006600     05  RPT-TYPE-FIELDS.                                         PPLICHST
006700         10  RPT-AMOUNT1          PIC Z,ZZZ,ZZ9.9999-.            PPLICHST
006800         10  RPT-AMOUNT2          PIC Z,ZZZ,ZZ9.9999-.            PPLICHST
006900*                                                                 PPLICHST
007000     EJECT                                                        PPLICHST
007100*-----------------------------------------------------------------PPLICHST
007200*    INITIALIZED ROW WORK AREAS                                   PPLICHST
007300*-----------------------------------------------------------------PPLICHST
007400*                                                                 PPLICHST
007500 01  INITIALIZED-ROW-DATA.                                        PPLICHST
007600     10 LICENSE-RENEW-DATE   PIC X(10)        VALUE '0001-01-01'. PPLICHST
011500     10 LICENSE-NUMBER       PIC X(14)        VALUE SPACES.       28181063
007700*                                                                 PPLICHST
007800*                                                                 PPLICHST
007900 01  WORK-ROW-DATA.                                               PPLICHST
008000     10 LICENSE-RENEW-DATE   PIC X(10).                           PPLICHST
012000     10 LICENSE-NUMBER       PIC X(14).                           28181063
008100*                                                                 PPLICHST
008200     EJECT                                                        PPLICHST
008300*-----------------------------------------------------------------PPLICHST
008400*    HDB TABLE AREA                                               PPLICHST
008500*-----------------------------------------------------------------PPLICHST
008600 01  PPPIDX-ROW EXTERNAL.        COPY CPWSRIDX.                   PPLICHST
008700     EJECT                                                        PPLICHST
008800 01  PPPLIC-ROW EXTERNAL.        COPY CPWSRLIC.                   PPLICHST
008900     EJECT                                                        PPLICHST
008910 01  SAVE-PPPLIC-ROW.            COPY CPWSRLIC.                   36330984
008920     EJECT                                                        36330984
009000*-----------------------------------------------------------------PPLICHST
009100*    MESSAGE WORKING STORAGE AREA                                 PPLICHST
009200*-----------------------------------------------------------------PPLICHST
009300     EJECT                                                        PPLICHST
009400 01  MSSG-INTERFACE.             COPY CPWSXMIF.                   PPLICHST
013610 01  CALLED-ROUTINES.            COPY CPWSXRTN.                   30871230
009500*                                                                 PPLICHST
009600     EJECT                                                        PPLICHST
009700 01  MSSG-LITERALS.                                               PPLICHST
009800     03  M74216                  PIC 9(5) VALUE 74216.            PPLICHST
009900     03  M74217                  PIC 9(5) VALUE 74217.            PPLICHST
010000     03  M74223                  PIC 9(5) VALUE 74223.            PPLICHST
010100     03  M74224                  PIC 9(5) VALUE 74224.            PPLICHST
010200     03  M74225                  PIC 9(5) VALUE 74225.            PPLICHST
010300     03  M74226                  PIC 9(5) VALUE 74226.            PPLICHST
010400     03  M74227                  PIC 9(5) VALUE 74227.            PPLICHST
010500     03  M74228                  PIC 9(5) VALUE 74228.            PPLICHST
010600*                                                                 PPLICHST
010700     EJECT                                                        PPLICHST
010800*-----------------------------------------------------------------PPLICHST
010900*    HIF INTERFACE AREA                                           PPLICHST
011000*-----------------------------------------------------------------PPLICHST
011100 01  XHIF-INTERFACE.             COPY CPWSXHIF                    PPLICHST
011200                                 REPLACING ==:TAG:== BY ==XHIF==. PPLICHST
011300     EJECT                                                        PPLICHST
011400*-----------------------------------------------------------------PPLICHST
011500*    EDB INTERFACE AREA                                           PPLICHST
011600*-----------------------------------------------------------------PPLICHST
011700 01  PPEDBFET-INTERFACE        EXTERNAL. COPY CPLNEFET.           PPLICHST
011800 01  PPEDBFET-DET-RETURN-ARRAY EXTERNAL. COPY CPWSEDET.           PPLICHST
011900 01  PPEDBFET-REQUEST-ARRAY    EXTERNAL. COPY CPWSEREQ.           PPLICHST
012000 01  PPEDBFET-D-E-RETURN-ARRAY EXTERNAL. COPY CPWSERET.           PPLICHST
012100*                                                                 PPLICHST
012200 01  XWHC-COMPILE-WORK-AREA.             COPY CPWSXWHC.           PPLICHST
012300*                                                                 PPLICHST
012400     EJECT                                                        PPLICHST
012500 LINKAGE SECTION.                                                 PPLICHST
012600*----------------------------------------------------------------*PPLICHST
012700*    HDB INTERFACE AREA FROM CALLING PROGRAM                      PPLICHST
012800*----------------------------------------------------------------*PPLICHST
012900 01  IHDB-INTERFACE.             COPY CPWSIHDB.                   PPLICHST
013000     EJECT                                                        PPLICHST
013100*----------------------------------------------------------------*PPLICHST
013200 PROCEDURE DIVISION USING IHDB-INTERFACE.                         PPLICHST
013300*----------------------------------------------------------------*PPLICHST
013400******************************************************************PPLICHST
013500*----------------------------------------------------------------*PPLICHST
013600*    MAIN LOOP                                                    PPLICHST
013700*----------------------------------------------------------------*PPLICHST
013800*                                                                 PPLICHST
013900     MOVE A-STND-PROG-ID TO XWHC-DISPLAY-MODULE.                  PPLICHST
014000     COPY  CPPDXWHC.                                              PPLICHST
014100*                                                                 PPLICHST
014210     EJECT                                                        36450793
014220***********************   MAINLINE   ***************************  36450793
014230     PERFORM 0100-INITIALIZATION.                                 36450793
014240*                                                                 36450793
014250****************************************************************  36450793
014260***   -- INITIAL EDB TO HDB LOAD OR EDB-AUDIT PROCESSING --       36450793
014270***   NOTE THAT THIS FUNCTION LOOPS THRU MULTIPLE EDB ROWS        36450793
014280***   UNLIKE THE OTHER MAJOR FUNCTIONS.                           36450793
014290****************************************************************  36450793
014291     IF IHDB-INITIALIZE  OR  EDB-AUDIT                            36450793
014292         PERFORM 1600-LOAD-HDB-FROM-EDB                           36450793
014293                 VARYING OCCKEY-IX FROM 1 BY 1                    36450793
014294                 UNTIL   OCCKEY-IX > PPEDBFET-LAST-RETURN-IX      36450793
014295         IF LCN-ROW-CTR < 1                                       36450793
014296***          "INITIALIZED-ROW" IS NOT DESIGNED FOR MULTIPLE       36450793
014297***          ROW PROCESSES. FORCE IT TO TRUE UNLESS ZERO ROWS     36450793
014298***          WERE PROCESSED                                       36450793
014299             MOVE 'Y' TO IHDB-INITIALIZED-ROW                     36450793
014300         ELSE                                                     36450793
014301             MOVE 'N' TO IHDB-INITIALIZED-ROW                     36450793
014302         END-IF                                                   36450793
014303***                                                               36450793
014304***      FOR IHDB-INITIALIZE OR EDB-AUDIT,                        36450793
014305***      SKIP THE FOLLOWING MAINLINE PROCESSES BECAUSE            36450793
014306***      THEY ARE PERFORMED WITHIN THE 1600- LOOP                 36450793
014307         GO TO EOJ-PROC-0099                                      36450793
014308     END-IF.                                                      36450793
014309*************  END OF HDB INITIALIZE FUNCTION  *****************  36450793
014300*                                                                 PPLICHST
014400     PERFORM 2000-HDE-COMPARE VARYING I FROM 1 BY 1               PPLICHST
014500             UNTIL I > IHDB-LOADED.                               PPLICHST
014600*                                                                 PPLICHST
014700     PERFORM 2500-INITIALIZED-ROW-CHECK.                          PPLICHST
014800*                                                                 PPLICHST
014900     IF INITIALIZED-ROW                                           PPLICHST
015000         GO TO EOJ-PROC-0099                                      PPLICHST
015100     END-IF.                                                      PPLICHST
015200*                                                                 PPLICHST
015300     PERFORM 3000-WRITE-HDB-REC.                                  PPLICHST
015400*                                                                 PPLICHST
015500 EOJ-PROC-0099.                                                   PPLICHST
015600*----------------------------------------------------------------*PPLICHST
015700     GOBACK.                                                      PPLICHST
015800*----------------------------------------------------------------*PPLICHST
015900*                                                                 PPLICHST
016000     EJECT                                                        PPLICHST
016100*----------------------------------------------------------------*PPLICHST
016200 0100-INITIALIZATION  SECTION.                                    PPLICHST
016300*----------------------------------------------------------------*PPLICHST
016400******************************************************************PPLICHST
016502     MOVE IHDB-OCC-KEY(1) TO WORK-LIC-KEY.                        36330984
016510     PERFORM 1800-INIT-ROW.                                       36450793
016600     INITIALIZE XHIF-INTERFACE.                                   PPLICHST
016700*----------------------------------------------------------------*PPLICHST
016800*    IF PROCESSING AN ECF FILE, THEN THE LAST HDB RECORD FOR THE  PPLICHST
016900*    EMPLOYEE IS READ TO POPULATE THE INTERNAL RECORD.            PPLICHST
017000*----------------------------------------------------------------*PPLICHST
017100     IF IHDB-ECF OR                                               PPLICHST
017200        IHDB-CONVERSION                                           PPLICHST
017300        PERFORM 1000-LOAD-ROW                                     PPLICHST
017400     END-IF.                                                      PPLICHST
017500*----------------------------------------------------------------*PPLICHST
017600*    IF RUNNING UNDER INITIALIZATION OR EDB AUDIT,                PPLICHST
017700*    THEN THE EDB FIELDS CORRESPONDING TO THOSE IN THE            PPLICHST
017800*    IHDB TABLE ARE RETRIEVED TO BE MOVED INTO THE HDB TABLE.     PPLICHST
017900*----------------------------------------------------------------*PPLICHST
018610*                                                                 36450793
018620     MOVE ZERO TO PPEDBFET-LAST-RETURN-IX.                        36450793
018630     IF EDB-AUDIT                                                 36450793
018640     OR IHDB-INITIALIZE                                           36450793
018650        PERFORM 1500-LOAD-PPEDBFET-TBL                            36450793
018660     END-IF.                                                      36450793
018700*                                                                 PPLICHST
018800*                                                                 PPLICHST
018900 0100-EXIT.    EXIT.                                              PPLICHST
019000*                                                                 PPLICHST
019100*                                                                 PPLICHST
019200     EJECT                                                        PPLICHST
019300*----------------------------------------------------------------*PPLICHST
019400 1000-LOAD-ROW  SECTION.                                          PPLICHST
019500*----------------------------------------------------------------*PPLICHST
019600******************************************************************PPLICHST
019700*----------------------------------------------------------------*PPLICHST
019800*    FETCH THE LAST EMPLOYEES RECORD FROM THE LIC FILE            PPLICHST
019900*----------------------------------------------------------------*PPLICHST
020000     SET XHIF-LICENSE-TABLE      TO TRUE.                         PPLICHST
020100     SET XHIF-SELECT-REQUEST     TO TRUE.                         PPLICHST
020200     SET XHIF-TYPE-EMPLID        TO TRUE.                         PPLICHST
020300     MOVE IHDB-EMPLOYEE-ID       TO XHIF-EMPLID.                  PPLICHST
020400     MOVE IHDB-ITERATION         TO XHIF-ITERATION.               PPLICHST
020500     MOVE IHDB-PROCESS-DATE      TO XHIF-DATE.                    PPLICHST
020600     MOVE IHDB-PROCESS-TIME      TO XHIF-TIME.                    PPLICHST
020610     MOVE WORK-LIC-NUM           TO XHIF-PPPLIC-LICENSE-CERT.     36330984
021400     PERFORM 9100-CALL-HDBFET.                                    PPLICHST
021500     IF XHIF-INVALID-KEY                                          PPLICHST
021700        MOVE XHIF-PPPLIC-LICENSE-CERT                             PPLICHST
021800                      TO LICENSE-CERT OF PPPLIC-ROW               PPLICHST
021900     END-IF.                                                      PPLICHST
022000*                                                                 PPLICHST
022010     MOVE PPPLIC-ROW  TO SAVE-PPPLIC-ROW.                         36330984
022100     IF IHDB-PROCESS-DATE = SYSTEM-ENTRY-DATE                     PPLICHST
022200                            OF PPPLIC-ROW                         PPLICHST
022300     AND IHDB-PROCESS-TIME = SYSTEM-ENTRY-TIME                    PPLICHST
022400                            OF PPPLIC-ROW                         PPLICHST
022500        NEXT SENTENCE                                             PPLICHST
022600     ELSE                                                         PPLICHST
022700        PERFORM 1700-RESET-CHANGE-IND                             PPLICHST
022800     END-IF.                                                      PPLICHST
022900*                                                                 PPLICHST
023000 1000-EXIT.    EXIT.                                              PPLICHST
023100*                                                                 PPLICHST
023200*                                                                 PPLICHST
023300     EJECT                                                        PPLICHST
023400*----------------------------------------------------------------*PPLICHST
023510 1500-LOAD-PPEDBFET-TBL  SECTION.                                 36450793
023600*----------------------------------------------------------------*PPLICHST
023700******************************************************************PPLICHST
023800*----------------------------------------------------------------*PPLICHST
023900*    FETCH THE EDB DATA FOR ALL FIELDS IN THE IHDB-TABLE.         PPLICHST
024000*----------------------------------------------------------------*PPLICHST
024100     INITIALIZE PPEDBFET-REQUEST-ARRAY.                           PPLICHST
024200     INITIALIZE PPEDBFET-D-E-RETURN-ARRAY.                        PPLICHST
024300     INITIALIZE PPEDBFET-DET-RETURN-ARRAY.                        PPLICHST
024400     INITIALIZE PPEDBFET-INTERFACE.                               PPLICHST
024500     SET PPEDBFET-LIST-REQUEST    TO TRUE.                        PPLICHST
024600     SET PPEDBFET-BATCH-CALL      TO TRUE.                        PPLICHST
024700     SET PPEDBFET-ISO-DATE-RETURN TO TRUE.                        PPLICHST
024800*                                                                 PPLICHST
024900     PERFORM VARYING I FROM 1 BY 1 UNTIL I > IHDB-LOADED          PPLICHST
025400           MOVE IHDB-EDB-DET-NO(I) TO PPEDBFET-REQ-DATA-ELEM-NO(I)PPLICHST
025500           MOVE IHDB-OCC-KEY(I)    TO PPEDBFET-REQ-OCCUR-KEY(I)   PPLICHST
025700     END-PERFORM.                                                 PPLICHST
025800*                                                                 PPLICHST
025900     MOVE IHDB-LOADED            TO PPEDBFET-REQUEST-LIST-SIZE.   PPLICHST
026000     MOVE IHDB-EMPLOYEE-ID       TO PPEDBFET-EMPLOYEE-ID.         PPLICHST
026100*                                                                 PPLICHST
026200     CALL 'PPEDBFET'.                                             PPLICHST
026300     IF PPEDBFET-ERROR                                            PPLICHST
026400     OR PPEDBFET-FUNCTION-ERROR                                   PPLICHST
026500     OR PPEDBFET-DATA-ELEM-NO-ERROR                               PPLICHST
026600     OR PPEDBFET-LIST-SIZE-ERROR                                  PPLICHST
026700     OR PPEDBFET-MORE-DATA                                        PPLICHST
026800        MOVE M74216              TO XMSG-NUMBER                   PPLICHST
026900        MOVE PPEDBFET-ERROR-INDICATORS TO XMSG-DATA               PPLICHST
033000********PERFORM 8100-CALL-PPMSGUTL                                30871230
033010        PERFORM 8100-CALL-MESSAGE-UTILITY                         30871230
027100        SET IHDB-BAD-RETURN-EDB TO TRUE                           PPLICHST
027200        GOBACK                                                    PPLICHST
027300     END-IF.                                                      PPLICHST
027400*                                                                 PPLICHST
027700*                                                                 PPLICHST
027800 1500-EXIT.    EXIT.                                              PPLICHST
027900*                                                                 PPLICHST
028000*                                                                 PPLICHST
028010     EJECT                                                        36450793
028020*----------------------------------------------------------------*36450793
028030 1600-LOAD-HDB-FROM-EDB   SECTION.                                36450793
028040*----------------------------------------------------------------*36450793
028050*    THE PPEDBFET PROCESS RETURNS THE DB2 DATA IN DE ORDER        36450793
028060*    AND OMITS ANY COLUMNS CONTAINING "INITIAL VALUES".           36450793
028080*                                                                 36450793
028090*    THE OUTER LOOP (OCCKEY-IX) SELECTS ONLY THOSE ROWS IN        36450793
028091*    THE RETURNED PPEDBFET TABLE THAT CONTAIN THE OCCUR KEY.      36450793
028092*    EACH SUCH ROW REPRESENTS A DB2 ROW. THE INNER LOOP IS        36450793
028093*    PERFORMED ONCE FOR EACH SUCH ROW IN THE PPEDBFET TABLE.      36450793
028094*                                                                 36450793
028095*    THE INNER LOOP (OCC-DE-IX) SELECTS, FROM THE SAME TABLE,     36450793
028096*    EACH DATA ELEMENT WITH AN OCC KEY MATCHING THE OUTER TABLE   36450793
028097*    AND COPIES THEM TO THE IHDB TBL ROW AND DB2 TBL ROW          36450793
028098*    VIA PARAGRAPHS 1620- AND 2000- RESPECTIVELY.                 36450793
028099*----------------------------------------------------------------*36450793
028100     IF  PPEDBFET-RETURN-DATA-ELEM-NO(OCCKEY-IX) = '0711'         36450793
028101         COMPUTE LCN-ROW-CTR = LCN-ROW-CTR + 1                    36450793
028102         MOVE PPEDBFET-RETURN-OCCUR-KEY(OCCKEY-IX) TO WORK-KEY    36450793
028103         PERFORM    VARYING OCC-DE-IX FROM 1 BY 1                 36450793
028104                    UNTIL   OCC-DE-IX > PPEDBFET-LAST-RETURN-IX   36450793
028105             IF PPEDBFET-RETURN-OCCUR-KEY(OCC-DE-IX) = WORK-KEY   36450793
028106                 PERFORM 1620-FMT-IHDB-TBL-FOR-KEY                36450793
028107***************  FORMAT INITIALIZED DB2 ROW                       36450793
028108                 SET I TO IHDB                                    36450793
028109                 PERFORM 2000-HDE-COMPARE                         36450793
028110             END-IF                                               36450793
028111         END-PERFORM                                              36450793
028112         PERFORM 2500-INITIALIZED-ROW-CHECK                       36450793
028113******** IF NO DATA OTHER THAN LICENSE-CERT                       36450793
028114         IF  INITIALIZED-ROW                                      36450793
028115             COMPUTE LCN-ROW-CTR = LCN-ROW-CTR - 1                36450793
028116         ELSE                                                     36450793
028117             PERFORM 3000-WRITE-HDB-REC                           36450793
028118         END-IF                                                   36450793
028119         PERFORM 1800-INIT-ROW                                    36450793
028120     END-IF.                                                      36450793
028121*                                                                 36450793
028122*                                                                 36450793
028123 1600-EXIT.    EXIT.                                              36450793
028124     EJECT                                                        36450793
028125*----------------------------------------------------------------*36450793
028126 1620-FMT-IHDB-TBL-FOR-KEY   SECTION.                             36450793
028127*----------------------------------------------------------------*36450793
028128*    IF THE PROCESS IS RUNNING IN INITIALIZATION                  36450793
028129*    MODE, THEN THE VALUES FROM EDB ARE MOVED TO THE NEW-VAL FLD  36450793
028130*    SINCE THAT IS THE FIELD THAT GOES TO THE HDB RECORD.         36450793
028131*                                                                 36450793
028132*   FORMAT IHDB DATA AND COUNT NUMBER OF DE OCCURRENCES.          36450793
028133*----------------------------------------------------------------*36450793
028134     MOVE PPEDBFET-RETURN-DATA-ELEM-NO(OCC-DE-IX) TO WORK-HDE     36450793
028135     SET IHDB  TO 1.                                              36450793
028136     SEARCH IHDB-DATA-ELEMENTS                                    36450793
028137     AT END                                                       36450793
028138         MOVE M74226              TO XMSG-NUMBER                  36450793
028139         MOVE PPEDBFET-RETURN-ENTRY(OCC-DE-IX) TO XMSG-DATA       36450793
039600*********PERFORM 8100-CALL-PPMSGUTL                               30871230
039610         PERFORM 8100-CALL-MESSAGE-UTILITY                        30871230
028141     WHEN     WORK-HDE  = IHDB-EDB-DET-NO(IHDB)                   36450793
028142         IF IHDB-INITIALIZE                                       36450793
028143             MOVE PPEDBFET-RETURN-VALUE(OCC-DE-IX)                36450793
028144               TO IHDB-NEW-VAL(IHDB)                              36450793
028145         ELSE                                                     36450793
028146             MOVE PPEDBFET-RETURN-VALUE(OCC-DE-IX)                36450793
028147               TO IHDB-EDB-VAL(IHDB)                              36450793
028148         END-IF                                                   36450793
028149     END-SEARCH.                                                  36450793
028150*                                                                 36450793
028151 1620-EXIT.    EXIT.                                              36450793
028152*                                                                 36450793
028153*                                                                 36450793
028160     EJECT                                                        36450793
031500*                                                                 PPLICHST
031600*                                                                 PPLICHST
028100     EJECT                                                        PPLICHST
028200*----------------------------------------------------------------*PPLICHST
031900 1700-RESET-CHANGE-IND  SECTION.                                  PPLICHST
032000*----------------------------------------------------------------*PPLICHST
032100******************************************************************PPLICHST
032210     MOVE SPACES                 TO LICENSE-RENEW-C OF PPPLIC-ROW.36330984
042000     MOVE SPACES TO LICENSE-NUMBER-C OF PPPLIC-ROW.               28181063
032300*                                                                 PPLICHST
032400 1700-EXIT.    EXIT.                                              PPLICHST
032500*                                                                 PPLICHST
032600*                                                                 PPLICHST
032700     EJECT                                                        PPLICHST
032800*----------------------------------------------------------------*PPLICHST
032900 1800-INIT-ROW  SECTION.                                          PPLICHST
033000*----------------------------------------------------------------*PPLICHST
033100******************************************************************PPLICHST
033110     INITIALIZE PPPLIC-ROW.                                       36450793
033200     MOVE '0001-01-01'     TO LICENSE-RENEW-DATE OF PPPLIC-ROW.   PPLICHST
033300*                                                                 PPLICHST
033400 1800-EXIT.    EXIT.                                              PPLICHST
033500*                                                                 PPLICHST
033600*                                                                 PPLICHST
033700     EJECT                                                        PPLICHST
033800*----------------------------------------------------------------*PPLICHST
033900 2000-HDE-COMPARE  SECTION.                                       PPLICHST
034000*----------------------------------------------------------------*PPLICHST
034100******************************************************************PPLICHST
034200*----------------------------------------------------------------*PPLICHST
034300*    EACH OF THE FIELDS IN THE ARRAY ARE PROCESSED BELOW.  THE    PPLICHST
034400*    AUDIT PROCESS IS EXECUTED AND WARNING MESSAGES ARE GENERATED PPLICHST
034500*    IF AN AUDIT FAILS, THEN THE NEW VALUE IS PLACED INTO THE HDB PPLICHST
034600*    RECORDS' CORRESPONDING FIELD AND THE CHANGED FLAG FOR THE    PPLICHST
034700*    FIELD IS SET TO ON.                                          PPLICHST
034800*----------------------------------------------------------------*PPLICHST
034900     EVALUATE IHDB-EDB-DET-NO(I)                                  PPLICHST
035000     WHEN '0711'                                                  PPLICHST
035100        COMPUTE IHDB-COUNT(I) = IHDB-COUNT(I) + 1                 PPLICHST
035200        MOVE LICENSE-CERT                                         PPLICHST
035300             OF PPPLIC-ROW       TO WORK-VALUE                    PPLICHST
035400        PERFORM 2100-AUDIT-PROCESS                                PPLICHST
035500        MOVE IHDB-NEW-VAL(I)     TO LICENSE-CERT                  PPLICHST
035600                                                OF PPPLIC-ROW     PPLICHST
035700     WHEN '0712'                                                  PPLICHST
035800        COMPUTE IHDB-COUNT(I) = IHDB-COUNT(I) + 1                 PPLICHST
035900        MOVE LICENSE-RENEW-DATE                                   PPLICHST
036000             OF PPPLIC-ROW       TO WORK-VALUE                    PPLICHST
036100        PERFORM 2100-AUDIT-PROCESS                                PPLICHST
036200        MOVE IHDB-NEW-VAL(I)     TO LICENSE-RENEW-DATE            PPLICHST
036300                                                OF PPPLIC-ROW     PPLICHST
036400        MOVE SW-ON               TO LICENSE-RENEW-C               PPLICHST
036410                                                OF PPPLIC-ROW     36330984
046500     WHEN '0718'                                                  28181063
046600        COMPUTE IHDB-COUNT(I) = IHDB-COUNT(I) + 1                 28181063
046700        MOVE LICENSE-NUMBER                                       28181063
046800             OF PPPLIC-ROW       TO WORK-VALUE                    28181063
046900        PERFORM 2100-AUDIT-PROCESS                                28181063
047000        MOVE IHDB-NEW-VAL(I)     TO LICENSE-NUMBER                28181063
047100                                                OF PPPLIC-ROW     28181063
047200        MOVE SW-ON               TO LICENSE-NUMBER-C              28181063
047300                                                OF PPPLIC-ROW     28181063
036500     WHEN OTHER                                                   PPLICHST
036600        SET IHDB-SYSTEMS         TO TRUE                          PPLICHST
036700        MOVE M74227              TO XMSG-NUMBER                   PPLICHST
036800        MOVE IHDB-EDB-DET-NO(I)  TO XMSG-DATA                     PPLICHST
047800********PERFORM 8100-CALL-PPMSGUTL                                30871230
047810        PERFORM 8100-CALL-MESSAGE-UTILITY                         30871230
037000        GOBACK                                                    PPLICHST
037100     END-EVALUATE.                                                PPLICHST
037200*                                                                 PPLICHST
037300 2000-EXIT.    EXIT.                                              PPLICHST
037400*                                                                 PPLICHST
037500*                                                                 PPLICHST
037600*                                                                 PPLICHST
037700     EJECT                                                        PPLICHST
037800*----------------------------------------------------------------*PPLICHST
037900 2100-AUDIT-PROCESS  SECTION.                                     PPLICHST
038000*----------------------------------------------------------------*PPLICHST
038100******************************************************************PPLICHST
038200*----------------------------------------------------------------*PPLICHST
038300*    CHECK FOR HDB AUDIT PROCESSING                               PPLICHST
038400*----------------------------------------------------------------*PPLICHST
038500     IF  HDB-AUDIT                                                PPLICHST
038600        IF IHDB-DATA-TYPE(I) = 'N'                                PPLICHST
038700           IF IHDB-OLD-NUM(I) NOT = WORK-VALUE-NUM                PPLICHST
038800              MOVE WORK-VALUE-NUM  TO RPT-AMOUNT1                 PPLICHST
038900              MOVE IHDB-OLD-NUM(I) TO RPT-AMOUNT2                 PPLICHST
039000              STRING IHDB-EMPLOYEE-ID ' '                         PPLICHST
039100                     IHDB-EDB-DET-NO(I) ' '                       PPLICHST
039200                     'HDB:' RPT-AMOUNT1 ' '                       PPLICHST
039300                     'ECF:' RPT-AMOUNT2 ' '                       PPLICHST
039400              DELIMITED BY SIZE   INTO XMSG-DATA                  PPLICHST
039500              MOVE M74223        TO XMSG-NUMBER                   PPLICHST
050500**************PERFORM 8100-CALL-PPMSGUTL                          30871230
050510              PERFORM 8100-CALL-MESSAGE-UTILITY                   30871230
039700           END-IF                                                 PPLICHST
039800        ELSE                                                      PPLICHST
039900           IF IHDB-OLD-VAL(I) NOT = WORK-VALUE                    PPLICHST
040000              STRING IHDB-EMPLOYEE-ID ' '                         PPLICHST
040100                     IHDB-EDB-DET-NO(I) ' '                       PPLICHST
040200                     'HDB:' WORK-VALUE ' '                        PPLICHST
040300                     'ECF:' IHDB-OLD-VAL(I) ' '                   PPLICHST
040400              DELIMITED BY SIZE   INTO XMSG-DATA                  PPLICHST
040500              MOVE M74223        TO XMSG-NUMBER                   PPLICHST
051500**************PERFORM 8100-CALL-PPMSGUTL                          30871230
051510              PERFORM 8100-CALL-MESSAGE-UTILITY                   30871230
040700           END-IF                                                 PPLICHST
040800        END-IF                                                    PPLICHST
040900     END-IF.                                                      PPLICHST
041000*----------------------------------------------------------------*PPLICHST
041100*    CHECK FOR EDB AUDIT PROCESSING                               PPLICHST
041200*----------------------------------------------------------------*PPLICHST
041300     IF  EDB-AUDIT                                                PPLICHST
041400        IF IHDB-DATA-TYPE(I) = 'N'                                PPLICHST
041500           IF IHDB-NEW-NUM(I) NOT = IHDB-EDB-NUM(I)               PPLICHST
041600              MOVE IHDB-EDB-NUM(I) TO RPT-AMOUNT1                 PPLICHST
041700              MOVE IHDB-OLD-NUM(I) TO RPT-AMOUNT2                 PPLICHST
041800              STRING IHDB-EMPLOYEE-ID ' '                         PPLICHST
041900                     IHDB-EDB-DET-NO(I) ' '                       PPLICHST
042000                     'EDB:' RPT-AMOUNT1 ' '                       PPLICHST
042100                     'ECF:' RPT-AMOUNT2 ' '                       PPLICHST
042200              DELIMITED BY SIZE   INTO XMSG-DATA                  PPLICHST
042300              MOVE M74224        TO XMSG-NUMBER                   PPLICHST
053300**************PERFORM 8100-CALL-PPMSGUTL                          30871230
053310              PERFORM 8100-CALL-MESSAGE-UTILITY                   30871230
042500           END-IF                                                 PPLICHST
042600        ELSE                                                      PPLICHST
042700           IF IHDB-NEW-VAL(I) NOT = IHDB-EDB-VAL(I)               PPLICHST
042800              STRING IHDB-EMPLOYEE-ID ' '                         PPLICHST
042900                     IHDB-EDB-DET-NO(I) ' '                       PPLICHST
043000                     'EDB:' IHDB-EDB-VAL(I) ' '                   PPLICHST
043100                     'ECF:' IHDB-NEW-VAL(I)                       PPLICHST
043200              DELIMITED BY SIZE   INTO XMSG-DATA                  PPLICHST
043300              MOVE M74224        TO XMSG-NUMBER                   PPLICHST
054300**************PERFORM 8100-CALL-PPMSGUTL                          30871230
054310              PERFORM 8100-CALL-MESSAGE-UTILITY                   30871230
043500           END-IF                                                 PPLICHST
043600        END-IF                                                    PPLICHST
043700     END-IF.                                                      PPLICHST
043800*                                                                 PPLICHST
043900 2100-EXIT.    EXIT.                                              PPLICHST
044000*                                                                 PPLICHST
044100*                                                                 PPLICHST
044200*                                                                 PPLICHST
044300     EJECT                                                        PPLICHST
044400*----------------------------------------------------------------*PPLICHST
044500 2500-INITIALIZED-ROW-CHECK  SECTION.                             PPLICHST
044600*----------------------------------------------------------------*PPLICHST
044700******************************************************************PPLICHST
044800*                                                                 PPLICHST
044900     MOVE CORRESPONDING PPPLIC-ROW TO WORK-ROW-DATA.              PPLICHST
045000     MOVE SPACES                   TO IHDB-INITIALIZED-ROW.       PPLICHST
045100*                                                                 PPLICHST
045200     IF  WORK-ROW-DATA = INITIALIZED-ROW-DATA                     PPLICHST
045300         SET INITIALIZED-ROW TO TRUE                              PPLICHST
045400     END-IF.                                                      PPLICHST
045410                                                                  36330984
045420     IF IHDB-ECF OR IHDB-CONVERSION                               36330984
045430        IF INITIALIZED-ROW                                        36330984
045440            MOVE SAVE-PPPLIC-ROW TO PPPLIC-ROW                    36330984
045450            PERFORM 1700-RESET-CHANGE-IND                         36330984
045460            MOVE 'Y'         TO DELETE-FLAG OF PPPLIC-ROW         36330984
045470            MOVE SPACES      TO IHDB-INITIALIZED-ROW              36330984
045480        ELSE                                                      36330984
045490            MOVE SPACE       TO DELETE-FLAG OF PPPLIC-ROW         36330984
045491        END-IF                                                    36330984
045492     END-IF.                                                      36330984
045500*                                                                 PPLICHST
045600 2500-EXIT.    EXIT.                                              PPLICHST
045700*                                                                 PPLICHST
045800     EJECT                                                        PPLICHST
045900*----------------------------------------------------------------*PPLICHST
046000 3000-WRITE-HDB-REC  SECTION.                                     PPLICHST
046100*----------------------------------------------------------------*PPLICHST
046200******************************************************************PPLICHST
046300     INITIALIZE PPPIDX-ROW.                                       PPLICHST
046400     PERFORM 3100-GET-IDX-RECORD.                                 PPLICHST
046500*----------------------------------------------------------------*PPLICHST
046600*    SETUP AND CALL HDBFET TO UPDATE OR ADD THE IDX RECORD        PPLICHST
046700*----------------------------------------------------------------*PPLICHST
046800     MOVE ITERATION-NUMBER       OF PPPIDX-ROW                    PPLICHST
046900                                 TO XHIF-ITERATION.               PPLICHST
047000*                                                                 PPLICHST
047100     IF IHDB-PROCESS-DATE = SYSTEM-ENTRY-DATE                     PPLICHST
047200                                 OF PPPIDX-ROW                    PPLICHST
047300        SET XHIF-UPDATE-REQUEST  TO TRUE                          PPLICHST
047400     ELSE                                                         PPLICHST
047500        SET XHIF-INSERT-REQUEST TO TRUE                           PPLICHST
059600        IF LICENSE-RENEW-DATE OF PPPLIC-ROW = SPACES              28181063
059700           MOVE LICENSE-RENEW-DATE OF INITIALIZED-ROW-DATA        28181063
059800                TO LICENSE-RENEW-DATE OF PPPLIC-ROW               28181063
047600     END-IF.                                                      PPLICHST
047700*                                                                 PPLICHST
047800     MOVE IHDB-PROCESS-DATE   TO XHIF-DATE                        PPLICHST
047900                                 PPPLIC-C                         PPLICHST
048000                                 SYSTEM-ENTRY-DATE OF PPPIDX-ROW. PPLICHST
048100*                                                                 PPLICHST
048200     MOVE IHDB-PROCESS           TO SOURCE-INDICATOR.             PPLICHST
048300*                                                                 PPLICHST
048400     PERFORM 9100-CALL-HDBFET.                                    PPLICHST
048500     IF XHIF-INVALID-KEY                                          PPLICHST
048600        MOVE M74225              TO XMSG-NUMBER                   PPLICHST
048700        MOVE XHIF-INTERFACE-AREA TO XMSG-DATA                     PPLICHST
061100********PERFORM 8100-CALL-PPMSGUTL                                30871230
061110        PERFORM 8100-CALL-MESSAGE-UTILITY                         30871230
048900        SET IHDB-HDB-NOT-FOUND TO TRUE                            PPLICHST
049000        GOBACK                                                    PPLICHST
049100     END-IF.                                                      PPLICHST
049200*----------------------------------------------------------------*PPLICHST
049300*    SETUP AND CALL HDBFET TO UPDATE OR ADD THE LICENSE RECORD    PPLICHST
049400*----------------------------------------------------------------*PPLICHST
049500     SET XHIF-LICENSE-TABLE      TO TRUE.                         PPLICHST
049600*                                                                 PPLICHST
049700     IF IHDB-PROCESS-DATE = SYSTEM-ENTRY-DATE OF PPPLIC-ROW       PPLICHST
049800     AND IHDB-PROCESS-TIME = SYSTEM-ENTRY-TIME OF PPPLIC-ROW      PPLICHST
049900        SET XHIF-UPDATE-REQUEST  TO TRUE                          PPLICHST
050000     ELSE                                                         PPLICHST
050100        SET XHIF-INSERT-REQUEST  TO TRUE                          PPLICHST
062500        IF LICENSE-RENEW-DATE OF PPPLIC-ROW = SPACES              28181063
062600           MOVE LICENSE-RENEW-DATE OF INITIALIZED-ROW-DATA        28181063
062700                TO LICENSE-RENEW-DATE OF PPPLIC-ROW               28181063
050200     END-IF.                                                      PPLICHST
050300*                                                                 PPLICHST
050400     MOVE EMPLID OF PPPIDX-ROW TO EMPLID           OF PPPLIC-ROW. PPLICHST
050500     MOVE ITERATION-NUMBER OF PPPIDX-ROW TO ITERATION-NUMBER      PPLICHST
050600                                                   OF PPPLIC-ROW. PPLICHST
050700     MOVE IHDB-PROCESS-DATE TO SYSTEM-ENTRY-DATE   OF PPPLIC-ROW. PPLICHST
050800     MOVE IHDB-PROCESS-TIME TO SYSTEM-ENTRY-TIME   OF PPPLIC-ROW  PPLICHST
050900                               XHIF-TIME.                         PPLICHST
051000     MOVE LICENSE-CERT OF PPPLIC-ROW TO XHIF-PPPLIC-LICENSE-CERT  PPLICHST
051100*                                                                 PPLICHST
051200     PERFORM 9100-CALL-HDBFET.                                    PPLICHST
051300     IF XHIF-INVALID-KEY                                          PPLICHST
051400        MOVE M74225              TO XMSG-NUMBER                   PPLICHST
051500        MOVE XHIF-INTERFACE-AREA TO XMSG-DATA                     PPLICHST
064200********PERFORM 8100-CALL-PPMSGUTL                                30871230
064210        PERFORM 8100-CALL-MESSAGE-UTILITY                         30871230
051700        SET IHDB-HDB-NOT-FOUND TO TRUE                            PPLICHST
051800        GOBACK                                                    PPLICHST
051900     END-IF.                                                      PPLICHST
052000*                                                                 PPLICHST
052100 3000-EXIT.    EXIT.                                              PPLICHST
052200*                                                                 PPLICHST
052300*                                                                 PPLICHST
052400*                                                                 PPLICHST
052500     EJECT                                                        PPLICHST
052600*----------------------------------------------------------------*PPLICHST
052700 3100-GET-IDX-RECORD   SECTION.                                   PPLICHST
052800*----------------------------------------------------------------*PPLICHST
052900******************************************************************PPLICHST
053000*----------------------------------------------------------------*PPLICHST
053100*    AN IDX RECORD SHOULD EXIST FOR ALL EMPLOYEES.                PPLICHST
053200*----------------------------------------------------------------*PPLICHST
053300     SET XHIF-OK                 TO TRUE.                         PPLICHST
053400     SET XHIF-INDEX-TABLE        TO TRUE.                         PPLICHST
053500     SET XHIF-TYPE-EMPLID        TO TRUE.                         PPLICHST
053600     MOVE IHDB-EMPLOYEE-ID       TO XHIF-EMPLID.                  PPLICHST
053700     MOVE IHDB-ITERATION         TO XHIF-ITERATION.               PPLICHST
053800     MOVE IHDB-PROCESS-DATE      TO XHIF-DATE.                    PPLICHST
053900     MOVE SPACES                 TO XHIF-ADDITIONAL-KEY.          PPLICHST
054000     SET XHIF-SELECT-REQUEST     TO TRUE.                         PPLICHST
054100     PERFORM 9100-CALL-HDBFET.                                    PPLICHST
054200*----------------------------------------------------------------*PPLICHST
054300*    IF XHIF-INVALID-KEY FOR THE 2ND CALL, THEN THERE ARE NO IDX  PPLICHST
054400*    RECORDS EVEN IN THE FUTURE FOR THIS EMPLOYEE.  THE INDEX REC PPLICHST
054500*    SHOULD HAVE BEEN CREATED IN PPBASHST, THEREFORE, SINCE IT    PPLICHST
054600*    IS NOT FOUND THE PROCESS ABENDS.                             PPLICHST
054700*                                                                 PPLICHST
054800*    IF AN IDX RECORD IS FOUND ON THE 2ND CALL, THEN PERFORM      PPLICHST
054900*    3300-RESET-IDX-DATES SO THIS RECORD CAN BE USED AS A DEFAULT PPLICHST
055000*    RECORD.                                                      PPLICHST
055100*----------------------------------------------------------------*PPLICHST
055200     IF XHIF-INVALID-KEY                                          PPLICHST
055300        MOVE WORK-HIGH-DATE      TO XHIF-DATE                     PPLICHST
055400        PERFORM 9100-CALL-HDBFET                                  PPLICHST
055500        IF XHIF-INVALID-KEY                                       PPLICHST
055600           MOVE M74228           TO XMSG-NUMBER                   PPLICHST
055700           STRING XHIF-RETURN-STATUS                              PPLICHST
055800                  XHIF-INTERFACE-AREA                             PPLICHST
055900           DELIMITED BY SIZE   INTO XMSG-DATA                     PPLICHST
068600***********PERFORM 8100-CALL-PPMSGUTL                             30871230
068610           PERFORM 8100-CALL-MESSAGE-UTILITY                      30871230
056100           SET IHDB-SYSTEMS      TO TRUE                          PPLICHST
056200           GOBACK                                                 PPLICHST
056300        ELSE                                                      PPLICHST
056400           PERFORM 3300-RESET-IDX-DATES                           PPLICHST
056500        END-IF                                                    PPLICHST
056600     END-IF.                                                      PPLICHST
056700*                                                                 PPLICHST
056800 3100-EXIT.    EXIT.                                              PPLICHST
056900*                                                                 PPLICHST
057000*                                                                 PPLICHST
057100*                                                                 PPLICHST
057200     EJECT                                                        PPLICHST
057300*----------------------------------------------------------------*PPLICHST
057400 3300-RESET-IDX-DATES  SECTION.                                   PPLICHST
057500*----------------------------------------------------------------*PPLICHST
057600******************************************************************PPLICHST
057610**** INITIALIZE DATES IN PPPIDX.                                  36450793
057620     COPY CPPDIIDX.                                               36450793
059300*                                                                 PPLICHST
059400 3300-EXIT.    EXIT.                                              PPLICHST
059500*                                                                 PPLICHST
059600*                                                                 PPLICHST
059700*                                                                 PPLICHST
059800     EJECT                                                        PPLICHST
059900*----------------------------------------------------------------*PPLICHST
071200 8100-CALL-MESSAGE-UTILITY SECTION.                               30871230
071210*8100-CALL-PPMSGUTL    SECTION.                                   30871230
060100*----------------------------------------------------------------*PPLICHST
060200******************************************************************PPLICHST
060300*----------------------------------------------------------------*PPLICHST
060400*    THIS SECTION CALLS THE MESSAGE UTILITY PROGRAM TO PROCESS    PPLICHST
060500*    MESSAGES AND PRODUCE THE OUTPUT REPORT.                      PPLICHST
060600*----------------------------------------------------------------*PPLICHST
071900*****CALL 'PPMSGUTL' USING MSSG-INTERFACE.                        30871230
071910     CALL PGM-PPMSGUTL USING MSSG-INTERFACE.                      30871230
060800*                                                                 PPLICHST
060900     MOVE SPACES                 TO XMSG-TEXT                     PPLICHST
061000                                    XMSG-DATA                     PPLICHST
061100                                    XMSG-USER.                    PPLICHST
061200*                                                                 PPLICHST
061300 8100-EXIT.    EXIT.                                              PPLICHST
061400*                                                                 PPLICHST
061500*                                                                 PPLICHST
061600*                                                                 PPLICHST
061700     EJECT                                                        PPLICHST
061800*----------------------------------------------------------------*PPLICHST
061900 9100-CALL-HDBFET  SECTION.                                       PPLICHST
062000*----------------------------------------------------------------*PPLICHST
062100******************************************************************PPLICHST
062200*----------------------------------------------------------------*PPLICHST
062300*    THIS SECTION CALLS THE HDB FETCH UTILITY PROGRAM TO ACCESS   PPLICHST
062400*    THE HDB DATABASE.                                            PPLICHST
062500*----------------------------------------------------------------*PPLICHST
062600     SET XHIF-OK                 TO TRUE.                         PPLICHST
062700*                                                                 PPLICHST
062800     CALL 'PPHDBFET' USING XHIF-INTERFACE.                        PPLICHST
062900*                                                                 PPLICHST
063000     IF NOT XHIF-OK                                               PPLICHST
063100        IF XHIF-INVALID-KEY                                       PPLICHST
063200           NEXT SENTENCE                                          PPLICHST
063300        ELSE                                                      PPLICHST
063400           MOVE M74217              TO XMSG-NUMBER                PPLICHST
063500           MOVE XHIF-INTERFACE-AREA TO XMSG-DATA                  PPLICHST
074800***********PERFORM 8100-CALL-PPMSGUTL                             30871230
074810           PERFORM 8100-CALL-MESSAGE-UTILITY                      30871230
063700           MOVE M74217              TO XMSG-NUMBER                PPLICHST
063800           MOVE XHIF-RETURN-STATUS  TO XMSG-DATA                  PPLICHST
075100***********PERFORM 8100-CALL-PPMSGUTL                             30871230
075110           PERFORM 8100-CALL-MESSAGE-UTILITY                      30871230
064000           SET IHDB-BAD-RETURN-HDB TO TRUE                        PPLICHST
064100           GOBACK                                                 PPLICHST
064200        END-IF                                                    PPLICHST
064300     END-IF.                                                      PPLICHST
064400*                                                                 PPLICHST
064500 9100-EXIT.    EXIT.                                              PPLICHST
064600*DUMMY                                                            PPLICHST
