000100**************************************************************/   05490748
000200*  PROGRAM: PPLOFFET                                         */   05490748
000300*  RELEASE: ____0748____  SERVICE REQUEST(S): ____0549____   */   05490748
000400*  NAME:__J LUCAS ________CREATION DATE:      __03/05/93__   */   05490748
000500*  DESCRIPTION:                                              */   05490748
000600*  -ADDED LAYOFF-NOTICE-DATE TO THE OCCURRENCE KEY WHEN      */   05490748
000700*   FETCHING LAYOFF DATA.                                    */   05490748
000800**************************************************************/   05490748
000100**************************************************************/   36290724
000200*  PROGRAM: PPLOFFET                                         */   36290724
000300*  RELEASE # ___0724___   SERVICE REQUEST NO(S)____3629______*/   36290724
000400*  NAME __J. LUCAS_____   CREATION     DATE ____12/11/92_____*/   36290724
000500*  DESCRIPTION                                               */   36290724
000600*    ADDED CODE IN PAR. 9300 TO RETURN THE OCCURRENCE KEY    */   36290724
000700*    FOR ROWS THAT ARE BEING DELETED.                        */   36290724
000800**************************************************************/   36290724
000100**************************************************************/   36290694
000200*  PROGRAM:  PPLOFFET                                        */   36290694
000300*  RELEASE # ____0694____ SERVICE REQUEST NO(S)___3629_______*/   36290694
000400*  NAME ___J_LUCAS_____   MODIFICATION DATE ____08/07/92_____*/   36290694
000500*  DESCRIPTION                                               */   36290694
000600*    EDB LOF TABLE  FETCH DRIVER MODULE.                     */   36290694
000700**************************************************************/   36290694
000800 IDENTIFICATION DIVISION.                                         PPLOFFET
000900 PROGRAM-ID. PPLOFFET.                                            PPLOFFET
001000 AUTHOR. UCOP.                                                    PPLOFFET
001100 DATE-WRITTEN. FEBRUARY 1992.                                     PPLOFFET
001200 DATE-COMPILED.                                                   PPLOFFET
001300*REMARKS.                                                         PPLOFFET
001400******************************************************************PPLOFFET
001500*                                                                *PPLOFFET
001600*  THIS PROGRAM DRIVES THE RETRIEVAL OF EMPLOYEE DATA BASE       *PPLOFFET
001700* DATA ELEMENTS, BY DATA ELEMENT NUMBER, FROM LAYOFF ARRAY.      *PPLOFFET
001800* THIS PROGRAM IS CALLED BY PPEDBFET.                            *PPLOFFET
001900*                                                                *PPLOFFET
002000*  THE DETAILS OF THIS PROGRAMS FUNCTION ARE DESCRIBED IN THE    *PPLOFFET
002100* PROCEDURE DIVISION COPYMEMBER CPPDEFET.                        *PPLOFFET
002200*                                                                *PPLOFFET
002300******************************************************************PPLOFFET
002400     EJECT                                                        PPLOFFET
002500 ENVIRONMENT DIVISION.                                            PPLOFFET
002600 CONFIGURATION SECTION.                                           PPLOFFET
002700 SOURCE-COMPUTER.                   COPY CPOTXUCS.                PPLOFFET
002800 OBJECT-COMPUTER.                   COPY CPOTXOBJ.                PPLOFFET
002900      EJECT                                                       PPLOFFET
003000******************************************************************PPLOFFET
003100*                                                                *PPLOFFET
003200*                D A T A  D I V I S I O N                        *PPLOFFET
003300*                                                                *PPLOFFET
003400******************************************************************PPLOFFET
003500 DATA DIVISION.                                                   PPLOFFET
003600 WORKING-STORAGE SECTION.                                         PPLOFFET
003700 01  MISCELLANEOUS-WS.                                            PPLOFFET
003800******************************************************************PPLOFFET
003900*                                                                *PPLOFFET
004000* NOTE:                                                          *PPLOFFET
004100*                                                                *PPLOFFET
004200*  DATA NAMES, A-STND-PROG-ID AND PPXXXUTL-NAME,                 *PPLOFFET
004300*  ARE REFERENCED IN COPY CODE CPPDEFET. A-STND-PROG-ID IS USED  *PPLOFFET
004400*  IN DIAGNOSTIC REFERENCES, WHILE PPXXUTL-NAME                  *PPLOFFET
004500*  IS USED IN DYNAMIC CALLS TO THE APPROPRIATE TABLE READ        *PPLOFFET
004600*  UTILITY.                                                      *PPLOFFET
004700*                                                                *PPLOFFET
004800******************************************************************PPLOFFET
004900     05  A-STND-PROG-ID      PIC X(08) VALUE 'PPLOFFET'.          PPLOFFET
005000     05  PPXXXUTL-NAME       PIC X(08) VALUE 'PPLOFUTL'.          PPLOFFET
005100     05  WS-INIT-DATE        PIC X(10) VALUE '01/01/0001'.        PPLOFFET
005200     05  WS-ISO-INIT-DATE    PIC X(10) VALUE '0001-01-01'.        PPLOFFET
005300     05  TITLE-MATCH-SWITCH PIC X(01) VALUE 'Y'.                  PPLOFFET
005400         88  TITLE-MATCH              VALUE 'Y'.                  PPLOFFET
005500         88  NOT-TITLE-MATCH          VALUE 'N'.                  PPLOFFET
005600     05  FIRST-TIME-SWITCH   PIC X(01) VALUE 'Y'.                 PPLOFFET
005700         88  FIRST-TIME                VALUE 'Y'.                 PPLOFFET
005800         88  NOT-FIRST-TIME            VALUE 'N'.                 PPLOFFET
005900     05  INIT-VALUE-SWITCH   PIC X(01) VALUE 'Y'.                 PPLOFFET
006000         88  INIT-VALUE                VALUE 'Y'.                 PPLOFFET
006100         88  NON-INIT-VALUE            VALUE 'N'.                 PPLOFFET
006200     05  MULTIPLE-OCCUR-SW   PIC X(01) VALUE 'N'.                 PPLOFFET
006300         88  MULTIPLE-OCCURRENCE       VALUE 'Y'.                 PPLOFFET
006400         88  SINGLE-OCCURRENCE         VALUE 'N'.                 PPLOFFET
006500     05  MULT-TITLE-CODE-SW  PIC X(01) VALUE 'N'.                 PPLOFFET
006600         88  MULT-TITLE-CODE           VALUE 'Y'.                 PPLOFFET
006700         88  SNGL-TITLE-CODE           VALUE 'N'.                 PPLOFFET
006800     05  MULT-DEPT-CODE-SW   PIC X(01) VALUE 'N'.                 PPLOFFET
006900         88  MULT-DEPT-CODE            VALUE 'Y'.                 PPLOFFET
007000         88  SNGL-DEPT-CODE            VALUE 'N'.                 PPLOFFET
008700     05  MULT-NOTICE-DATE-SW PIC X(01) VALUE 'N'.                 05490748
008800         88  MULT-NOTICE-DATE          VALUE 'Y'.                 05490748
008900         88  SNGL-NOTICE-DATE          VALUE 'N'.                 05490748
007100     05  DATE-VALUE-SWITCH   PIC X(01) VALUE 'N'.                 PPLOFFET
007200         88  NO-DATE-VALUE             VALUE 'N'.                 PPLOFFET
007300         88  ISO-DATE-VALUE            VALUE 'I'.                 PPLOFFET
007400         88  USA-DATE-VALUE            VALUE 'U'.                 PPLOFFET
007500         88  DATE-VALUE                VALUES 'I' 'U'.            PPLOFFET
007600     05  DATA-RETURN-SW      PIC X(01) VALUE 'N'.                 PPLOFFET
007700         88  DATA-RETURN               VALUE 'Y'.                 PPLOFFET
007800         88  BYPASS-RETURN             VALUE 'N'.                 PPLOFFET
007900     05  LOCAL-OFFSET-RETURN-SW PIC X(01) VALUE 'N'.              PPLOFFET
008000         88  LOCAL-OFFSET-RETURNED     VALUE 'Y'.                 PPLOFFET
008100         88  NO-LOCAL-OFFSET-RETURNED  VALUE 'N'.                 PPLOFFET
008200     05  MULT-DATA-RETURN-SW PIC X(01) VALUE 'N'.                 PPLOFFET
008300         88  MULT-DATA-RETURNED        VALUE 'Y'.                 PPLOFFET
008400         88  MULT-DATA-NOT-RETURNED    VALUE 'N'.                 PPLOFFET
008500     05  DATE-HOLD-SWITCH    PIC X(01) VALUE 'N'.                 PPLOFFET
008600     05  WS-DATA-TYPE        PIC X(01) VALUE 'A'.                 PPLOFFET
008700         88  WS-DATA-TYPE-AN           VALUE 'A'.                 PPLOFFET
008800         88  WS-DATA-TYPE-NUM          VALUE 'N'.                 PPLOFFET
008900         88  WS-DATA-TYPE-DATE         VALUE 'D'.                 PPLOFFET
009000     05  WS-EMPLOYEE-ID      PIC X(09) VALUE SPACES.              PPLOFFET
009100     05  WS-DATA-ELEM-NO     PIC 9(04) VALUE ZEROES.              PPLOFFET
009200     05  WS-OCCURRENCE-KEY.                                       PPLOFFET
009300         15  WS-LAYOFF-TITLE-CODE   PIC  X(04).                   PPLOFFET
009400         15  WS-LAYOFF-DEPT-CODE    PIC  X(06).                   PPLOFFET
011400         15  WS-LAYOFF-NOTICE-DATE  PIC  X(06).                   05490748
009500     05  WS-IX1              PIC S9(4) COMP VALUE ZERO.           PPLOFFET
009600     05  WS-IX2              PIC S9(4) COMP VALUE ZERO.           PPLOFFET
009700     05  WS-IX3              PIC S9(4) COMP VALUE ZERO.           PPLOFFET
009800     05  WS-IX4              PIC S9(4) COMP VALUE ZERO.           PPLOFFET
009900     05  WS-IX5              PIC S9(4) COMP VALUE ZERO.           PPLOFFET
010000     05  WS-IX9              PIC S9(4) COMP VALUE ZERO.           PPLOFFET
010100     05  WS-IX10             PIC S9(4) COMP VALUE ZERO.           PPLOFFET
010200     05  WS-ARRAY-IX         PIC S9(4) COMP VALUE ZERO.           PPLOFFET
010300     05  WS-ARRAY-MAX        PIC S9(4) COMP VALUE ZERO.           PPLOFFET
010400     05  WS-ARRAY-HOLD-MAX   PIC S9(4) COMP VALUE ZERO.           PPLOFFET
010500     05  LOCAL-OFFSET        PIC S9(4) COMP VALUE ZERO.           PPLOFFET
010600     05  WS-RATE-DEF             PIC 9(06)V9(04).                 PPLOFFET
010700     05  FILLER REDEFINES WS-RATE-DEF.                            PPLOFFET
010800         10  WS-PERIOD-RATE-6V2.                                  PPLOFFET
010900             15  FILLER              PIC X(01).                   PPLOFFET
011000             15  WS-PERIOD-RATE-5V2  PIC X(07).                   PPLOFFET
011100         10  FILLER              PIC X(02).                       PPLOFFET
011200     05  FILLER REDEFINES WS-RATE-DEF.                            PPLOFFET
011300         10  FILLER              PIC X(02).                       PPLOFFET
011400         10  WS-HOURLY-RATE-4V4.                                  PPLOFFET
011500             15  FILLER              PIC X(01).                   PPLOFFET
011600             15  WS-HOURLY-RATE-3V4  PIC X(07).                   PPLOFFET
011700     SKIP3                                                        PPLOFFET
011800 01  DATE-CONVERSION-WORK-AREAS.                                  PPLOFFET
011900                                    COPY CPWSXDC2.                PPLOFFET
012000     EJECT                                                        PPLOFFET
012100 01  TEMP-DATA-AREA.                                              PPLOFFET
012200                                    COPY CPWSXMMM.                PPLOFFET
012300     EJECT                                                        PPLOFFET
012400******************************************************************PPLOFFET
012500*                                                                *PPLOFFET
012600* LAYOFF-ARRAY IS THE ROW THAT WILL BE PASSED AROUND FOR USE     *PPLOFFET
012700* BY HIGHER LEVEL PROGRAMS. IT IS DEFINED AS AN EXTERNAL DATA    *PPLOFFET
012800* AREA TO ALLOW HIGHER LEVEL PROGRAMS TO AVOID PASSING THE ROW   *PPLOFFET
012900* THROUGH UNNECESSARY CALLING CHAINS.                            *PPLOFFET
013000*                                                                *PPLOFFET
013100* LAYOFF-ARRAY-HOLD IS THE PURE ROW AS READ FROM THE LOF TBL ROW.*PPLOFFET
013200* IT IS HELD IN WORKING-STORAGE TO ALLOW THE REFRESH FUNCTION    *PPLOFFET
013300* TO BE PERFORMED WITHOUT AN ADDED DATA BASE ACCESS.             *PPLOFFET
013400*                                                                *PPLOFFET
013500* LAYOFF-ARRAY-HOLD1 IS THE ROW AS SET ASIDE, AFTER SOME UPD     *PPLOFFET
013600* ACTIVITY, BY THE EDB UPDATE COMPLEX, TO ALLOW THE GENERATION   *PPLOFFET
013700* OF THE "FIRST" CHANGE ENTRY IN CHANGE RECORDS.                 *PPLOFFET
013800*                                                                *PPLOFFET
013900******************************************************************PPLOFFET
014000 01  LAYOFF-ARRAY EXTERNAL.                                       PPLOFFET
014100                                 COPY CPWSELOF.                   PPLOFFET
014200     EJECT                                                        PPLOFFET
014300 01  LAYOFF-ARRAY-HOLD EXTERNAL.                                  PPLOFFET
014400                                 COPY CPWSELOF.                   PPLOFFET
014500     EJECT                                                        PPLOFFET
014600 01  LAYOFF-ARRAY-HOLD1 EXTERNAL.                                 PPLOFFET
014700                                 COPY CPWSELOF.                   PPLOFFET
014800     EJECT                                                        PPLOFFET
014900 01  PPEDBFET-REQUEST-ARRAY     EXTERNAL.                         PPLOFFET
015000                                    COPY CPWSEREQ.                PPLOFFET
015100     EJECT                                                        PPLOFFET
015200 01  PPEDBFET-D-E-RETURN-ARRAY  EXTERNAL.                         PPLOFFET
015300                                    COPY CPWSERET.                PPLOFFET
015400     EJECT                                                        PPLOFFET
015500 01  PPEDBFET-CHANGE-RETURN-ARRAY EXTERNAL.                       PPLOFFET
015600                                    COPY CPWSECHG.                PPLOFFET
015700     EJECT                                                        PPLOFFET
015800 01  PPEDBFET-RETURN-POINTERS     EXTERNAL.                       PPLOFFET
015900                                    COPY CPWSEPTR.                PPLOFFET
016000     EJECT                                                        PPLOFFET
016100 01  PPLOFUTL-INTERFACE.                                          PPLOFFET
016200                                    COPY CPLNKLOF.                PPLOFFET
016300     EJECT                                                        PPLOFFET
016400 01  XWHC-COMPILE-WORK-AREA.                                      PPLOFFET
016500                                    COPY CPWSXWHC.                PPLOFFET
016600     EJECT                                                        PPLOFFET
016700 01  PPXXXFET-INTERFACE  EXTERNAL.                                PPLOFFET
016800                                    COPY CPLNFXXX.                PPLOFFET
016900     EJECT                                                        PPLOFFET
017000 01  PAYROLL-CONSTANTS.                                           PPLOFFET
017100                                    COPY CPWSXIC2.                PPLOFFET
017200     EJECT                                                        PPLOFFET
017300 PROCEDURE DIVISION.                                              PPLOFFET
017400*                                                                 PPLOFFET
017500******************************************************************PPLOFFET
017600*            P R O C E D U R E  D I V I S I O N                  *PPLOFFET
017700******************************************************************PPLOFFET
017800*                                                                 PPLOFFET
017900******************************************************************PPLOFFET
018000*                                                                *PPLOFFET
018100*  THE PROCEDURE DIVISION OF THIS PROGRAM IS CONTAINED PRIMARILY *PPLOFFET
018200* IN COPY MEMBER CPPDEFET. HERE THE GENERIC DATA-NAMES IN        *PPLOFFET
018300* CPPDEFET ARE REPLACED WITH THE SPECIFIC DATA-NAMES OF THE      *PPLOFFET
018400* WORKING STORAGE TABLE ROWS AND THE PPXXXUTL MODULE INTERFACE.  *PPLOFFET
018500*                                                                *PPLOFFET
018600*                                                                *PPLOFFET
018700******************************************************************PPLOFFET
018800                                     COPY CPPDEFET                PPLOFFET
018900        REPLACING PP000UTL-INTERFACE   BY PPLOFUTL-INTERFACE      PPLOFFET
019000                  PP000UTL-ERROR       BY PPLOFUTL-ERROR          PPLOFFET
019100                  PP000UTL-EMPLOYEE-ID BY PPLOFUTL-EMPLOYEE-ID    PPLOFFET
019200                  000-ROW              BY LAYOFF-ARRAY.           PPLOFFET
019300     EJECT                                                        PPLOFFET
019400 7900-FIRST-TIME SECTION.                                         PPLOFFET
019500     SKIP1                                                        PPLOFFET
019600     MOVE A-STND-PROG-ID TO XWHC-DISPLAY-MODULE.                  PPLOFFET
019700     IF PPXXXFET-NON-INITIAL-REQUEST                              PPLOFFET
019800         INITIALIZE LAYOFF-ARRAY-HOLD                             PPLOFFET
019900         INITIALIZE LAYOFF-ARRAY-HOLD1                            PPLOFFET
020000     END-IF.                                                      PPLOFFET
020100     SKIP1                                                        PPLOFFET
020200                                    COPY CPPDXWHC.                PPLOFFET
020300     EJECT                                                        PPLOFFET
020400 8800-CONVERT-DATES SECTION.                                      PPLOFFET
020500     SKIP3                                                        PPLOFFET
020600                                    COPY CPPDXDC2.                PPLOFFET
020700     EJECT                                                        PPLOFFET
020800 9000-RESTORE-INDEXES SECTION.                                    PPLOFFET
020900     SKIP1                                                        PPLOFFET
021000     INITIALIZE WS-IX4.                                           PPLOFFET
021100     EJECT                                                        PPLOFFET
021200 9050-SAVE-INDEXES SECTION.                                       PPLOFFET
021300     SKIP1                                                        PPLOFFET
021400     COMPUTE WS-ARRAY-IX = WS-IX5.                                PPLOFFET
021500     MOVE WS-ARRAY-IX TO PPXXXFET-SAVE3.                          PPLOFFET
021600     EJECT                                                        PPLOFFET
021700 9100-EVALUATE-DATA-ELEMENT SECTION.                              PPLOFFET
021800     MOVE ZERO TO LOCAL-OFFSET.                                   PPLOFFET
021900     IF PPXXXFET-NON-INITIAL-REQUEST                              PPLOFFET
022000         PERFORM 9500-SET-UP-EVAL-DATA-ELEM                       PPLOFFET
022100         IF WS-ARRAY-IX NOT > ZERO                                PPLOFFET
022200             MOVE 1 TO WS-ARRAY-IX                                PPLOFFET
022300         END-IF                                                   PPLOFFET
022400******************************************************************PPLOFFET
022500*    THIS PERFORM WILL RETURN DATA ELEMENTS SORTED               *PPLOFFET
022600*    BY OCCURENCE KEY FOLLOWED BY DATA ELEMENT NUMBER.           *PPLOFFET
022700*    E.G. FOR "NON INITIAL" REQUEST ALL DATA ELEMENTS FOR AN     *PPLOFFET
022800*    ARRAY ITEMS ARE RETURNED AS THEY ARE LOCATED WITHIN         *PPLOFFET
022900*    ONE ARRAY ITEM.                                             *PPLOFFET
023000*                                                                *PPLOFFET
023100*    NOTE THAT CODE IN SECTION 9400 TAKES OVER THE FUNCTION      *PPLOFFET
023200*    OF THE PERFORM OF SECTION 9100- FOUND IN CPPDEFET.          *PPLOFFET
023300******************************************************************PPLOFFET
023400         PERFORM VARYING WS-IX5 FROM WS-ARRAY-IX BY 1             PPLOFFET
023500             UNTIL (WS-IX5 > WS-ARRAY-MAX)                        PPLOFFET
023600               OR PPXXXFET-MORE-DATA                              PPLOFFET
023700             PERFORM 9400-EVALUATE-DATA-ELEMENT                   PPLOFFET
023800             IF NOT PPXXXFET-MORE-DATA                            PPLOFFET
023900                 MOVE PPEDBFET-MAX-PTR (WS-IX1) TO WS-IX2         PPLOFFET
024000             END-IF                                               PPLOFFET
024100         END-PERFORM                                              PPLOFFET
024200         COMPUTE PPXXXFET-OFFSET =                                PPLOFFET
024300                 PPXXXFET-OFFSET + LOCAL-OFFSET                   PPLOFFET
024400     ELSE                                                         PPLOFFET
024500         PERFORM 9500-SET-UP-EVAL-DATA-ELEM                       PPLOFFET
024600         PERFORM 9200-EVALUATE-DATA-ELEMENT.                      PPLOFFET
024700     EJECT                                                        PPLOFFET
024800 9200-EVALUATE-DATA-ELEMENT SECTION.                              PPLOFFET
024900******************************************************************PPLOFFET
025000*    THIS SECTION WILL RETURN DATA ELEMENTS SORTED               *PPLOFFET
025100*    BY DATA ELEMENT NUMBER FOLLOWED BY OCCURENCE KEY.           *PPLOFFET
025200*    E.G. IN THE CASE OF A GENERIC REQUEST (THAT IS WHEN         *PPLOFFET
025300*    88 MULTIPLE-OCCURRENCE IS TRUE), ALL ARRAY ITEMS            *PPLOFFET
025400*    FOR THE DATA ELEMENT ARE RETURNED TOGETHER.                 *PPLOFFET
025500******************************************************************PPLOFFET
025600     SKIP1                                                        PPLOFFET
025700     IF MULT-TITLE-CODE OR MULT-DEPT-CODE                         PPLOFFET
027800         OR MULT-NOTICE-DATE                                      05490748
025800         SET MULTIPLE-OCCURRENCE TO TRUE                          PPLOFFET
025900     END-IF.                                                      PPLOFFET
026000     SKIP1                                                        PPLOFFET
026100                                                                  PPLOFFET
026200     COMPUTE WS-ARRAY-IX = WS-ARRAY-IX + 1.                       PPLOFFET
026300******************************************************************PPLOFFET
026400******************************************************************PPLOFFET
026500     PERFORM VARYING WS-IX5 FROM WS-ARRAY-IX BY 1                 PPLOFFET
026600         UNTIL (WS-IX5 > WS-ARRAY-MAX)                            PPLOFFET
026700           OR PPXXXFET-MORE-DATA                                  PPLOFFET
026800                                                                  PPLOFFET
026900         SET NOT-TITLE-MATCH TO TRUE                              PPLOFFET
027000         IF MULT-TITLE-CODE                                       PPLOFFET
027100             SET TITLE-MATCH  TO TRUE                             PPLOFFET
027200         ELSE                                                     PPLOFFET
027300                                                                  PPLOFFET
027400*      SINCE THE KEY INFO IN THE ARRAY MAY BE GONE                PPLOFFET
027500*      FROM ITEMS WITHIN THE ORIGINAL GROUP OF RECORDS            PPLOFFET
027600*      (DUE TO DELETION),                                         PPLOFFET
027700*      WE MUST MATCH AGAINST -HOLD FOR ORIGINAL ITEMS             PPLOFFET
027800                                                                  PPLOFFET
027900             IF WS-IX5 NOT > WS-ARRAY-HOLD-MAX                    PPLOFFET
028000                 IF (LOF-TITLE-CODE   OF LAYOFF-ARRAY-HOLD        PPLOFFET
028100                    (WS-IX5)                                      PPLOFFET
028200                     = WS-LAYOFF-TITLE-CODE)                      PPLOFFET
028300                     SET TITLE-MATCH TO TRUE                      PPLOFFET
028400                 END-IF                                           PPLOFFET
028500             ELSE                                                 PPLOFFET
028600                 IF (LOF-TITLE-CODE   OF LAYOFF-ARRAY             PPLOFFET
028700                    (WS-IX5)                                      PPLOFFET
028800                     = WS-LAYOFF-TITLE-CODE)                      PPLOFFET
028900                     SET TITLE-MATCH TO TRUE                      PPLOFFET
029000                 END-IF                                           PPLOFFET
029100             END-IF                                               PPLOFFET
029200         END-IF                                                   PPLOFFET
029300*                                                                 PPLOFFET
029400*      SINCE THE KEY INFO IN THE ARRAY MAY BE GONE                PPLOFFET
029500*      FROM ITEMS WITHIN THE ORIGINAL GROUP OF RECORDS            PPLOFFET
029600*      (DUE TO DELETION),                                         PPLOFFET
029700*      WE MUST MATCH AGAINST -HOLD FOR ORIGINAL ITEMS             PPLOFFET
029800*                                                                 PPLOFFET
029900         IF WS-IX5 NOT > WS-ARRAY-HOLD-MAX                        PPLOFFET
030000             IF TITLE-MATCH                                       PPLOFFET
030100             AND ((LOF-DEPT-CODE OF LAYOFF-ARRAY-HOLD (WS-IX5)    PPLOFFET
030200             = WS-LAYOFF-DEPT-CODE) OR MULT-DEPT-CODE)            PPLOFFET
032400             AND ((LOF-NOTICE-DATE  OF LAYOFF-ARRAY-HOLD (WS-IX5) 05490748
032500             = WS-LAYOFF-NOTICE-DATE) OR MULT-NOTICE-DATE)        05490748
030300                                                                  PPLOFFET
030400                 PERFORM 9300-EVALUATE-DATA-ELEMENT               PPLOFFET
030500                                                                  PPLOFFET
030600             END-IF                                               PPLOFFET
030700         ELSE                                                     PPLOFFET
030800             IF TITLE-MATCH                                       PPLOFFET
030900             AND ((LOF-DEPT-CODE  OF LAYOFF-ARRAY                 PPLOFFET
031000             (WS-IX5)                                             PPLOFFET
031100             = WS-LAYOFF-DEPT-CODE) OR MULT-DEPT-CODE)            PPLOFFET
033500             AND ((LOF-NOTICE-DATE  OF LAYOFF-ARRAY (WS-IX5)      05490748
033600             = WS-LAYOFF-NOTICE-DATE) OR MULT-NOTICE-DATE)        05490748
031200                                                                  PPLOFFET
031300                 PERFORM 9300-EVALUATE-DATA-ELEMENT               PPLOFFET
031400                                                                  PPLOFFET
031500             END-IF                                               PPLOFFET
031600         END-IF                                                   PPLOFFET
031700                                                                  PPLOFFET
031800         IF MULTIPLE-OCCURRENCE AND DATA-RETURN                   PPLOFFET
031900             IF WS-IX4 = PPXXXFET-MAX-RETURN-ENTRIES AND          PPLOFFET
032000                WS-IX5 < WS-ARRAY-MAX                             PPLOFFET
032100                SET PPXXXFET-MORE-DATA TO TRUE                    PPLOFFET
032200                PERFORM 9050-SAVE-INDEXES                         PPLOFFET
032300              ELSE                                                PPLOFFET
032400                PERFORM 0900-SETUP-FOR-RETURN                     PPLOFFET
032500                ADD 1 TO PPXXXFET-OFFSET                          PPLOFFET
032600                SET MULT-DATA-RETURNED TO TRUE                    PPLOFFET
032700             END-IF                                               PPLOFFET
032800         END-IF                                                   PPLOFFET
032900     END-PERFORM.                                                 PPLOFFET
033000******************************************************************PPLOFFET
033100     IF MULT-DATA-RETURNED                                        PPLOFFET
033200         SUBTRACT 1 FROM PPXXXFET-OFFSET                          PPLOFFET
033300     END-IF.                                                      PPLOFFET
033400     EJECT                                                        PPLOFFET
033500 9300-EVALUATE-DATA-ELEMENT SECTION.                              PPLOFFET
033600     MOVE LOF-TITLE-CODE  OF LAYOFF-ARRAY (WS-IX5)                PPLOFFET
033700         TO  WS-LAYOFF-TITLE-CODE.                                PPLOFFET
033800     MOVE LOF-DEPT-CODE OF LAYOFF-ARRAY (WS-IX5)                  PPLOFFET
033900         TO  WS-LAYOFF-DEPT-CODE.                                 PPLOFFET
036500     MOVE LOF-NOTICE-DATE OF LAYOFF-ARRAY (WS-IX5)                05490748
036600         TO DB2-DATE.                                             05490748
036700     PERFORM CONVERT-DB2-DATE.                                    05490748
036800     MOVE WSX-STD-DATE TO WS-LAYOFF-NOTICE-DATE.                  05490748
034800******************************************************************36290724
034900*       ROWS BEING DELETED HAVE BEEN INITIALIZED, SO THE         *36290724
035000*       OCCURRENCE KEY FOR DELETED ROWS MUST BE OBTAINED         *36290724
035100*       FROM 'LAYOFF-ARRAY-HOLD'.                                *36290724
035200******************************************************************36290724
037400*****IF WS-OCCURRENCE-KEY = SPACES                                05490748
037500     IF WS-LAYOFF-TITLE-CODE = SPACES   AND                       05490748
037600        WS-LAYOFF-DEPT-CODE  = SPACES   AND                       05490748
037700        WS-LAYOFF-NOTICE-DATE = ZERO                              05490748
035400         MOVE LOF-TITLE-CODE OF LAYOFF-ARRAY-HOLD (WS-IX5)        36290724
035500             TO WS-LAYOFF-TITLE-CODE                              36290724
035600         MOVE LOF-DEPT-CODE OF LAYOFF-ARRAY-HOLD (WS-IX5)         36290724
035700             TO WS-LAYOFF-DEPT-CODE                               36290724
038200         MOVE LOF-NOTICE-DATE OF LAYOFF-ARRAY-HOLD (WS-IX5)       05490748
038300              TO DB2-DATE                                         05490748
038400         PERFORM CONVERT-DB2-DATE                                 05490748
038500         MOVE WSX-STD-DATE TO WS-LAYOFF-NOTICE-DATE               05490748
035800     END-IF.                                                      36290724
034000     SET NOT-DB2X-DET-NUMERIC TO TRUE                             PPLOFFET
034100     EVALUATE WS-DATA-ELEM-NO                                     PPLOFFET
034200         WHEN '0462'                                              PPLOFFET
034300             MOVE    LOF-NOTICE-DATE                              PPLOFFET
034400                     OF LAYOFF-ARRAY (WS-IX5)                     PPLOFFET
034500                     TO TEMP-DATA-VALUE                           PPLOFFET
034600              IF PPXXXFET-CHANGE-REQUEST                          PPLOFFET
034700                  MOVE    LOF-NOTICE-DATE                         PPLOFFET
034800                          OF LAYOFF-ARRAY-HOLD (WS-IX5)           PPLOFFET
034900                          TO ORIG-DATA-VALUE                      PPLOFFET
035000                  MOVE    LOF-NOTICE-DATE                         PPLOFFET
035100                          OF  LAYOFF-ARRAY-HOLD1 (WS-IX5)         PPLOFFET
035200                          TO CHG1-DATA-VALUE                      PPLOFFET
035300              END-IF                                              PPLOFFET
035400         WHEN '0463'                                              PPLOFFET
035500             MOVE    LOF-REHIRE-BGN-DATE                          PPLOFFET
035600                     OF LAYOFF-ARRAY (WS-IX5)                     PPLOFFET
035700                     TO TEMP-DATA-VALUE                           PPLOFFET
035800              IF PPXXXFET-CHANGE-REQUEST                          PPLOFFET
035900                  MOVE    LOF-REHIRE-BGN-DATE                     PPLOFFET
036000                          OF LAYOFF-ARRAY-HOLD (WS-IX5)           PPLOFFET
036100                          TO ORIG-DATA-VALUE                      PPLOFFET
036200                  MOVE    LOF-REHIRE-BGN-DATE                     PPLOFFET
036300                          OF  LAYOFF-ARRAY-HOLD1 (WS-IX5)         PPLOFFET
036400                          TO CHG1-DATA-VALUE                      PPLOFFET
036500              END-IF                                              PPLOFFET
036600         WHEN '0464'                                              PPLOFFET
036700             MOVE    LOF-REHIRE-EXP-DATE                          PPLOFFET
036800                     OF LAYOFF-ARRAY (WS-IX5)                     PPLOFFET
036900                     TO TEMP-DATA-VALUE                           PPLOFFET
037000              IF PPXXXFET-CHANGE-REQUEST                          PPLOFFET
037100                  MOVE    LOF-REHIRE-EXP-DATE                     PPLOFFET
037200                          OF LAYOFF-ARRAY-HOLD (WS-IX5)           PPLOFFET
037300                          TO ORIG-DATA-VALUE                      PPLOFFET
037400                  MOVE    LOF-REHIRE-EXP-DATE                     PPLOFFET
037500                          OF  LAYOFF-ARRAY-HOLD1 (WS-IX5)         PPLOFFET
037600                          TO CHG1-DATA-VALUE                      PPLOFFET
037700              END-IF                                              PPLOFFET
037800         WHEN '0465'                                              PPLOFFET
037900             MOVE    LOF-REHIRE-SUSP-BGN-TERM-DATE                PPLOFFET
038000                     OF LAYOFF-ARRAY (WS-IX5)                     PPLOFFET
038100                     TO TEMP-DATA-VALUE                           PPLOFFET
038200              IF PPXXXFET-CHANGE-REQUEST                          PPLOFFET
038300                  MOVE    LOF-REHIRE-SUSP-BGN-TERM-DATE           PPLOFFET
038400                          OF LAYOFF-ARRAY-HOLD (WS-IX5)           PPLOFFET
038500                          TO ORIG-DATA-VALUE                      PPLOFFET
038600                  MOVE    LOF-REHIRE-SUSP-BGN-TERM-DATE           PPLOFFET
038700                          OF  LAYOFF-ARRAY-HOLD1 (WS-IX5)         PPLOFFET
038800                          TO CHG1-DATA-VALUE                      PPLOFFET
038900              END-IF                                              PPLOFFET
039000         WHEN '0466'                                              PPLOFFET
039100             MOVE    LOF-REHIRE-SUSP-END-DATE                     PPLOFFET
039200                     OF LAYOFF-ARRAY (WS-IX5)                     PPLOFFET
039300                     TO TEMP-DATA-VALUE                           PPLOFFET
039400              IF PPXXXFET-CHANGE-REQUEST                          PPLOFFET
039500                  MOVE    LOF-REHIRE-SUSP-END-DATE                PPLOFFET
039600                          OF LAYOFF-ARRAY-HOLD (WS-IX5)           PPLOFFET
039700                          TO ORIG-DATA-VALUE                      PPLOFFET
039800                  MOVE    LOF-REHIRE-SUSP-END-DATE                PPLOFFET
039900                          OF  LAYOFF-ARRAY-HOLD1 (WS-IX5)         PPLOFFET
040000                          TO CHG1-DATA-VALUE                      PPLOFFET
040100              END-IF                                              PPLOFFET
040200         WHEN '0467'                                              PPLOFFET
040300             MOVE    LOF-RECALL-BGN-DATE                          PPLOFFET
040400                     OF LAYOFF-ARRAY (WS-IX5)                     PPLOFFET
040500                     TO TEMP-DATA-VALUE                           PPLOFFET
040600              IF PPXXXFET-CHANGE-REQUEST                          PPLOFFET
040700                  MOVE    LOF-RECALL-BGN-DATE                     PPLOFFET
040800                          OF LAYOFF-ARRAY-HOLD (WS-IX5)           PPLOFFET
040900                          TO ORIG-DATA-VALUE                      PPLOFFET
041000                  MOVE    LOF-RECALL-BGN-DATE                     PPLOFFET
041100                          OF  LAYOFF-ARRAY-HOLD1 (WS-IX5)         PPLOFFET
041200                          TO CHG1-DATA-VALUE                      PPLOFFET
041300              END-IF                                              PPLOFFET
041400         WHEN '0468'                                              PPLOFFET
041500             MOVE    LOF-RECALL-EXP-DATE                          PPLOFFET
041600                     OF LAYOFF-ARRAY (WS-IX5)                     PPLOFFET
041700                     TO TEMP-DATA-VALUE                           PPLOFFET
041800              IF PPXXXFET-CHANGE-REQUEST                          PPLOFFET
041900                  MOVE    LOF-RECALL-EXP-DATE                     PPLOFFET
042000                          OF LAYOFF-ARRAY-HOLD (WS-IX5)           PPLOFFET
042100                          TO ORIG-DATA-VALUE                      PPLOFFET
042200                  MOVE    LOF-RECALL-EXP-DATE                     PPLOFFET
042300                          OF  LAYOFF-ARRAY-HOLD1 (WS-IX5)         PPLOFFET
042400                          TO CHG1-DATA-VALUE                      PPLOFFET
042500              END-IF                                              PPLOFFET
042600         WHEN '0469'                                              PPLOFFET
042700             MOVE    LOF-RECALL-SUSP-BGN-TERM-DATE                PPLOFFET
042800                     OF LAYOFF-ARRAY (WS-IX5)                     PPLOFFET
042900                     TO TEMP-DATA-VALUE                           PPLOFFET
043000              IF PPXXXFET-CHANGE-REQUEST                          PPLOFFET
043100                  MOVE    LOF-RECALL-SUSP-BGN-TERM-DATE           PPLOFFET
043200                          OF LAYOFF-ARRAY-HOLD (WS-IX5)           PPLOFFET
043300                          TO ORIG-DATA-VALUE                      PPLOFFET
043400                  MOVE    LOF-RECALL-SUSP-BGN-TERM-DATE           PPLOFFET
043500                          OF  LAYOFF-ARRAY-HOLD1 (WS-IX5)         PPLOFFET
043600                          TO CHG1-DATA-VALUE                      PPLOFFET
043700              END-IF                                              PPLOFFET
043800         WHEN '0470'                                              PPLOFFET
043900             MOVE    LOF-RECALL-SUSP-END-DATE                     PPLOFFET
044000                     OF LAYOFF-ARRAY (WS-IX5)                     PPLOFFET
044100                     TO TEMP-DATA-VALUE                           PPLOFFET
044200              IF PPXXXFET-CHANGE-REQUEST                          PPLOFFET
044300                  MOVE    LOF-RECALL-SUSP-END-DATE                PPLOFFET
044400                          OF LAYOFF-ARRAY-HOLD (WS-IX5)           PPLOFFET
044500                          TO ORIG-DATA-VALUE                      PPLOFFET
044600                  MOVE    LOF-RECALL-SUSP-END-DATE                PPLOFFET
044700                          OF  LAYOFF-ARRAY-HOLD1 (WS-IX5)         PPLOFFET
044800                          TO CHG1-DATA-VALUE                      PPLOFFET
044900              END-IF                                              PPLOFFET
045000         WHEN '0471'                                              PPLOFFET
045100             MOVE    LOF-REHIRE-SUSP-TERM-RSN                     PPLOFFET
045200                     OF LAYOFF-ARRAY (WS-IX5)                     PPLOFFET
045300                     TO TEMP-DATA-VALUE                           PPLOFFET
045400              IF PPXXXFET-CHANGE-REQUEST                          PPLOFFET
045500                  MOVE    LOF-REHIRE-SUSP-TERM-RSN                PPLOFFET
045600                          OF LAYOFF-ARRAY-HOLD (WS-IX5)           PPLOFFET
045700                          TO ORIG-DATA-VALUE                      PPLOFFET
045800                  MOVE    LOF-REHIRE-SUSP-TERM-RSN                PPLOFFET
045900                          OF  LAYOFF-ARRAY-HOLD1 (WS-IX5)         PPLOFFET
046000                          TO CHG1-DATA-VALUE                      PPLOFFET
046100              END-IF                                              PPLOFFET
046200         WHEN '0472'                                              PPLOFFET
046300             MOVE    LOF-RECALL-SUSP-TERM-RSN                     PPLOFFET
046400                     OF LAYOFF-ARRAY (WS-IX5)                     PPLOFFET
046500                     TO TEMP-DATA-VALUE                           PPLOFFET
046600              IF PPXXXFET-CHANGE-REQUEST                          PPLOFFET
046700                  MOVE    LOF-RECALL-SUSP-TERM-RSN                PPLOFFET
046800                          OF LAYOFF-ARRAY-HOLD (WS-IX5)           PPLOFFET
046900                          TO ORIG-DATA-VALUE                      PPLOFFET
047000                  MOVE    LOF-RECALL-SUSP-TERM-RSN                PPLOFFET
047100                          OF  LAYOFF-ARRAY-HOLD1 (WS-IX5)         PPLOFFET
047200                          TO CHG1-DATA-VALUE                      PPLOFFET
047300              END-IF                                              PPLOFFET
047400         WHEN '0473'                                              PPLOFFET
047500             MOVE    LOF-UNIT-CODE                                PPLOFFET
047600                     OF LAYOFF-ARRAY (WS-IX5)                     PPLOFFET
047700                     TO TEMP-DATA-VALUE                           PPLOFFET
047800              IF PPXXXFET-CHANGE-REQUEST                          PPLOFFET
047900                  MOVE    LOF-UNIT-CODE                           PPLOFFET
048000                          OF LAYOFF-ARRAY-HOLD (WS-IX5)           PPLOFFET
048100                          TO ORIG-DATA-VALUE                      PPLOFFET
048200                  MOVE    LOF-UNIT-CODE                           PPLOFFET
048300                          OF  LAYOFF-ARRAY-HOLD1 (WS-IX5)         PPLOFFET
048400                          TO CHG1-DATA-VALUE                      PPLOFFET
048500              END-IF                                              PPLOFFET
048600         WHEN '0474'                                              PPLOFFET
048700             MOVE    LOF-TITLE-CODE                               PPLOFFET
048800                     OF LAYOFF-ARRAY (WS-IX5)                     PPLOFFET
048900                     TO TEMP-DATA-VALUE                           PPLOFFET
049000              IF PPXXXFET-CHANGE-REQUEST                          PPLOFFET
049100                  MOVE    LOF-TITLE-CODE                          PPLOFFET
049200                          OF LAYOFF-ARRAY-HOLD (WS-IX5)           PPLOFFET
049300                          TO ORIG-DATA-VALUE                      PPLOFFET
049400                  MOVE    LOF-TITLE-CODE                          PPLOFFET
049500                          OF  LAYOFF-ARRAY-HOLD1 (WS-IX5)         PPLOFFET
049600                          TO CHG1-DATA-VALUE                      PPLOFFET
049700              END-IF                                              PPLOFFET
049800         WHEN '0475'                                              PPLOFFET
049900             MOVE    LOF-DEPT-CODE                                PPLOFFET
050000                     OF LAYOFF-ARRAY (WS-IX5)                     PPLOFFET
050100                     TO TEMP-DATA-VALUE                           PPLOFFET
050200              IF PPXXXFET-CHANGE-REQUEST                          PPLOFFET
050300                  MOVE    LOF-DEPT-CODE                           PPLOFFET
050400                          OF LAYOFF-ARRAY-HOLD (WS-IX5)           PPLOFFET
050500                          TO ORIG-DATA-VALUE                      PPLOFFET
050600                  MOVE    LOF-DEPT-CODE                           PPLOFFET
050700                          OF  LAYOFF-ARRAY-HOLD1 (WS-IX5)         PPLOFFET
050800                          TO CHG1-DATA-VALUE                      PPLOFFET
050900              END-IF                                              PPLOFFET
051000         WHEN '0476'                                              PPLOFFET
051100             MOVE    LOF-ADC-CODE                                 PPLOFFET
051200                     OF LAYOFF-ARRAY (WS-IX5)                     PPLOFFET
051300                     TO TEMP-DATA-VALUE                           PPLOFFET
051400              IF PPXXXFET-CHANGE-REQUEST                          PPLOFFET
051500                  MOVE    LOF-ADC-CODE                            PPLOFFET
051600                          OF LAYOFF-ARRAY-HOLD (WS-IX5)           PPLOFFET
051700                          TO ORIG-DATA-VALUE                      PPLOFFET
051800                  MOVE    LOF-ADC-CODE                            PPLOFFET
051900                          OF  LAYOFF-ARRAY-HOLD1 (WS-IX5)         PPLOFFET
052000                          TO CHG1-DATA-VALUE                      PPLOFFET
052100              END-IF                                              PPLOFFET
052200         WHEN '0477'                                              PPLOFFET
052300             IF PPXXXFET-CHANGE-REQUEST                           PPLOFFET
052400                  MOVE    LOF-SALARY                              PPLOFFET
052500                          OF LAYOFF-ARRAY (WS-IX5)                PPLOFFET
052600                          TO TEMP-NUMBER                          PPLOFFET
052700                  MOVE    LOF-SALARY                              PPLOFFET
052800                          OF LAYOFF-ARRAY-HOLD (WS-IX5)           PPLOFFET
052900                          TO ORIG-NUMBER                          PPLOFFET
053000                  MOVE    LOF-SALARY                              PPLOFFET
053100                          OF  LAYOFF-ARRAY-HOLD1 (WS-IX5)         PPLOFFET
053200                          TO CHG1-NUMBER                          PPLOFFET
053300             ELSE                                                 PPLOFFET
053400                  SET DB2X-DET-NUMERIC TO TRUE                    PPLOFFET
053500                  MOVE    LOF-SALARY                              PPLOFFET
053600                          OF LAYOFF-ARRAY (WS-IX5)                PPLOFFET
053700                          TO WS-RATE-DEF                          PPLOFFET
053800                  IF LOF-SALARY-IND OF LAYOFF-ARRAY (WS-IX5)      PPLOFFET
053900                          = 'H'                                   PPLOFFET
054000                      MOVE WS-HOURLY-RATE-4V4 TO TEMP-DATA-VALUE  PPLOFFET
054100                  ELSE                                            PPLOFFET
054200                      MOVE WS-PERIOD-RATE-6V2 TO TEMP-DATA-VALUE  PPLOFFET
054300                  END-IF                                          PPLOFFET
054400             END-IF                                               PPLOFFET
054500         WHEN '0478'                                              PPLOFFET
054600             MOVE    LOF-SALARY-IND                               PPLOFFET
054700                     OF LAYOFF-ARRAY (WS-IX5)                     PPLOFFET
054800                     TO TEMP-DATA-VALUE                           PPLOFFET
054900              IF PPXXXFET-CHANGE-REQUEST                          PPLOFFET
055000                  MOVE    LOF-SALARY-IND                          PPLOFFET
055100                          OF LAYOFF-ARRAY-HOLD (WS-IX5)           PPLOFFET
055200                          TO ORIG-DATA-VALUE                      PPLOFFET
055300                  MOVE    LOF-SALARY-IND                          PPLOFFET
055400                          OF  LAYOFF-ARRAY-HOLD1 (WS-IX5)         PPLOFFET
055500                          TO CHG1-DATA-VALUE                      PPLOFFET
055600              END-IF                                              PPLOFFET
055700         WHEN '0479'                                              PPLOFFET
055800             MOVE    LOF-PERCENT-TIME                             PPLOFFET
055900                     OF LAYOFF-ARRAY (WS-IX5)                     PPLOFFET
056000                     TO TEMP-NUMBER                               PPLOFFET
056100              IF PPXXXFET-CHANGE-REQUEST                          PPLOFFET
056200                  MOVE    LOF-PERCENT-TIME                        PPLOFFET
056300                          OF LAYOFF-ARRAY-HOLD (WS-IX5)           PPLOFFET
056400                          TO ORIG-NUMBER                          PPLOFFET
056500                  MOVE    LOF-PERCENT-TIME                        PPLOFFET
056600                          OF  LAYOFF-ARRAY-HOLD1 (WS-IX5)         PPLOFFET
056700                          TO CHG1-NUMBER                          PPLOFFET
056800              END-IF                                              PPLOFFET
056900         WHEN OTHER                                               PPLOFFET
057000              IF PPXXXFET-DIAGNOSTICS-ON AND PPXXXFET-BATCH-CALL  PPLOFFET
057100                  DISPLAY A-STND-PROG-ID                          PPLOFFET
057200                          ': UNRECOGNIZED DATA ELEMENT NUMBER ('  PPLOFFET
057300                          WS-DATA-ELEM-NO                         PPLOFFET
057400                          ')'                                     PPLOFFET
057500              END-IF                                              PPLOFFET
057600              SET PPXXXFET-DATA-ELEM-NO-ERROR TO TRUE             PPLOFFET
057700     END-EVALUATE.                                                PPLOFFET
057800     SET DATA-RETURN TO TRUE                                      PPLOFFET
057900     IF PPXXXFET-CHANGE-REQUEST AND                               PPLOFFET
058000        TEMP-DATA-VALUE = ORIG-DATA-VALUE AND                     PPLOFFET
058100        ORIG-DATA-VALUE = CHG1-DATA-VALUE                         PPLOFFET
058200        SET BYPASS-RETURN TO TRUE                                 PPLOFFET
058300     END-IF                                                       PPLOFFET
058400     IF PPXXXFET-LIST-REQUEST AND                                 PPLOFFET
058500        MULTIPLE-OCCURRENCE AND                                   PPLOFFET
058600        TEMP-DATA-VALUE = WS-ISO-INIT-DATE                        PPLOFFET
058700        SET BYPASS-RETURN TO TRUE                                 PPLOFFET
058800     END-IF.                                                      PPLOFFET
058900     EJECT                                                        PPLOFFET
059000 9400-EVALUATE-DATA-ELEMENT SECTION.                              PPLOFFET
059100*                                                                 PPLOFFET
059200     SET MULTIPLE-OCCURRENCE TO TRUE.                             PPLOFFET
059300     IF  LOCAL-OFFSET-RETURNED                                    PPLOFFET
059400         SET NO-LOCAL-OFFSET-RETURNED TO TRUE                     PPLOFFET
059500     ELSE                                                         PPLOFFET
059600         PERFORM VARYING WS-IX10 FROM 1 BY 1                      PPLOFFET
059700           UNTIL WS-IX10 > PPEDBFET-MAX-PTR (WS-IX1)              PPLOFFET
059800             COMPUTE PPEDBFET-RETURN-INDEX (WS-IX1, WS-IX10) =    PPLOFFET
059900                     PPEDBFET-RETURN-INDEX (WS-IX1, WS-IX10)      PPLOFFET
060000                     + LOCAL-OFFSET                               PPLOFFET
060100         END-PERFORM                                              PPLOFFET
060200     END-IF.                                                      PPLOFFET
060300     IF WS-IX2 = PPEDBFET-MAX-PTR (WS-IX1)                        PPLOFFET
060400         MOVE ZERO TO WS-IX2                                      PPLOFFET
060500     ELSE                                                         PPLOFFET
060600         COMPUTE WS-IX2 = WS-IX2 - 1                              PPLOFFET
060700     END-IF.                                                      PPLOFFET
060800     PERFORM WITH TEST AFTER                                      PPLOFFET
060900       UNTIL WS-IX2 = PPEDBFET-MAX-PTR (WS-IX1)                   PPLOFFET
061000          OR PPXXXFET-MORE-DATA                                   PPLOFFET
061100         ADD 1 TO WS-IX2                                          PPLOFFET
061200         MOVE PPEDBFET-REQUEST-INDEX (WS-IX1, WS-IX2) TO          PPLOFFET
061300              WS-IX3                                              PPLOFFET
061400         MOVE PPEDBFET-REQ-DATA-ELEM-NO (WS-IX3) TO               PPLOFFET
061500              WS-DATA-ELEM-NO                                     PPLOFFET
061600         MOVE SPACE TO                                            PPLOFFET
061700              WS-OCCURRENCE-KEY                                   PPLOFFET
061800         PERFORM 9300-EVALUATE-DATA-ELEMENT                       PPLOFFET
061900         IF MULTIPLE-OCCURRENCE AND DATA-RETURN                   PPLOFFET
062000             IF WS-IX4 = PPXXXFET-MAX-RETURN-ENTRIES AND          PPLOFFET
062100                WS-IX5 < WS-ARRAY-MAX                             PPLOFFET
062200                SET PPXXXFET-MORE-DATA TO TRUE                    PPLOFFET
062300                IF WS-IX2 < PPEDBFET-MAX-PTR (WS-IX1)             PPLOFFET
062400                    MOVE LOCAL-OFFSET TO PPXXXFET-SAVE7           PPLOFFET
062500                ELSE                                              PPLOFFET
062600                    MOVE ZERO TO PPXXXFET-SAVE7                   PPLOFFET
062700                END-IF                                            PPLOFFET
062800                PERFORM 9050-SAVE-INDEXES                         PPLOFFET
062900              ELSE                                                PPLOFFET
063000                PERFORM 0900-SETUP-FOR-RETURN                     PPLOFFET
063100                ADD 1 TO LOCAL-OFFSET                             PPLOFFET
063200                SET MULT-DATA-RETURNED TO TRUE                    PPLOFFET
063300             END-IF                                               PPLOFFET
063400         END-IF                                                   PPLOFFET
063500     END-PERFORM.                                                 PPLOFFET
063600******************************************************************PPLOFFET
063700 9500-SET-UP-EVAL-DATA-ELEM SECTION.                              PPLOFFET
063800     SKIP1                                                        PPLOFFET
063900     SET NO-LOCAL-OFFSET-RETURNED TO TRUE.                        PPLOFFET
064000     SET MULT-DATA-NOT-RETURNED TO TRUE.                          PPLOFFET
064100     SKIP1                                                        PPLOFFET
064200     IF PPXXXFET-SAVE7 NOT = ZERO                                 PPLOFFET
064300         MOVE PPXXXFET-SAVE7 TO LOCAL-OFFSET                      PPLOFFET
064400         MOVE ZERO TO PPXXXFET-SAVE7                              PPLOFFET
064500         SET LOCAL-OFFSET-RETURNED TO TRUE                        PPLOFFET
064600     END-IF.                                                      PPLOFFET
064700     IF PPXXXFET-SAVE3 NOT = ZEROES                               PPLOFFET
064800         INITIALIZE PPXXXFET-SAVE-INDEXES                         PPLOFFET
064900         GO TO 9500-X                                             PPLOFFET
065000     END-IF.                                                      PPLOFFET
065100     SKIP1                                                        PPLOFFET
065200     MOVE ZERO TO WS-ARRAY-IX.                                    PPLOFFET
065300     SET SNGL-TITLE-CODE TO TRUE.                                 PPLOFFET
065400     SET SNGL-DEPT-CODE TO TRUE.                                  PPLOFFET
070200     SET SNGL-NOTICE-DATE TO TRUE.                                05490748
065500     SKIP1                                                        PPLOFFET
065600     IF (WS-LAYOFF-TITLE-CODE = '*' OR SPACE)                     PPLOFFET
065700         SET MULT-TITLE-CODE TO TRUE                              PPLOFFET
065800     END-IF.                                                      PPLOFFET
065900     SKIP1                                                        PPLOFFET
066000     IF (WS-LAYOFF-DEPT-CODE = '*' OR SPACE)                      PPLOFFET
066100         SET MULT-DEPT-CODE TO TRUE                               PPLOFFET
066200     END-IF.                                                      PPLOFFET
066300     SKIP1                                                        PPLOFFET
071200     IF (WS-LAYOFF-NOTICE-DATE  = '*' OR SPACE)                   05490748
071300         SET MULT-NOTICE-DATE TO TRUE                             05490748
071400     END-IF.                                                      05490748
071500     SKIP1                                                        05490748
066400     IF MULT-TITLE-CODE OR MULT-DEPT-CODE                         PPLOFFET
071700         OR  MULT-NOTICE-DATE                                     05490748
066500         SET MULTIPLE-OCCURRENCE TO TRUE                          PPLOFFET
066600     END-IF.                                                      PPLOFFET
066700*                                                                 PPLOFFET
066800*    DETERMINE THE SIZE OF THE ORIGINAL ARRAY                     PPLOFFET
066900*                                                                 PPLOFFET
067000*                                                                 PPLOFFET
067100     PERFORM VARYING WS-IX5 FROM 1 BY 1                           PPLOFFET
067200             UNTIL (WS-IX5 > IDC-MAX-NO-LOF)                      PPLOFFET
067300         OR (LOF-TITLE-CODE   OF LAYOFF-ARRAY-HOLD  (WS-IX5)      PPLOFFET
067400             = SPACE                                              PPLOFFET
067500         AND LOF-DEPT-CODE    OF LAYOFF-ARRAY-HOLD  (WS-IX5)      PPLOFFET
072900*****        = SPACE)                                             05490748
073000             = SPACE                                              05490748
073100         AND LOF-NOTICE-DATE  OF LAYOFF-ARRAY-HOLD  (WS-IX5)      05490748
073200             = WS-ISO-INIT-DATE)                                  05490748
067700     END-PERFORM.                                                 PPLOFFET
067800*                                                                 PPLOFFET
067900*    SAVE THE INFORMATION                                         PPLOFFET
068000*                                                                 PPLOFFET
068100                                                                  PPLOFFET
068200     IF WS-IX5 > IDC-MAX-NO-LOF                                   PPLOFFET
068300         MOVE IDC-MAX-NO-LOF TO WS-ARRAY-HOLD-MAX                 PPLOFFET
068400     ELSE                                                         PPLOFFET
068500         COMPUTE WS-ARRAY-HOLD-MAX = WS-IX5 - 1                   PPLOFFET
068600     END-IF.                                                      PPLOFFET
068700*                                                                 PPLOFFET
068800*    NOW DETERMINE THE SIZE OF THE ARRAY                          PPLOFFET
068900*                                                                 PPLOFFET
069000*                                                                 PPLOFFET
069100     PERFORM VARYING WS-IX9 FROM WS-IX5 BY 1                      PPLOFFET
069200             UNTIL (WS-IX9 > IDC-MAX-NO-LOF)                      PPLOFFET
069300         OR (LOF-TITLE-CODE      OF LAYOFF-ARRAY (WS-IX9)         PPLOFFET
069400             = SPACE                                              PPLOFFET
069500         AND LOF-DEPT-CODE       OF LAYOFF-ARRAY (WS-IX9)         PPLOFFET
069600             = SPACE)                                             PPLOFFET
069700     END-PERFORM.                                                 PPLOFFET
069800*                                                                 PPLOFFET
069900*    SAVE THE INFORMATION                                         PPLOFFET
070000*                                                                 PPLOFFET
070100*                                                                 PPLOFFET
070200                                                                  PPLOFFET
070300     IF WS-IX9 > IDC-MAX-NO-LOF                                   PPLOFFET
070400         MOVE IDC-MAX-NO-LOF TO WS-ARRAY-MAX                      PPLOFFET
070500     ELSE                                                         PPLOFFET
070600         COMPUTE WS-ARRAY-MAX = WS-IX9 - 1                        PPLOFFET
070700     END-IF.                                                      PPLOFFET
070800     SKIP1                                                        PPLOFFET
070900 9500-X.                                                          PPLOFFET
071000     EXIT.                                                        PPLOFFET
