000100**************************************************************/   48041202
000200*  PROGRAM: PPO1202A                                         */   48041202
000300*  RELEASE: ___1202______ SERVICE REQUEST(S): ____14804____  */   48041202
000400*  NAME:__PHIL THOMPSON__ CREATION DATE:      ___08/07/98__  */   48041202
000500*  DESCRIPTION:                                              */   48041202
000600*  - WALK THROUGH A MAIN CURSOR FOR EMPLOYEES ON THE EDB.    */   48041202
000900*  - IF RUNNING IN UPDATE MODE:                              */   48041202
000910*    FOR EACH EMPLOYEE ID, FIND ALL PPPDBL ROWS FOR OLD GTN  */   48041202
001000*    NUMBERS INPUT IN THE SPEC CARD FILE. FOR EACH PPPDBL    */   48041202
001100*    ROW FOUND, DELETE IT AND INSERT IT WITH THE MATCHING    */   48041202
001120*    NEW GTN NUMBER.                                         */   48041202
001140*    WRITE ECF RECORD ALL ALL CHANGES.                       */   48041202
001150*    UPDATE THE EMPLOYEE CHANGED AT/BY FIELDS WITHOUT AUDIT. */   48041202
001160*  - REPORT GTN'S "CHANGED" IN BOTH UPDATE AND NON-UPDATE    */   48041202
001170*    MODE.                                                   */   48041202
001200**************************************************************/   48041202
001300 IDENTIFICATION DIVISION.                                         PPO1202A
001400 PROGRAM-ID. PPO1202A.                                            PPO1202A
001500 AUTHOR. UCOP                                                     PPO1202A
001600                                                                  PPO1202A
001700*REMARKS.                                                         PPO1202A
001800                                                                  PPO1202A
001810***********************************************************       PPO1202A
001820*   THIS PROGRAM CAN BE RUN IN UPDATE AND NON-UPDATE MODE *       PPO1202A
001821***********************************************************       PPO1202A
001822*                                                         *       PPO1202A
001823*   THE MAIN CURSOR FOR THIS PROGRAM PRODUCES A LIST OF   *       PPO1202A
001830*   EMPLOYEES WHO ARE COVERED BY ONE OF THE EMPLOYEE      *       PPO1202A
001840*   RELATIONS GROUPS ENTERED IN THE SPEC CARD FILE.       *       PPO1202A
001850*   THE CURSOR IS OPENED/PROCESSED AND CLOSED FOR EACH    *       PPO1202A
001851*   NON-BLANK UNIT CODE ON THE SPEC CARD.                 *       PPO1202A
001860*   FOR EACH EMPLOYEE ID RETURNED BY THE CURSOR, PPO1202A *       PPO1202A
001870*   WALKS THROUGH THE TABLE OF OLD GTN'S BUILT FROM THE   *       PPO1202A
001880*   GTN CARDS ENTERED VIA THE SPEC CARD FILE. FOR EACH,   *       PPO1202A
001890*   SELECT FROM THE PPPDBL TABLE TO SEE IF IT EXISTS. FOR *       PPO1202A
001891*   EACH FOUND, DELETE THE OLD ROW AND INSERT A NEW ROW   *       PPO1202A
001905*   WITH THE ASSOCIATED NEW GTN NUMBER ENTERED IN THE     *       PPO1202A
001906*   SPEC CARD FILE.                                       *       PPO1202A
001907*                                                         *       PPO1202A
001908*   REPORT EACH CHANGE. THE REPORT MAIN SORT IS ALWAYS    *       PPO1202A
001909*   UNIT CODE. WITHIN UNIT CODE, IT CAN BE SORTED BY ID   *       PPO1202A
001910*   OR NAME, PER THE SELECTION MADE ON THE SPEC CARD.     *       PPO1202A
001911*                                                         *       PPO1202A
001912*   WRITE AN EDB CHANGE FILE RECORD FOR EACH CHANGE.      *       PPO1202A
001920***********************************************************       PPO1202A
002000*        E N V I R O N M E N T     D I V I S I O N        *       PPO1202A
002100***********************************************************       PPO1202A
002200                                                                  PPO1202A
002300 ENVIRONMENT DIVISION.                                            PPO1202A
002400 CONFIGURATION SECTION.                                           PPO1202A
002500                                                                  PPO1202A
002600 SPECIAL-NAMES.                                                   PPO1202A
002700     C01 IS NEW-PAGE.                                             PPO1202A
002800                                                                  PPO1202A
002900 INPUT-OUTPUT SECTION.                                            PPO1202A
003000 FILE-CONTROL.                                                    PPO1202A
003100                                                                  PPO1202A
003200***********************************************************       PPO1202A
003300*    REPORT PRINT FILE                                    *       PPO1202A
003400***********************************************************       PPO1202A
003500     SELECT PO1202A1-REPORT ASSIGN TO UT-S-PO1202A1.              PPO1202A
003600***********************************************************       PPO1202A
003610*    WARNINGS AND MESSAGES REPORT                         *       PPO1202A
003620***********************************************************       PPO1202A
003700     SELECT PRINT-FILE      ASSIGN TO UT-S-PO1202A2.              PPO1202A
003800                                                                  PPO1202A
003900***********************************************************       PPO1202A
004000*    REPORT DATA SORT FILE                                *       PPO1202A
004100***********************************************************       PPO1202A
004200     SELECT POSRTA1        ASSIGN TO UT-S-POSRTA1.                PPO1202A
004400                                                                  PPO1202A
004500***********************************************************       PPO1202A
004600*    SPEC CARD                                            *       PPO1202A
004700***********************************************************       PPO1202A
004800     SELECT CARDFILE       ASSIGN TO UT-S-CARDFIL.                PPO1202A
004900                                                                  PPO1202A
005000***********************************************************       PPO1202A
005100*    EDB CHANGE FILE                                      *       PPO1202A
005200***********************************************************       PPO1202A
005300     SELECT EDBCHG         ASSIGN TO UT-S-EDBCHG.                 PPO1202A
005400                                                                  PPO1202A
005500***********************************************************       PPO1202A
005600*    SORT WORK FILE                                       *       PPO1202A
005700***********************************************************       PPO1202A
005800     SELECT SORT-WORK-FILE         COPY CPSLXSRT.                 PPO1202A
006000     EJECT                                                        PPO1202A
006100***********************************************************       PPO1202A
006200*                D A T A     D I V I S I O N              *       PPO1202A
006300***********************************************************       PPO1202A
006400                                                                  PPO1202A
006500 DATA DIVISION.                                                   PPO1202A
006600 FILE SECTION.                                                    PPO1202A
006700                                                                  PPO1202A
006800***********************************************************       PPO1202A
006900*    REPORT PRINT FILES                                   *       PPO1202A
007000***********************************************************       PPO1202A
007100 FD  PO1202A1-REPORT                                              PPO1202A
007200     LABEL RECORDS ARE OMITTED                                    PPO1202A
007300     BLOCK CONTAINS 0 RECORDS                                     PPO1202A
007400     RECORDING MODE IS F                                          PPO1202A
007500     RECORD CONTAINS 133 CHARACTERS.                              PPO1202A
007600                                                                  PPO1202A
007700 01  PPO1202A1-LINE.                                              PPO1202A
007800     05  FILLER                   PIC X.                          PPO1202A
007900     05  PPO1202A1-DATA           PIC X(132).                     PPO1202A
009000                                                                  PPO1202A
009100 FD  PRINT-FILE                  COPY CPFDXPRT.                   PPO1202A
009200                                                                  PPO1202A
009300***********************************************************       PPO1202A
009400*    REPORT DATA SORT FILES                               *       PPO1202A
009500***********************************************************       PPO1202A
009600 FD  POSRTA1                                                      PPO1202A
009700     LABEL RECORDS ARE OMITTED                                    PPO1202A
009800     BLOCK CONTAINS 0 RECORDS                                     PPO1202A
009900     RECORDING MODE IS F                                          PPO1202A
010000     RECORD CONTAINS  80 CHARACTERS.                              PPO1202A
010100                                                                  PPO1202A
010200 01  POSRTA1-REC.                                                 PPO1202A
010300     05  POSRTA1-KEY              PIC X(26).                      PPO1202A
010400     05  POSRTA1-DATA             PIC X(54).                      PPO1202A
010500                                                                  PPO1202A
011500                                                                  PPO1202A
011600***********************************************************       PPO1202A
011700*    SPEC CARD                                            *       PPO1202A
011800***********************************************************       PPO1202A
011900 FD  CARDFILE                                                     PPO1202A
012000     LABEL RECORDS ARE OMITTED                                    PPO1202A
012100     BLOCK CONTAINS 0 RECORDS                                     PPO1202A
012200     RECORDING MODE IS F                                          PPO1202A
012300     RECORD CONTAINS 80 CHARACTERS.                               PPO1202A
012400                                                                  PPO1202A
012500 01  SPEC-CARD.                                                   PPO1202A
012600     05  SPEC-PGM-ID             PIC X(10).                       PPO1202A
012700         88  VALID-SPEC-PGM-ID              VALUE 'PPOTA-SPEC'.   PPO1202A
012800     05  SPEC-PGM-UPDATE         PIC X(06).                       PPO1202A
012900         88  VALID-SPEC-UPDATE              VALUES '      '       PPO1202A
013000                                                   'UPDATE'.      PPO1202A
013200     05  SPEC-SORT-CODE          PIC X(01).                       PPO1202A
013201         88  VALID-SPEC-SORT                VALUES 'N' 'I'.       PPO1202A
013210     05  FILLER                  PIC X(63).                       PPO1202A
013234                                                                  PPO1202A
013235 01  GTN-CARD.                                                    PPO1202A
013236     05  GTN-CARD-ID             PIC X(03).                       PPO1202A
013237         88  VALID-GTN-CARD-ID              VALUE 'GTN'.          PPO1202A
013238     05  FILLER                  PIC X(01).                       PPO1202A
013239     05  GTN-CARD-OLD-GTN        PIC X(03).                       PPO1202A
013240     05  FILLER                  PIC X(01).                       PPO1202A
013241     05  GTN-CARD-NEW-GTN        PIC X(03).                       PPO1202A
013250     05  FILLER                  PIC X(69).                       PPO1202A
013300                                                                  PPO1202A
013400***********************************************************       PPO1202A
013500*    EDB CHANGE FILE                                      *       PPO1202A
013600***********************************************************       PPO1202A
013700 FD  EDBCHG                    COPY  CPFDXCHG                     PPO1202A
013800         REPLACING EDB-CHANGE-RECORD BY OCHG-EDB-CHANGE-RECORD.   PPO1202A
013900 01  OCHG-EDB-CHANGE-RECORD.   COPY CPWSXCHG                      PPO1202A
014000         REPLACING XCHG-FIXED-AREA     BY OCHG-FIXED-AREA         PPO1202A
014100                   XCHG-EMPLOYEE-ID    BY OCHG-EMPLOYEE-ID        PPO1202A
014200                   XCHG-DATA-ELEM-NO   BY OCHG-DATA-ELEM-NO       PPO1202A
014300                   XCHG-OCCURENCE-KEY  BY OCHG-OCCURENCE-KEY      PPO1202A
014400                   XCHG-PROCESS-ID     BY OCHG-PROCESS-ID         PPO1202A
014500                   XCHG-CHANGE-SOURCE  BY OCHG-CHANGE-SOURCE      PPO1202A
014600                   XCHG-TIMESTAMP      BY OCHG-TIMESTAMP          PPO1202A
014700                   XCHG-ODO-LENGTHS    BY OCHG-ODO-LENGTHS        PPO1202A
014800                   XCHG-OLD-VAL-LNGTH  BY OCHG-OLD-VAL-LNGTH      PPO1202A
014900                   XCHG-NEW-VAL1-LNGTH BY OCHG-NEW-VAL1-LNGTH     PPO1202A
015000                   XCHG-NEW-VAL2-LNGTH BY OCHG-NEW-VAL2-LNGTH     PPO1202A
015100                   XCHG-OLD-VALUE      BY OCHG-OLD-VALUE          PPO1202A
015200                   XCHG-OLD-VAL        BY OCHG-OLD-VAL            PPO1202A
015300                   XCHG-NEW-VALUE1     BY OCHG-NEW-VALUE1         PPO1202A
015400                   XCHG-NEW-VAL1       BY OCHG-NEW-VAL1           PPO1202A
015500                   XCHG-NEW-VALUE2     BY OCHG-NEW-VALUE2         PPO1202A
015600                   XCHG-NEW-VAL2       BY OCHG-NEW-VAL2.          PPO1202A
015700                                                                  PPO1202A
015800***********************************************************       PPO1202A
015900*    SORT WORK FILE                                       *       PPO1202A
016000***********************************************************       PPO1202A
016100 SD  SORT-WORK-FILE                                               PPO1202A
016200     RECORD CONTAINS  80 CHARACTERS                               PPO1202A
016300     DATA RECORD IS SORT-WORK-RECORD.                             PPO1202A
016400                                                                  PPO1202A
016500 01  SORT-WORK-RECORD.                                            PPO1202A
016600     05  SORT-WORK-KEY.                                           PPO1202A
016602         10 SORT-WORK-KEY-NAME-ID  PIC X(26).                     PPO1202A
016710     05  SORT-WORK-DATA            PIC X(54).                     PPO1202A
016800     EJECT                                                        PPO1202A
016900 WORKING-STORAGE SECTION.                                         PPO1202A
017000***********************************************************       PPO1202A
017100*    WORKING STORAGE                                      *       PPO1202A
017200***********************************************************       PPO1202A
020100***********************************************************       PPO1202A
020200*    MISCELLANEOUS                                        *       PPO1202A
020300***********************************************************       PPO1202A
020400 01  WS-WORK-MISC.                                                PPO1202A
020500     05  WS-PGM-ID                PIC X(15)  VALUE                PPO1202A
020600                                            'PPO1202A/080798'.    PPO1202A
020700     05  WS-CHANGED-BY            PIC X(08)  VALUE 'PPO1202A'.    PPO1202A
020800     05  WS-EMPLOYEE-ID           PIC X(09)  VALUE SPACES.        PPO1202A
020810     05  WS-SAVE-EMPLOYEE-ID      PIC X(09)  VALUE '999999999'.   PPO1202A
020900     05  WS-LOW-ISO-DATE          PIC X(10)  VALUE SPACES.        PPO1202A
021000     05  WS-G-BALANCE             PIC X(01)  VALUE 'G'.           PPO1202A
021100     05  WS-EMP-REL-CODE          PIC X(02)  VALUE SPACES.        PPO1202A
021210     05  WS-OLD-GTN               PIC X(03)  VALUE SPACES.        PPO1202A
021300     05  WS-NEW-GTN               PIC X(03)  VALUE SPACES.        PPO1202A
021400     05  WS-GTN-AMT               PIC S9999999V99.                PPO1202A
021500     05  WS-COUNT                 PIC S9(08) COMP VALUE 0.        PPO1202A
021600 01  WS-OCC-KEY.                                                  PPO1202A
021610     05  WS-GTN-NUM              PIC X(03).                       PPO1202A
021620     05  WS-GTN-IND              PIC X(01) VALUE 'G'.             PPO1202A
021700 01  LUW-TIMESTAMP-X26            PIC X(26).                      PPO1202A
021800 01  WS-ACCUMULATORS             COMP-3.                          PPO1202A
021810     05  WS-NUMBER-EDITED         PIC S9(09)V9(09) VALUE ZERO.    PPO1202A
021900     05  WS-PRINT-LINES-RPT       PIC S9(06) VALUE +65.           PPO1202A
022000     05  WS-REPORT-LINE-ADVANCE   PIC S9(06) VALUE +0.            PPO1202A
022100     05  MAX-LINES-GTN-PAGE       PIC S9(04) VALUE +55.           PPO1202A
022200     05  RPT1-LINES-GTN-PAGE      PIC S9(04) VALUE +60.           PPO1202A
023600     05  WS-ERROR-PAGE-NO         PIC S9(04) VALUE 0.             PPO1202A
023700     05  WS-SAVE-PAGE-NO          PIC S9(04) VALUE 0.             PPO1202A
023701     05  WS-EMP-CHANGED-COUNT     PIC S9(07) VALUE 0.             PPO1202A
023702     05  WS-GTN-CHANGED-COUNT     PIC S9(07) VALUE 0.             PPO1202A
023710     05  WS-GTN-COUNT             PIC S9(04) VALUE 0.             PPO1202A
023711     05  WS-GTN-MAX-COUNT         PIC S9(04) VALUE 0.             PPO1202A
023720 01  GTN-CONVERSION-TABLE.                                        PPO1202A
023730     05  FILLER OCCURS 999 TIMES.                                 PPO1202A
023740         10  GTN-CONVERSION-OLD-GTN PIC 9(03).                    PPO1202A
023750         10  GTN-CONVERSION-NEW-GTN PIC 9(03).                    PPO1202A
023760         10  GTN-CONVERSION-COUNT   PIC 9(07).                    PPO1202A
023770 01  WS-GTN-COUNT-MESSAGE.                                        PPO1202A
023780     05  FILLER                   PIC X(04) VALUE 'GTN '.         PPO1202A
023790     05  WS-GTN-COUNT-OLD-GTN     PIC X(03) VALUE SPACES.         PPO1202A
023800     05  FILLER                   PIC X(01) VALUE '/'.            PPO1202A
023900     05  WS-GTN-COUNT-NEW-GTN     PIC X(03) VALUE SPACES.         PPO1202A
023910     05  FILLER                   PIC X(12) VALUE ' CONVERSIONS'. PPO1202A
024000***********************************************************       PPO1202A
024100*    SWITCHES                                             *       PPO1202A
024200***********************************************************       PPO1202A
024300 01  WS-SWITCHES.                                                 PPO1202A
024400     05  WS-MESSAGE-SW           PIC S9(01) VALUE +0.             PPO1202A
024500         88  FATAL-ERROR                    VALUE +1.             PPO1202A
024600     05  HERE-BEFORE-SW          PIC X(01)  VALUE SPACE.          PPO1202A
024700         88 HERE-BEFORE                     VALUE 'Y'.            PPO1202A
024800     05  FIRST-TIME-SW           PIC X(01)  VALUE 'Y'.            PPO1202A
024900         88  FIRST-TIME                     VALUE 'Y'.            PPO1202A
025000         88  NOT-FIRST-TIME                 VALUE 'N'.            PPO1202A
025010     05  GTN-FOUND-SW            PIC X(01)  VALUE 'Y'.            PPO1202A
025020         88  GTN-FOUND                      VALUE 'Y'.            PPO1202A
025030         88  GTN-NOT-FOUND                  VALUE 'N'.            PPO1202A
025100     05  EMP-CURSOR-SW           PIC X(01)  VALUE 'N'.            PPO1202A
025200         88  EOF-EMP-CURSOR                 VALUE 'Y'.            PPO1202A
025210     05  GTN-CARD-SW             PIC X(01)  VALUE 'N'.            PPO1202A
025220         88  EOF-GTN-CARDS                  VALUE 'Y'.            PPO1202A
025300     05  SORT-EOF-SW             PIC X(01)  VALUE 'N'.            PPO1202A
025400         88  NOT-EOF-SORT                   VALUE 'N'.            PPO1202A
025500         88  EOF-SORT                       VALUE 'Y'.            PPO1202A
025510     05  SORT-ORDER-SW           PIC X(01)  VALUE 'N'.            PPO1202A
025600         88  SORT-BY-NAME                   VALUE 'N'.            PPO1202A
025700         88  SORT-BY-ID                     VALUE 'I'.            PPO1202A
025800     05  UPDATE-SW               PIC X(06)  VALUE SPACES.         PPO1202A
025810         88  UPDATE-REQUESTED               VALUE 'UPDATE'.       PPO1202A
026200     EJECT                                                        PPO1202A
026210***********************************************************       PPO1202A
026220*    REPORT KEY AND DATA FIELDS                           *       PPO1202A
026230***********************************************************       PPO1202A
026240 01  SORT-REPORT-REC.                                             PPO1202A
026250     05  SORT-REPORT-KEY.                                         PPO1202A
026262         10  SORT-KEY-NAME-ID      PIC X(26).                     PPO1202A
026270     05  SORT-REPORT-DATA.                                        PPO1202A
026280         10 SORT-EMP-EUC           PIC X(02).                     PPO1202A
026281         10 SORT-EMPLOYEE-ID       PIC X(09).                     PPO1202A
026282         10 SORT-EMP-NAME          PIC X(26).                     PPO1202A
026283         10 SORT-HOME-DEPT         PIC X(06).                     PPO1202A
026291         10 SORT-OLD-GTN           PIC X(03).                     PPO1202A
026292         10 SORT-NEW-GTN           PIC X(03).                     PPO1202A
026293         10 SORT-GTN-AMT           PIC S9999999V99 USAGE COMP-3.  PPO1202A
026300***********************************************************       PPO1202A
026400*    REPORT HEADERS AND DETAIL LINES                      *       PPO1202A
026500***********************************************************       PPO1202A
026600 01  PO1202A1-HDR1.                                               PPO1202A
026700     05  FILLER                  PIC X(01).                       PPO1202A
026800     05  FILLER                  PIC X(40) VALUE SPACES.          PPO1202A
026900     05  PO1202A1-HDR1-TEXT      PIC X(54) VALUE                  PPO1202A
027000        'COLLECTIVE BARGAINING ONE-TIME: PRE-TAX TRANSPORTATION'. PPO1202A
027100     05  FILLER                  PIC X(38) VALUE SPACES.          PPO1202A
027900                                                                  PPO1202A
028000 01  PO1202A1-HDR2.                                               PPO1202A
028100     05  FILLER                  PIC X(01).                       PPO1202A
028200     05  FILLER                  PIC X(11) VALUE 'EMPLOYEE ID'.   PPO1202A
028300     05  FILLER                  PIC X(02) VALUE SPACES.          PPO1202A
028310     05  FILLER                  PIC X(13) VALUE 'EMPLOYEE NAME'. PPO1202A
028320     05  FILLER                  PIC X(12) VALUE SPACES.          PPO1202A
028330     05  FILLER                  PIC X(10)                        PPO1202A
028331                                    VALUE 'BARGAINING'.           PPO1202A
028340     05  FILLER                  PIC X(05) VALUE SPACES.          PPO1202A
028400     05  FILLER                  PIC X(10) VALUE 'GTN NUMBER'.    PPO1202A
028920     05  FILLER                  PIC X(05) VALUE SPACES.          PPO1202A
028930     05  FILLER                  PIC X(10) VALUE 'GTN AMOUNT'.    PPO1202A
028960     05  FILLER                  PIC X(05) VALUE  SPACES.         PPO1202A
028961     05  FILLER                  PIC X(15)                        PPO1202A
028970                                    VALUE 'HOME DEPARTMENT'.      PPO1202A
029000                                                                  PPO1202A
029100 01  PO1202A1-HDR3.                                               PPO1202A
029200     05  FILLER                  PIC X(01).                       PPO1202A
029400     05  FILLER                  PIC X(41) VALUE SPACES.          PPO1202A
029500     05  FILLER                  PIC X(04) VALUE 'UNIT'.          PPO1202A
029600     05  FILLER                  PIC X(10) VALUE SPACES.          PPO1202A
029700     05  FILLER                  PIC X(07) VALUE 'OLD/NEW'.       PPO1202A
030080     05  FILLER                  PIC X(70) VALUE SPACES.          PPO1202A
033600                                                                  PPO1202A
035900 01  PO1202A1-DETAIL-LINE1.                                       PPO1202A
036000     05  FILLER                  PIC X(01) VALUE SPACES.          PPO1202A
036100     05  RPT1-EMPLOYEE-ID        PIC X(09).                       PPO1202A
036200     05  FILLER                  PIC X(04) VALUE SPACES.          PPO1202A
036300     05  RPT1-EMP-NAME           PIC X(26).                       PPO1202A
036400     05  FILLER                  PIC X(03) VALUE SPACES.          PPO1202A
036500     05  RPT1-EMP-EUC            PIC X(02).                       PPO1202A
036510     05  FILLER                  PIC X(11) VALUE SPACES.          PPO1202A
036511     05  RPT1-OLD-GTN            PIC X(03).                       PPO1202A
036512     05  FILLER                  PIC X(01) VALUE '/'.             PPO1202A
036520     05  RPT1-NEW-GTN            PIC X(03).                       PPO1202A
036530     05  FILLER                  PIC X(05) VALUE SPACES.          PPO1202A
036540     05  RPT1-GTN-AMT            PIC ------9.99.                  PPO1202A
036550     05  FILLER                  PIC X(06) VALUE SPACES.          PPO1202A
036560     05  RPT1-HOME-DEPT          PIC X(06).                       PPO1202A
036570     05  FILLER                  PIC X(02) VALUE SPACES.          PPO1202A
036580     05  RPT1-HOME-DEPT-NAME     PIC X(30).                       PPO1202A
036660                                                                  PPO1202A
036700 01  PO1202A1-TOTAL-LINE.                                         PPO1202A
036800     05  FILLER                  PIC X(01).                       PPO1202A
036900     05  RPT1-RECORD-DESC        PIC X(40) VALUE                  PPO1202A
037000                                'NUMBER OF EMPLOYEES CHANGED'.    PPO1202A
037100     05  RPT1-RECORD-TOTAL-Z     PIC ZZZZZZ9.                     PPO1202A
037400     05  FILLER                  PIC X(84) VALUE SPACES.          PPO1202A
042900***********************************************************       PPO1202A
043000*    MESSAGE PRINT LINE                                   *       PPO1202A
043100***********************************************************       PPO1202A
043200 01  WS-MESSAGE.                                                  PPO1202A
043300     05  WS-DET1-CC              PIC X(01) VALUE SPACES.          PPO1202A
043400     05  WS-MESSAGE-1.                                            PPO1202A
043500         10  WS-MESSAGE-TEXT     PIC X(43)  VALUE SPACES.         PPO1202A
043600     05  WS-MESSAGE-2            PIC X(89)  VALUE SPACES.         PPO1202A
043900***********************************************************       PPO1202A
044000*        S T A N D A R D    C O P Y   M E M B E R S       *       PPO1202A
044100***********************************************************       PPO1202A
044200                                                                  PPO1202A
044300 01  WS-COMPILE-WORK-AREA.                  COPY CPWSXWHC.        PPO1202A
044400     EJECT                                                        PPO1202A
045400 01  DATE-CONVERSION-WORK-AREAS.            COPY CPWSXDC3.        PPO1202A
045500     EJECT                                                        PPO1202A
045600 01  XSCR-SYSTEM-CONTROL-RECORD.            COPY CPWSXSCR.        PPO1202A
045700     EJECT                                                        PPO1202A
045800 01  EDB-CHANGE-RECORD.                     COPY CPWSXCHG.        PPO1202A
045900     EJECT                                                        PPO1202A
046000 01  STND-RPT-HD.                           COPY CPWSPSHR.        PPO1202A
046100     EJECT                                                        PPO1202A
046200 01  PPDB2MSG-INTERFACE.                    COPY CPLNKDB2.        PPO1202A
048000     EJECT                                                        PPO1202A
048100***********************************************************       PPO1202A
048200*    SQL WORKING STORAGE                                  *       PPO1202A
048300***********************************************************       PPO1202A
048400 01  SCR-ROW.                                                     PPO1202A
048500     EXEC SQL                                                     PPO1202A
048600          INCLUDE PPPVSCR1                                        PPO1202A
048700     END-EXEC.                                                    PPO1202A
048800                                                                  PPO1202A
050900 01  PER-ROW-DATA.                                                PPO1202A
051000     EXEC SQL                                                     PPO1202A
051100          INCLUDE PPPVPER1                                        PPO1202A
051200     END-EXEC.                                                    PPO1202A
051300                                                                  PPO1202A
051400 01  DBL-ROW-DATA.                                                PPO1202A
051500     EXEC SQL                                                     PPO1202A
051600          INCLUDE PPPVDBL1                                        PPO1202A
051700     END-EXEC.                                                    PPO1202A
052200                                                                  PPO1202A
052300 01  DBL-ROW-OUT.                                                 PPO1202A
052400     EXEC SQL                                                     PPO1202A
052500         INCLUDE PPPVDBL2                                         PPO1202A
052600     END-EXEC.                                                    PPO1202A
052700                                                                  PPO1202A
052710 01  HME-ROW-DATA.                                                PPO1202A
052720     EXEC SQL                                                     PPO1202A
052730         INCLUDE PPPVZHME                                         PPO1202A
052740     END-EXEC.                                                    PPO1202A
052800                                                                  PPO1202A
052900     EXEC SQL                                                     PPO1202A
053000          INCLUDE SQLCA                                           PPO1202A
053100     END-EXEC.                                                    PPO1202A
053200                                                                  PPO1202A
053300 01  WS-END-FLAG                 PIC X(36) VALUE                  PPO1202A
053400     'PPO1202A WORKING STORAGE ENDS HERE'.                        PPO1202A
053500******************************************************************PPO1202A
053600*          SQL - CURSORS                                         *PPO1202A
053700******************************************************************PPO1202A
053800*    MAIN CURSOR TO SELECT AFFECTED POPULATION FOR PLAN          *PPO1202A
053900*    CODES WITHOUT DOMESTIC PARTNER.                             *PPO1202A
054000******************************************************************PPO1202A
054100     EXEC SQL                                                     PPO1202A
054200       DECLARE EMP_CURSOR CURSOR FOR                              PPO1202A
054300       SELECT EMPLOYEE_ID                                         PPO1202A
054320             ,EMP_NAME                                            PPO1202A
054330             ,EMP_REL_UNIT                                        PPO1202A
054340             ,HOME_DEPT                                           PPO1202A
054400       FROM  PPPVPER1_PER                                         PPO1202A
054760       ORDER BY EMPLOYEE_ID                                       PPO1202A
054770     END-EXEC.                                                    PPO1202A
054850     EJECT                                                        PPO1202A
054900                                                                  PPO1202A
055000 PROCEDURE DIVISION.                                              PPO1202A
055100     EXEC SQL                                                     PPO1202A
055200          INCLUDE CPPDXE99                                        PPO1202A
055300     END-EXEC.                                                    PPO1202A
055400                                                                  PPO1202A
055500***********************************************************       PPO1202A
055600*                    M A I N L I N E                      *       PPO1202A
055700***********************************************************       PPO1202A
055800                                                                  PPO1202A
055900 0000-MAINLINE.                                                   PPO1202A
056000                                                                  PPO1202A
056100     PERFORM 1000-INITIALIZATION.                                 PPO1202A
056200                                                                  PPO1202A
056300     IF NOT FATAL-ERROR                                           PPO1202A
056500        PERFORM 2000-EMP-CURSOR                                   PPO1202A
056600        PERFORM 5000-PRINT-REPORTS                                PPO1202A
056700        PERFORM 9000-FINALIZATION                                 PPO1202A
056800     END-IF.                                                      PPO1202A
056900                                                                  PPO1202A
057000     IF FATAL-ERROR                                               PPO1202A
057100        MOVE +08 TO RETURN-CODE                                   PPO1202A
057200     END-IF.                                                      PPO1202A
057300     STOP RUN.                                                    PPO1202A
057400                                                                  PPO1202A
057500 0001-EXIT. EXIT.                                                 PPO1202A
057600     EJECT                                                        PPO1202A
058100 1000-INITIALIZATION       SECTION.                               PPO1202A
058110***********************************************************       PPO1202A
058120*                   I N I T I A L I Z E                   *       PPO1202A
058130***********************************************************       PPO1202A
058200                                                                  PPO1202A
058300     OPEN OUTPUT PRINT-FILE.                                      PPO1202A
058400     MOVE WS-PGM-ID TO STND-PROG-ID.                              PPO1202A
058500     MOVE STND-PROG-ID TO DB2MSG-PGM-ID.                          PPO1202A
058600     PERFORM XDC3-GET-CURRENT-DATE.                               PPO1202A
058700     PERFORM XDC3-CONVERT-LILIAN-TO-ISO.                          PPO1202A
058800     PERFORM XDC3-CONVERT-ISO-TO-FMT.                             PPO1202A
058900     MOVE XDC3-FMT-DATE TO STND-RPT-DATE.                         PPO1202A
058910     MOVE XDC3-LOW-ISO-DATE TO WS-LOW-ISO-DATE.                   PPO1202A
058911                                                                  PPO1202A
059100     OPEN INPUT CARDFILE.                                         PPO1202A
059110     MOVE SPACES TO GTN-CONVERSION-TABLE.                         PPO1202A
059200     PERFORM 1100-VALIDATE-SPEC-CARD THRU 1100-EXIT.              PPO1202A
059300     IF FATAL-ERROR GO TO 1000-EXIT.                              PPO1202A
059310     PERFORM 1200-PROCESS-GTN-CARDS THRU 1200-EXIT.               PPO1202A
059311     MOVE WS-GTN-COUNT TO WS-GTN-MAX-COUNT.                       PPO1202A
059320     IF FATAL-ERROR GO TO 1000-EXIT.                              PPO1202A
059400                                                                  PPO1202A
059500***********************************************************       PPO1202A
059600*    OPEN REPORT SORT FILES.                              *       PPO1202A
059700***********************************************************       PPO1202A
059800     OPEN OUTPUT POSRTA1.                                         PPO1202A
060000                                                                  PPO1202A
063700***********************************************************       PPO1202A
063800*    GET SCR DATA                                         *       PPO1202A
063900***********************************************************       PPO1202A
064000     MOVE 'SELECT SCR ROW' TO DB2MSG-TAG.                         PPO1202A
064100     EXEC SQL                                                     PPO1202A
064200       SELECT                                                     PPO1202A
064300          SCR_PROCESS_DATE                                        PPO1202A
064400         ,SCR_PURGE_DATE                                          PPO1202A
064500         ,SCR_CURRENT_DATE                                        PPO1202A
064600         ,SCR_NEXTCYCLE_MO                                        PPO1202A
064700         ,SCR_NEXTCYCLE_QTR                                       PPO1202A
064800         ,SCR_NEXTCYCLE_YR                                        PPO1202A
064900         ,SCR_NEXTCYCLE_FYR                                       PPO1202A
065000         ,SCR_EDB_GENNUM                                          PPO1202A
065100       INTO                                                       PPO1202A
065200         :SCR-PROCESS-DATE                                        PPO1202A
065300        ,:SCR-PURGE-DATE                                          PPO1202A
065400        ,:SCR-CURRENT-DATE                                        PPO1202A
065500        ,:SCR-NEXTCYCLE-MO                                        PPO1202A
065600        ,:SCR-NEXTCYCLE-QTR                                       PPO1202A
065700        ,:SCR-NEXTCYCLE-YR                                        PPO1202A
065800        ,:SCR-NEXTCYCLE-FYR                                       PPO1202A
065900        ,:SCR-EDB-GENNUM                                          PPO1202A
066000       FROM PPPVSCR1_SCR                                          PPO1202A
066100     END-EXEC.                                                    PPO1202A
066200                                                                  PPO1202A
066300     IF SQLCODE NOT = ZERO                                        PPO1202A
066400        SET FATAL-ERROR TO TRUE                                   PPO1202A
066500        MOVE 'ERROR IN SCR ROW SELECT' TO WS-MESSAGE-TEXT         PPO1202A
066600        PERFORM 7000-BUILD-MESSAGE                                PPO1202A
066700        GO TO 1000-EXIT                                           PPO1202A
066800     END-IF.                                                      PPO1202A
068100                                                                  PPO1202A
068200     INITIALIZE XSCR-SYSTEM-CONTROL-RECORD.                       PPO1202A
068300     MOVE '          SCR' TO XSCR-KEY-AREA.                       PPO1202A
068400     MOVE SCR-PROCESS-DATE OF SCR-ROW TO XDC3-ISO-DATE.           PPO1202A
068500     PERFORM XDC3-CONVERT-ISO-TO-STD                              PPO1202A
068600     MOVE XDC3-STD-DATE TO XSCR-PROCESS-DATE.                     PPO1202A
068700     MOVE SCR-NEXTCYCLE-MO OF SCR-ROW TO XSCR-NEXT-MONTH.         PPO1202A
068800     MOVE SCR-NEXTCYCLE-QTR OF SCR-ROW TO XSCR-NEXT-QTR.          PPO1202A
068900     MOVE SCR-NEXTCYCLE-YR OF SCR-ROW TO XSCR-NEXT-YEAR.          PPO1202A
069000     MOVE SCR-NEXTCYCLE-FYR OF SCR-ROW TO XSCR-NEXT-FY.           PPO1202A
069100     MOVE 'OT' TO XSCR-LAST-PGM-RUN.                              PPO1202A
069200     MOVE SCR-EDB-GENNUM OF SCR-ROW TO XSCR-EDB-GEN-NO.           PPO1202A
069300     MOVE SCR-PURGE-DATE OF SCR-ROW TO XDC3-ISO-DATE.             PPO1202A
069400     PERFORM XDC3-CONVERT-ISO-TO-STD.                             PPO1202A
069500     MOVE XDC3-STD-DATE TO XSCR-PURGE-DATE.                       PPO1202A
069600     MOVE SCR-CURRENT-DATE OF SCR-ROW TO XDC3-ISO-DATE.           PPO1202A
069700     PERFORM XDC3-CONVERT-ISO-TO-STD.                             PPO1202A
069800     MOVE XDC3-STD-DATE TO XSCR-CURRENT-DATE.                     PPO1202A
069900                                                                  PPO1202A
070000     MOVE LOW-VALUES TO XCHG-ODO-LENGTHS.                         PPO1202A
070100     MOVE XSCR-SYSTEM-CONTROL-RECORD TO EDB-CHANGE-RECORD.        PPO1202A
070200                                                                  PPO1202A
070300     OPEN OUTPUT EDBCHG.                                          PPO1202A
070410     PERFORM 9100-WRITE-OCHG.                                     PPO1202A
070500                                                                  PPO1202A
070600     MOVE 'SELECT TIMESTAMP'   TO DB2MSG-TAG                      PPO1202A
070700     EXEC SQL                                                     PPO1202A
070800       SELECT CURRENT TIMESTAMP                                   PPO1202A
070900       INTO   :LUW-TIMESTAMP-X26                                  PPO1202A
071000       FROM   PPPVSCR1_SCR                                        PPO1202A
071100     END-EXEC.                                                    PPO1202A
071200                                                                  PPO1202A
071300 1000-EXIT.  EXIT.                                                PPO1202A
071400                                                                  PPO1202A
071500 1100-VALIDATE-SPEC-CARD   SECTION.                               PPO1202A
071600***********************************************************       PPO1202A
071700*    READ AND EDIT THE RUN SPECIFICATION RECORD           *       PPO1202A
071800***********************************************************       PPO1202A
071900     READ CARDFILE                                                PPO1202A
072000          AT END                                                  PPO1202A
072100                SET FATAL-ERROR TO TRUE                           PPO1202A
072200                MOVE 'SPECIFICATION CARD IS MISSING'              PPO1202A
072300                                 TO WS-MESSAGE-TEXT               PPO1202A
072400                PERFORM 7000-BUILD-MESSAGE                        PPO1202A
072500                GO TO 1100-EXIT.                                  PPO1202A
072600                                                                  PPO1202A
072700     MOVE 'SPEC CARD:' TO WS-MESSAGE-TEXT.                        PPO1202A
072800     MOVE SPEC-CARD TO WS-MESSAGE-2.                              PPO1202A
072900     PERFORM 7000-BUILD-MESSAGE.                                  PPO1202A
073000     MOVE SPACES TO WS-MESSAGE-2.                                 PPO1202A
073100                                                                  PPO1202A
073200     IF NOT VALID-SPEC-PGM-ID                                     PPO1202A
073300        SET FATAL-ERROR TO TRUE                                   PPO1202A
073400        MOVE 'INVALID PROGRAM IDENTIFICATION ON SPEC CARD'        PPO1202A
073500                     TO WS-MESSAGE-TEXT                           PPO1202A
073600        PERFORM 7000-BUILD-MESSAGE                                PPO1202A
073700     END-IF.                                                      PPO1202A
073800                                                                  PPO1202A
073900      IF NOT VALID-SPEC-UPDATE                                    PPO1202A
074000         SET FATAL-ERROR TO TRUE                                  PPO1202A
074100         MOVE 'INVALID UPDATE OPTION' TO WS-MESSAGE-TEXT          PPO1202A
074200         PERFORM 7000-BUILD-MESSAGE                               PPO1202A
074300      ELSE                                                        PPO1202A
074400        MOVE SPEC-PGM-UPDATE TO UPDATE-SW                         PPO1202A
074410        IF UPDATE-REQUESTED                                       PPO1202A
074500           MOVE 'THE EDB UPDATE OPTION HAS BEEN SELECTED'         PPO1202A
074600                          TO WS-MESSAGE-TEXT                      PPO1202A
074700           PERFORM 7000-BUILD-MESSAGE                             PPO1202A
074800        ELSE                                                      PPO1202A
074900           MOVE 'THE EDB UPDATE OPTION WAS NOT SELECTED'          PPO1202A
075000                          TO WS-MESSAGE-TEXT                      PPO1202A
075100           PERFORM 7000-BUILD-MESSAGE                             PPO1202A
075200        END-IF                                                    PPO1202A
075300      END-IF.                                                     PPO1202A
075310                                                                  PPO1202A
075312      IF NOT VALID-SPEC-SORT                                      PPO1202A
075313         SET FATAL-ERROR TO TRUE                                  PPO1202A
075314         MOVE 'INVALID SORT OPTION' TO WS-MESSAGE-TEXT            PPO1202A
075315         PERFORM 7000-BUILD-MESSAGE                               PPO1202A
075316      ELSE                                                        PPO1202A
075317        MOVE SPEC-SORT-CODE TO SORT-ORDER-SW                      PPO1202A
075318        IF SORT-BY-NAME                                           PPO1202A
075319           MOVE 'NAME SORT OPTION HAS BEEN SELECTED'              PPO1202A
075320                          TO WS-MESSAGE-TEXT                      PPO1202A
075321           PERFORM 7000-BUILD-MESSAGE                             PPO1202A
075322        ELSE                                                      PPO1202A
075323           MOVE 'EMPLOYEE ID SORT OPTION HAS BEEN SELECTED'       PPO1202A
075324                          TO WS-MESSAGE-TEXT                      PPO1202A
075325           PERFORM 7000-BUILD-MESSAGE                             PPO1202A
075326        END-IF                                                    PPO1202A
075327      END-IF.                                                     PPO1202A
075400                                                                  PPO1202A
075500 1100-EXIT.                                                       PPO1202A
075600     EXIT.                                                        PPO1202A
075601                                                                  PPO1202A
075610 1200-PROCESS-GTN-CARDS    SECTION.                               PPO1202A
075620***********************************************************       PPO1202A
075630*    PROCESS THE GTN CARDS. THERE MUST BE ONE.            *       PPO1202A
075640***********************************************************       PPO1202A
075650     READ CARDFILE                                                PPO1202A
075660          AT END                                                  PPO1202A
075670                SET FATAL-ERROR TO TRUE                           PPO1202A
075671                SET EOF-GTN-CARDS TO TRUE                         PPO1202A
075680                MOVE 'THERE ARE NO GTN CARDS'                     PPO1202A
075690                                 TO WS-MESSAGE-TEXT               PPO1202A
075691                PERFORM 7000-BUILD-MESSAGE                        PPO1202A
075692                GO TO 1200-EXIT.                                  PPO1202A
075693                                                                  PPO1202A
075694     PERFORM 1300-VALIDATE-GTN-CARD UNTIL EOF-GTN-CARDS.          PPO1202A
075698                                                                  PPO1202A
075699 1200-EXIT.                                                       PPO1202A
075700     EXIT.                                                        PPO1202A
075701                                                                  PPO1202A
075702 1300-VALIDATE-GTN-CARD    SECTION.                               PPO1202A
075703***********************************************************       PPO1202A
075704*    VALIDATE THE GTN CARD. BOTH THE OLD AND NEW GTN      *       PPO1202A
075705*    NUMBER MUST BE NUMERIC.                              *       PPO1202A
075706***********************************************************       PPO1202A
075714                                                                  PPO1202A
075715     MOVE 'GTN CARD:' TO WS-MESSAGE-TEXT.                         PPO1202A
075716     MOVE GTN-CARD TO WS-MESSAGE-2.                               PPO1202A
075717     PERFORM 7000-BUILD-MESSAGE.                                  PPO1202A
075718     MOVE SPACES TO WS-MESSAGE-2.                                 PPO1202A
075719                                                                  PPO1202A
075720     IF NOT (GTN-CARD-OLD-GTN NUMERIC AND                         PPO1202A
075721             GTN-CARD-NEW-GTN NUMERIC)                            PPO1202A
075722        SET FATAL-ERROR TO TRUE                                   PPO1202A
075723        MOVE 'A GTN NUMBER IS NOT NUMERIC' TO WS-MESSAGE-TEXT     PPO1202A
075724        PERFORM 7000-BUILD-MESSAGE                                PPO1202A
075725     ELSE                                                         PPO1202A
075726        ADD +1 TO WS-GTN-COUNT                                    PPO1202A
075727        MOVE GTN-CARD-OLD-GTN TO                                  PPO1202A
075728                            GTN-CONVERSION-OLD-GTN (WS-GTN-COUNT) PPO1202A
075729        MOVE GTN-CARD-NEW-GTN TO                                  PPO1202A
075730                            GTN-CONVERSION-NEW-GTN (WS-GTN-COUNT) PPO1202A
075731     END-IF.                                                      PPO1202A
075732                                                                  PPO1202A
075733     READ CARDFILE                                                PPO1202A
075734          AT END                                                  PPO1202A
075735                SET EOF-GTN-CARDS TO TRUE.                        PPO1202A
075740     EJECT                                                        PPO1202A
075800                                                                  PPO1202A
075900 2000-EMP-CURSOR           SECTION.                               PPO1202A
075910***********************************************************       PPO1202A
075920*    PROCESS THE MAIN EMPLOYEE CURSOR FOR ERC.            *       PPO1202A
075930***********************************************************       PPO1202A
076000                                                                  PPO1202A
076100     PERFORM 8300-OPEN-EMP-CURSOR.                                PPO1202A
076200     PERFORM 8310-FETCH-EMP-CURSOR.                               PPO1202A
076300                                                                  PPO1202A
076700     PERFORM 2100-PROCESS-EMP-CURSOR                              PPO1202A
076800             UNTIL EOF-EMP-CURSOR                                 PPO1202A
076900                OR FATAL-ERROR.                                   PPO1202A
077000                                                                  PPO1202A
077100     PERFORM 8320-CLOSE-EMP-CURSOR.                               PPO1202A
077200                                                                  PPO1202A
077300 2000-EXIT. EXIT.                                                 PPO1202A
077400     EJECT                                                        PPO1202A
077500                                                                  PPO1202A
077600 2100-PROCESS-EMP-CURSOR   SECTION.                               PPO1202A
077610                                                                  PPO1202A
077630     IF EMP-NAME = ALL '*'                                        PPO1202A
078700        PERFORM 8310-FETCH-EMP-CURSOR                             PPO1202A
078800        GO TO 2100-EXIT                                           PPO1202A
078900     END-IF.                                                      PPO1202A
080000                                                                  PPO1202A
081200***********************************************************       PPO1202A
081300*    WALK THROUGH GTN TABLE LOOKING FOR OLD GTN NUMBERS   *       PPO1202A
081400*    ON THE DBL TABLE FOR THE EMPLOYEE ID. IF ONE EXISTS  *       PPO1202A
081410*    REPORT IT. IF RUNNING IN UPDATE MODE, DELETE THE     *       PPO1202A
081420*    OLD G-BALANCE, INSERT THE NEW G-BALANCE, AND WRITE   *       PPO1202A
081430*    THE EDB CHANGE FILE.                                 *       PPO1202A
081500***********************************************************       PPO1202A
081600     PERFORM VARYING WS-GTN-COUNT FROM +1 BY +1                   PPO1202A
081700       UNTIL WS-GTN-COUNT > WS-GTN-MAX-COUNT                      PPO1202A
081900         MOVE GTN-CONVERSION-OLD-GTN (WS-GTN-COUNT)               PPO1202A
081910                                      TO WS-OLD-GTN               PPO1202A
081920         MOVE GTN-CONVERSION-NEW-GTN (WS-GTN-COUNT)               PPO1202A
081930                                      TO WS-NEW-GTN               PPO1202A
081940         PERFORM 8600-SELECT-GTN-DATA                             PPO1202A
081950         IF GTN-FOUND                                             PPO1202A
081960            PERFORM 8510-SELECT-NEW-GTN                           PPO1202A
081970            IF WS-COUNT = ZERO                                    PPO1202A
082000               PERFORM 2500-REPORT-REC                            PPO1202A
082001               IF UPDATE-REQUESTED                                PPO1202A
082002                  PERFORM 3000-UPDATE-EDB                         PPO1202A
082006               END-IF                                             PPO1202A
082007            END-IF                                                PPO1202A
082010         END-IF                                                   PPO1202A
082100     END-PERFORM.                                                 PPO1202A
082200                                                                  PPO1202A
082300***********************************************************       PPO1202A
082400*    FETCH THE NEXT MAIN CURSOR ROW.                      *       PPO1202A
082500***********************************************************       PPO1202A
082600     PERFORM 8310-FETCH-EMP-CURSOR.                               PPO1202A
082700                                                                  PPO1202A
082800 2100-EXIT. EXIT.                                                 PPO1202A
083823                                                                  PPO1202A
083824 2500-REPORT-REC           SECTION.                               PPO1202A
083825***********************************************************       PPO1202A
083826*    CREATE SORT RECORD KEY AND DATA, AND WRITE FOR       *       PPO1202A
083827*    LATER SORT FOR REPORT IN ID ORDER.                   *       PPO1202A
083828***********************************************************       PPO1202A
083829                                                                  PPO1202A
083830     INITIALIZE SORT-REPORT-REC.                                  PPO1202A
083834     IF SORT-BY-NAME                                              PPO1202A
083835        MOVE EMP-NAME TO SORT-KEY-NAME-ID                         PPO1202A
083836     ELSE                                                         PPO1202A
083837        MOVE WS-EMPLOYEE-ID TO SORT-KEY-NAME-ID                   PPO1202A
083838     END-IF.                                                      PPO1202A
083910     MOVE WS-EMPLOYEE-ID TO SORT-EMPLOYEE-ID.                     PPO1202A
083920     MOVE EMP-NAME TO SORT-EMP-NAME.                              PPO1202A
083921     MOVE HOME-DEPT TO SORT-HOME-DEPT.                            PPO1202A
083922     MOVE EMP-REL-UNIT TO SORT-EMP-EUC.                           PPO1202A
083930     MOVE WS-OLD-GTN TO SORT-OLD-GTN.                             PPO1202A
083940     MOVE WS-NEW-GTN TO SORT-NEW-GTN.                             PPO1202A
083950     MOVE GTN-AMT OF DBL-ROW-DATA TO SORT-GTN-AMT.                PPO1202A
086300     MOVE SORT-REPORT-KEY TO POSRTA1-KEY.                         PPO1202A
086400     MOVE SORT-REPORT-DATA TO POSRTA1-DATA.                       PPO1202A
086500     WRITE POSRTA1-REC.                                           PPO1202A
093000                                                                  PPO1202A
093100 2800-EXIT. EXIT.                                                 PPO1202A
096000                                                                  PPO1202A
110200 3000-UPDATE-EDB    SECTION.                                      PPO1202A
110300***********************************************************       PPO1202A
110400*      CHECK IF NEW GTN ALREADY EXISTS. THIS INDICATES AN *       PPO1202A
110401*      ODD SITUATION IN WHICH EMPLOYEE TO BE ROLLED BACK  *       PPO1202A
110402*      HAS BOTH GTN'S. LEAVE IT BE.                       *       PPO1202A
110403*      DELETE PREVIOUS GTN'S G-BALANCE.                   *       PPO1202A
110410*      INSERT NEW GTN'S G-BALANCE.                        *       PPO1202A
110420*      UPDATE CHANGED AT/BY FIELDS ON PER ROW.            *       PPO1202A
110500***********************************************************       PPO1202A
110510                                                                  PPO1202A
110512     IF WS-COUNT = ZERO                                           PPO1202A
110513        PERFORM 8400-DELETE-GTN-DATA                              PPO1202A
110520        PERFORM 8500-INSERT-GTN-DATA                              PPO1202A
110530        ADD +1 TO GTN-CONVERSION-COUNT (WS-GTN-COUNT)             PPO1202A
110531        ADD +1 TO WS-GTN-CHANGED-COUNT                            PPO1202A
110540                                                                  PPO1202A
110550        PERFORM 8200-UPDATE-PER-ROW                               PPO1202A
110560        IF WS-EMPLOYEE-ID NOT = WS-SAVE-EMPLOYEE-ID               PPO1202A
110570           ADD +1 TO WS-EMP-CHANGED-COUNT                         PPO1202A
110571           MOVE WS-EMPLOYEE-ID TO WS-SAVE-EMPLOYEE-ID             PPO1202A
110580        END-IF                                                    PPO1202A
110581                                                                  PPO1202A
110582        PERFORM 4000-CREATE-ECF                                   PPO1202A
110590     END-IF.                                                      PPO1202A
110600                                                                  PPO1202A
110700 4000-CREATE-ECF    SECTION.                                      PPO1202A
110800***********************************************************       PPO1202A
110900*      P R O D U C E     C H A N G E       F I L E        *       PPO1202A
110910***********************************************************       PPO1202A
111000     INITIALIZE                XCHG-FIXED-AREA.                   PPO1202A
111100     MOVE 'PPOT1202' TO XCHG-PROCESS-ID.                          PPO1202A
111200     MOVE XDC3-GREGORIAN-CHAR TO XCHG-TIMESTAMP.                  PPO1202A
111300     MOVE WS-EMPLOYEE-ID TO XCHG-EMPLOYEE-ID.                     PPO1202A
111400                                                                  PPO1202A
111500     MOVE SPACE TO XCHG-OCCURENCE-KEY.                            PPO1202A
111600     MOVE +10               TO XCHG-OLD-VAL-LNGTH,                PPO1202A
111700                               XCHG-NEW-VAL2-LNGTH.               PPO1202A
111800     MOVE GTN-AMT OF DBL-ROW-DATA                                 PPO1202A
111810                            TO WS-NUMBER-EDITED                   PPO1202A
111900     MOVE WS-NUMBER-EDITED  TO XCHG-OLD-VALUE.                    PPO1202A
112000     MOVE ZERO              TO WS-NUMBER-EDITED                   PPO1202A
112100     MOVE WS-NUMBER-EDITED  TO XCHG-NEW-VALUE2.                   PPO1202A
112200     MOVE '6000'            TO XCHG-DATA-ELEM-NO.                 PPO1202A
112300     MOVE WS-OLD-GTN        TO WS-GTN-NUM.                        PPO1202A
112400     MOVE WS-OCC-KEY        TO XCHG-OCCURENCE-KEY.                PPO1202A
112500     PERFORM 9100-WRITE-OCHG.                                     PPO1202A
112600                                                                  PPO1202A
112700     MOVE SPACE TO XCHG-OCCURENCE-KEY.                            PPO1202A
112800     MOVE +10               TO XCHG-OLD-VAL-LNGTH,                PPO1202A
112900                               XCHG-NEW-VAL2-LNGTH.               PPO1202A
113000     MOVE ZERO              TO WS-NUMBER-EDITED                   PPO1202A
113100     MOVE WS-NUMBER-EDITED  TO XCHG-OLD-VALUE.                    PPO1202A
113310     MOVE GTN-AMT OF DBL-ROW-OUT                                  PPO1202A
113320                            TO WS-NUMBER-EDITED                   PPO1202A
113330     MOVE WS-NUMBER-EDITED  TO XCHG-NEW-VALUE2.                   PPO1202A
113400     MOVE '6000'            TO XCHG-DATA-ELEM-NO.                 PPO1202A
113500     MOVE WS-NEW-GTN        TO WS-GTN-NUM.                        PPO1202A
113600     MOVE WS-OCC-KEY        TO XCHG-OCCURENCE-KEY.                PPO1202A
113700     PERFORM 9100-WRITE-OCHG.                                     PPO1202A
113800     EJECT                                                        PPO1202A
113820                                                                  PPO1202A
113830 5000-PRINT-REPORTS        SECTION.                               PPO1202A
113840***********************************************************       PPO1202A
113850*      PRINT REPORTS SELECTED ON THE SPEC CARD            *       PPO1202A
113860***********************************************************       PPO1202A
113870     OPEN OUTPUT PO1202A1-REPORT.                                 PPO1202A
113880                                                                  PPO1202A
113890     CLOSE POSRTA1.                                               PPO1202A
113891     SET NOT-EOF-SORT TO TRUE.                                    PPO1202A
113892     SORT SORT-WORK-FILE                                          PPO1202A
113893          ASCENDING KEY SORT-WORK-KEY                             PPO1202A
113894          USING POSRTA1                                           PPO1202A
113895          OUTPUT PROCEDURE 5100-SORTOUT-PO1202A1.                 PPO1202A
113896                                                                  PPO1202A
113897     PERFORM 5200-REPORT-TOTALS.                                  PPO1202A
113898     CLOSE PO1202A1-REPORT.                                       PPO1202A
113899                                                                  PPO1202A
113900 5100-SORTOUT-PO1202A1     SECTION.                               PPO1202A
114000***********************************************************       PPO1202A
114100*    PERFORM SORT RETURN AND PRINT UNTIL END OF SORT.     *       PPO1202A
114200***********************************************************       PPO1202A
114300                                                                  PPO1202A
114400     PERFORM 5110-PRINT-PO1202A1 UNTIL EOF-SORT.                  PPO1202A
114500                                                                  PPO1202A
114600 5110-PRINT-PO1202A1       SECTION.                               PPO1202A
114700***********************************************************       PPO1202A
114800*    PRINT PO1202A1 REPORT FROM SORTED POSRTA1 FILE       *       PPO1202A
114900***********************************************************       PPO1202A
114910     RETURN SORT-WORK-FILE INTO SORT-REPORT-REC                   PPO1202A
114920       AT END SET EOF-SORT TO TRUE                                PPO1202A
114930              GO TO 5110-EXIT.                                    PPO1202A
114931                                                                  PPO1202A
114933     MOVE SORT-EMPLOYEE-ID TO RPT1-EMPLOYEE-ID.                   PPO1202A
114934     MOVE SORT-EMP-NAME TO RPT1-EMP-NAME.                         PPO1202A
114935     MOVE SORT-EMP-EUC TO RPT1-EMP-EUC.                           PPO1202A
114936     MOVE SORT-OLD-GTN TO RPT1-OLD-GTN                            PPO1202A
114937     MOVE SORT-NEW-GTN TO RPT1-NEW-GTN                            PPO1202A
114938     COMPUTE WS-GTN-AMT = SORT-GTN-AMT.                           PPO1202A
114939     MOVE WS-GTN-AMT TO RPT1-GTN-AMT.                             PPO1202A
114940     MOVE SORT-HOME-DEPT TO RPT1-HOME-DEPT.                       PPO1202A
114941     PERFORM 8700-SELECT-DEPT-DATA.                               PPO1202A
114943     MOVE HME-DEPT-NAME TO RPT1-HOME-DEPT-NAME.                   PPO1202A
114944     PERFORM 5120-WRITE-REPORT1.                                  PPO1202A
114945                                                                  PPO1202A
114946 5110-EXIT.  EXIT.                                                PPO1202A
114947     EJECT                                                        PPO1202A
114948                                                                  PPO1202A
114949 5120-WRITE-REPORT1        SECTION.                               PPO1202A
114950***********************************************************       PPO1202A
114951*    WRITE DETAIL REPORTS                                 *       PPO1202A
114952***********************************************************       PPO1202A
114953                                                                  PPO1202A
114954     IF (RPT1-LINES-GTN-PAGE > MAX-LINES-GTN-PAGE)                PPO1202A
114956         PERFORM 5130-WRITE-RPT1-NEWPAGE                          PPO1202A
114958     END-IF.                                                      PPO1202A
114960                                                                  PPO1202A
114961     WRITE PPO1202A1-LINE FROM PO1202A1-DETAIL-LINE1 AFTER 2.     PPO1202A
114962     ADD +2 TO RPT1-LINES-GTN-PAGE.                               PPO1202A
114963                                                                  PPO1202A
114964 5130-WRITE-RPT1-NEWPAGE   SECTION.                               PPO1202A
114965***********************************************************       PPO1202A
114966*    WRITE REPORT NEW PAGE                                *       PPO1202A
114967***********************************************************       PPO1202A
114968                                                                  PPO1202A
114969     MOVE 'O1202A1' TO STND-RPT-ID.                               PPO1202A
114970     ADD +1 TO STND-PAGE-NO.                                      PPO1202A
114971     INSPECT STND-PAGE-NO REPLACING LEADING ZEROS BY SPACE.       PPO1202A
114972     WRITE PPO1202A1-LINE FROM STND-RPT-HD1                       PPO1202A
114973                                        AFTER ADVANCING NEW-PAGE. PPO1202A
114974     WRITE PPO1202A1-LINE FROM STND-RPT-HD2 AFTER 1.              PPO1202A
114975     WRITE PPO1202A1-LINE FROM PO1202A1-HDR1 AFTER 1.             PPO1202A
114976     WRITE PPO1202A1-LINE FROM PO1202A1-HDR2 AFTER 2.             PPO1202A
114977     WRITE PPO1202A1-LINE FROM PO1202A1-HDR3 AFTER 1.             PPO1202A
114978                                                                  PPO1202A
114979     MOVE +6 TO RPT1-LINES-GTN-PAGE.                              PPO1202A
114980                                                                  PPO1202A
114981 5200-REPORT-TOTALS        SECTION.                               PPO1202A
114982***********************************************************       PPO1202A
114983*    REPORT COUNTS OF CHANGES                             *       PPO1202A
114984***********************************************************       PPO1202A
114985                                                                  PPO1202A
114986     PERFORM 5130-WRITE-RPT1-NEWPAGE.                             PPO1202A
114987                                                                  PPO1202A
114988     MOVE WS-EMP-CHANGED-COUNT TO RPT1-RECORD-TOTAL-Z.            PPO1202A
114990     WRITE PPO1202A1-LINE FROM PO1202A1-TOTAL-LINE AFTER 2.       PPO1202A
114991     ADD +2 TO RPT1-LINES-GTN-PAGE.                               PPO1202A
114992                                                                  PPO1202A
114993     PERFORM VARYING WS-GTN-COUNT FROM +1 BY +1                   PPO1202A
114994       UNTIL WS-GTN-COUNT > WS-GTN-MAX-COUNT                      PPO1202A
114995         MOVE GTN-CONVERSION-OLD-GTN (WS-GTN-COUNT)               PPO1202A
114996                               TO WS-GTN-COUNT-OLD-GTN            PPO1202A
114997         MOVE GTN-CONVERSION-NEW-GTN (WS-GTN-COUNT)               PPO1202A
114998                               TO WS-GTN-COUNT-NEW-GTN            PPO1202A
115001         MOVE WS-GTN-COUNT-MESSAGE TO RPT1-RECORD-DESC            PPO1202A
115002         MOVE GTN-CONVERSION-COUNT (WS-GTN-COUNT)                 PPO1202A
115003                               TO RPT1-RECORD-TOTAL-Z             PPO1202A
115004         WRITE PPO1202A1-LINE FROM PO1202A1-TOTAL-LINE AFTER 2    PPO1202A
115005         ADD +2 TO RPT1-LINES-GTN-PAGE                            PPO1202A
115008     END-PERFORM.                                                 PPO1202A
115009                                                                  PPO1202A
115010     MOVE 'TOTAL GTN CONVERSIONS' TO RPT1-RECORD-DESC.            PPO1202A
115011     MOVE WS-GTN-CHANGED-COUNT TO RPT1-RECORD-TOTAL-Z.            PPO1202A
115012     WRITE PPO1202A1-LINE FROM PO1202A1-TOTAL-LINE AFTER 2.       PPO1202A
115013     ADD +2 TO RPT1-LINES-GTN-PAGE.                               PPO1202A
115015                                                                  PPO1202A
115020 7000-BUILD-MESSAGE        SECTION.                               PPO1202A
115100***********************************************************       PPO1202A
115200*      PRINT MESSAGES                                     *       PPO1202A
115300***********************************************************       PPO1202A
115400                                                                  PPO1202A
115500     IF   WS-PRINT-LINES-RPT > MAX-LINES-GTN-PAGE                 PPO1202A
115600          PERFORM 7050-BUILD-MESSAGE-HDR                          PPO1202A
115700          MOVE WS-MESSAGE TO PRINT-REC                            PPO1202A
115800          WRITE PRINT-REC AFTER ADVANCING +1                      PPO1202A
115900          ADD +1 TO WS-PRINT-LINES-RPT                            PPO1202A
116000     ELSE                                                         PPO1202A
116100          MOVE WS-MESSAGE TO PRINT-REC                            PPO1202A
116200          WRITE PRINT-REC AFTER ADVANCING +1                      PPO1202A
116300          ADD +1 TO WS-PRINT-LINES-RPT                            PPO1202A
116400     END-IF.                                                      PPO1202A
116401                                                                  PPO1202A
116402     IF FATAL-ERROR                                               PPO1202A
116410        MOVE +9 TO RETURN-CODE                                    PPO1202A
116420     END-IF.                                                      PPO1202A
116500                                                                  PPO1202A
116600 7000-EXIT.  EXIT.                                                PPO1202A
116700                                                                  PPO1202A
116800 7050-BUILD-MESSAGE-HDR    SECTION.                               PPO1202A
116900                                                                  PPO1202A
117000     MOVE 'O1202A2' TO STND-RPT-ID.                               PPO1202A
117100     MOVE '            WARNINGS AND MESSAGES' TO STND-RPT-TTL.    PPO1202A
117200     MOVE SPACES TO STND-RPT-COMMENT                              PPO1202A
117300                    STND-DATE2                                    PPO1202A
117400                    STND-DATE2-TTL.                               PPO1202A
117500     MOVE STND-PAGE-NO TO  WS-SAVE-PAGE-NO.                       PPO1202A
117600     ADD +1 TO WS-ERROR-PAGE-NO.                                  PPO1202A
117700     MOVE WS-ERROR-PAGE-NO TO STND-PAGE-NO.                       PPO1202A
117800     INSPECT STND-PAGE-NO REPLACING LEADING ZEROS BY SPACE.       PPO1202A
117900     MOVE STND-RPT-HD1 TO PRINT-REC.                              PPO1202A
118000     WRITE PRINT-REC AFTER ADVANCING NEW-PAGE.                    PPO1202A
118100     MOVE WS-SAVE-PAGE-NO TO STND-PAGE-NO.                        PPO1202A
118200                                                                  PPO1202A
118300     MOVE STND-RPT-HD2 TO PRINT-REC.                              PPO1202A
118400     WRITE PRINT-REC AFTER ADVANCING +1.                          PPO1202A
118500                                                                  PPO1202A
118600     MOVE STND-RPT-HD3 TO PRINT-REC.                              PPO1202A
118700     WRITE PRINT-REC AFTER ADVANCING +1.                          PPO1202A
118800                                                                  PPO1202A
118900     MOVE SPACES TO PRINT-REC.                                    PPO1202A
119000     WRITE PRINT-REC AFTER ADVANCING +1.                          PPO1202A
119100     MOVE +4 TO WS-PRINT-LINES-RPT.                               PPO1202A
119200                                                                  PPO1202A
119300 7050-EXIT. EXIT.                                                 PPO1202A
119400     EJECT                                                        PPO1202A
123400                                                                  PPO1202A
123450 8200-UPDATE-PER-ROW       SECTION.                               PPO1202A
123460***********************************************************       PPO1202A
123470*    UPDATE CHANGED AT AND CHANGED BY ON EDB              *       PPO1202A
123480***********************************************************       PPO1202A
123490     MOVE 'UPDATE PER ROW'      TO DB2MSG-TAG.                    PPO1202A
123491                                                                  PPO1202A
123492     EXEC SQL                                                     PPO1202A
123493       UPDATE PPPVPER1_PER                                        PPO1202A
123494         SET EMP_CHANGED_AT = :LUW-TIMESTAMP-X26                  PPO1202A
123495            ,EMP_CHANGED_BY = :WS-CHANGED-BY                      PPO1202A
123496         WHERE EMPLOYEE_ID  = :WS-EMPLOYEE-ID                     PPO1202A
123497     END-EXEC.                                                    PPO1202A
123498                                                                  PPO1202A
123499     IF SQLCODE NOT = 0                                           PPO1202A
123500        SET FATAL-ERROR TO TRUE                                   PPO1202A
123510        MOVE 'NON ZERO SQLCODE IN EMP CHANGED UPDATE'             PPO1202A
123520              TO WS-MESSAGE-TEXT                                  PPO1202A
123530        PERFORM 7000-BUILD-MESSAGE                                PPO1202A
123540     END-IF.                                                      PPO1202A
123550     EJECT                                                        PPO1202A
126600                                                                  PPO1202A
126620 8300-OPEN-EMP-CURSOR      SECTION.                               PPO1202A
126621***********************************************************       PPO1202A
126622*    OPEN MAIN EMP_CURSOR                                 *       PPO1202A
126623***********************************************************       PPO1202A
126630                                                                  PPO1202A
126640     MOVE 'OPEN MAIN CURSOR' TO DB2MSG-TAG                        PPO1202A
126650     EXEC SQL                                                     PPO1202A
126660       OPEN EMP_CURSOR                                            PPO1202A
126670     END-EXEC.                                                    PPO1202A
126680                                                                  PPO1202A
126700 8310-FETCH-EMP-CURSOR     SECTION.                               PPO1202A
126710***********************************************************       PPO1202A
126720*    FETCH MAIN EMP_CURSOR                                *       PPO1202A
126730***********************************************************       PPO1202A
126800                                                                  PPO1202A
126900     MOVE 'FETCH MAIN CURSOR' TO DB2MSG-TAG.                      PPO1202A
127000     EXEC SQL                                                     PPO1202A
127100       FETCH EMP_CURSOR                                           PPO1202A
127200       INTO :WS-EMPLOYEE-ID                                       PPO1202A
127220           ,:EMP-NAME                                             PPO1202A
127221           ,:EMP-REL-UNIT                                         PPO1202A
127230           ,:HOME-DEPT                                            PPO1202A
127300     END-EXEC                                                     PPO1202A
127400                                                                  PPO1202A
127500     IF SQLCODE = +100                                            PPO1202A
127600        SET EOF-EMP-CURSOR TO TRUE                                PPO1202A
127700     END-IF.                                                      PPO1202A
127800                                                                  PPO1202A
127900 8320-CLOSE-EMP-CURSOR     SECTION.                               PPO1202A
127910***********************************************************       PPO1202A
127920*    CLOSE MAIN EMP_CURSOR                                *       PPO1202A
127930***********************************************************       PPO1202A
128000                                                                  PPO1202A
128100     MOVE 'CLOSE MAIN CURSOR' TO DB2MSG-TAG                       PPO1202A
128200     EXEC SQL                                                     PPO1202A
128300       CLOSE EMP_CURSOR                                           PPO1202A
128400     END-EXEC.                                                    PPO1202A
128500                                                                  PPO1202A
128600 8400-DELETE-GTN-DATA      SECTION.                               PPO1202A
128700***********************************************************       PPO1202A
128800*      DELETE GTN ROW FOR OLD GTN G BALANCE               *       PPO1202A
128900***********************************************************       PPO1202A
129000                                                                  PPO1202A
129100     MOVE ' DELETE PPPVDBL1 ' TO DB2MSG-TAG.                      PPO1202A
129200     EXEC SQL                                                     PPO1202A
129300       DELETE FROM PPPVDBL1_DBL                                   PPO1202A
129400         WHERE EMPLOYEE_ID = :WS-EMPLOYEE-ID                      PPO1202A
129500           AND GTN_NUMBER  = :WS-OLD-GTN                          PPO1202A
129600           AND GTN_IND     = :WS-G-BALANCE                        PPO1202A
129700     END-EXEC.                                                    PPO1202A
129800                                                                  PPO1202A
129900 8500-INSERT-GTN-DATA      SECTION.                               PPO1202A
130000***********************************************************       PPO1202A
130100*      INSERT GTN ROW FOR NEW GTN G BALANCE               *       PPO1202A
130200***********************************************************       PPO1202A
130310                                                                  PPO1202A
130320     MOVE DBL-ROW-DATA TO DBL-ROW-OUT.                            PPO1202A
130340     MOVE WS-NEW-GTN TO GTN-NUMBER OF DBL-ROW-OUT.                PPO1202A
130400     MOVE ' INSERT PPPVDBL2 ' TO DB2MSG-TAG.                      PPO1202A
130500     EXEC SQL                                                     PPO1202A
130600        INSERT INTO PPPVDBL2_DBL                                  PPO1202A
130700               VALUES (:DBL-ROW-OUT)                              PPO1202A
130800     END-EXEC.                                                    PPO1202A
130900                                                                  PPO1202A
130910 8510-SELECT-NEW-GTN       SECTION.                               PPO1202A
130920***********************************************************       PPO1202A
130930*      CHECK IF NEW GTN ALREADY EXISTS.                   *       PPO1202A
130950***********************************************************       PPO1202A
130960                                                                  PPO1202A
130970     EXEC SQL                                                     PPO1202A
130980       SELECT COUNT (*)                                           PPO1202A
130990         INTO :WS-COUNT                                           PPO1202A
130991         FROM PPPVDBL1_DBL                                        PPO1202A
130992         WHERE EMPLOYEE_ID = :WS-EMPLOYEE-ID                      PPO1202A
130993           AND GTN_NUMBER  = :WS-NEW-GTN                          PPO1202A
130994           AND GTN_IND     = :WS-G-BALANCE                        PPO1202A
130995     END-EXEC.                                                    PPO1202A
130996                                                                  PPO1202A
131000 8600-SELECT-GTN-DATA      SECTION.                               PPO1202A
131100***********************************************************       PPO1202A
131200*      SELECT GTN ROW FOR OLD GTN G BALANCE               *       PPO1202A
131300***********************************************************       PPO1202A
131400                                                                  PPO1202A
131500     MOVE ' SELECT PPPVDBL1 ' TO DB2MSG-TAG.                      PPO1202A
132000     EXEC SQL                                                     PPO1202A
132100       SELECT                                                     PPO1202A
132101          EMPLOYEE_ID                                             PPO1202A
132102         ,GTN_NUMBER                                              PPO1202A
132103         ,GTN_IND                                                 PPO1202A
132104         ,GTN_AMT                                                 PPO1202A
132110       INTO                                                       PPO1202A
132111         :DBL-ROW-DATA.EMPLOYEE-ID                                PPO1202A
132112        ,:DBL-ROW-DATA.GTN-NUMBER                                 PPO1202A
132113        ,:DBL-ROW-DATA.GTN-IND                                    PPO1202A
132114        ,:DBL-ROW-DATA.GTN-AMT                                    PPO1202A
132120       FROM PPPVDBL1_DBL                                          PPO1202A
132200       WHERE EMPLOYEE_ID = :WS-EMPLOYEE-ID                        PPO1202A
132300         AND GTN_NUMBER  = :WS-OLD-GTN                            PPO1202A
132400         AND GTN_IND     = :WS-G-BALANCE                          PPO1202A
132500     END-EXEC.                                                    PPO1202A
132600                                                                  PPO1202A
132610     IF SQLCODE = ZERO                                            PPO1202A
132700        SET GTN-FOUND TO TRUE                                     PPO1202A
132800     ELSE                                                         PPO1202A
132900        SET GTN-NOT-FOUND TO TRUE                                 PPO1202A
133000     END-IF.                                                      PPO1202A
137500     EJECT                                                        PPO1202A
137510                                                                  PPO1202A
137520 8700-SELECT-DEPT-DATA     SECTION.                               PPO1202A
137530***********************************************************       PPO1202A
137540*      SELECT HOME DEPARTMENT DESCRIPTION                 *       PPO1202A
137550***********************************************************       PPO1202A
137560                                                                  PPO1202A
137570     MOVE ' SELECT HOME DEPT' TO DB2MSG-TAG.                      PPO1202A
137580     EXEC SQL                                                     PPO1202A
137590       SELECT                                                     PPO1202A
137591          HME_DEPT_NAME                                           PPO1202A
137595       INTO                                                       PPO1202A
137596         :HME-DEPT-NAME                                           PPO1202A
137600       FROM PPPVZHME_HME                                          PPO1202A
137601       WHERE HME_DEPT_NO = :SORT-HOME-DEPT                        PPO1202A
137604     END-EXEC.                                                    PPO1202A
137605                                                                  PPO1202A
137606     IF SQLCODE NOT ZERO                                          PPO1202A
137607        MOVE 'UNKNOWN' TO HME-DEPT-NAME                           PPO1202A
137610     END-IF.                                                      PPO1202A
137611     EJECT                                                        PPO1202A
137620 9000-FINALIZATION         SECTION.                               PPO1202A
137700***********************************************************       PPO1202A
137800*                    F I N A L I Z E                      *       PPO1202A
137900***********************************************************       PPO1202A
138000                                                                  PPO1202A
138100     IF UPDATE-REQUESTED                                          PPO1202A
138200        CLOSE EDBCHG                                              PPO1202A
138300     END-IF.                                                      PPO1202A
138400                                                                  PPO1202A
138500     CLOSE PRINT-FILE.                                            PPO1202A
138600     CLOSE CARDFILE.                                              PPO1202A
138700                                                                  PPO1202A
138710 9100-WRITE-OCHG      SECTION.                                    PPO1202A
138711***********************************************************       PPO1202A
138712*      WRITE A RECORD TO THE EDB CHANGE FILE              *       PPO1202A
138713***********************************************************       PPO1202A
138720                                                                  PPO1202A
138730     WRITE OCHG-EDB-CHANGE-RECORD  FROM EDB-CHANGE-RECORD.        PPO1202A
138740     MOVE SPACE TO XCHG-OCCURENCE-KEY.                            PPO1202A
138750                                                                  PPO1202A
138800 DATE-CONVERSION           SECTION.         COPY CPPDXDC3.        PPO1202A
138900                                                                  PPO1202A
139000*999999-SQL-ERROR.                                                PPO1202A
139100     EXEC SQL                                                     PPO1202A
139200          INCLUDE CPPDXP99                                        PPO1202A
139300     END-EXEC.                                                    PPO1202A
139400     IF NOT HERE-BEFORE                                           PPO1202A
139500         SET HERE-BEFORE TO TRUE                                  PPO1202A
139600         MOVE 'UPDATE ROLLBACK' TO DB2MSG-TAG                     PPO1202A
139700         EXEC SQL                                                 PPO1202A
139800             ROLLBACK WORK                                        PPO1202A
139900         END-EXEC                                                 PPO1202A
140000     END-IF.                                                      PPO1202A
140100     MOVE +9               TO RETURN-CODE.                        PPO1202A
140200     STOP RUN.                                                    PPO1202A
140300********  END OF PROGRAM PPO1202A ********                        PPO1202A
