000140**************************************************************/   48051202
000200*  PROGRAM: PPO1202B                                         */   48051202
000300*  RELEASE: ___1202______ SERVICE REQUEST(S): ____14805____  */   48051202
000400*  NAME:__PHIL THOMPSON__ CREATION DATE:      ___08/07/98__  */   48051202
000500*  DESCRIPTION:                                              */   48051202
000600*  - IDENTIFY EMPLOYEES HAVING EMPLOYEE RELATIONS UNIT CODES */   48051202
000700*    INPUT IN SPEC CARD FILE.                                */   48051202
000900*  - IF RUNNING IN UPDATE MODE:                              */   48051202
000910*    FOR EACH EMPLOYEE ID, FIND ALL PPPDBL ROWS FOR OLD GTN  */   48051202
001000*    NUMBERS INPUT IN THE SPEC CARD FILE. FOR EACH PPPDBL    */   48051202
001100*    ROW FOUND, DELETE IT AND INSERT IT WITH THE MATCHING    */   48051202
001120*    NEW GTN NUMBER.                                         */   48051202
001140*    WRITE ECF RECORD ALL ALL CHANGES.                       */   48051202
001150*    UPDATE THE EMPLOYEE CHANGED AT/BY FIELDS WITHOUT AUDIT. */   48051202
001160*  - REPORT GTN'S "CHANGED" IN BOTH UPDATE AND NON-UPDATE    */   48051202
001170*    MODE.                                                   */   48051202
001200**************************************************************/   48051202
001300 IDENTIFICATION DIVISION.                                         PPO1202B
001400 PROGRAM-ID. PPO1202B.                                            PPO1202B
001500 AUTHOR. UCOP                                                     PPO1202B
001600                                                                  PPO1202B
001700*REMARKS.                                                         PPO1202B
001800                                                                  PPO1202B
001810***********************************************************       PPO1202B
001820*   THIS PROGRAM CAN BE RUN IN UPDATE AND NON-UPDATE MODE *       PPO1202B
001821***********************************************************       PPO1202B
001822*                                                         *       PPO1202B
001823*   THE MAIN CURSOR FOR THIS PROGRAM PRODUCES A LIST OF   *       PPO1202B
001830*   EMPLOYEES WHO ARE COVERED BY ONE OF THE EMPLOYEE      *       PPO1202B
001840*   RELATIONS GROUPS ENTERED IN THE SPEC CARD FILE.       *       PPO1202B
001850*   THE CURSOR IS OPENED/PROCESSED AND CLOSED FOR EACH    *       PPO1202B
001851*   NON-BLANK UNIT CODE ON THE SPEC CARD.                 *       PPO1202B
001860*   FOR EACH EMPLOYEE ID RETURNED BY THE CURSOR, PPO1202B *       PPO1202B
001870*   WALKS THROUGH THE TABLE OF OLD GTN'S BUILT FROM THE   *       PPO1202B
001880*   GTN CARDS ENTERED VIA THE SPEC CARD FILE. FOR EACH,   *       PPO1202B
001890*   SELECT FROM THE PPPDBL TABLE TO SEE IF IT EXISTS. FOR *       PPO1202B
001891*   EACH FOUND, DELETE THE OLD ROW AND INSERT A NEW ROW   *       PPO1202B
001905*   WITH THE ASSOCIATED NEW GTN NUMBER ENTERED IN THE     *       PPO1202B
001906*   SPEC CARD FILE.                                       *       PPO1202B
001907*                                                         *       PPO1202B
001908*   REPORT EACH CHANGE. THE REPORT MAIN SORT IS ALWAYS    *       PPO1202B
001909*   UNIT CODE. WITHIN UNIT CODE, IT CAN BE SORTED BY ID   *       PPO1202B
001910*   OR NAME, PER THE SELECTION MADE ON THE SPEC CARD.     *       PPO1202B
001911*                                                         *       PPO1202B
001912*   WRITE AN EDB CHANGE FILE RECORD FOR EACH CHANGE.      *       PPO1202B
001920***********************************************************       PPO1202B
002000*        E N V I R O N M E N T     D I V I S I O N        *       PPO1202B
002100***********************************************************       PPO1202B
002200                                                                  PPO1202B
002300 ENVIRONMENT DIVISION.                                            PPO1202B
002400 CONFIGURATION SECTION.                                           PPO1202B
002500                                                                  PPO1202B
002600 SPECIAL-NAMES.                                                   PPO1202B
002700     C01 IS NEW-PAGE.                                             PPO1202B
002800                                                                  PPO1202B
002900 INPUT-OUTPUT SECTION.                                            PPO1202B
003000 FILE-CONTROL.                                                    PPO1202B
003100                                                                  PPO1202B
003200***********************************************************       PPO1202B
003300*    REPORT PRINT FILE                                    *       PPO1202B
003400***********************************************************       PPO1202B
003500     SELECT PO1202B1-REPORT ASSIGN TO UT-S-PO1202B1.              PPO1202B
003600***********************************************************       PPO1202B
003610*    WARNINGS AND MESSAGES REPORT                         *       PPO1202B
003620***********************************************************       PPO1202B
003700     SELECT PRINT-FILE      ASSIGN TO UT-S-PO1202B2.              PPO1202B
003800                                                                  PPO1202B
003900***********************************************************       PPO1202B
004000*    REPORT DATA SORT FILE                                *       PPO1202B
004100***********************************************************       PPO1202B
004200     SELECT POSRTB1        ASSIGN TO UT-S-POSRTB1.                PPO1202B
004400                                                                  PPO1202B
004500***********************************************************       PPO1202B
004600*    SPEC CARD                                            *       PPO1202B
004700***********************************************************       PPO1202B
004800     SELECT CARDFILE       ASSIGN TO UT-S-CARDFIL.                PPO1202B
004900                                                                  PPO1202B
005000***********************************************************       PPO1202B
005100*    EDB CHANGE FILE                                      *       PPO1202B
005200***********************************************************       PPO1202B
005300     SELECT EDBCHG         ASSIGN TO UT-S-EDBCHG.                 PPO1202B
005400                                                                  PPO1202B
005500***********************************************************       PPO1202B
005600*    SORT WORK FILE                                       *       PPO1202B
005700***********************************************************       PPO1202B
005800     SELECT SORT-WORK-FILE         COPY CPSLXSRT.                 PPO1202B
006000     EJECT                                                        PPO1202B
006100***********************************************************       PPO1202B
006200*                D A T A     D I V I S I O N              *       PPO1202B
006300***********************************************************       PPO1202B
006400                                                                  PPO1202B
006500 DATA DIVISION.                                                   PPO1202B
006600 FILE SECTION.                                                    PPO1202B
006700                                                                  PPO1202B
006800***********************************************************       PPO1202B
006900*    REPORT PRINT FILES                                   *       PPO1202B
007000***********************************************************       PPO1202B
007100 FD  PO1202B1-REPORT                                              PPO1202B
007200     LABEL RECORDS ARE OMITTED                                    PPO1202B
007300     BLOCK CONTAINS 0 RECORDS                                     PPO1202B
007400     RECORDING MODE IS F                                          PPO1202B
007500     RECORD CONTAINS 133 CHARACTERS.                              PPO1202B
007600                                                                  PPO1202B
007700 01  PPO1202B1-LINE.                                              PPO1202B
007800     05  FILLER                   PIC X.                          PPO1202B
007900     05  PPO1202B1-DATA           PIC X(132).                     PPO1202B
009000                                                                  PPO1202B
009100 FD  PRINT-FILE                  COPY CPFDXPRT.                   PPO1202B
009200                                                                  PPO1202B
009300***********************************************************       PPO1202B
009400*    REPORT DATA SORT FILES                               *       PPO1202B
009500***********************************************************       PPO1202B
009600 FD  POSRTB1                                                      PPO1202B
009700     LABEL RECORDS ARE OMITTED                                    PPO1202B
009800     BLOCK CONTAINS 0 RECORDS                                     PPO1202B
009900     RECORDING MODE IS F                                          PPO1202B
010000     RECORD CONTAINS  82 CHARACTERS.                              PPO1202B
010100                                                                  PPO1202B
010200 01  POSRTB1-REC.                                                 PPO1202B
010300     05  POSRTB1-KEY              PIC X(28).                      PPO1202B
010400     05  POSRTB1-DATA             PIC X(54).                      PPO1202B
010500                                                                  PPO1202B
011500                                                                  PPO1202B
011600***********************************************************       PPO1202B
011700*    SPEC CARD                                            *       PPO1202B
011800***********************************************************       PPO1202B
011900 FD  CARDFILE                                                     PPO1202B
012000     LABEL RECORDS ARE OMITTED                                    PPO1202B
012100     BLOCK CONTAINS 0 RECORDS                                     PPO1202B
012200     RECORDING MODE IS F                                          PPO1202B
012300     RECORD CONTAINS 80 CHARACTERS.                               PPO1202B
012400                                                                  PPO1202B
012500 01  SPEC-CARD.                                                   PPO1202B
012600     05  SPEC-PGM-ID             PIC X(10).                       PPO1202B
012700         88  VALID-SPEC-PGM-ID              VALUE 'PPOTB-SPEC'.   PPO1202B
012800     05  SPEC-PGM-UPDATE         PIC X(06).                       PPO1202B
012900         88  VALID-SPEC-UPDATE              VALUES '      '       PPO1202B
013000                                                   'UPDATE'.      PPO1202B
013200     05  SPEC-SORT-CODE          PIC X(01).                       PPO1202B
013201         88  VALID-SPEC-SORT                VALUES 'N' 'I'.       PPO1202B
013204     05  SPEC-EUC-CODES          PIC X(20).                       PPO1202B
013210     05  FILLER                  PIC X(43).                       PPO1202B
013234                                                                  PPO1202B
013235 01  GTN-CARD.                                                    PPO1202B
013236     05  GTN-CARD-ID             PIC X(03).                       PPO1202B
013237         88  VALID-GTN-CARD-ID              VALUE 'GTN'.          PPO1202B
013238     05  FILLER                  PIC X(01).                       PPO1202B
013239     05  GTN-CARD-OLD-GTN        PIC X(03).                       PPO1202B
013240     05  FILLER                  PIC X(01).                       PPO1202B
013241     05  GTN-CARD-NEW-GTN        PIC X(03).                       PPO1202B
013250     05  FILLER                  PIC X(69).                       PPO1202B
013300                                                                  PPO1202B
013400***********************************************************       PPO1202B
013500*    EDB CHANGE FILE                                      *       PPO1202B
013600***********************************************************       PPO1202B
013700 FD  EDBCHG                    COPY  CPFDXCHG                     PPO1202B
013800         REPLACING EDB-CHANGE-RECORD BY OCHG-EDB-CHANGE-RECORD.   PPO1202B
013900 01  OCHG-EDB-CHANGE-RECORD.   COPY CPWSXCHG                      PPO1202B
014000         REPLACING XCHG-FIXED-AREA     BY OCHG-FIXED-AREA         PPO1202B
014100                   XCHG-EMPLOYEE-ID    BY OCHG-EMPLOYEE-ID        PPO1202B
014200                   XCHG-DATA-ELEM-NO   BY OCHG-DATA-ELEM-NO       PPO1202B
014300                   XCHG-OCCURENCE-KEY  BY OCHG-OCCURENCE-KEY      PPO1202B
014400                   XCHG-PROCESS-ID     BY OCHG-PROCESS-ID         PPO1202B
014500                   XCHG-CHANGE-SOURCE  BY OCHG-CHANGE-SOURCE      PPO1202B
014600                   XCHG-TIMESTAMP      BY OCHG-TIMESTAMP          PPO1202B
014700                   XCHG-ODO-LENGTHS    BY OCHG-ODO-LENGTHS        PPO1202B
014800                   XCHG-OLD-VAL-LNGTH  BY OCHG-OLD-VAL-LNGTH      PPO1202B
014900                   XCHG-NEW-VAL1-LNGTH BY OCHG-NEW-VAL1-LNGTH     PPO1202B
015000                   XCHG-NEW-VAL2-LNGTH BY OCHG-NEW-VAL2-LNGTH     PPO1202B
015100                   XCHG-OLD-VALUE      BY OCHG-OLD-VALUE          PPO1202B
015200                   XCHG-OLD-VAL        BY OCHG-OLD-VAL            PPO1202B
015300                   XCHG-NEW-VALUE1     BY OCHG-NEW-VALUE1         PPO1202B
015400                   XCHG-NEW-VAL1       BY OCHG-NEW-VAL1           PPO1202B
015500                   XCHG-NEW-VALUE2     BY OCHG-NEW-VALUE2         PPO1202B
015600                   XCHG-NEW-VAL2       BY OCHG-NEW-VAL2.          PPO1202B
015700                                                                  PPO1202B
015800***********************************************************       PPO1202B
015900*    SORT WORK FILE                                       *       PPO1202B
016000***********************************************************       PPO1202B
016100 SD  SORT-WORK-FILE                                               PPO1202B
016200     RECORD CONTAINS  82 CHARACTERS                               PPO1202B
016300     DATA RECORD IS SORT-WORK-RECORD.                             PPO1202B
016400                                                                  PPO1202B
016500 01  SORT-WORK-RECORD.                                            PPO1202B
016600     05  SORT-WORK-KEY.                                           PPO1202B
016601         10 SORT-WORK-KEY-EUC      PIC X(02).                     PPO1202B
016602         10 SORT-WORK-KEY-NAME-ID  PIC X(26).                     PPO1202B
016710     05  SORT-WORK-DATA            PIC X(54).                     PPO1202B
016800     EJECT                                                        PPO1202B
016900 WORKING-STORAGE SECTION.                                         PPO1202B
017000***********************************************************       PPO1202B
017100*    WORKING STORAGE                                      *       PPO1202B
017200***********************************************************       PPO1202B
020100***********************************************************       PPO1202B
020200*    MISCELLANEOUS                                        *       PPO1202B
020300***********************************************************       PPO1202B
020400 01  WS-WORK-MISC.                                                PPO1202B
020500     05  WS-PGM-ID                PIC X(15)  VALUE                PPO1202B
020600                                            'PPO1202B/080798'.    PPO1202B
020700     05  WS-CHANGED-BY            PIC X(08)  VALUE 'PPO1202B'.    PPO1202B
020800     05  WS-EMPLOYEE-ID           PIC X(09)  VALUE SPACES.        PPO1202B
020810     05  WS-SAVE-EMPLOYEE-ID      PIC X(09)  VALUE SPACES.        PPO1202B
020900     05  WS-LOW-ISO-DATE          PIC X(10)  VALUE SPACES.        PPO1202B
021000     05  WS-G-BALANCE             PIC X(01)  VALUE 'G'.           PPO1202B
021100     05  WS-EMP-REL-UNIT          PIC X(02)  VALUE SPACES.        PPO1202B
021110     05  WS-EMP-REP-CODE          PIC X(01)  VALUE 'C'.           PPO1202B
021200     05  WS-SAVE-EUC              PIC X(02)  VALUE SPACES.        PPO1202B
021210     05  WS-OLD-GTN               PIC X(03)  VALUE SPACES.        PPO1202B
021300     05  WS-NEW-GTN               PIC X(03)  VALUE SPACES.        PPO1202B
021400     05  WS-GTN-AMT               PIC S9999999V99.                PPO1202B
021500     05  WS-COUNT                 PIC S9(08) COMP VALUE 0.        PPO1202B
021600 01  WS-OCC-KEY.                                                  PPO1202B
021610     05  WS-GTN-NUM              PIC X(03).                       PPO1202B
021620     05  WS-GTN-IND              PIC X(01) VALUE 'G'.             PPO1202B
021700 01  LUW-TIMESTAMP-X26            PIC X(26).                      PPO1202B
021800 01  WS-ACCUMULATORS             COMP-3.                          PPO1202B
021810     05  WS-NUMBER-EDITED         PIC S9(09)V9(09) VALUE ZERO.    PPO1202B
021900     05  WS-PRINT-LINES-RPT       PIC S9(06) VALUE +65.           PPO1202B
022000     05  WS-REPORT-LINE-ADVANCE   PIC S9(06) VALUE +0.            PPO1202B
022100     05  MAX-LINES-GTN-PAGE       PIC S9(04) VALUE +55.           PPO1202B
022200     05  RPT1-LINES-GTN-PAGE      PIC S9(04) VALUE +60.           PPO1202B
023600     05  WS-ERROR-PAGE-NO         PIC S9(04) VALUE 0.             PPO1202B
023700     05  WS-SAVE-PAGE-NO          PIC S9(04) VALUE 0.             PPO1202B
023710     05  WS-GTN-COUNT             PIC S9(04) VALUE 0.             PPO1202B
023711     05  WS-GTN-MAX-COUNT         PIC S9(04) VALUE 0.             PPO1202B
023712     05  WS-EMP-CHANGED-COUNT     PIC S9(07) VALUE 0.             PPO1202B
023713     05  WS-GTN-CHANGED-COUNT     PIC S9(07) VALUE 0.             PPO1202B
023714     05  WS-EUC-SELECT-COUNT      PIC S9(04) VALUE 0.             PPO1202B
023715     05  WS-MAX-EUC-SELECT        PIC S9(04) VALUE +10.           PPO1202B
023724 01  GTN-CONVERSION-TABLE.                                        PPO1202B
023730     05  FILLER OCCURS 999 TIMES.                                 PPO1202B
023740         10  GTN-CONVERSION-OLD-GTN PIC 9(03).                    PPO1202B
023750         10  GTN-CONVERSION-NEW-GTN PIC 9(03).                    PPO1202B
023757         10  GTN-CONVERSION-COUNT   PIC 9(07).                    PPO1202B
023758 01  WS-GTN-COUNT-MESSAGE.                                        PPO1202B
023759     05  FILLER                   PIC X(04) VALUE 'GTN '.         PPO1202B
023760     05  WS-GTN-COUNT-OLD-GTN     PIC X(03) VALUE SPACES.         PPO1202B
023761     05  FILLER                   PIC X(01) VALUE '/'.            PPO1202B
023762     05  WS-GTN-COUNT-NEW-GTN     PIC X(03) VALUE SPACES.         PPO1202B
023763     05  FILLER                   PIC X(12) VALUE ' CONVERSIONS'. PPO1202B
023764 01  EUC-SELECTION-TABLE.                                         PPO1202B
023770     05  FILLER OCCURS 10 TIMES.                                  PPO1202B
023780         10  EUC-SELECTED           PIC X(02).                    PPO1202B
024000***********************************************************       PPO1202B
024100*    SWITCHES                                             *       PPO1202B
024200***********************************************************       PPO1202B
024300 01  WS-SWITCHES.                                                 PPO1202B
024400     05  WS-MESSAGE-SW           PIC S9(01) VALUE +0.             PPO1202B
024500         88  FATAL-ERROR                    VALUE +1.             PPO1202B
024600     05  HERE-BEFORE-SW          PIC X(01)  VALUE SPACE.          PPO1202B
024700         88 HERE-BEFORE                     VALUE 'Y'.            PPO1202B
024800     05  FIRST-TIME-SW           PIC X(01)  VALUE 'Y'.            PPO1202B
024900         88  FIRST-TIME                     VALUE 'Y'.            PPO1202B
025000         88  NOT-FIRST-TIME                 VALUE 'N'.            PPO1202B
025010     05  GTN-FOUND-SW            PIC X(01)  VALUE 'Y'.            PPO1202B
025020         88  GTN-FOUND                      VALUE 'Y'.            PPO1202B
025030         88  GTN-NOT-FOUND                  VALUE 'N'.            PPO1202B
025100     05  EMP-CURSOR-SW           PIC X(01)  VALUE 'N'.            PPO1202B
025200         88  EOF-EMP-CURSOR                 VALUE 'Y'.            PPO1202B
025201         88  NOT-EOF-EMP-CURSOR             VALUE 'N'.            PPO1202B
025210     05  GTN-CARD-SW             PIC X(01)  VALUE 'N'.            PPO1202B
025220         88  EOF-GTN-CARDS                  VALUE 'Y'.            PPO1202B
025300     05  SORT-EOF-SW             PIC X(01)  VALUE 'N'.            PPO1202B
025400         88  NOT-EOF-SORT                   VALUE 'N'.            PPO1202B
025500         88  EOF-SORT                       VALUE 'Y'.            PPO1202B
025510     05  SORT-ORDER-SW           PIC X(01)  VALUE 'N'.            PPO1202B
025600         88  SORT-BY-NAME                   VALUE 'N'.            PPO1202B
025700         88  SORT-BY-ID                     VALUE 'I'.            PPO1202B
025800     05  UPDATE-SW               PIC X(06)  VALUE SPACES.         PPO1202B
025810         88  UPDATE-REQUESTED               VALUE 'UPDATE'.       PPO1202B
026200     EJECT                                                        PPO1202B
026210***********************************************************       PPO1202B
026220*    REPORT KEY AND DATA FIELDS                           *       PPO1202B
026230***********************************************************       PPO1202B
026240 01  SORT-REPORT-REC.                                             PPO1202B
026250     05  SORT-REPORT-KEY.                                         PPO1202B
026261         10  SORT-KEY-EUC          PIC X(02).                     PPO1202B
026262         10  SORT-KEY-NAME-ID      PIC X(26).                     PPO1202B
026270     05  SORT-REPORT-DATA.                                        PPO1202B
026280         10 SORT-EMP-EUC           PIC X(02).                     PPO1202B
026281         10 SORT-EMPLOYEE-ID       PIC X(09).                     PPO1202B
026282         10 SORT-EMP-NAME          PIC X(26).                     PPO1202B
026283         10 SORT-HOME-DEPT         PIC X(06).                     PPO1202B
026291         10 SORT-OLD-GTN           PIC X(03).                     PPO1202B
026292         10 SORT-NEW-GTN           PIC X(03).                     PPO1202B
026293         10 SORT-GTN-AMT           PIC S9999999V99 USAGE COMP-3.  PPO1202B
026300***********************************************************       PPO1202B
026400*    REPORT HEADERS AND DETAIL LINES                      *       PPO1202B
026500***********************************************************       PPO1202B
026600 01  PO1202B1-HDR1.                                               PPO1202B
026700     05  FILLER                  PIC X(01).                       PPO1202B
026800     05  FILLER                  PIC X(40) VALUE SPACES.          PPO1202B
026900     05  PO1202B1-HDR1-TEXT      PIC X(54) VALUE                  PPO1202B
027000        'COLLECTIVE BARGAINING ONE-TIME: PRE-TAX TRANSPORTATION'. PPO1202B
027100     05  FILLER                  PIC X(38) VALUE SPACES.          PPO1202B
027900                                                                  PPO1202B
028000 01  PO1202B1-HDR2.                                               PPO1202B
028100     05  FILLER                  PIC X(01).                       PPO1202B
028200     05  FILLER                  PIC X(11) VALUE 'EMPLOYEE ID'.   PPO1202B
028300     05  FILLER                  PIC X(02) VALUE SPACES.          PPO1202B
028310     05  FILLER                  PIC X(13) VALUE 'EMPLOYEE NAME'. PPO1202B
028320     05  FILLER                  PIC X(12) VALUE SPACES.          PPO1202B
028330     05  FILLER                  PIC X(10)                        PPO1202B
028331                                    VALUE 'BARGAINING'.           PPO1202B
028340     05  FILLER                  PIC X(05) VALUE SPACES.          PPO1202B
028400     05  FILLER                  PIC X(10) VALUE 'GTN NUMBER'.    PPO1202B
028920     05  FILLER                  PIC X(05) VALUE SPACES.          PPO1202B
028930     05  FILLER                  PIC X(10) VALUE 'GTN AMOUNT'.    PPO1202B
028960     05  FILLER                  PIC X(05) VALUE  SPACES.         PPO1202B
028961     05  FILLER                  PIC X(15)                        PPO1202B
028970                                    VALUE 'HOME DEPARTMENT'.      PPO1202B
029000                                                                  PPO1202B
029100 01  PO1202B1-HDR3.                                               PPO1202B
029200     05  FILLER                  PIC X(01).                       PPO1202B
029400     05  FILLER                  PIC X(41) VALUE SPACES.          PPO1202B
029500     05  FILLER                  PIC X(04) VALUE 'UNIT'.          PPO1202B
029600     05  FILLER                  PIC X(10) VALUE SPACES.          PPO1202B
029700     05  FILLER                  PIC X(07) VALUE 'OLD/NEW'.       PPO1202B
030080     05  FILLER                  PIC X(70) VALUE SPACES.          PPO1202B
033600                                                                  PPO1202B
035900 01  PO1202B1-DETAIL-LINE1.                                       PPO1202B
036000     05  FILLER                  PIC X(01) VALUE SPACES.          PPO1202B
036100     05  RPT1-EMPLOYEE-ID        PIC X(09).                       PPO1202B
036200     05  FILLER                  PIC X(04) VALUE SPACES.          PPO1202B
036300     05  RPT1-EMP-NAME           PIC X(26).                       PPO1202B
036400     05  FILLER                  PIC X(03) VALUE SPACES.          PPO1202B
036500     05  RPT1-EMP-EUC            PIC X(02).                       PPO1202B
036510     05  FILLER                  PIC X(11) VALUE SPACES.          PPO1202B
036511     05  RPT1-OLD-GTN            PIC X(03).                       PPO1202B
036512     05  FILLER                  PIC X(01) VALUE '/'.             PPO1202B
036520     05  RPT1-NEW-GTN            PIC X(03).                       PPO1202B
036530     05  FILLER                  PIC X(05) VALUE SPACES.          PPO1202B
036540     05  RPT1-GTN-AMT            PIC ------9.99.                  PPO1202B
036550     05  FILLER                  PIC X(06) VALUE SPACES.          PPO1202B
036560     05  RPT1-HOME-DEPT          PIC X(06).                       PPO1202B
036570     05  FILLER                  PIC X(02) VALUE SPACES.          PPO1202B
036580     05  RPT1-HOME-DEPT-NAME     PIC X(30).                       PPO1202B
036660                                                                  PPO1202B
036700 01  PO1202B1-TOTAL-LINE.                                         PPO1202B
036800     05  FILLER                  PIC X(01).                       PPO1202B
036900     05  RPT1-RECORD-DESC        PIC X(40) VALUE                  PPO1202B
037000                                'TOTAL NUMBER OF EMPLOYEES'.      PPO1202B
037100     05  RPT1-RECORD-TOTAL-Z     PIC ZZZZ9.                       PPO1202B
037400     05  FILLER                  PIC X(87) VALUE SPACES.          PPO1202B
042900***********************************************************       PPO1202B
043000*    MESSAGE PRINT LINE                                   *       PPO1202B
043100***********************************************************       PPO1202B
043200 01  WS-MESSAGE.                                                  PPO1202B
043300     05  WS-DET1-CC              PIC X(01) VALUE SPACES.          PPO1202B
043400     05  WS-MESSAGE-1.                                            PPO1202B
043500         10  WS-MESSAGE-TEXT     PIC X(43)  VALUE SPACES.         PPO1202B
043600     05  WS-MESSAGE-2            PIC X(89)  VALUE SPACES.         PPO1202B
043900***********************************************************       PPO1202B
044000*        S T A N D A R D    C O P Y   M E M B E R S       *       PPO1202B
044100***********************************************************       PPO1202B
044200                                                                  PPO1202B
044300 01  WS-COMPILE-WORK-AREA.                  COPY CPWSXWHC.        PPO1202B
044400     EJECT                                                        PPO1202B
045400 01  DATE-CONVERSION-WORK-AREAS.            COPY CPWSXDC3.        PPO1202B
045500     EJECT                                                        PPO1202B
045600 01  XSCR-SYSTEM-CONTROL-RECORD.            COPY CPWSXSCR.        PPO1202B
045700     EJECT                                                        PPO1202B
045800 01  EDB-CHANGE-RECORD.                     COPY CPWSXCHG.        PPO1202B
045900     EJECT                                                        PPO1202B
046000 01  STND-RPT-HD.                           COPY CPWSPSHR.        PPO1202B
046100     EJECT                                                        PPO1202B
046200 01  PPDB2MSG-INTERFACE.                    COPY CPLNKDB2.        PPO1202B
048000     EJECT                                                        PPO1202B
048100***********************************************************       PPO1202B
048200*    SQL WORKING STORAGE                                  *       PPO1202B
048300***********************************************************       PPO1202B
048400 01  SCR-ROW.                                                     PPO1202B
048500     EXEC SQL                                                     PPO1202B
048600          INCLUDE PPPVSCR1                                        PPO1202B
048700     END-EXEC.                                                    PPO1202B
048800                                                                  PPO1202B
050900 01  PER-ROW-DATA.                                                PPO1202B
051000     EXEC SQL                                                     PPO1202B
051100          INCLUDE PPPVPER1                                        PPO1202B
051200     END-EXEC.                                                    PPO1202B
051300                                                                  PPO1202B
051400 01  DBL-ROW-DATA.                                                PPO1202B
051500     EXEC SQL                                                     PPO1202B
051600          INCLUDE PPPVDBL1                                        PPO1202B
051700     END-EXEC.                                                    PPO1202B
052200                                                                  PPO1202B
052300 01  DBL-ROW-OUT.                                                 PPO1202B
052400     EXEC SQL                                                     PPO1202B
052500         INCLUDE PPPVDBL2                                         PPO1202B
052600     END-EXEC.                                                    PPO1202B
052700                                                                  PPO1202B
052710 01  HME-ROW-DATA.                                                PPO1202B
052720     EXEC SQL                                                     PPO1202B
052730         INCLUDE PPPVZHME                                         PPO1202B
052740     END-EXEC.                                                    PPO1202B
052800                                                                  PPO1202B
052900     EXEC SQL                                                     PPO1202B
053000          INCLUDE SQLCA                                           PPO1202B
053100     END-EXEC.                                                    PPO1202B
053200                                                                  PPO1202B
053300 01  WS-END-FLAG                 PIC X(36) VALUE                  PPO1202B
053400     'PPO1202B WORKING STORAGE ENDS HERE'.                        PPO1202B
053500******************************************************************PPO1202B
053600*          SQL - CURSORS                                         *PPO1202B
053700******************************************************************PPO1202B
053800*    MAIN CURSOR TO SELECT AFFECTED POPULATION FOR PLAN          *PPO1202B
053900*    CODES WITHOUT DOMESTIC PARTNER.                             *PPO1202B
054000******************************************************************PPO1202B
054100     EXEC SQL                                                     PPO1202B
054200       DECLARE EMP_CURSOR CURSOR FOR                              PPO1202B
054300       SELECT EMPLOYEE_ID                                         PPO1202B
054320             ,EMP_NAME                                            PPO1202B
054330             ,EMP_REL_UNIT                                        PPO1202B
054340             ,HOME_DEPT                                           PPO1202B
054400       FROM  PPPVPER1_PER                                         PPO1202B
054500       WHERE EMP_REL_UNIT = :WS-EMP-REL-UNIT                      PPO1202B
054600         AND EMP_REP_CODE = :WS-EMP-REP-CODE                      PPO1202B
054760       ORDER BY EMPLOYEE_ID                                       PPO1202B
054770     END-EXEC.                                                    PPO1202B
054850     EJECT                                                        PPO1202B
054900                                                                  PPO1202B
055000 PROCEDURE DIVISION.                                              PPO1202B
055100     EXEC SQL                                                     PPO1202B
055200          INCLUDE CPPDXE99                                        PPO1202B
055300     END-EXEC.                                                    PPO1202B
055400                                                                  PPO1202B
055500***********************************************************       PPO1202B
055600*                    M A I N L I N E                      *       PPO1202B
055700***********************************************************       PPO1202B
055800                                                                  PPO1202B
055900 0000-MAINLINE.                                                   PPO1202B
056000                                                                  PPO1202B
056100     PERFORM 1000-INITIALIZATION.                                 PPO1202B
056200                                                                  PPO1202B
056300     IF NOT FATAL-ERROR                                           PPO1202B
056500        PERFORM                                                   PPO1202B
056501          VARYING WS-EUC-SELECT-COUNT FROM +1 BY +1               PPO1202B
056502            UNTIL WS-EUC-SELECT-COUNT > WS-MAX-EUC-SELECT         PPO1202B
056503               OR EUC-SELECTED (WS-EUC-SELECT-COUNT) = SPACES     PPO1202B
056504               MOVE EUC-SELECTED (WS-EUC-SELECT-COUNT)            PPO1202B
056505                                              TO WS-EMP-REL-UNIT  PPO1202B
056506               PERFORM 2000-EMP-CURSOR                            PPO1202B
056510        END-PERFORM                                               PPO1202B
056600        PERFORM 5000-PRINT-REPORTS                                PPO1202B
056700        PERFORM 9000-FINALIZATION                                 PPO1202B
056800     END-IF.                                                      PPO1202B
056900                                                                  PPO1202B
057000     IF FATAL-ERROR                                               PPO1202B
057100        MOVE +08 TO RETURN-CODE                                   PPO1202B
057200     END-IF.                                                      PPO1202B
057300     STOP RUN.                                                    PPO1202B
057400                                                                  PPO1202B
057500 0001-EXIT. EXIT.                                                 PPO1202B
057600     EJECT                                                        PPO1202B
058100 1000-INITIALIZATION       SECTION.                               PPO1202B
058110***********************************************************       PPO1202B
058120*                   I N I T I A L I Z E                   *       PPO1202B
058130***********************************************************       PPO1202B
058200                                                                  PPO1202B
058300     OPEN OUTPUT PRINT-FILE.                                      PPO1202B
058400     MOVE WS-PGM-ID TO STND-PROG-ID.                              PPO1202B
058500     MOVE STND-PROG-ID TO DB2MSG-PGM-ID.                          PPO1202B
058600     PERFORM XDC3-GET-CURRENT-DATE.                               PPO1202B
058700     PERFORM XDC3-CONVERT-LILIAN-TO-ISO.                          PPO1202B
058800     PERFORM XDC3-CONVERT-ISO-TO-FMT.                             PPO1202B
058900     MOVE XDC3-FMT-DATE TO STND-RPT-DATE.                         PPO1202B
058910     MOVE XDC3-LOW-ISO-DATE TO WS-LOW-ISO-DATE.                   PPO1202B
058911                                                                  PPO1202B
059100     OPEN INPUT CARDFILE.                                         PPO1202B
059110     MOVE SPACES TO GTN-CONVERSION-TABLE.                         PPO1202B
059200     PERFORM 1100-VALIDATE-SPEC-CARD THRU 1100-EXIT.              PPO1202B
059300     IF FATAL-ERROR GO TO 1000-EXIT.                              PPO1202B
059310     PERFORM 1200-PROCESS-GTN-CARDS THRU 1200-EXIT.               PPO1202B
059311     MOVE WS-GTN-COUNT TO WS-GTN-MAX-COUNT.                       PPO1202B
059320     IF FATAL-ERROR GO TO 1000-EXIT.                              PPO1202B
059400                                                                  PPO1202B
059500***********************************************************       PPO1202B
059600*    OPEN REPORT SORT FILES.                              *       PPO1202B
059700***********************************************************       PPO1202B
059800     OPEN OUTPUT POSRTB1.                                         PPO1202B
060000                                                                  PPO1202B
063700***********************************************************       PPO1202B
063800*    GET SCR DATA                                         *       PPO1202B
063900***********************************************************       PPO1202B
064000     MOVE 'SELECT SCR ROW' TO DB2MSG-TAG.                         PPO1202B
064100     EXEC SQL                                                     PPO1202B
064200       SELECT                                                     PPO1202B
064300          SCR_PROCESS_DATE                                        PPO1202B
064400         ,SCR_PURGE_DATE                                          PPO1202B
064500         ,SCR_CURRENT_DATE                                        PPO1202B
064600         ,SCR_NEXTCYCLE_MO                                        PPO1202B
064700         ,SCR_NEXTCYCLE_QTR                                       PPO1202B
064800         ,SCR_NEXTCYCLE_YR                                        PPO1202B
064900         ,SCR_NEXTCYCLE_FYR                                       PPO1202B
065000         ,SCR_EDB_GENNUM                                          PPO1202B
065100       INTO                                                       PPO1202B
065200         :SCR-PROCESS-DATE                                        PPO1202B
065300        ,:SCR-PURGE-DATE                                          PPO1202B
065400        ,:SCR-CURRENT-DATE                                        PPO1202B
065500        ,:SCR-NEXTCYCLE-MO                                        PPO1202B
065600        ,:SCR-NEXTCYCLE-QTR                                       PPO1202B
065700        ,:SCR-NEXTCYCLE-YR                                        PPO1202B
065800        ,:SCR-NEXTCYCLE-FYR                                       PPO1202B
065900        ,:SCR-EDB-GENNUM                                          PPO1202B
066000       FROM PPPVSCR1_SCR                                          PPO1202B
066100     END-EXEC.                                                    PPO1202B
066200                                                                  PPO1202B
066300     IF SQLCODE NOT = ZERO                                        PPO1202B
066400        SET FATAL-ERROR TO TRUE                                   PPO1202B
066500        MOVE 'ERROR IN SCR ROW SELECT' TO WS-MESSAGE-TEXT         PPO1202B
066600        PERFORM 7000-BUILD-MESSAGE                                PPO1202B
066700        GO TO 1000-EXIT                                           PPO1202B
066800     END-IF.                                                      PPO1202B
068100                                                                  PPO1202B
068200     INITIALIZE XSCR-SYSTEM-CONTROL-RECORD.                       PPO1202B
068300     MOVE '          SCR' TO XSCR-KEY-AREA.                       PPO1202B
068400     MOVE SCR-PROCESS-DATE OF SCR-ROW TO XDC3-ISO-DATE.           PPO1202B
068500     PERFORM XDC3-CONVERT-ISO-TO-STD                              PPO1202B
068600     MOVE XDC3-STD-DATE TO XSCR-PROCESS-DATE.                     PPO1202B
068700     MOVE SCR-NEXTCYCLE-MO OF SCR-ROW TO XSCR-NEXT-MONTH.         PPO1202B
068800     MOVE SCR-NEXTCYCLE-QTR OF SCR-ROW TO XSCR-NEXT-QTR.          PPO1202B
068900     MOVE SCR-NEXTCYCLE-YR OF SCR-ROW TO XSCR-NEXT-YEAR.          PPO1202B
069000     MOVE SCR-NEXTCYCLE-FYR OF SCR-ROW TO XSCR-NEXT-FY.           PPO1202B
069100     MOVE 'OT' TO XSCR-LAST-PGM-RUN.                              PPO1202B
069200     MOVE SCR-EDB-GENNUM OF SCR-ROW TO XSCR-EDB-GEN-NO.           PPO1202B
069300     MOVE SCR-PURGE-DATE OF SCR-ROW TO XDC3-ISO-DATE.             PPO1202B
069400     PERFORM XDC3-CONVERT-ISO-TO-STD.                             PPO1202B
069500     MOVE XDC3-STD-DATE TO XSCR-PURGE-DATE.                       PPO1202B
069600     MOVE SCR-CURRENT-DATE OF SCR-ROW TO XDC3-ISO-DATE.           PPO1202B
069700     PERFORM XDC3-CONVERT-ISO-TO-STD.                             PPO1202B
069800     MOVE XDC3-STD-DATE TO XSCR-CURRENT-DATE.                     PPO1202B
069900                                                                  PPO1202B
070000     MOVE LOW-VALUES TO XCHG-ODO-LENGTHS.                         PPO1202B
070100     MOVE XSCR-SYSTEM-CONTROL-RECORD TO EDB-CHANGE-RECORD.        PPO1202B
070200                                                                  PPO1202B
070300     OPEN OUTPUT EDBCHG.                                          PPO1202B
070410     PERFORM 9100-WRITE-OCHG.                                     PPO1202B
070500                                                                  PPO1202B
070600     MOVE 'SELECT TIMESTAMP'   TO DB2MSG-TAG                      PPO1202B
070700     EXEC SQL                                                     PPO1202B
070800       SELECT CURRENT TIMESTAMP                                   PPO1202B
070900       INTO   :LUW-TIMESTAMP-X26                                  PPO1202B
071000       FROM   PPPVSCR1_SCR                                        PPO1202B
071100     END-EXEC.                                                    PPO1202B
071200                                                                  PPO1202B
071300 1000-EXIT.  EXIT.                                                PPO1202B
071400                                                                  PPO1202B
071500 1100-VALIDATE-SPEC-CARD   SECTION.                               PPO1202B
071600***********************************************************       PPO1202B
071700*    READ AND EDIT THE RUN SPECIFICATION RECORD           *       PPO1202B
071800***********************************************************       PPO1202B
071900     READ CARDFILE                                                PPO1202B
072000          AT END                                                  PPO1202B
072100                SET FATAL-ERROR TO TRUE                           PPO1202B
072200                MOVE 'SPECIFICATION CARD IS MISSING'              PPO1202B
072300                                 TO WS-MESSAGE-TEXT               PPO1202B
072400                PERFORM 7000-BUILD-MESSAGE                        PPO1202B
072500                GO TO 1100-EXIT.                                  PPO1202B
072600                                                                  PPO1202B
072700     MOVE 'SPEC CARD:' TO WS-MESSAGE-TEXT.                        PPO1202B
072800     MOVE SPEC-CARD TO WS-MESSAGE-2.                              PPO1202B
072900     PERFORM 7000-BUILD-MESSAGE.                                  PPO1202B
073000     MOVE SPACES TO WS-MESSAGE-2.                                 PPO1202B
073100                                                                  PPO1202B
073200     IF NOT VALID-SPEC-PGM-ID                                     PPO1202B
073300        SET FATAL-ERROR TO TRUE                                   PPO1202B
073400        MOVE 'INVALID PROGRAM IDENTIFICATION ON SPEC CARD'        PPO1202B
073500                     TO WS-MESSAGE-TEXT                           PPO1202B
073600        PERFORM 7000-BUILD-MESSAGE                                PPO1202B
073700     END-IF.                                                      PPO1202B
073800                                                                  PPO1202B
073900      IF NOT VALID-SPEC-UPDATE                                    PPO1202B
074000         SET FATAL-ERROR TO TRUE                                  PPO1202B
074100         MOVE 'INVALID UPDATE OPTION' TO WS-MESSAGE-TEXT          PPO1202B
074200         PERFORM 7000-BUILD-MESSAGE                               PPO1202B
074300      ELSE                                                        PPO1202B
074400        MOVE SPEC-PGM-UPDATE TO UPDATE-SW                         PPO1202B
074410        IF UPDATE-REQUESTED                                       PPO1202B
074500           MOVE 'THE EDB UPDATE OPTION HAS BEEN SELECTED'         PPO1202B
074600                          TO WS-MESSAGE-TEXT                      PPO1202B
074700           PERFORM 7000-BUILD-MESSAGE                             PPO1202B
074800        ELSE                                                      PPO1202B
074900           MOVE 'THE EDB UPDATE OPTION WAS NOT SELECTED'          PPO1202B
075000                          TO WS-MESSAGE-TEXT                      PPO1202B
075100           PERFORM 7000-BUILD-MESSAGE                             PPO1202B
075200        END-IF                                                    PPO1202B
075300      END-IF.                                                     PPO1202B
075310                                                                  PPO1202B
075312      IF NOT VALID-SPEC-SORT                                      PPO1202B
075313         SET FATAL-ERROR TO TRUE                                  PPO1202B
075314         MOVE 'INVALID SORT OPTION' TO WS-MESSAGE-TEXT            PPO1202B
075315         PERFORM 7000-BUILD-MESSAGE                               PPO1202B
075316      ELSE                                                        PPO1202B
075317        MOVE SPEC-SORT-CODE TO SORT-ORDER-SW                      PPO1202B
075318        IF SORT-BY-NAME                                           PPO1202B
075319           MOVE 'NAME SORT OPTION HAS BEEN SELECTED'              PPO1202B
075320                          TO WS-MESSAGE-TEXT                      PPO1202B
075321           PERFORM 7000-BUILD-MESSAGE                             PPO1202B
075322        ELSE                                                      PPO1202B
075323           MOVE 'EMPLOYEE ID SORT OPTION HAS BEEN SELECTED'       PPO1202B
075324                          TO WS-MESSAGE-TEXT                      PPO1202B
075325           PERFORM 7000-BUILD-MESSAGE                             PPO1202B
075326        END-IF                                                    PPO1202B
075327      END-IF.                                                     PPO1202B
075328                                                                  PPO1202B
075329      IF SPEC-EUC-CODES = SPACES                                  PPO1202B
075330         SET FATAL-ERROR TO TRUE                                  PPO1202B
075340         MOVE 'NO EMP REL CODES REQUESTED' TO WS-MESSAGE-TEXT     PPO1202B
075350         PERFORM 7000-BUILD-MESSAGE                               PPO1202B
075397      ELSE                                                        PPO1202B
075398         MOVE SPEC-EUC-CODES TO EUC-SELECTION-TABLE               PPO1202B
075400      END-IF.                                                     PPO1202B
075410                                                                  PPO1202B
075500 1100-EXIT.                                                       PPO1202B
075600     EXIT.                                                        PPO1202B
075601                                                                  PPO1202B
075610 1200-PROCESS-GTN-CARDS    SECTION.                               PPO1202B
075620***********************************************************       PPO1202B
075630*    PROCESS THE GTN CARDS. THERE MUST BE ONE.            *       PPO1202B
075640***********************************************************       PPO1202B
075650     READ CARDFILE                                                PPO1202B
075660          AT END                                                  PPO1202B
075670                SET FATAL-ERROR TO TRUE                           PPO1202B
075671                SET EOF-GTN-CARDS TO TRUE                         PPO1202B
075680                MOVE 'THERE ARE NO GTN CARDS'                     PPO1202B
075690                                 TO WS-MESSAGE-TEXT               PPO1202B
075691                PERFORM 7000-BUILD-MESSAGE                        PPO1202B
075692                GO TO 1200-EXIT.                                  PPO1202B
075693                                                                  PPO1202B
075694     PERFORM 1300-VALIDATE-GTN-CARD UNTIL EOF-GTN-CARDS.          PPO1202B
075698                                                                  PPO1202B
075699 1200-EXIT.                                                       PPO1202B
075700     EXIT.                                                        PPO1202B
075701                                                                  PPO1202B
075702 1300-VALIDATE-GTN-CARD    SECTION.                               PPO1202B
075703***********************************************************       PPO1202B
075704*    VALIDATE THE GTN CARD. BOTH THE OLD AND NEW GTN      *       PPO1202B
075705*    NUMBER MUST BE NUMERIC.                              *       PPO1202B
075706***********************************************************       PPO1202B
075714                                                                  PPO1202B
075715     MOVE 'GTN CARD:' TO WS-MESSAGE-TEXT.                         PPO1202B
075716     MOVE GTN-CARD TO WS-MESSAGE-2.                               PPO1202B
075717     PERFORM 7000-BUILD-MESSAGE.                                  PPO1202B
075718     MOVE SPACES TO WS-MESSAGE-2.                                 PPO1202B
075719                                                                  PPO1202B
075720     IF NOT (GTN-CARD-OLD-GTN NUMERIC AND                         PPO1202B
075721             GTN-CARD-NEW-GTN NUMERIC)                            PPO1202B
075722        SET FATAL-ERROR TO TRUE                                   PPO1202B
075723        MOVE 'A GTN NUMBER IS NOT NUMERIC' TO WS-MESSAGE-TEXT     PPO1202B
075724        PERFORM 7000-BUILD-MESSAGE                                PPO1202B
075725     ELSE                                                         PPO1202B
075726        ADD +1 TO WS-GTN-COUNT                                    PPO1202B
075727        MOVE GTN-CARD-OLD-GTN TO                                  PPO1202B
075728                            GTN-CONVERSION-OLD-GTN (WS-GTN-COUNT) PPO1202B
075729        MOVE GTN-CARD-NEW-GTN TO                                  PPO1202B
075730                            GTN-CONVERSION-NEW-GTN (WS-GTN-COUNT) PPO1202B
075731     END-IF.                                                      PPO1202B
075732                                                                  PPO1202B
075733     READ CARDFILE                                                PPO1202B
075734          AT END                                                  PPO1202B
075735                SET EOF-GTN-CARDS TO TRUE.                        PPO1202B
075740     EJECT                                                        PPO1202B
075800                                                                  PPO1202B
075900 2000-EMP-CURSOR           SECTION.                               PPO1202B
075910***********************************************************       PPO1202B
075920*    PROCESS THE MAIN EMPLOYEE CURSOR FOR ERC.            *       PPO1202B
075930***********************************************************       PPO1202B
076000                                                                  PPO1202B
076100     SET NOT-EOF-EMP-CURSOR TO TRUE.                              PPO1202B
076110     PERFORM 8300-OPEN-EMP-CURSOR.                                PPO1202B
076200     PERFORM 8310-FETCH-EMP-CURSOR.                               PPO1202B
076300                                                                  PPO1202B
076700     PERFORM 2100-PROCESS-EMP-CURSOR                              PPO1202B
076800             UNTIL EOF-EMP-CURSOR                                 PPO1202B
076900                OR FATAL-ERROR.                                   PPO1202B
077000                                                                  PPO1202B
077100     PERFORM 8320-CLOSE-EMP-CURSOR.                               PPO1202B
077200                                                                  PPO1202B
077300 2000-EXIT. EXIT.                                                 PPO1202B
077400     EJECT                                                        PPO1202B
077500                                                                  PPO1202B
077600 2100-PROCESS-EMP-CURSOR   SECTION.                               PPO1202B
077610                                                                  PPO1202B
077630     IF EMP-NAME = ALL '*'                                        PPO1202B
078700        PERFORM 8310-FETCH-EMP-CURSOR                             PPO1202B
078800        GO TO 2100-EXIT                                           PPO1202B
078900     END-IF.                                                      PPO1202B
080000                                                                  PPO1202B
081200***********************************************************       PPO1202B
081300*    WALK THROUGH GTN TABLE LOOKING FOR OLD GTN NUMBERS   *       PPO1202B
081400*    ON THE DBL TABLE FOR THE EMPLOYEE ID. IF ONE EXISTS  *       PPO1202B
081410*    REPORT IT. IF RUNNING IN UPDATE MODE, DELETE THE     *       PPO1202B
081420*    OLD G-BALANCE, INSERT THE NEW G-BALANCE, AND WRITE   *       PPO1202B
081430*    THE EDB CHANGE FILE.                                 *       PPO1202B
081500***********************************************************       PPO1202B
081600     PERFORM VARYING WS-GTN-COUNT FROM +1 BY +1                   PPO1202B
081700       UNTIL WS-GTN-COUNT > WS-GTN-MAX-COUNT                      PPO1202B
081900         MOVE GTN-CONVERSION-OLD-GTN (WS-GTN-COUNT)               PPO1202B
081910                                      TO WS-OLD-GTN               PPO1202B
081920         MOVE GTN-CONVERSION-NEW-GTN (WS-GTN-COUNT)               PPO1202B
081930                                      TO WS-NEW-GTN               PPO1202B
081940         PERFORM 8600-SELECT-GTN-DATA                             PPO1202B
081950         IF GTN-FOUND                                             PPO1202B
081960            PERFORM 8510-SELECT-NEW-GTN                           PPO1202B
081970            IF WS-COUNT = ZERO                                    PPO1202B
082000               PERFORM 2500-REPORT-REC                            PPO1202B
082001               IF UPDATE-REQUESTED                                PPO1202B
082002                  PERFORM 3000-UPDATE-EDB                         PPO1202B
082006               END-IF                                             PPO1202B
082007            END-IF                                                PPO1202B
082010         END-IF                                                   PPO1202B
082100     END-PERFORM.                                                 PPO1202B
082200                                                                  PPO1202B
082300***********************************************************       PPO1202B
082400*    FETCH THE NEXT MAIN CURSOR ROW.                      *       PPO1202B
082500***********************************************************       PPO1202B
082600     PERFORM 8310-FETCH-EMP-CURSOR.                               PPO1202B
082700                                                                  PPO1202B
082800 2100-EXIT. EXIT.                                                 PPO1202B
083823                                                                  PPO1202B
083824 2500-REPORT-REC           SECTION.                               PPO1202B
083825***********************************************************       PPO1202B
083826*    CREATE SORT RECORD KEY AND DATA, AND WRITE FOR       *       PPO1202B
083827*    LATER SORT FOR REPORT IN ID ORDER.                   *       PPO1202B
083828***********************************************************       PPO1202B
083829                                                                  PPO1202B
083830     INITIALIZE SORT-REPORT-REC.                                  PPO1202B
083831     MOVE EMP-REL-UNIT TO SORT-KEY-EUC.                           PPO1202B
083834     IF SORT-BY-NAME                                              PPO1202B
083835        MOVE EMP-NAME TO SORT-KEY-NAME-ID                         PPO1202B
083836     ELSE                                                         PPO1202B
083837        MOVE WS-EMPLOYEE-ID TO SORT-KEY-NAME-ID                   PPO1202B
083838     END-IF.                                                      PPO1202B
083910     MOVE WS-EMPLOYEE-ID TO SORT-EMPLOYEE-ID.                     PPO1202B
083920     MOVE EMP-NAME TO SORT-EMP-NAME.                              PPO1202B
083921     MOVE HOME-DEPT TO SORT-HOME-DEPT.                            PPO1202B
083922     MOVE EMP-REL-UNIT TO SORT-EMP-EUC.                           PPO1202B
083930     MOVE WS-OLD-GTN TO SORT-OLD-GTN.                             PPO1202B
083940     MOVE WS-NEW-GTN TO SORT-NEW-GTN.                             PPO1202B
083950     MOVE GTN-AMT OF DBL-ROW-DATA TO SORT-GTN-AMT.                PPO1202B
086300     MOVE SORT-REPORT-KEY TO POSRTB1-KEY.                         PPO1202B
086400     MOVE SORT-REPORT-DATA TO POSRTB1-DATA.                       PPO1202B
086500     WRITE POSRTB1-REC.                                           PPO1202B
093000                                                                  PPO1202B
093100 2800-EXIT. EXIT.                                                 PPO1202B
096000                                                                  PPO1202B
110200 3000-UPDATE-EDB    SECTION.                                      PPO1202B
110300***********************************************************       PPO1202B
110400*      UPDATE CHANGE AT/BY FIELDS ON PER ROW.             *       PPO1202B
110401*      DELETE PREVIOUS GTN'S G-BALANCE.                   *       PPO1202B
110410*      INSERT NEW GTN'S G-BALANCE.                        *       PPO1202B
110500***********************************************************       PPO1202B
110501                                                                  PPO1202B
110600                                                                  PPO1202B
110621     IF WS-COUNT = ZERO                                           PPO1202B
110630        PERFORM 8400-DELETE-GTN-DATA                              PPO1202B
110640        PERFORM 8500-INSERT-GTN-DATA                              PPO1202B
110650        ADD +1 TO GTN-CONVERSION-COUNT (WS-GTN-COUNT)             PPO1202B
110660        ADD +1 TO WS-GTN-CHANGED-COUNT                            PPO1202B
110670                                                                  PPO1202B
110680        PERFORM 8200-UPDATE-PER-ROW                               PPO1202B
110690        IF WS-EMPLOYEE-ID NOT = WS-SAVE-EMPLOYEE-ID               PPO1202B
110691           ADD +1 TO WS-EMP-CHANGED-COUNT                         PPO1202B
110692           MOVE WS-EMPLOYEE-ID TO WS-SAVE-EMPLOYEE-ID             PPO1202B
110693        END-IF                                                    PPO1202B
110694                                                                  PPO1202B
110695        PERFORM 4000-CREATE-ECF                                   PPO1202B
110696     END-IF.                                                      PPO1202B
110697                                                                  PPO1202B
110710 4000-CREATE-ECF    SECTION.                                      PPO1202B
110800***********************************************************       PPO1202B
110900*      P R O D U C E     C H A N G E       F I L E        *       PPO1202B
110910***********************************************************       PPO1202B
111000     INITIALIZE                XCHG-FIXED-AREA.                   PPO1202B
111100     MOVE 'PPOT1202' TO XCHG-PROCESS-ID.                          PPO1202B
111200     MOVE XDC3-GREGORIAN-CHAR TO XCHG-TIMESTAMP.                  PPO1202B
111300     MOVE WS-EMPLOYEE-ID TO XCHG-EMPLOYEE-ID.                     PPO1202B
111400                                                                  PPO1202B
111500     MOVE SPACE TO XCHG-OCCURENCE-KEY.                            PPO1202B
111600     MOVE +10               TO XCHG-OLD-VAL-LNGTH,                PPO1202B
111700                               XCHG-NEW-VAL2-LNGTH.               PPO1202B
111800     MOVE GTN-AMT OF DBL-ROW-DATA                                 PPO1202B
111810                            TO WS-NUMBER-EDITED                   PPO1202B
111900     MOVE WS-NUMBER-EDITED  TO XCHG-OLD-VALUE.                    PPO1202B
112000     MOVE ZERO              TO WS-NUMBER-EDITED                   PPO1202B
112100     MOVE WS-NUMBER-EDITED  TO XCHG-NEW-VALUE2.                   PPO1202B
112200     MOVE '6000'            TO XCHG-DATA-ELEM-NO.                 PPO1202B
112300     MOVE WS-OLD-GTN        TO WS-GTN-NUM.                        PPO1202B
112400     MOVE WS-OCC-KEY        TO XCHG-OCCURENCE-KEY.                PPO1202B
112500     PERFORM 9100-WRITE-OCHG.                                     PPO1202B
112600                                                                  PPO1202B
112700     MOVE SPACE TO XCHG-OCCURENCE-KEY.                            PPO1202B
112800     MOVE +10               TO XCHG-OLD-VAL-LNGTH,                PPO1202B
112900                               XCHG-NEW-VAL2-LNGTH.               PPO1202B
113000     MOVE ZERO              TO WS-NUMBER-EDITED                   PPO1202B
113100     MOVE WS-NUMBER-EDITED  TO XCHG-OLD-VALUE.                    PPO1202B
113310     MOVE GTN-AMT OF DBL-ROW-OUT                                  PPO1202B
113320                            TO WS-NUMBER-EDITED                   PPO1202B
113330     MOVE WS-NUMBER-EDITED  TO XCHG-NEW-VALUE2.                   PPO1202B
113400     MOVE '6000'            TO XCHG-DATA-ELEM-NO.                 PPO1202B
113500     MOVE WS-NEW-GTN        TO WS-GTN-NUM.                        PPO1202B
113600     MOVE WS-OCC-KEY        TO XCHG-OCCURENCE-KEY.                PPO1202B
113700     PERFORM 9100-WRITE-OCHG.                                     PPO1202B
113800     EJECT                                                        PPO1202B
113820                                                                  PPO1202B
113830 5000-PRINT-REPORTS        SECTION.                               PPO1202B
113840***********************************************************       PPO1202B
113850*      PRINT REPORTS SELECTED ON THE SPEC CARD            *       PPO1202B
113860***********************************************************       PPO1202B
113870     OPEN OUTPUT PO1202B1-REPORT.                                 PPO1202B
113880                                                                  PPO1202B
113890     CLOSE POSRTB1.                                               PPO1202B
113891     SET NOT-EOF-SORT TO TRUE.                                    PPO1202B
113892     SORT SORT-WORK-FILE                                          PPO1202B
113893          ASCENDING KEY SORT-WORK-KEY                             PPO1202B
113894          USING POSRTB1                                           PPO1202B
113895          OUTPUT PROCEDURE 5100-SORTOUT-PO1202B1.                 PPO1202B
113896                                                                  PPO1202B
113897     PERFORM 5200-REPORT-TOTALS.                                  PPO1202B
113898     CLOSE PO1202B1-REPORT.                                       PPO1202B
113900 5100-SORTOUT-PO1202B1     SECTION.                               PPO1202B
114000***********************************************************       PPO1202B
114100*    PERFORM SORT RETURN AND PRINT UNTIL END OF SORT.     *       PPO1202B
114200***********************************************************       PPO1202B
114300                                                                  PPO1202B
114400     PERFORM 5110-PRINT-PO1202B1 UNTIL EOF-SORT.                  PPO1202B
114500                                                                  PPO1202B
114600 5110-PRINT-PO1202B1       SECTION.                               PPO1202B
114700***********************************************************       PPO1202B
114800*    PRINT PO1202B1 REPORT FROM SORTED POSRTB1 FILE       *       PPO1202B
114900***********************************************************       PPO1202B
114910     RETURN SORT-WORK-FILE INTO SORT-REPORT-REC                   PPO1202B
114920       AT END SET EOF-SORT TO TRUE                                PPO1202B
114930              GO TO 5110-EXIT.                                    PPO1202B
114931                                                                  PPO1202B
114933     MOVE SORT-EMPLOYEE-ID TO RPT1-EMPLOYEE-ID.                   PPO1202B
114934     MOVE SORT-EMP-NAME TO RPT1-EMP-NAME.                         PPO1202B
114935     MOVE SORT-EMP-EUC TO RPT1-EMP-EUC.                           PPO1202B
114936     MOVE SORT-OLD-GTN TO RPT1-OLD-GTN                            PPO1202B
114937     MOVE SORT-NEW-GTN TO RPT1-NEW-GTN                            PPO1202B
114938     COMPUTE WS-GTN-AMT = SORT-GTN-AMT.                           PPO1202B
114939     MOVE WS-GTN-AMT TO RPT1-GTN-AMT.                             PPO1202B
114940     MOVE SORT-HOME-DEPT TO RPT1-HOME-DEPT.                       PPO1202B
114941     PERFORM 8700-SELECT-DEPT-DATA.                               PPO1202B
114943     MOVE HME-DEPT-NAME TO RPT1-HOME-DEPT-NAME.                   PPO1202B
114944     PERFORM 5120-WRITE-REPORT1.                                  PPO1202B
114945                                                                  PPO1202B
114946 5110-EXIT.  EXIT.                                                PPO1202B
114947     EJECT                                                        PPO1202B
114948                                                                  PPO1202B
114949 5120-WRITE-REPORT1        SECTION.                               PPO1202B
114950***********************************************************       PPO1202B
114951*    WRITE DETAIL REPORTS                                 *       PPO1202B
114952***********************************************************       PPO1202B
114953                                                                  PPO1202B
114954     IF (RPT1-LINES-GTN-PAGE > MAX-LINES-GTN-PAGE)                PPO1202B
114955     OR RPT1-EMP-EUC NOT = WS-SAVE-EUC                            PPO1202B
114956         PERFORM 5130-WRITE-RPT1-NEWPAGE                          PPO1202B
114957         MOVE RPT1-EMP-EUC TO WS-SAVE-EUC                         PPO1202B
114958     END-IF.                                                      PPO1202B
114960                                                                  PPO1202B
114961     WRITE PPO1202B1-LINE FROM PO1202B1-DETAIL-LINE1 AFTER 2.     PPO1202B
114962     ADD +2 TO RPT1-LINES-GTN-PAGE.                               PPO1202B
114963                                                                  PPO1202B
114964 5130-WRITE-RPT1-NEWPAGE   SECTION.                               PPO1202B
114965***********************************************************       PPO1202B
114966*    WRITE REPORT NEW PAGE                                *       PPO1202B
114967***********************************************************       PPO1202B
114968                                                                  PPO1202B
114969     MOVE 'O1202B1' TO STND-RPT-ID.                               PPO1202B
114970     ADD +1 TO STND-PAGE-NO.                                      PPO1202B
114971     INSPECT STND-PAGE-NO REPLACING LEADING ZEROS BY SPACE.       PPO1202B
114972     WRITE PPO1202B1-LINE FROM STND-RPT-HD1                       PPO1202B
114973                                        AFTER ADVANCING NEW-PAGE. PPO1202B
114974     WRITE PPO1202B1-LINE FROM STND-RPT-HD2 AFTER 1.              PPO1202B
114975     WRITE PPO1202B1-LINE FROM PO1202B1-HDR1 AFTER 1.             PPO1202B
114976     WRITE PPO1202B1-LINE FROM PO1202B1-HDR2 AFTER 2.             PPO1202B
114977     WRITE PPO1202B1-LINE FROM PO1202B1-HDR3 AFTER 1.             PPO1202B
114978                                                                  PPO1202B
114979     MOVE +6 TO RPT1-LINES-GTN-PAGE.                              PPO1202B
114980                                                                  PPO1202B
114981 5200-REPORT-TOTALS        SECTION.                               PPO1202B
114982***********************************************************       PPO1202B
114983*    REPORT COUNTS OF CHANGES                             *       PPO1202B
114984***********************************************************       PPO1202B
114985                                                                  PPO1202B
114986     PERFORM 5130-WRITE-RPT1-NEWPAGE.                             PPO1202B
114987                                                                  PPO1202B
114988     MOVE WS-EMP-CHANGED-COUNT TO RPT1-RECORD-TOTAL-Z.            PPO1202B
114989     WRITE PPO1202B1-LINE FROM PO1202B1-TOTAL-LINE AFTER 2.       PPO1202B
114990     ADD +2 TO RPT1-LINES-GTN-PAGE.                               PPO1202B
114991                                                                  PPO1202B
114992     PERFORM VARYING WS-GTN-COUNT FROM +1 BY +1                   PPO1202B
114993       UNTIL WS-GTN-COUNT > WS-GTN-MAX-COUNT                      PPO1202B
114994         MOVE GTN-CONVERSION-OLD-GTN (WS-GTN-COUNT)               PPO1202B
114995                               TO WS-GTN-COUNT-OLD-GTN            PPO1202B
114996         MOVE GTN-CONVERSION-NEW-GTN (WS-GTN-COUNT)               PPO1202B
114997                               TO WS-GTN-COUNT-NEW-GTN            PPO1202B
114998         MOVE WS-GTN-COUNT-MESSAGE TO RPT1-RECORD-DESC            PPO1202B
114999         MOVE GTN-CONVERSION-COUNT (WS-GTN-COUNT)                 PPO1202B
115000                               TO RPT1-RECORD-TOTAL-Z             PPO1202B
115001         WRITE PPO1202B1-LINE FROM PO1202B1-TOTAL-LINE AFTER 2    PPO1202B
115002         ADD +2 TO RPT1-LINES-GTN-PAGE                            PPO1202B
115003     END-PERFORM.                                                 PPO1202B
115004                                                                  PPO1202B
115005     MOVE 'TOTAL GTN CONVERSIONS' TO RPT1-RECORD-DESC.            PPO1202B
115006     MOVE WS-GTN-CHANGED-COUNT TO RPT1-RECORD-TOTAL-Z.            PPO1202B
115007     WRITE PPO1202B1-LINE FROM PO1202B1-TOTAL-LINE AFTER 2.       PPO1202B
115008     ADD +2 TO RPT1-LINES-GTN-PAGE.                               PPO1202B
115009                                                                  PPO1202B
115010                                                                  PPO1202B
115020 7000-BUILD-MESSAGE        SECTION.                               PPO1202B
115100***********************************************************       PPO1202B
115200*      PRINT MESSAGES                                     *       PPO1202B
115300***********************************************************       PPO1202B
115400                                                                  PPO1202B
115500     IF   WS-PRINT-LINES-RPT > MAX-LINES-GTN-PAGE                 PPO1202B
115600          PERFORM 7050-BUILD-MESSAGE-HDR                          PPO1202B
115700          MOVE WS-MESSAGE TO PRINT-REC                            PPO1202B
115800          WRITE PRINT-REC AFTER ADVANCING +1                      PPO1202B
115900          ADD +1 TO WS-PRINT-LINES-RPT                            PPO1202B
116000     ELSE                                                         PPO1202B
116100          MOVE WS-MESSAGE TO PRINT-REC                            PPO1202B
116200          WRITE PRINT-REC AFTER ADVANCING +1                      PPO1202B
116300          ADD +1 TO WS-PRINT-LINES-RPT                            PPO1202B
116400     END-IF.                                                      PPO1202B
116401                                                                  PPO1202B
116402     IF FATAL-ERROR                                               PPO1202B
116410        MOVE +9 TO RETURN-CODE                                    PPO1202B
116420     END-IF.                                                      PPO1202B
116500                                                                  PPO1202B
116600 7000-EXIT.  EXIT.                                                PPO1202B
116700                                                                  PPO1202B
116800 7050-BUILD-MESSAGE-HDR    SECTION.                               PPO1202B
116900                                                                  PPO1202B
117000     MOVE 'O1202B2' TO STND-RPT-ID.                               PPO1202B
117100     MOVE '            WARNINGS AND MESSAGES' TO STND-RPT-TTL.    PPO1202B
117200     MOVE SPACES TO STND-RPT-COMMENT                              PPO1202B
117300                    STND-DATE2                                    PPO1202B
117400                    STND-DATE2-TTL.                               PPO1202B
117500     MOVE STND-PAGE-NO TO  WS-SAVE-PAGE-NO.                       PPO1202B
117600     ADD +1 TO WS-ERROR-PAGE-NO.                                  PPO1202B
117700     MOVE WS-ERROR-PAGE-NO TO STND-PAGE-NO.                       PPO1202B
117800     INSPECT STND-PAGE-NO REPLACING LEADING ZEROS BY SPACE.       PPO1202B
117900     MOVE STND-RPT-HD1 TO PRINT-REC.                              PPO1202B
118000     WRITE PRINT-REC AFTER ADVANCING NEW-PAGE.                    PPO1202B
118100     MOVE WS-SAVE-PAGE-NO TO STND-PAGE-NO.                        PPO1202B
118200                                                                  PPO1202B
118300     MOVE STND-RPT-HD2 TO PRINT-REC.                              PPO1202B
118400     WRITE PRINT-REC AFTER ADVANCING +1.                          PPO1202B
118500                                                                  PPO1202B
118600     MOVE STND-RPT-HD3 TO PRINT-REC.                              PPO1202B
118700     WRITE PRINT-REC AFTER ADVANCING +1.                          PPO1202B
118800                                                                  PPO1202B
118900     MOVE SPACES TO PRINT-REC.                                    PPO1202B
119000     WRITE PRINT-REC AFTER ADVANCING +1.                          PPO1202B
119100     MOVE +4 TO WS-PRINT-LINES-RPT.                               PPO1202B
119200                                                                  PPO1202B
119300 7050-EXIT. EXIT.                                                 PPO1202B
119400     EJECT                                                        PPO1202B
123400                                                                  PPO1202B
123450 8200-UPDATE-PER-ROW       SECTION.                               PPO1183A
123460***********************************************************       PPO1183A
123470*    UPDATE CHANGED AT AND CHANGED BY ON EDB              *       PPO1183A
123480***********************************************************       PPO1183A
123490     MOVE 'UPDATE PER ROW'      TO DB2MSG-TAG.                    PPO1183A
123491                                                                  PPO1183A
123492     EXEC SQL                                                     PPO1183A
123493       UPDATE PPPVPER1_PER                                        PPO1183A
123494         SET EMP_CHANGED_AT = :LUW-TIMESTAMP-X26                  PPO1183A
123495            ,EMP_CHANGED_BY = :WS-CHANGED-BY                      PPO1183A
123496         WHERE EMPLOYEE_ID  = :WS-EMPLOYEE-ID                     PPO1183A
123497     END-EXEC.                                                    PPO1183A
123498                                                                  PPO1183A
123499     IF SQLCODE NOT = 0                                           PPO1183A
123500        SET FATAL-ERROR TO TRUE                                   PPO1183A
123510        MOVE 'NON ZERO SQLCODE IN EMP CHANGED UPDATE'             PPO1183A
123520              TO WS-MESSAGE-TEXT                                  PPO1183A
123530        PERFORM 7000-BUILD-MESSAGE                                PPO1183A
123540     END-IF.                                                      PPO1183A
123550     EJECT                                                        PPO1183A
126600                                                                  PPO1202B
126620 8300-OPEN-EMP-CURSOR      SECTION.                               PPO1202B
126621***********************************************************       PPO1202B
126622*    OPEN MAIN EMP_CURSOR                                 *       PPO1202B
126623***********************************************************       PPO1202B
126630                                                                  PPO1202B
126640     MOVE 'OPEN MAIN CURSOR' TO DB2MSG-TAG                        PPO1202B
126650     EXEC SQL                                                     PPO1202B
126660       OPEN EMP_CURSOR                                            PPO1202B
126670     END-EXEC.                                                    PPO1202B
126680                                                                  PPO1202B
126700 8310-FETCH-EMP-CURSOR     SECTION.                               PPO1202B
126710***********************************************************       PPO1202B
126720*    FETCH MAIN EMP_CURSOR                                *       PPO1202B
126730***********************************************************       PPO1202B
126800                                                                  PPO1202B
126900     MOVE 'FETCH MAIN CURSOR' TO DB2MSG-TAG.                      PPO1202B
127000     EXEC SQL                                                     PPO1202B
127100       FETCH EMP_CURSOR                                           PPO1202B
127200       INTO :WS-EMPLOYEE-ID                                       PPO1202B
127220           ,:EMP-NAME                                             PPO1202B
127221           ,:EMP-REL-UNIT                                         PPO1202B
127230           ,:HOME-DEPT                                            PPO1202B
127300     END-EXEC                                                     PPO1202B
127400                                                                  PPO1202B
127500     IF SQLCODE = +100                                            PPO1202B
127600        SET EOF-EMP-CURSOR TO TRUE                                PPO1202B
127700     END-IF.                                                      PPO1202B
127800                                                                  PPO1202B
127900 8320-CLOSE-EMP-CURSOR     SECTION.                               PPO1202B
127910***********************************************************       PPO1202B
127920*    CLOSE MAIN EMP_CURSOR                                *       PPO1202B
127930***********************************************************       PPO1202B
128000                                                                  PPO1202B
128100     MOVE 'CLOSE MAIN CURSOR' TO DB2MSG-TAG                       PPO1202B
128200     EXEC SQL                                                     PPO1202B
128300       CLOSE EMP_CURSOR                                           PPO1202B
128400     END-EXEC.                                                    PPO1202B
128500                                                                  PPO1202B
128600 8400-DELETE-GTN-DATA      SECTION.                               PPO1202B
128700***********************************************************       PPO1202B
128800*      DELETE GTN ROW FOR OLD GTN G BALANCE               *       PPO1202B
128900***********************************************************       PPO1202B
129000                                                                  PPO1202B
129100     MOVE ' DELETE PPPVDBL1 ' TO DB2MSG-TAG.                      PPO1202B
129200     EXEC SQL                                                     PPO1202B
129300       DELETE FROM PPPVDBL1_DBL                                   PPO1202B
129400         WHERE EMPLOYEE_ID = :WS-EMPLOYEE-ID                      PPO1202B
129500           AND GTN_NUMBER  = :WS-OLD-GTN                          PPO1202B
129600           AND GTN_IND     = :WS-G-BALANCE                        PPO1202B
129700     END-EXEC.                                                    PPO1202B
129800                                                                  PPO1202B
129900 8500-INSERT-GTN-DATA      SECTION.                               PPO1202B
130000***********************************************************       PPO1202B
130100*      INSERT GTN ROW FOR NEW GTN G BALANCE               *       PPO1202B
130200***********************************************************       PPO1202B
130300                                                                  PPO1202B
130320     MOVE SORT-EMPLOYEE-ID TO EMPLOYEE-ID OF DBL-ROW-OUT.         PPO1202B
130340     MOVE WS-NEW-GTN TO GTN-NUMBER OF DBL-ROW-OUT.                PPO1202B
130341     MOVE WS-G-BALANCE TO GTN-IND OF DBL-ROW-OUT.                 PPO1202B
130350     MOVE SORT-GTN-AMT TO GTN-AMT OF DBL-ROW-OUT.                 PPO1202B
130400     MOVE ' INSERT PPPVDBL2 ' TO DB2MSG-TAG.                      PPO1202B
130500     EXEC SQL                                                     PPO1202B
130600        INSERT INTO PPPVDBL2_DBL                                  PPO1202B
130700               VALUES (:DBL-ROW-OUT)                              PPO1202B
130800     END-EXEC.                                                    PPO1202B
130810                                                                  PPO1202B
130820 8510-SELECT-NEW-GTN       SECTION.                               PPO1202B
130830***********************************************************       PPO1202B
130840*      CHECK IF NEW GTN ALREADY EXISTS.                   *       PPO1202B
130850***********************************************************       PPO1202B
130860                                                                  PPO1202B
130870     EXEC SQL                                                     PPO1202B
130880       SELECT COUNT (*)                                           PPO1202B
130890         INTO :WS-COUNT                                           PPO1202B
130891         FROM PPPVDBL1_DBL                                        PPO1202B
130892         WHERE EMPLOYEE_ID = :WS-EMPLOYEE-ID                      PPO1202B
130893           AND GTN_NUMBER  = :WS-NEW-GTN                          PPO1202B
130894           AND GTN_IND     = :WS-G-BALANCE                        PPO1202B
130895     END-EXEC.                                                    PPO1202B
130896                                                                  PPO1202B
130900                                                                  PPO1202B
131000 8600-SELECT-GTN-DATA      SECTION.                               PPO1202B
131100***********************************************************       PPO1202B
131200*      SELECT GTN ROW FOR OLD GTN G BALANCE               *       PPO1202B
131300***********************************************************       PPO1202B
131400                                                                  PPO1202B
131500     MOVE ' SELECT PPPVDBL1 ' TO DB2MSG-TAG.                      PPO1202B
132000     EXEC SQL                                                     PPO1202B
132100       SELECT                                                     PPO1202B
132101          EMPLOYEE_ID                                             PPO1202B
132102         ,GTN_NUMBER                                              PPO1202B
132103         ,GTN_IND                                                 PPO1202B
132104         ,GTN_AMT                                                 PPO1202B
132110       INTO                                                       PPO1202B
132111         :DBL-ROW-DATA.EMPLOYEE-ID                                PPO1202B
132112        ,:DBL-ROW-DATA.GTN-NUMBER                                 PPO1202B
132113        ,:DBL-ROW-DATA.GTN-IND                                    PPO1202B
132114        ,:DBL-ROW-DATA.GTN-AMT                                    PPO1202B
132120       FROM PPPVDBL1_DBL                                          PPO1202B
132200       WHERE EMPLOYEE_ID = :WS-EMPLOYEE-ID                        PPO1202B
132300         AND GTN_NUMBER  = :WS-OLD-GTN                            PPO1202B
132400         AND GTN_IND     = :WS-G-BALANCE                          PPO1202B
132500     END-EXEC.                                                    PPO1202B
132600                                                                  PPO1202B
132610     IF SQLCODE = ZERO                                            PPO1202B
132700        SET GTN-FOUND TO TRUE                                     PPO1202B
132800     ELSE                                                         PPO1202B
132900        SET GTN-NOT-FOUND TO TRUE                                 PPO1202B
133000     END-IF.                                                      PPO1202B
137515                                                                  PPO1202B
137520 8700-SELECT-DEPT-DATA     SECTION.                               PPO1202B
137530***********************************************************       PPO1202B
137540*      SELECT HOME DEPARTMENT DESCRIPTION                 *       PPO1202B
137550***********************************************************       PPO1202B
137560                                                                  PPO1202B
137570     MOVE ' SELECT HOME DEPT' TO DB2MSG-TAG.                      PPO1202B
137580     EXEC SQL                                                     PPO1202B
137590       SELECT                                                     PPO1202B
137591          HME_DEPT_NAME                                           PPO1202B
137595       INTO                                                       PPO1202B
137596         :HME-DEPT-NAME                                           PPO1202B
137600       FROM PPPVZHME_HME                                          PPO1202B
137601       WHERE HME_DEPT_NO = :SORT-HOME-DEPT                        PPO1202B
137604     END-EXEC.                                                    PPO1202B
137605                                                                  PPO1202B
137606     IF SQLCODE NOT ZERO                                          PPO1202B
137607        MOVE 'UNKNOWN' TO HME-DEPT-NAME                           PPO1202B
137610     END-IF.                                                      PPO1202B
137611     EJECT                                                        PPO1202B
137620 9000-FINALIZATION         SECTION.                               PPO1202B
137700***********************************************************       PPO1202B
137800*                    F I N A L I Z E                      *       PPO1202B
137900***********************************************************       PPO1202B
138000                                                                  PPO1202B
138100     IF UPDATE-REQUESTED                                          PPO1202B
138200        CLOSE EDBCHG                                              PPO1202B
138300     END-IF.                                                      PPO1202B
138400                                                                  PPO1202B
138500     CLOSE PRINT-FILE.                                            PPO1202B
138600     CLOSE CARDFILE.                                              PPO1202B
138700                                                                  PPO1202B
138710 9100-WRITE-OCHG      SECTION.                                    PPO1202B
138711***********************************************************       PPO1202B
138712*      WRITE A RECORD TO THE EDB CHANGE FILE              *       PPO1202B
138713***********************************************************       PPO1202B
138720                                                                  PPO1202B
138730     WRITE OCHG-EDB-CHANGE-RECORD  FROM EDB-CHANGE-RECORD.        PPO1202B
138740     MOVE SPACE TO XCHG-OCCURENCE-KEY.                            PPO1202B
138750                                                                  PPO1202B
138800 DATE-CONVERSION           SECTION.         COPY CPPDXDC3.        PPO1202B
138900                                                                  PPO1202B
139000*999999-SQL-ERROR.                                                PPO1202B
139100     EXEC SQL                                                     PPO1202B
139200          INCLUDE CPPDXP99                                        PPO1202B
139300     END-EXEC.                                                    PPO1202B
139400     IF NOT HERE-BEFORE                                           PPO1202B
139500         SET HERE-BEFORE TO TRUE                                  PPO1202B
139600         MOVE 'UPDATE ROLLBACK' TO DB2MSG-TAG                     PPO1202B
139700         EXEC SQL                                                 PPO1202B
139800             ROLLBACK WORK                                        PPO1202B
139900         END-EXEC                                                 PPO1202B
140000     END-IF.                                                      PPO1202B
140100     MOVE +9               TO RETURN-CODE.                        PPO1202B
140200     STOP RUN.                                                    PPO1202B
140300********  END OF PROGRAM PPO1202B ********                        PPO1202B
