000000**************************************************************/   48441325
000001*  PROGRAM: PPO1325C                                         */   48441325
000002*  RELEASE: ___1325______ SERVICE REQUEST(S): ____14844____  */   48441325
000003*  NAME:_______QUAN______ CREATION DATE:      ___10/20/00__  */   48441325
000004*  DESCRIPTION:                                              */   48441325
000005*  GENERATE ECF RECORDS FOR HISTORY PROCESSING OF THE NEW    */   48441325
000006*  TABLE PPPHTX.                                             */   48441325
000007**************************************************************/   48441325
001200 IDENTIFICATION DIVISION.                                         PPO1325C
001300 PROGRAM-ID. PPO1325C.                                            PPO1325C
001400 AUTHOR. UCOP                                                     PPO1325C
001500                                                                  PPO1325C
001600*REMARKS.                                                         PPO1325C
001700                                                                  PPO1325C
001800***********************************************************       PPO1325C
001900*   A CURSOR DEFINED ON THE PPPPAY TABLE SELECTS ALL      *       PPO1325C
002000*   EMPLOYEES.                                            *       PPO1325C
003000*                                                         *       PPO1325C
003100***********************************************************       PPO1325C
003200*        E N V I R O N M E N T     D I V I S I O N        *       PPO1325C
003300***********************************************************       PPO1325C
003400                                                                  PPO1325C
003500 ENVIRONMENT DIVISION.                                            PPO1325C
003600 CONFIGURATION SECTION.                                           PPO1325C
003700                                                                  PPO1325C
003800 SPECIAL-NAMES.                                                   PPO1325C
003900     C01 IS NEW-PAGE.                                             PPO1325C
004000                                                                  PPO1325C
004100 INPUT-OUTPUT SECTION.                                            PPO1325C
004200 FILE-CONTROL.                                                    PPO1325C
004300                                                                  PPO1325C
004400***********************************************************       PPO1325C
004500*    REPORT PRINT FILE                                    *       PPO1325C
004600***********************************************************       PPO1325C
004700     SELECT PO1325C1-REPORT ASSIGN TO UT-S-PO1325C1.              PPO1325C
004800                                                                  PPO1325C
004900***********************************************************       PPO1325C
005000*    WARNINGS AND MESSAGES REPORT                         *       PPO1325C
005100***********************************************************       PPO1325C
005150     SELECT PO1325C2-REPORT ASSIGN TO UT-S-PO1325C2.              PPO1325C
005300                                                                  PPO1325C
005400***********************************************************       PPO1325C
005500*    EDB CHANGE FILE                                      *       PPO1325C
005600***********************************************************       PPO1325C
005700     SELECT EDBCHG         ASSIGN TO UT-S-EDBCHG.                 PPO1325C
005800     EJECT                                                        PPO1325C
005900***********************************************************       PPO1325C
006000*                D A T A     D I V I S I O N              *       PPO1325C
006100***********************************************************       PPO1325C
006200                                                                  PPO1325C
006300 DATA DIVISION.                                                   PPO1325C
006400 FILE SECTION.                                                    PPO1325C
006500                                                                  PPO1325C
006600***********************************************************       PPO1325C
006700*    CONTROL TOTALS REPORT                                *       PPO1325C
006800***********************************************************       PPO1325C
006900 FD  PO1325C1-REPORT                                              PPO1325C
007000     LABEL RECORDS ARE OMITTED                                    PPO1325C
007100     BLOCK CONTAINS 0 RECORDS                                     PPO1325C
007200     RECORDING MODE IS F                                          PPO1325C
007300     RECORD CONTAINS 133 CHARACTERS.                              PPO1325C
007400                                                                  PPO1325C
007500 01  PPO1325C1-LINE.                                              PPO1325C
007600     05  FILLER                   PIC X.                          PPO1325C
007700     05  PPO1325C1-DATA           PIC X(132).                     PPO1325C
008710                                                                  PPO1325C
008712***********************************************************       PPO1325C
008713*    MESSAGES AND WARNING REPORT                          *       PPO1325C
008714***********************************************************       PPO1325C
008715 FD  PO1325C2-REPORT                                              PPO1325C
008716     LABEL RECORDS ARE OMITTED                                    PPO1325C
008717     BLOCK CONTAINS 0 RECORDS                                     PPO1325C
008718     RECORDING MODE IS F                                          PPO1325C
008719     RECORD CONTAINS 133 CHARACTERS.                              PPO1325C
008720                                                                  PPO1325C
008721 01  PPO1325C2-LINE.                                              PPO1325C
008722     05  FILLER                   PIC X.                          PPO1325C
008723     05  PPO1325C2-DATA           PIC X(132).                     PPO1325C
008800                                                                  PPO1325C
008900***********************************************************       PPO1325C
009000*    ECF CHANGE FILE                                      *       PPO1325C
009100***********************************************************       PPO1325C
009200 FD  EDBCHG                      COPY  CPFDXCHG                   PPO1325C
009300         REPLACING EDB-CHANGE-RECORD BY OCHG-EDB-CHANGE-RECORD.   PPO1325C
009400 01  OCHG-EDB-CHANGE-RECORD.   COPY CPWSXCHG                      PPO1325C
009500         REPLACING XCHG-FIXED-AREA     BY OCHG-FIXED-AREA         PPO1325C
009600                   XCHG-EMPLOYEE-ID    BY OCHG-EMPLOYEE-ID        PPO1325C
009700                   XCHG-DATA-ELEM-NO   BY OCHG-DATA-ELEM-NO       PPO1325C
009800                   XCHG-OCCURENCE-KEY  BY OCHG-OCCURENCE-KEY      PPO1325C
009900                   XCHG-PROCESS-ID     BY OCHG-PROCESS-ID         PPO1325C
010000                   XCHG-CHANGE-SOURCE  BY OCHG-CHANGE-SOURCE      PPO1325C
010100                   XCHG-TIMESTAMP      BY OCHG-TIMESTAMP          PPO1325C
010200                   XCHG-ODO-LENGTHS    BY OCHG-ODO-LENGTHS        PPO1325C
010300                   XCHG-OLD-VAL-LNGTH  BY OCHG-OLD-VAL-LNGTH      PPO1325C
010400                   XCHG-NEW-VAL1-LNGTH BY OCHG-NEW-VAL1-LNGTH     PPO1325C
010500                   XCHG-NEW-VAL2-LNGTH BY OCHG-NEW-VAL2-LNGTH     PPO1325C
010600                   XCHG-OLD-VALUE      BY OCHG-OLD-VALUE          PPO1325C
010700                   XCHG-OLD-VAL        BY OCHG-OLD-VAL            PPO1325C
010800                   XCHG-NEW-VALUE1     BY OCHG-NEW-VALUE1         PPO1325C
010900                   XCHG-NEW-VAL1       BY OCHG-NEW-VAL1           PPO1325C
011000                   XCHG-NEW-VALUE2     BY OCHG-NEW-VALUE2         PPO1325C
011100                   XCHG-NEW-VAL2       BY OCHG-NEW-VAL2.          PPO1325C
011200     EJECT                                                        PPO1325C
011300 WORKING-STORAGE SECTION.                                         PPO1325C
011400***********************************************************       PPO1325C
011500*    WORKING STORAGE                                      *       PPO1325C
011600***********************************************************       PPO1325C
011700                                                                  PPO1325C
011800***********************************************************       PPO1325C
011900*    MISCELLANEOUS                                        *       PPO1325C
012000***********************************************************       PPO1325C
012100 01  WS-WORK-MISC.                                                PPO1325C
012200     05  WS-PGM-ID                PIC X(15)  VALUE                PPO1325C
012300                                            'PPO1325C/091000'.    PPO1325C
012400     05  WS-CHANGED-BY            PIC X(08)  VALUE 'PPO1325C'.    PPO1325C
012500     05  WS-LINES-ADVANCE         PIC S9(04) VALUE +0.            PPO1325C
012600     05  WS-CHG-EMPLOYEE          PIC X(09)  VALUE SPACES.        PPO1325C
012700     05  WS-EMPLOYEE-ID           PIC X(09)  VALUE SPACES.        PPO1325C
012900     05  WS-GTN-NUMBER            PIC X(03)  VALUE SPACES.        PPO1325C
012910     05  WS-GTN-IND-G             PIC X(01)  VALUE 'G'.           PPO1325C
012911     05  WS-EMP-NAME              PIC X(26)  VALUE SPACES.        PPO1325C
012912     05  WS-ASTERISKS             PIC X(26)  VALUE ALL '*'.       PPO1325C
012913     05  WS-PRM-NUMBER            PIC S9(4)  USAGE COMP.          PPO1325C
012920     05  WS-WORK-TEN-9            PIC S9(07)V99 USAGE COMP-3      PPO1325C
012930                                                VALUE +0.         PPO1325C
012940     05  6010-GTN                 PIC X(03)  VALUE '010'.         PPO1325C
012950     05  6011-GTN                 PIC X(03)  VALUE '011'.         PPO1325C
012970     05  6301-GTN                 PIC X(03)  VALUE '301'.         PPO1325C
014600                                                                  PPO1325C
014700  01  LUW-TIMESTAMP-X26           PIC X(26).                      PPO1325C
015101                                                                  PPO1325C
015102  01  WS-WORK-AMOUNTS.                                            PPO1325C
015110      05  WS-ADDTL-FED-AMOUNT     PIC S9(07)V99 USAGE COMP-3      PPO1325C
015111                                                   VALUE +0.      PPO1325C
015120      05  WS-ADDTL-STE-AMOUNT     PIC S9(07)V99 USAGE COMP-3      PPO1325C
015121                                                   VALUE +0.      PPO1325C
015130      05  WS-ADDTL-FED-NONRES-AMOUNT PIC S9(07)V99 USAGE COMP-3   PPO1325C
015140                                                   VALUE +0.      PPO1325C
015200                                                                  PPO1325C
015300  01  WS-ACCUMULATORS             COMP-3.                         PPO1325C
015400     05  WS-RPT1-RECORD-CT        PIC S9(07) VALUE +0.            PPO1325C
015500     05  WS-RPT2-RECORD-CT        PIC S9(07) VALUE +0.            PPO1325C
015600     05  WS-PRINT-LINES-RPT       PIC S9(06) VALUE +65.           PPO1325C
015700     05  WS-REPORT-LINE-ADVANCE   PIC S9(06) VALUE +0.            PPO1325C
015800     05  RPT1-MAX-LINES-PAGE      PIC S9(04) VALUE +55.           PPO1325C
015900     05  RPT1-LINES-PAGE          PIC S9(04) VALUE +60.           PPO1325C
016000     05  RPT2-MAX-LINES-PAGE      PIC S9(04) VALUE +55.           PPO1325C
016100     05  RPT2-LINES-PAGE          PIC S9(04) VALUE +60.           PPO1325C
016200     05  WS-LINES                 PIC S9(04) VALUE +0.            PPO1325C
016300     05  WS-STND-PAGE-NO-RPT1     PIC 9(4)   VALUE 0.             PPO1325C
016400     05  WS-STND-PAGE-NO-RPT2     PIC 9(4)   VALUE 0.             PPO1325C
016500     05  WS-NBR-PAY-RECORDS-READ  PIC 9(7)   VALUE 0.             PPO1325C
016620     05  WS-NBR-ECF-RECORDS-WRITE PIC 9(7)   VALUE 0.             PPO1325C
016700                                                                  PPO1325C
016800***********************************************************       PPO1325C
016900*    SWITCHES                                             *       PPO1325C
017000***********************************************************       PPO1325C
017100 01  WS-SWITCHES.                                                 PPO1325C
017200     05  WS-MESSAGE-SW           PIC S9(01) VALUE +0.             PPO1325C
017300         88  FATAL-ERROR                    VALUE +1.             PPO1325C
017400     05  HERE-BEFORE-SW          PIC X(01)  VALUE SPACE.          PPO1325C
017500         88 HERE-BEFORE                     VALUE 'Y'.            PPO1325C
017600     05  FIRST-TIME-SW           PIC X(01)  VALUE 'Y'.            PPO1325C
017700         88  FIRST-TIME                     VALUE 'Y'.            PPO1325C
017800         88  NOT-FIRST-TIME                 VALUE 'N'.            PPO1325C
017900     05  PAY-CURSOR-SW           PIC X(01)  VALUE 'N'.            PPO1325C
018000         88  EOF-PAY-CURSOR                 VALUE 'Y'.            PPO1325C
018010     05  CURSOR-PAY-OPEN-SW      PIC X(01)  VALUE 'N'.            PPO1325C
018020         88  CURSOR-PAY-OPEN                VALUE 'Y'.            PPO1325C
019300                                                                  PPO1325C
028100                                                                  PPO1325C
028200     EJECT                                                        PPO1325C
028300***********************************************************       PPO1325C
028400*    REPORT HEADERS AND DETAIL LINES                      *       PPO1325C
028500***********************************************************       PPO1325C
034800 01  PO1325C1-TOTAL-LINES.                                        PPO1325C
034900     05  PO1325C1-TOTAL-LINE1.                                    PPO1325C
034910         07  FILLER                  PIC X(01).                   PPO1325C
035000         07  RPT1-RECORD-DESC-1      PIC X(31) VALUE              PPO1325C
035100              'NUMBER OF PAY RECORDS READ:    '.                  PPO1325C
035200         07  RPT1-PAY-RECORDS-READ   PIC Z,ZZZ,ZZ9.               PPO1325C
035300         07  FILLER                  PIC X(92) VALUE SPACES.      PPO1325C
035400     05  PO1325C1-TOTAL-LINE2.                                    PPO1325C
035500         07  FILLER                  PIC X(01).                   PPO1325C
035600         07  RPT1-RECORD-DESC-2      PIC X(31) VALUE              PPO1325C
035610              'NUMBER OF ECF RECORDS WRITTEN: '.                  PPO1325C
035800         07  RPT1-ECF-RECORDS-WRITTEN PIC Z,ZZZ,ZZ9.              PPO1325C
035900         07  FILLER                  PIC X(92) VALUE SPACES.      PPO1325C
036100                                                                  PPO1325C
045300***********************************************************       PPO1325C
045400*    MESSAGE PRINT LINE                                   *       PPO1325C
045500***********************************************************       PPO1325C
045600 01  WS-MESSAGE.                                                  PPO1325C
045700     05  WS-DET1-CC              PIC X(01) VALUE SPACES.          PPO1325C
045800     05  WS-MESSAGE-1.                                            PPO1325C
045900         10  WS-MESSAGE-TEXT     PIC X(43)  VALUE SPACES.         PPO1325C
046000     05  WS-MESSAGE-2            PIC X(89)  VALUE SPACES.         PPO1325C
046100     05  FILLER                  PIC X(93) VALUE SPACES.          PPO1325C
046200*                                                                 PPO1325C
046300     EJECT                                                        PPO1325C
046400***********************************************************       PPO1325C
046500*        S T A N D A R D    C O P Y   M E M B E R S       *       PPO1325C
046600***********************************************************       PPO1325C
046700                                                                  PPO1325C
046800 01  XWHC-COMPILE-WORK-AREA.                COPY CPWSXWHC.        PPO1325C
046900                                                                  PPO1325C
047000     EJECT                                                        PPO1325C
047100 01  INSTALLATION-DEPENDT-CONSTATNS.        COPY CPWSXIDC.        PPO1325C
047110                                                                  PPO1325C
047200     EJECT                                                        PPO1325C
047300 01  DATE-FORMAT.                           COPY CPWSDATE.        PPO1325C
047400 01  DATE-CONVERSION-WORK-AREAS.            COPY CPWSXDC3.        PPO1325C
047410                                                                  PPO1325C
047500     EJECT                                                        PPO1325C
047600 01  XSCR-SYSTEM-CONTROL-RECORD.            COPY CPWSXSCR.        PPO1325C
047610                                                                  PPO1325C
047700     EJECT                                                        PPO1325C
047800 01  EDB-CHANGE-RECORD.                     COPY CPWSXCHG.        PPO1325C
047810                                                                  PPO1325C
047820 01  TEMP-DATA-AREA.                        COPY CPWSXMMM.        PPO1325C
047830                                                                  PPO1325C
047900     EJECT                                                        PPO1325C
048000 01  STND-RPT-HD.                           COPY CPWSPSHR.        PPO1325C
048610                                                                  PPO1325C
048700 01  PPDB2MSG-INTERFACE.                    COPY CPLNKDB2.        PPO1325C
048800     EJECT                                                        PPO1325C
048900***********************************************************       PPO1325C
049000*    SQL WORKING STORAGE                                  *       PPO1325C
049100***********************************************************       PPO1325C
049200 01  SCR-ROW.                                                     PPO1325C
049300     EXEC SQL                                                     PPO1325C
049400          INCLUDE PPPVSCR1                                        PPO1325C
049500     END-EXEC.                                                    PPO1325C
049501                                                                  PPO1325C
049510 01  PER-ROW.                                                     PPO1325C
049520     EXEC SQL                                                     PPO1325C
049530          INCLUDE PPPVPER1                                        PPO1325C
049540     END-EXEC.                                                    PPO1325C
049600                                                                  PPO1325C
049700 01  PAY-ROW.                                                     PPO1325C
049800     EXEC SQL                                                     PPO1325C
049900          INCLUDE PPPVPAY1                                        PPO1325C
050000     END-EXEC.                                                    PPO1325C
050710                                                                  PPO1325C
050720 01  DBL-ROW.                                                     PPO1325C
050730     EXEC SQL                                                     PPO1325C
050740          INCLUDE PPPVZDBL                                        PPO1325C
050750     END-EXEC.                                                    PPO1325C
050751                                                                  PPO1325C
050760 01  PRM-ROW.                                                     PPO1325C
050770     EXEC SQL                                                     PPO1325C
050780       INCLUDE PPPVZPRM                                           PPO1325C
050790     END-EXEC.                                                    PPO1325C
051100                                                                  PPO1325C
051200 01  WS-END-FLAG                 PIC X(36) VALUE                  PPO1325C
051300     'PPO1325C WORKING STORAGE ENDS HERE'.                        PPO1325C
051440*                                                                 PPO1325C
051450     EXEC SQL                                                     PPO1325C
051460         INCLUDE SQLCA                                            PPO1325C
051470     END-EXEC.                                                    PPO1325C
051500     EJECT                                                        PPO1325C
051600******************************************************************PPO1325C
051700*          SQL - CURSORS                                         *PPO1325C
051800******************************************************************PPO1325C
051900                                                                  PPO1325C
052000*----------------------------------------------------------------*PPO1325C
052100*    MAIN CURSOR FOR PAYROLL TABLE.                              *PPO1325C
052200*----------------------------------------------------------------*PPO1325C
052300     EXEC SQL                                                     PPO1325C
052400       DECLARE PAY_CURSOR CURSOR                                  PPO1325C
052500       FOR SELECT                                                 PPO1325C
052600           PPPVPAY1_PAY.EMPLOYEE_ID                               PPO1325C
052610          ,PPPVPAY1_PAY.FEDTAX_MARITAL                            PPO1325C
052700          ,PPPVPAY1_PAY.FEDTAX_EXEMPT                             PPO1325C
052800          ,PPPVPAY1_PAY.MAXFED_EXEMPT                             PPO1325C
052900          ,PPPVPAY1_PAY.STATE_TAX_MARITAL                         PPO1325C
053000          ,PPPVPAY1_PAY.STATE_TAX_PERDED                          PPO1325C
053100          ,PPPVPAY1_PAY.STATE_TAX_ITMDED                          PPO1325C
053200          ,PPPVPAY1_PAY.STATE_TAX_MAXEXMPT                        PPO1325C
054900      FROM PPPVPAY1_PAY                                           PPO1325C
056600      ORDER BY EMPLOYEE_ID                                        PPO1325C
056700                                                                  PPO1325C
056800     END-EXEC.                                                    PPO1325C
060100     EJECT                                                        PPO1325C
060200                                                                  PPO1325C
060300 PROCEDURE DIVISION.                                              PPO1325C
060400     EXEC SQL                                                     PPO1325C
060500          INCLUDE CPPDXE99                                        PPO1325C
060600     END-EXEC.                                                    PPO1325C
060700                                                                  PPO1325C
060800     EJECT                                                        PPO1325C
060900***********************************************************       PPO1325C
061000*                    M A I N L I N E                      *       PPO1325C
061100***********************************************************       PPO1325C
061200                                                                  PPO1325C
061300*----------------------------------------------------------------*PPO1325C
061400 0000-MAINLINE.                                                   PPO1325C
061500*----------------------------------------------------------------*PPO1325C
061600                                                                  PPO1325C
061700     PERFORM 0100-INITIALIZATION.                                 PPO1325C
061800                                                                  PPO1325C
061900     IF NOT FATAL-ERROR                                           PPO1325C
062000        PERFORM 3000-PROCESS-SELECTED-RECS                        PPO1325C
062100        PERFORM 9000-FINALIZATION                                 PPO1325C
062200     ELSE                                                         PPO1325C
062300        MOVE +09 TO RETURN-CODE                                   PPO1325C
062400     END-IF.                                                      PPO1325C
062500                                                                  PPO1325C
062600                                                                  PPO1325C
062700     STOP RUN.                                                    PPO1325C
062800                                                                  PPO1325C
062900 0001-EXIT. EXIT.                                                 PPO1325C
063000     EJECT                                                        PPO1325C
063100***********************************************************       PPO1325C
063200*                   I N I T I A L I Z E                   *       PPO1325C
063300***********************************************************       PPO1325C
063400                                                                  PPO1325C
063500*----------------------------------------------------------------*PPO1325C
063600 0100-INITIALIZATION       SECTION.                               PPO1325C
063700*----------------------------------------------------------------*PPO1325C
063800                                                                  PPO1325C
063900     PERFORM 8500-OPEN-PAY-CURSOR.                                PPO1325C
064000                                                                  PPO1325C
064100     OPEN OUTPUT PO1325C1-REPORT.                                 PPO1325C
064110     OPEN OUTPUT PO1325C2-REPORT.                                 PPO1325C
064200                                                                  PPO1325C
064300                                                                  PPO1325C
064400     MOVE WS-PGM-ID TO STND-PROG-ID.                              PPO1325C
064500     MOVE STND-PROG-ID TO DB2MSG-PGM-ID.                          PPO1325C
064600     MOVE STND-PROG-ID   TO XWHC-DISPLAY-MODULE.                  PPO1325C
064700                                                                  PPO1325C
064800*                                               *-------------*   PPO1325C
064900                                                 COPY CPPDXWHC.   PPO1325C
065000*                                               *-------------*   PPO1325C
065100                                                                  PPO1325C
065200     PERFORM XDC3-GET-CURRENT-DATE.                               PPO1325C
065600     MOVE XDC3-FMT-DATE TO STND-RPT-DATE.                         PPO1325C
065601                                                                  PPO1325C
065610     PERFORM 7050-WRITE-PO1325C2-HEADING.                         PPO1325C
065700                                                                  PPO1325C
065800     IF FATAL-ERROR                                               PPO1325C
065900          GO TO 0100-EXIT                                         PPO1325C
066000     END-IF.                                                      PPO1325C
066100                                                                  PPO1325C
066200                                                                  PPO1325C
066300***********************************************************       PPO1325C
066400*    GET SCR DATA                                         *       PPO1325C
066500***********************************************************       PPO1325C
066600     MOVE 'SELECT SCR ROW' TO DB2MSG-TAG.                         PPO1325C
066700     EXEC SQL                                                     PPO1325C
066800       SELECT                                                     PPO1325C
066900          SCR_PROCESS_DATE                                        PPO1325C
067000         ,SCR_PURGE_DATE                                          PPO1325C
067100         ,SCR_CURRENT_DATE                                        PPO1325C
067200         ,SCR_NEXTCYCLE_MO                                        PPO1325C
067300         ,SCR_NEXTCYCLE_QTR                                       PPO1325C
067400         ,SCR_NEXTCYCLE_YR                                        PPO1325C
067500         ,SCR_NEXTCYCLE_FYR                                       PPO1325C
067600         ,SCR_EDB_GENNUM                                          PPO1325C
067700       INTO                                                       PPO1325C
067800         :SCR-PROCESS-DATE                                        PPO1325C
067900        ,:SCR-PURGE-DATE                                          PPO1325C
068000        ,:SCR-CURRENT-DATE                                        PPO1325C
068100        ,:SCR-NEXTCYCLE-MO                                        PPO1325C
068200        ,:SCR-NEXTCYCLE-QTR                                       PPO1325C
068300        ,:SCR-NEXTCYCLE-YR                                        PPO1325C
068400        ,:SCR-NEXTCYCLE-FYR                                       PPO1325C
068500        ,:SCR-EDB-GENNUM                                          PPO1325C
068600       FROM PPPVSCR1_SCR                                          PPO1325C
068700     END-EXEC.                                                    PPO1325C
068800                                                                  PPO1325C
068900     IF SQLCODE NOT = ZERO                                        PPO1325C
069000        SET FATAL-ERROR TO TRUE                                   PPO1325C
069100        MOVE 'ERROR IN SCR ROW SELECT' TO WS-MESSAGE-TEXT         PPO1325C
069200        PERFORM 7000-BUILD-MESSAGE                                PPO1325C
069300        GO TO 0100-EXIT                                           PPO1325C
069400     END-IF.                                                      PPO1325C
069500                                                                  PPO1325C
069600     INITIALIZE XSCR-SYSTEM-CONTROL-RECORD.                       PPO1325C
069700     MOVE '          SCR' TO XSCR-KEY-AREA.                       PPO1325C
069800     MOVE SCR-PROCESS-DATE OF SCR-ROW TO XDC3-ISO-DATE.           PPO1325C
069900     PERFORM XDC3-CONVERT-ISO-TO-STD                              PPO1325C
070000     MOVE XDC3-STD-DATE TO XSCR-PROCESS-DATE.                     PPO1325C
070100     MOVE SCR-NEXTCYCLE-MO OF SCR-ROW TO XSCR-NEXT-MONTH.         PPO1325C
070200     MOVE SCR-NEXTCYCLE-QTR OF SCR-ROW TO XSCR-NEXT-QTR.          PPO1325C
070300     MOVE SCR-NEXTCYCLE-YR OF SCR-ROW TO XSCR-NEXT-YEAR.          PPO1325C
070400     MOVE SCR-NEXTCYCLE-FYR OF SCR-ROW TO XSCR-NEXT-FY.           PPO1325C
070500     MOVE 'OT' TO XSCR-LAST-PGM-RUN.                              PPO1325C
070600     MOVE SCR-EDB-GENNUM OF SCR-ROW TO XSCR-EDB-GEN-NO.           PPO1325C
070700     MOVE SCR-PURGE-DATE OF SCR-ROW TO XDC3-ISO-DATE.             PPO1325C
070800     PERFORM XDC3-CONVERT-ISO-TO-STD.                             PPO1325C
070900     MOVE XDC3-STD-DATE TO XSCR-PURGE-DATE.                       PPO1325C
071000     MOVE SCR-CURRENT-DATE OF SCR-ROW TO XDC3-ISO-DATE.           PPO1325C
071100     PERFORM XDC3-CONVERT-ISO-TO-STD.                             PPO1325C
071200     MOVE XDC3-STD-DATE TO XSCR-CURRENT-DATE.                     PPO1325C
071300                                                                  PPO1325C
071400     MOVE LOW-VALUES TO XCHG-ODO-LENGTHS.                         PPO1325C
071500     MOVE XSCR-SYSTEM-CONTROL-RECORD TO EDB-CHANGE-RECORD.        PPO1325C
071600                                                                  PPO1325C
071700     OPEN OUTPUT EDBCHG.                                          PPO1325C
071800     WRITE OCHG-EDB-CHANGE-RECORD FROM EDB-CHANGE-RECORD.         PPO1325C
071900                                                                  PPO1325C
072000     MOVE 'SELECT TIMESTAMP'   TO DB2MSG-TAG                      PPO1325C
072100     EXEC SQL                                                     PPO1325C
072200       SELECT CURRENT TIMESTAMP                                   PPO1325C
072300       INTO   :LUW-TIMESTAMP-X26                                  PPO1325C
072400       FROM   PPPVSCR1_SCR                                        PPO1325C
072500     END-EXEC.                                                    PPO1325C
072600                                                                  PPO1325C
072700 0100-EXIT.  EXIT.                                                PPO1325C
074300                                                                  PPO1325C
074400     EJECT                                                        PPO1325C
074500*----------------------------------------------------------------*PPO1325C
074600 2800-CREATE-ECF-PAY       SECTION.                               PPO1325C
074700*----------------------------------------------------------------*PPO1325C
074800***********************************************************       PPO1325C
074900*    PRODUCE ECF CHANGE FILE RECORDS                      *       PPO1325C
075100***********************************************************       PPO1325C
075110*---->                                                            PPO1325C
075120*----> Note that no ECF records are written for                   PPO1325C
075130*----> data elements 0338, 0339, AND 0340.                        PPO1325C
075200     INITIALIZE XCHG-FIXED-AREA.                                  PPO1325C
075300     MOVE 'PPO1325C'                   TO XCHG-PROCESS-ID.        PPO1325C
075400     MOVE XDC3-GREGORIAN-CHAR          TO XCHG-TIMESTAMP.         PPO1325C
075401     MOVE WS-EMPLOYEE-ID               TO XCHG-EMPLOYEE-ID.       PPO1325C
075410                                                                  PPO1325C
075910     MOVE '0127'                       TO XCHG-DATA-ELEM-NO.      PPO1325C
076000     MOVE SPACES                       TO XCHG-OCCURENCE-KEY.     PPO1325C
076100     MOVE +10                          TO XCHG-OLD-VAL-LNGTH      PPO1325C
076200                                          XCHG-NEW-VAL1-LNGTH     PPO1325C
076300                                          XCHG-NEW-VAL2-LNGTH.    PPO1325C
076400     MOVE SPACE                        TO XCHG-OLD-VALUE.         PPO1325C
076401     MOVE FEDTAX-MARITAL               TO XCHG-NEW-VALUE1         PPO1325C
076402                                          XCHG-NEW-VALUE2.        PPO1325C
076410     WRITE OCHG-EDB-CHANGE-RECORD FROM EDB-CHANGE-RECORD.         PPO1325C
076411     ADD 1 TO WS-NBR-ECF-RECORDS-WRITE.                           PPO1325C
076420                                                                  PPO1325C
076421     IF FEDTAX-EXEMPT NOT = ZERO                                  PPO1325C
076430        MOVE '0128'                       TO XCHG-DATA-ELEM-NO    PPO1325C
076440        MOVE SPACES                       TO XCHG-OCCURENCE-KEY   PPO1325C
076450        MOVE +10                          TO XCHG-OLD-VAL-LNGTH   PPO1325C
076460                                             XCHG-NEW-VAL1-LNGTH  PPO1325C
076470                                             XCHG-NEW-VAL2-LNGTH  PPO1325C
076471        MOVE ZERO                         TO TEMP-NUMBER          PPO1325C
076472        MOVE TEMP-DATA-VALUE              TO XCHG-OLD-VALUE       PPO1325C
076480        MOVE FEDTAX-EXEMPT                TO TEMP-NUMBER          PPO1325C
076490        MOVE TEMP-DATA-VALUE              TO XCHG-NEW-VALUE1      PPO1325C
076491                                             XCHG-NEW-VALUE2      PPO1325C
076492        WRITE OCHG-EDB-CHANGE-RECORD FROM EDB-CHANGE-RECORD       PPO1325C
076493        ADD 1 TO WS-NBR-ECF-RECORDS-WRITE                         PPO1325C
076494     END-IF.                                                      PPO1325C
076495                                                                  PPO1325C
076496     MOVE '0130'                       TO XCHG-DATA-ELEM-NO.      PPO1325C
076497     MOVE SPACES                       TO XCHG-OCCURENCE-KEY.     PPO1325C
076498     MOVE +10                          TO XCHG-OLD-VAL-LNGTH      PPO1325C
076499                                          XCHG-NEW-VAL1-LNGTH     PPO1325C
076500                                          XCHG-NEW-VAL2-LNGTH.    PPO1325C
076501     MOVE SPACE                        TO XCHG-OLD-VALUE.         PPO1325C
076502     MOVE STATE-TAX-MARITAL            TO XCHG-NEW-VALUE1         PPO1325C
076510                                          XCHG-NEW-VALUE2.        PPO1325C
076520     WRITE OCHG-EDB-CHANGE-RECORD FROM EDB-CHANGE-RECORD.         PPO1325C
076521     ADD 1 TO WS-NBR-ECF-RECORDS-WRITE.                           PPO1325C
076530                                                                  PPO1325C
076531     IF STATE-TAX-PERDED NOT = ZERO                               PPO1325C
076540        MOVE '0131'                       TO XCHG-DATA-ELEM-NO    PPO1325C
076550        MOVE SPACES                       TO XCHG-OCCURENCE-KEY   PPO1325C
076560        MOVE +10                          TO XCHG-OLD-VAL-LNGTH   PPO1325C
076570                                             XCHG-NEW-VAL1-LNGTH  PPO1325C
076580                                             XCHG-NEW-VAL2-LNGTH  PPO1325C
076581        MOVE ZERO                         TO TEMP-NUMBER          PPO1325C
076582        MOVE TEMP-DATA-VALUE              TO XCHG-OLD-VALUE       PPO1325C
076590        MOVE STATE-TAX-PERDED             TO TEMP-NUMBER          PPO1325C
076592        MOVE TEMP-DATA-VALUE              TO XCHG-NEW-VALUE1      PPO1325C
076593                                             XCHG-NEW-VALUE2      PPO1325C
076594        WRITE OCHG-EDB-CHANGE-RECORD FROM EDB-CHANGE-RECORD       PPO1325C
076595        ADD 1 TO WS-NBR-ECF-RECORDS-WRITE                         PPO1325C
076596     END-IF.                                                      PPO1325C
076597                                                                  PPO1325C
076598     IF STATE-TAX-ITMDED NOT = ZERO                               PPO1325C
076599        MOVE '0132'                       TO XCHG-DATA-ELEM-NO    PPO1325C
076600        MOVE SPACES                       TO XCHG-OCCURENCE-KEY   PPO1325C
076601        MOVE +10                          TO XCHG-OLD-VAL-LNGTH   PPO1325C
076602                                             XCHG-NEW-VAL1-LNGTH  PPO1325C
076603                                             XCHG-NEW-VAL2-LNGTH  PPO1325C
076604        MOVE ZERO                         TO TEMP-NUMBER          PPO1325C
076605        MOVE TEMP-DATA-VALUE              TO XCHG-OLD-VALUE       PPO1325C
076606        MOVE STATE-TAX-ITMDED             TO TEMP-NUMBER          PPO1325C
076608        MOVE TEMP-DATA-VALUE              to XCHG-NEW-VALUE1      PPO1325C
076620                                             XCHG-NEW-VALUE2      PPO1325C
076630        WRITE OCHG-EDB-CHANGE-RECORD FROM EDB-CHANGE-RECORD       PPO1325C
076631        ADD 1 TO WS-NBR-ECF-RECORDS-WRITE                         PPO1325C
076632     END-IF.                                                      PPO1325C
076640                                                                  PPO1325C
076641     IF MAXFED-EXEMPT NOT = ZERO                                  PPO1325C
076650        MOVE '0320'                       TO XCHG-DATA-ELEM-NO    PPO1325C
076660        MOVE SPACES                       TO XCHG-OCCURENCE-KEY   PPO1325C
076670        MOVE +10                          TO XCHG-OLD-VAL-LNGTH   PPO1325C
076680                                             XCHG-NEW-VAL1-LNGTH  PPO1325C
076690                                             XCHG-NEW-VAL2-LNGTH  PPO1325C
076691        MOVE ZERO                         TO TEMP-NUMBER          PPO1325C
076692        MOVE TEMP-DATA-VALUE              TO XCHG-OLD-VALUE       PPO1325C
076693        MOVE MAXFED-EXEMPT                TO TEMP-NUMBER          PPO1325C
076695        MOVE TEMP-DATA-VALUE              TO XCHG-NEW-VALUE1      PPO1325C
076696                                             XCHG-NEW-VALUE2      PPO1325C
076697        WRITE OCHG-EDB-CHANGE-RECORD FROM EDB-CHANGE-RECORD       PPO1325C
076698        ADD 1 TO WS-NBR-ECF-RECORDS-WRITE                         PPO1325C
076699     END-IF.                                                      PPO1325C
076700                                                                  PPO1325C
076701     IF STATE-TAX-MAXEXMPT NOT = ZERO                             PPO1325C
076702        MOVE '0321'                       TO XCHG-DATA-ELEM-NO    PPO1325C
076703        MOVE SPACES                       TO XCHG-OCCURENCE-KEY   PPO1325C
076704        MOVE +10                          TO XCHG-OLD-VAL-LNGTH   PPO1325C
076705                                             XCHG-NEW-VAL1-LNGTH  PPO1325C
076706                                             XCHG-NEW-VAL2-LNGTH  PPO1325C
076707        MOVE ZERO                         TO TEMP-NUMBER          PPO1325C
076708        MOVE TEMP-DATA-VALUE              TO XCHG-OLD-VALUE       PPO1325C
076710        MOVE STATE-TAX-MAXEXMPT           TO TEMP-NUMBER          PPO1325C
076720        MOVE TEMP-DATA-VALUE              TO XCHG-NEW-VALUE1      PPO1325C
076730                                             XCHG-NEW-VALUE2      PPO1325C
076740        WRITE OCHG-EDB-CHANGE-RECORD FROM EDB-CHANGE-RECORD       PPO1325C
076741        ADD 1 TO WS-NBR-ECF-RECORDS-WRITE                         PPO1325C
076742     END-IF.                                                      PPO1325C
076777                                                                  PPO1325C
076778     IF WS-ADDTL-FED-AMOUNT NOT = ZERO                            PPO1325C
076779        MOVE '6000'                       TO XCHG-DATA-ELEM-NO    PPO1325C
076780        MOVE '010'                        TO WS-GTN-NUMBER        PPO1325C
076781        MOVE SPACES                       TO XCHG-OCCURENCE-KEY   PPO1325C
076782        STRING                                                    PPO1325C
076783            WS-GTN-NUMBER                                         PPO1325C
076784            WS-GTN-IND-G    DELIMITED BY SIZE                     PPO1325C
076785        INTO                                                      PPO1325C
076786             XCHG-OCCURENCE-KEY                                   PPO1325C
076787        MOVE +10                          TO XCHG-OLD-VAL-LNGTH   PPO1325C
076790                                             XCHG-NEW-VAL1-LNGTH  PPO1325C
076791                                             XCHG-NEW-VAL2-LNGTH  PPO1325C
076792        MOVE ZERO                         TO TEMP-NUMBER          PPO1325C
076793        MOVE TEMP-DATA-VALUE              TO XCHG-OLD-VALUE       PPO1325C
076794        MOVE WS-ADDTL-FED-AMOUNT          TO TEMP-NUMBER          PPO1325C
076796        MOVE TEMP-DATA-VALUE              TO XCHG-NEW-VALUE1      PPO1325C
076797                                             XCHG-NEW-VALUE2      PPO1325C
076798        WRITE OCHG-EDB-CHANGE-RECORD FROM EDB-CHANGE-RECORD       PPO1325C
076799        ADD 1 TO WS-NBR-ECF-RECORDS-WRITE                         PPO1325C
076800     END-IF.                                                      PPO1325C
076801                                                                  PPO1325C
076802     IF WS-ADDTL-STE-AMOUNT NOT = ZERO                            PPO1325C
076803        MOVE '6000'                       TO XCHG-DATA-ELEM-NO    PPO1325C
076804        MOVE '011'                        TO WS-GTN-NUMBER        PPO1325C
076805        MOVE SPACES                       TO XCHG-OCCURENCE-KEY   PPO1325C
076806        STRING                                                    PPO1325C
076810             WS-GTN-NUMBER                                        PPO1325C
076820             WS-GTN-IND-G    DELIMITED BY SIZE                    PPO1325C
076830        INTO                                                      PPO1325C
076840             XCHG-OCCURENCE-KEY                                   PPO1325C
076850        MOVE +10                          TO XCHG-OLD-VAL-LNGTH   PPO1325C
076860                                             XCHG-NEW-VAL1-LNGTH  PPO1325C
076870                                             XCHG-NEW-VAL2-LNGTH  PPO1325C
076871        MOVE ZERO                         TO TEMP-NUMBER          PPO1325C
076872        MOVE TEMP-DATA-VALUE              TO XCHG-OLD-VALUE       PPO1325C
076880        MOVE WS-ADDTL-STE-AMOUNT          TO TEMP-NUMBER          PPO1325C
076890        MOVE TEMP-DATA-VALUE              TO XCHG-NEW-VALUE1      PPO1325C
076891                                             XCHG-NEW-VALUE2      PPO1325C
076892        WRITE OCHG-EDB-CHANGE-RECORD FROM EDB-CHANGE-RECORD       PPO1325C
076893        ADD 1 TO WS-NBR-ECF-RECORDS-WRITE                         PPO1325C
076894     END-IF.                                                      PPO1325C
076895                                                                  PPO1325C
076896     IF WS-ADDTL-FED-NONRES-AMOUNT NOT = ZERO                     PPO1325C
076897        MOVE '6000'                       TO XCHG-DATA-ELEM-NO    PPO1325C
076898        MOVE '301'                        TO WS-GTN-NUMBER        PPO1325C
076899        MOVE SPACES                       TO XCHG-OCCURENCE-KEY   PPO1325C
076900        STRING                                                    PPO1325C
076901             WS-GTN-NUMBER                                        PPO1325C
076902             WS-GTN-IND-G    DELIMITED BY SIZE                    PPO1325C
076903        INTO                                                      PPO1325C
076910             XCHG-OCCURENCE-KEY                                   PPO1325C
076920        MOVE +10                          TO XCHG-OLD-VAL-LNGTH   PPO1325C
076930                                             XCHG-NEW-VAL1-LNGTH  PPO1325C
076940                                             XCHG-NEW-VAL2-LNGTH  PPO1325C
076941        MOVE ZERO                         TO TEMP-NUMBER          PPO1325C
076942        MOVE TEMP-DATA-VALUE              TO XCHG-OLD-VALUE       PPO1325C
076950        MOVE WS-ADDTL-FED-NONRES-AMOUNT   TO TEMP-NUMBER          PPO1325C
076960        MOVE TEMP-DATA-VALUE              TO XCHG-NEW-VALUE1      PPO1325C
076970                                             XCHG-NEW-VALUE2      PPO1325C
076980        WRITE OCHG-EDB-CHANGE-RECORD FROM EDB-CHANGE-RECORD       PPO1325C
076990        ADD 1 TO WS-NBR-ECF-RECORDS-WRITE                         PPO1325C
076991     END-IF.                                                      PPO1325C
077000                                                                  PPO1325C
099800     EJECT                                                        PPO1325C
099900*----------------------------------------------------------------*PPO1325C
100000 3000-PROCESS-SELECTED-RECS      SECTION.                         PPO1325C
100100*----------------------------------------------------------------*PPO1325C
100200                                                                  PPO1325C
100300     PERFORM 8510-FETCH-PAY-CURSOR.                               PPO1325C
100400                                                                  PPO1325C
100500     PERFORM 3060-PROCESS-PAY-RECS                                PPO1325C
100600       UNTIL EOF-PAY-CURSOR.                                      PPO1325C
100700                                                                  PPO1325C
100800     EJECT                                                        PPO1325C
100900*----------------------------------------------------------------*PPO1325C
101000 3060-PROCESS-PAY-RECS     SECTION.                               PPO1325C
101100*----------------------------------------------------------------*PPO1325C
101200                                                                  PPO1325C
101210*----> Check for remnant ID Key changes. Those employees will     PPO1325C
101220*----> be bypassed.                                               PPO1325C
101300     PERFORM 8800-SELECT-PER.                                     PPO1325C
101320     IF WS-EMP-NAME NOT = WS-ASTERISKS                            PPO1325C
101400        PERFORM 2800-CREATE-ECF-PAY                               PPO1325C
101500     END-IF.                                                      PPO1325C
104200                                                                  PPO1325C
104300     PERFORM 8510-FETCH-PAY-CURSOR.                               PPO1325C
104400                                                                  PPO1325C
104500 3060-EXIT. EXIT.                                                 PPO1325C
167206                                                                  PPO1325C
167210     EJECT                                                        PPO1325C
167300*----------------------------------------------------------------*PPO1325C
167400 4130-WRITE-RPT1-NEWPAGE   SECTION.                               PPO1325C
167500*----------------------------------------------------------------*PPO1325C
167600***********************************************************       PPO1325C
167700*    WRITE REPORT NEW PAGE                                *       PPO1325C
167800***********************************************************       PPO1325C
167900                                                                  PPO1325C
167910     MOVE SPACES TO STND-RPT-COMMENT                              PPO1325C
167920                    STND-DATE2                                    PPO1325C
167930                    STND-DATE2-TTL.                               PPO1325C
167940                                                                  PPO1325C
168000     MOVE 'O1325C1' TO STND-RPT-ID.                               PPO1325C
168100     ADD +1 TO WS-STND-PAGE-NO-RPT1.                              PPO1325C
168200     MOVE WS-STND-PAGE-NO-RPT1 TO STND-PAGE-NO.                   PPO1325C
168300     INSPECT STND-PAGE-NO REPLACING LEADING ZEROS BY SPACE.       PPO1325C
168400     MOVE '        ONETIME PROCESSING'  TO STND-FUNC-AREA.        PPO1325C
168510     MOVE '          ONE-TIME CONTROL TOTALS              '       PPO1325C
168520                                TO STND-RPT-TTL.                  PPO1325C
168800     WRITE PPO1325C1-LINE FROM STND-RPT-HD1                       PPO1325C
168900                                        AFTER ADVANCING NEW-PAGE. PPO1325C
169000     WRITE PPO1325C1-LINE FROM STND-RPT-HD2 AFTER 1.              PPO1325C
169100     WRITE PPO1325C1-LINE FROM STND-RPT-HD3 AFTER 1.              PPO1325C
169400                                                                  PPO1325C
169500     MOVE +4 TO RPT1-LINES-PAGE.                                  PPO1325C
178600                                                                  PPO1325C
178700     EJECT                                                        PPO1325C
178800*----------------------------------------------------------------*PPO1325C
178900 7000-BUILD-MESSAGE        SECTION.                               PPO1325C
179000*----------------------------------------------------------------*PPO1325C
179100***********************************************************       PPO1325C
179200*      PRINT MESSAGES                                     *       PPO1325C
179300***********************************************************       PPO1325C
179400                                                                  PPO1325C
179500     IF   WS-PRINT-LINES-RPT > RPT2-MAX-LINES-PAGE                PPO1325C
179610          PERFORM 7050-WRITE-PO1325C2-HEADING                     PPO1325C
179700          WRITE PPO1325C2-LINE FROM WS-MESSAGE                    PPO1325C
179800                          AFTER ADVANCING +1                      PPO1325C
179900          ADD +1 TO WS-PRINT-LINES-RPT                            PPO1325C
180000     ELSE                                                         PPO1325C
180100          WRITE PPO1325C2-LINE FROM WS-MESSAGE                    PPO1325C
180110                          AFTER ADVANCING +1                      PPO1325C
180300          ADD +1 TO WS-PRINT-LINES-RPT                            PPO1325C
180400     END-IF.                                                      PPO1325C
180500                                                                  PPO1325C
180600     IF FATAL-ERROR                                               PPO1325C
180700        MOVE +9 TO RETURN-CODE                                    PPO1325C
180800     END-IF.                                                      PPO1325C
180900                                                                  PPO1325C
181000 7000-EXIT.  EXIT.                                                PPO1325C
181100                                                                  PPO1325C
181200*----------------------------------------------------------------*PPO1325C
181310 7050-WRITE-PO1325C2-HEADING  SECTION.                            PPO1325C
181400*----------------------------------------------------------------*PPO1325C
181600                                                                  PPO1325C
181700     MOVE SPACES TO STND-RPT-COMMENT                              PPO1325C
181800                    STND-DATE2                                    PPO1325C
181900                    STND-DATE2-TTL.                               PPO1325C
182000                                                                  PPO1325C
183950     MOVE '        ONETIME PROCESSING'  TO STND-FUNC-AREA.        PPO1325C
183960     MOVE 'O1325C2'        TO STND-RPT-ID.                        PPO1325C
183970                                                                  PPO1325C
183980     ADD +1 TO WS-STND-PAGE-NO-RPT2.                              PPO1325C
183990     MOVE WS-STND-PAGE-NO-RPT2 TO STND-PAGE-NO.                   PPO1325C
183991     INSPECT STND-PAGE-NO REPLACING LEADING ZEROS BY SPACE.       PPO1325C
183994     MOVE '            WARNINGS AND MESSAGES' TO STND-RPT-TTL.    PPO1325C
183995     WRITE PPO1325C2-LINE FROM STND-RPT-HD1                       PPO1325C
183996                                        AFTER ADVANCING NEW-PAGE. PPO1325C
183997     WRITE PPO1325C2-LINE FROM STND-RPT-HD2 AFTER 1.              PPO1325C
183998     WRITE PPO1325C2-LINE FROM STND-RPT-HD3 AFTER 1.              PPO1325C
183999                                                                  PPO1325C
184000     MOVE +4 TO WS-PRINT-LINES-RPT.                               PPO1325C
184010                                                                  PPO1325C
184100 7050-EXIT. EXIT.                                                 PPO1325C
197700                                                                  PPO1325C
197710     EJECT                                                        PPO1325C
197800*----------------------------------------------------------------*PPO1325C
197900 8500-OPEN-PAY-CURSOR      SECTION.                               PPO1325C
198000*----------------------------------------------------------------*PPO1325C
198100                                                                  PPO1325C
198200     IF NOT CURSOR-PAY-OPEN                                       PPO1325C
198300        MOVE 'OPEN PAY CURSOR' TO DB2MSG-TAG                      PPO1325C
198400        EXEC SQL                                                  PPO1325C
198500           OPEN PAY_CURSOR                                        PPO1325C
198600        END-EXEC                                                  PPO1325C
198700     END-IF.                                                      PPO1325C
198800     IF SQLCODE  = ZERO                                           PPO1325C
198900        SET CURSOR-PAY-OPEN TO TRUE                               PPO1325C
199000     END-IF.                                                      PPO1325C
199100                                                                  PPO1325C
199200     EJECT                                                        PPO1325C
199300*----------------------------------------------------------------*PPO1325C
199400 8510-FETCH-PAY-CURSOR    SECTION.                                PPO1325C
199500*----------------------------------------------------------------*PPO1325C
199600***********************************************************       PPO1325C
199700*    FETCH  PAY-ROW DATA                                  *       PPO1325C
199800***********************************************************       PPO1325C
199900                                                                  PPO1325C
200000     MOVE 'SELECT PAY DATA' TO DB2MSG-TAG.                        PPO1325C
200100     EXEC SQL                                                     PPO1325C
200200       FETCH  PAY_CURSOR                                          PPO1325C
200300       INTO                                                       PPO1325C
200400          :PAY-ROW.EMPLOYEE-ID                                    PPO1325C
200420         ,:PAY-ROW.FEDTAX-MARITAL                                 PPO1325C
200430         ,:PAY-ROW.FEDTAX-EXEMPT                                  PPO1325C
200440         ,:PAY-ROW.MAXFED-EXEMPT                                  PPO1325C
200450         ,:PAY-ROW.STATE-TAX-MARITAL                              PPO1325C
200460         ,:PAY-ROW.STATE-TAX-PERDED                               PPO1325C
200470         ,:PAY-ROW.STATE-TAX-ITMDED                               PPO1325C
200480         ,:PAY-ROW.STATE-TAX-MAXEXMPT                             PPO1325C
202700     END-EXEC.                                                    PPO1325C
202800                                                                  PPO1325C
202900     IF SQLCODE = +100                                            PPO1325C
203000         SET EOF-PAY-CURSOR TO TRUE                               PPO1325C
203100        MOVE '999999999' TO EMPLOYEE-ID OF PAY-ROW                PPO1325C
203200     ELSE                                                         PPO1325C
203310        ADD 1 TO WS-NBR-PAY-RECORDS-READ                          PPO1325C
203311        MOVE EMPLOYEE-ID OF PAY-ROW TO WS-EMPLOYEE-ID             PPO1325C
203320        MOVE 6010-GTN  TO WS-GTN-NUMBER                           PPO1325C
203330        PERFORM 8600-GET-DBL-DATA                                 PPO1325C
203340        MOVE WS-WORK-TEN-9 TO WS-ADDTL-FED-AMOUNT                 PPO1325C
203350        MOVE 6011-GTN  TO WS-GTN-NUMBER                           PPO1325C
203360        PERFORM 8600-GET-DBL-DATA                                 PPO1325C
203370        MOVE WS-WORK-TEN-9 TO WS-ADDTL-STE-AMOUNT                 PPO1325C
203380        MOVE 6301-GTN  TO WS-GTN-NUMBER                           PPO1325C
203390        PERFORM 8600-GET-DBL-DATA                                 PPO1325C
203391        IF WS-WORK-TEN-9 NOT = ZERO                               PPO1325C
203392           MOVE GTN-AMT TO WS-PRM-NUMBER                          PPO1325C
203393           PERFORM 8700-SELECT-PRM                                PPO1325C
203394           MOVE WS-WORK-TEN-9 TO WS-ADDTL-FED-NONRES-AMOUNT       PPO1325C
203395        ELSE                                                      PPO1325C
203396           MOVE ZERO TO WS-ADDTL-FED-NONRES-AMOUNT                PPO1325C
203397        END-IF                                                    PPO1325C
203400     END-IF.                                                      PPO1325C
203500                                                                  PPO1325C
203600*----------------------------------------------------------------*PPO1325C
203700 8520-CLOSE-PAY-CURSOR     SECTION.                               PPO1325C
203800*----------------------------------------------------------------*PPO1325C
203900                                                                  PPO1325C
204000     IF  CURSOR-PAY-OPEN                                          PPO1325C
204100         MOVE 'CLOSE PAY CURSOR' TO DB2MSG-TAG                    PPO1325C
204200         EXEC SQL                                                 PPO1325C
204300            CLOSE PAY_CURSOR                                      PPO1325C
204400         END-EXEC                                                 PPO1325C
204500         MOVE SPACE TO CURSOR-PAY-OPEN-SW                         PPO1325C
204600     END-IF.                                                      PPO1325C
204610                                                                  PPO1325C
204817     EJECT                                                        PPO1325C
204818 8600-GET-DBL-DATA                   SECTION.                     PPO1325C
204819**************************************************************    PPO1325C
204820*  GET THE DEDUCTION DATA                                    *    PPO1325C
204830**************************************************************    PPO1325C
204831                                                                  PPO1325C
204832     MOVE 'SELECT DBL' TO DB2MSG-TAG.                             PPO1325C
204836                                                                  PPO1325C
204837     EXEC SQL                                                     PPO1325C
204838          SELECT GTN_AMT                                          PPO1325C
204839          INTO  :GTN-AMT                                          PPO1325C
204840          FROM PPPVZDBL_DBL                                       PPO1325C
204841          WHERE EMPLOYEE_ID = :WS-EMPLOYEE-ID                     PPO1325C
204842            AND GTN_NUMBER  = :WS-GTN-NUMBER                      PPO1325C
204843            AND GTN_IND     = :WS-GTN-IND-G                       PPO1325C
204844     END-EXEC.                                                    PPO1325C
204846                                                                  PPO1325C
204847     IF  SQLCODE  = +100                                          PPO1325C
204848         MOVE ZERO    TO WS-WORK-TEN-9                            PPO1325C
204849     ELSE                                                         PPO1325C
204850         MOVE GTN-AMT TO WS-WORK-TEN-9                            PPO1325C
204851     END-IF.                                                      PPO1325C
204858                                                                  PPO1325C
204859 8600-EXIT.                                                       PPO1325C
204860     EXIT.                                                        PPO1325C
204861                                                                  PPO1325C
204862     EJECT                                                        PPO1325C
204863 8700-SELECT-PRM  SECTION.                                        PPO1325C
204864**************************************************************    PPO1325C
204865* THIS SECTION SELECTS A ROW FROM THE PRM TABLE.             *    PPO1325C
204866**************************************************************    PPO1325C
204867                                                                  PPO1325C
204868     MOVE 'SELECT PRM' TO DB2MSG-TAG.                             PPO1325C
204869                                                                  PPO1325C
204870     EXEC SQL                                                     PPO1325C
204871          SELECT PRM_DATA                                         PPO1325C
204872          INTO  :PRM-DATA                                         PPO1325C
204873          FROM PPPVZPRM_PRM                                       PPO1325C
204874          WHERE PRM_NUMBER = :WS-PRM-NUMBER                       PPO1325C
204875     END-EXEC.                                                    PPO1325C
204876                                                                  PPO1325C
204877     IF SQLCODE = ZERO                                            PPO1325C
204878        MOVE PRM-DATA TO WS-WORK-TEN-9                            PPO1325C
204879        CONTINUE                                                  PPO1325C
204880     ELSE                                                         PPO1325C
204881        MOVE ZERO TO WS-WORK-TEN-9                                PPO1325C
204882     END-IF.                                                      PPO1325C
204883                                                                  PPO1325C
204884 8700-EXIT.                                                       PPO1325C
204885     EXIT.                                                        PPO1325C
204886                                                                  PPO1325C
204887     EJECT                                                        PPO1325C
204888 8800-SELECT-PER  SECTION.                                        PPO1325C
204889**************************************************************    PPO1325C
204890* THIS SECTION SELECTS A ROW FROM THE PER TABLE.             *    PPO1325C
204891**************************************************************    PPO1325C
204892                                                                  PPO1325C
204893     MOVE 'SELECT PER' TO DB2MSG-TAG.                             PPO1325C
204894                                                                  PPO1325C
204895     EXEC SQL                                                     PPO1325C
204896          SELECT EMPLOYEE_ID, EMP_NAME                            PPO1325C
204897          INTO  :PER-ROW.EMPLOYEE-ID                              PPO1325C
204898               ,:EMP-NAME                                         PPO1325C
204899          FROM PPPVPER1_PER                                       PPO1325C
204900          WHERE EMPLOYEE_ID  = :WS-EMPLOYEE-ID                    PPO1325C
204901     END-EXEC.                                                    PPO1325C
204902                                                                  PPO1325C
204903     IF SQLCODE = ZERO                                            PPO1325C
204904        MOVE EMP-NAME TO WS-EMP-NAME                              PPO1325C
204905     ELSE                                                         PPO1325C
204906*-------> This simply cannot happen.                              PPO1325C
204907        MOVE SPACES   TO WS-EMP-NAME                              PPO1325C
204908     END-IF.                                                      PPO1325C
204909                                                                  PPO1325C
204910 8700-EXIT.                                                       PPO1325C
204911     EXIT.                                                        PPO1325C
204912                                                                  PPO1325C
204920     EJECT                                                        PPO1325C
205000*----------------------------------------------------------------*PPO1325C
205100 9000-FINALIZATION         SECTION.                               PPO1325C
205200*----------------------------------------------------------------*PPO1325C
205300***********************************************************       PPO1325C
205400*                    F I N A L I Z E                      *       PPO1325C
205500***********************************************************       PPO1325C
205600                                                                  PPO1325C
205700     MOVE WS-NBR-PAY-RECORDS-READ TO RPT1-PAY-RECORDS-READ.       PPO1325C
205731     MOVE WS-NBR-ECF-RECORDS-WRITE TO RPT1-ECF-RECORDS-WRITTEN.   PPO1325C
205740                                                                  PPO1325C
205800     IF (RPT1-LINES-PAGE)  > RPT1-MAX-LINES-PAGE                  PPO1325C
205900        PERFORM 4130-WRITE-RPT1-NEWPAGE                           PPO1325C
206000     END-IF.                                                      PPO1325C
206100     WRITE PPO1325C1-LINE FROM PO1325C1-TOTAL-LINE1               PPO1325C
206200                               AFTER ADVANCING 2.                 PPO1325C
206300     WRITE PPO1325C1-LINE FROM PO1325C1-TOTAL-LINE2               PPO1325C
206400                               AFTER ADVANCING 1.                 PPO1325C
207000                                                                  PPO1325C
207100     CLOSE EDBCHG.                                                PPO1325C
207200                                                                  PPO1325C
207300     CLOSE   PO1325C1-REPORT.                                     PPO1325C
207310     CLOSE   PO1325C2-REPORT.                                     PPO1325C
207500                                                                  PPO1325C
207600     PERFORM 8520-CLOSE-PAY-CURSOR.                               PPO1325C
207700                                                                  PPO1325C
207800     EJECT                                                        PPO1325C
207900*----------------------------------------------------------------*PPO1325C
208000 DATE-CONVERSION  SECTION.                                        PPO1325C
208100*----------------------------------------------------------------*PPO1325C
208200*                                  --------------                 PPO1325C
208300                                   COPY CPPDXDC3.                 PPO1325C
208400*                                  --------------                 PPO1325C
208500                                                                  PPO1325C
208600     EJECT                                                        PPO1325C
208700*----------------------------------------------------------------*PPO1325C
208800*999999-SQL-ERROR.                                                PPO1325C
208900*----------------------------------------------------------------*PPO1325C
209000     EXEC SQL                                                     PPO1325C
209100          INCLUDE CPPDXP99                                        PPO1325C
209200     END-EXEC.                                                    PPO1325C
209300                                                                  PPO1325C
209400     IF NOT HERE-BEFORE                                           PPO1325C
209500        SET HERE-BEFORE TO TRUE                                   PPO1325C
210000        MOVE 'FATAL DB2 ERROR - READ ACCESS'                      PPO1325C
210100                          TO WS-MESSAGE-TEXT                      PPO1325C
210200        PERFORM 7000-BUILD-MESSAGE                                PPO1325C
210300     END-IF.                                                      PPO1325C
210310                                                                  PPO1325C
210400     MOVE +9               TO RETURN-CODE.                        PPO1325C
210500     STOP RUN.                                                    PPO1325C
210600********  END OF PROGRAM PPO1325C ********                        PPO1325C
