000000**************************************************************/   04541490
000001*  PROGRAM: PPOT1490                                         */   04541490
000002*  RELEASE: ___1490______ SERVICE REQUEST(S): ____80454____  */   04541490
000003*  NAME:_______QUAN______ CREATION DATE:      ___04/30/03__  */   04541490
000004*  DESCRIPTION:                                              */   04541490
000005*  - ONE-TIME PROGRAM TO REMOVE EMPLOYEES FROM AMERICAN      */   04541490
000006*    CENTURY DEEDUCTION (284-G) AND SUSPENDED BALANCE IF ANY.*/   04541490
000008**************************************************************/   04541490
001000 IDENTIFICATION DIVISION.                                         PPOT1490
001100 PROGRAM-ID. PPOT1490.                                            PPOT1490
001200 AUTHOR. UCOP.                                                    PPOT1490
001300                                                                  PPOT1490
001400*REMARKS.                                                         PPOT1490
001500                                                                  PPOT1490
001600***********************************************************       PPOT1490
001700*                                                         *       PPOT1490
001800*   THE MAIN CURSOR FOR THIS PROGRAM FETCHES PPPDBL ROWS  *       PPOT1490
001900*   FOR A GTN BALANCE FOR 284-G.                          *       PPOT1490
002000*                                                         *       PPOT1490
002100*   THIS PROGRAM CAN BE RUN IN NON-UPDATE AND UPDATE      *       PPOT1490
002200*   MODE. IT SHOULD BE RUN IN NON-UPDATE MODE FIRST AND   *       PPOT1490
002300*   THE RESULTS CHECKED VIA THE EDB CHANGE FILE RUN       *       PPOT1490
002400*   THROUGH PPP180.                                       *       PPOT1490
002500*                                                         *       PPOT1490
002600*   AN EDB CHANGE RECORD IS WRITTEN FOR EACH DATA ELEMENT *       PPOT1490
002700*   THAT IS CHANGED. THE EBD CHANGE RECORD IS WRITTEN IN  *       PPOT1490
002800*   BOTH UPDATE AND NON-UPDATE MODE.                      *       PPOT1490
002900***********************************************************       PPOT1490
003000*        E N V I R O N M E N T     D I V I S I O N        *       PPOT1490
003100***********************************************************       PPOT1490
003200                                                                  PPOT1490
003300 ENVIRONMENT DIVISION.                                            PPOT1490
003400 CONFIGURATION SECTION.                                           PPOT1490
003500                                                                  PPOT1490
003600 SPECIAL-NAMES.                                                   PPOT1490
003700     C01 IS NEW-PAGE.                                             PPOT1490
003800                                                                  PPOT1490
003900 INPUT-OUTPUT SECTION.                                            PPOT1490
004000 FILE-CONTROL.                                                    PPOT1490
004100                                                                  PPOT1490
004200***********************************************************       PPOT1490
004300*    SPEC CARD                                            *       PPOT1490
004400***********************************************************       PPOT1490
004500     SELECT CARD-FILE       ASSIGN TO UT-S-CARDFIL.               PPOT1490
004600***********************************************************       PPOT1490
004700*    WARNINGS AND MESSAGES REPORT                         *       PPOT1490
004800                                                                  PPOT1490
004900***********************************************************       PPOT1490
005000*    REPORT PRINT FILES                                   *       PPOT1490
005100***********************************************************       PPOT1490
005200     SELECT POT14901-REPORT ASSIGN TO UT-S-OT14901.               PPOT1490
005300                                                                  PPOT1490
005400     SELECT PRINT-FILE      ASSIGN TO UT-S-WRNPRT.                PPOT1490
005500                                                                  PPOT1490
005600***********************************************************       PPOT1490
005700*    TEMP UNSORTED EDB CHANGE FILE                        *       PPOT1490
005800***********************************************************       PPOT1490
005900     SELECT TEMP-EDBCHG    ASSIGN TO UT-S-TPEDBCHG.               PPOT1490
006000                                                                  PPOT1490
006100***********************************************************       PPOT1490
006200*    EDB CHANGE FILE                                      *       PPOT1490
006300***********************************************************       PPOT1490
006400     SELECT EDBCHG               COPY CPSLXCHG.                   PPOT1490
007000                                                                  PPOT1490
007010                                                                  PPOT1490
007020***********************************************************       PPOT1490
007030*    SORT WORK FILES                                      *       PPOT1490
007040***********************************************************       PPOT1490
007050     SELECT SORT-WORK-FILE-ECF     COPY CPSLXSRT.                 PPOT1490
007100     EJECT                                                        PPOT1490
007200***********************************************************       PPOT1490
007300*                D A T A     D I V I S I O N              *       PPOT1490
007400***********************************************************       PPOT1490
007500                                                                  PPOT1490
007600 DATA DIVISION.                                                   PPOT1490
007700 FILE SECTION.                                                    PPOT1490
007800                                                                  PPOT1490
007900***********************************************************       PPOT1490
008000*    RUN SPECIFICATION RECORD                             *       PPOT1490
008100***********************************************************       PPOT1490
008200 FD  CARD-FILE                                                    PPOT1490
008300     LABEL RECORDS ARE OMITTED                                    PPOT1490
008400     BLOCK CONTAINS 0 RECORDS                                     PPOT1490
008500     RECORDING MODE IS F                                          PPOT1490
008600     RECORD CONTAINS 80 CHARACTERS.                               PPOT1490
008700                                                                  PPOT1490
008800 01  SPEC-CARD.                                                   PPOT1490
008900     05  SPEC-PGM-ID             PIC X(13).                       PPOT1490
009000         88  VALID-SPEC-PGM-ID            VALUE 'PPOT1490-SPEC'.  PPOT1490
009100     05  SPEC-PGM-UPDATE         PIC X(06).                       PPOT1490
009200         88  VALID-SPEC-UPDATE            VALUES 'REPORT'         PPOT1490
009300                                                 'UPDATE'.        PPOT1490
009400         88  EDB-UPDATE-REQUESTED         VALUES 'UPDATE'.        PPOT1490
009500     05  FILLER                  PIC X(61).                       PPOT1490
009600                                                                  PPOT1490
009700***********************************************************       PPOT1490
009800*    REPORT PRINT FILES                                   *       PPOT1490
009900***********************************************************       PPOT1490
010000 FD  POT14901-REPORT                                              PPOT1490
010100     LABEL RECORDS ARE OMITTED                                    PPOT1490
010200     BLOCK CONTAINS 0 RECORDS                                     PPOT1490
010300     RECORDING MODE IS F                                          PPOT1490
010400     RECORD CONTAINS 133 CHARACTERS.                              PPOT1490
010500                                                                  PPOT1490
010600 01  POT14901-LINE.                                               PPOT1490
010700     05  FILLER                   PIC X.                          PPOT1490
010800     05  POT14901-DATA            PIC X(132).                     PPOT1490
010900                                                                  PPOT1490
011000 FD  PRINT-FILE                  COPY CPFDXPRT.                   PPOT1490
011100                                                                  PPOT1490
011200                                                                  PPOT1490
011300***********************************************************       PPOT1490
011400*    TEMP EDB CHANGE FILE                                 *       PPOT1490
011500***********************************************************       PPOT1490
011600 FD  TEMP-EDBCHG                 COPY  CPFDXCHG                   PPOT1490
011700         REPLACING EDB-CHANGE-RECORD BY OCHG-EDB-CHANGE-RECORD.   PPOT1490
011800 01  OCHG-EDB-CHANGE-RECORD.   COPY CPWSXCHG                      PPOT1490
011900         REPLACING XCHG-FIXED-AREA     BY OCHG-FIXED-AREA         PPOT1490
012000                   XCHG-EMPLOYEE-ID    BY OCHG-EMPLOYEE-ID        PPOT1490
012100                   XCHG-DATA-ELEM-NO   BY OCHG-DATA-ELEM-NO       PPOT1490
012200                   XCHG-OCCURENCE-KEY  BY OCHG-OCCURENCE-KEY      PPOT1490
012300                   XCHG-PROCESS-ID     BY OCHG-PROCESS-ID         PPOT1490
012400                   XCHG-CHANGE-SOURCE  BY OCHG-CHANGE-SOURCE      PPOT1490
012500                   XCHG-TIMESTAMP      BY OCHG-TIMESTAMP          PPOT1490
012600                   XCHG-ODO-LENGTHS    BY OCHG-ODO-LENGTHS        PPOT1490
012700                   XCHG-OLD-VAL-LNGTH  BY OCHG-OLD-VAL-LNGTH      PPOT1490
012800                   XCHG-NEW-VAL1-LNGTH BY OCHG-NEW-VAL1-LNGTH     PPOT1490
012900                   XCHG-NEW-VAL2-LNGTH BY OCHG-NEW-VAL2-LNGTH     PPOT1490
013000                   XCHG-OLD-VALUE      BY OCHG-OLD-VALUE          PPOT1490
013100                   XCHG-OLD-VAL        BY OCHG-OLD-VAL            PPOT1490
013200                   XCHG-NEW-VALUE1     BY OCHG-NEW-VALUE1         PPOT1490
013300                   XCHG-NEW-VAL1       BY OCHG-NEW-VAL1           PPOT1490
013400                   XCHG-NEW-VALUE2     BY OCHG-NEW-VALUE2         PPOT1490
013500                   XCHG-NEW-VAL2       BY OCHG-NEW-VAL2.          PPOT1490
013600                                                                  PPOT1490
013700***********************************************************       PPOT1490
013800*    SORTED EDB CHANGE FILE                               *       PPOT1490
013900***********************************************************       PPOT1490
014000 FD  EDBCHG                      COPY  CPFDXCHG                   PPOT1490
014100         REPLACING EDB-CHANGE-RECORD BY PCHG-EDB-CHANGE-RECORD.   PPOT1490
014200 01  PCHG-EDB-CHANGE-RECORD.   COPY CPWSXCHG                      PPOT1490
014300         REPLACING XCHG-FIXED-AREA     BY PCHG-FIXED-AREA         PPOT1490
014400                   XCHG-EMPLOYEE-ID    BY PCHG-EMPLOYEE-ID        PPOT1490
014500                   XCHG-DATA-ELEM-NO   BY PCHG-DATA-ELEM-NO       PPOT1490
014600                   XCHG-OCCURENCE-KEY  BY PCHG-OCCURENCE-KEY      PPOT1490
014700                   XCHG-PROCESS-ID     BY PCHG-PROCESS-ID         PPOT1490
014800                   XCHG-CHANGE-SOURCE  BY PCHG-CHANGE-SOURCE      PPOT1490
014900                   XCHG-TIMESTAMP      BY PCHG-TIMESTAMP          PPOT1490
015000                   XCHG-ODO-LENGTHS    BY PCHG-ODO-LENGTHS        PPOT1490
015100                   XCHG-OLD-VAL-LNGTH  BY PCHG-OLD-VAL-LNGTH      PPOT1490
015200                   XCHG-NEW-VAL1-LNGTH BY PCHG-NEW-VAL1-LNGTH     PPOT1490
015300                   XCHG-NEW-VAL2-LNGTH BY PCHG-NEW-VAL2-LNGTH     PPOT1490
015400                   XCHG-OLD-VALUE      BY PCHG-OLD-VALUE          PPOT1490
015500                   XCHG-OLD-VAL        BY PCHG-OLD-VAL            PPOT1490
015600                   XCHG-NEW-VALUE1     BY PCHG-NEW-VALUE1         PPOT1490
015700                   XCHG-NEW-VAL1       BY PCHG-NEW-VAL1           PPOT1490
015800                   XCHG-NEW-VALUE2     BY PCHG-NEW-VALUE2         PPOT1490
015900                   XCHG-NEW-VAL2       BY PCHG-NEW-VAL2.          PPOT1490
016000                                                                  PPOT1490
016100***********************************************************       PPOT1490
016200*    SORT EDB CHANGE FILE                                 *       PPOT1490
016300***********************************************************       PPOT1490
016400 SD  SORT-WORK-FILE-ECF        COPY CPFDXCHG                      PPOT1490
016500         REPLACING EDB-CHANGE-RECORD BY SCHG-EDB-CHANGE-RECORD.   PPOT1490
016600 01  SCHG-EDB-CHANGE-RECORD.   COPY CPWSXCHG                      PPOT1490
016700         REPLACING XCHG-FIXED-AREA     BY SCHG-FIXED-AREA         PPOT1490
016800                   XCHG-EMPLOYEE-ID    BY SCHG-EMPLOYEE-ID        PPOT1490
016900                   XCHG-DATA-ELEM-NO   BY SCHG-DATA-ELEM-NO       PPOT1490
017000                   XCHG-OCCURENCE-KEY  BY SCHG-OCCURENCE-KEY      PPOT1490
017100                   XCHG-PROCESS-ID     BY SCHG-PROCESS-ID         PPOT1490
017200                   XCHG-CHANGE-SOURCE  BY SCHG-CHANGE-SOURCE      PPOT1490
017300                   XCHG-TIMESTAMP      BY SCHG-TIMESTAMP          PPOT1490
017400                   XCHG-ODO-LENGTHS    BY SCHG-ODO-LENGTHS        PPOT1490
017500                   XCHG-OLD-VAL-LNGTH  BY SCHG-OLD-VAL-LNGTH      PPOT1490
017600                   XCHG-NEW-VAL1-LNGTH BY SCHG-NEW-VAL1-LNGTH     PPOT1490
017700                   XCHG-NEW-VAL2-LNGTH BY SCHG-NEW-VAL2-LNGTH     PPOT1490
017800                   XCHG-OLD-VALUE      BY SCHG-OLD-VALUE          PPOT1490
017900                   XCHG-OLD-VAL        BY SCHG-OLD-VAL            PPOT1490
018000                   XCHG-NEW-VALUE1     BY SCHG-NEW-VALUE1         PPOT1490
018100                   XCHG-NEW-VAL1       BY SCHG-NEW-VAL1           PPOT1490
018200                   XCHG-NEW-VALUE2     BY SCHG-NEW-VALUE2         PPOT1490
018300                   XCHG-NEW-VAL2       BY SCHG-NEW-VAL2.          PPOT1490
018400     EJECT                                                        PPOT1490
018500 WORKING-STORAGE SECTION.                                         PPOT1490
018600***********************************************************       PPOT1490
018700*    WORKING STORAGE                                      *       PPOT1490
018800***********************************************************       PPOT1490
018900 01  WS-WORK-MISC.                                                PPOT1490
019200     05  WS-ECF-WRITES            PIC S9(06) VALUE +0.            PPOT1490
019300     05  STD-SCR-PROCESS-DATE     PIC X(06) VALUE ZEROS.          PPOT1490
019400     05  WS-GTN-ICED              PIC X(01).                      PPOT1490
019800     05  WS-XDC3-FMT-DATE         PIC X(8) VALUE SPACES.          PPOT1490
019900     05  WS-EMP-EMPLOYEE-ID       PIC X(9) VALUE SPACES.          PPOT1490
020000     05  WS-EMP-GTN-NUMBER        PIC X(3).                       PPOT1490
020100     05  WS-EMP-GTN-IND           PIC X.                          PPOT1490
020200     05  WS-EMP-GTN-AMT           PIC S9999999V99 USAGE COMP-3.   PPOT1490
020700     05  WS-EMP-NAME              PIC X(26) VALUE SPACE.          PPOT1490
020800     05  WS-EMP-STATUS            PIC X(01) VALUE SPACE.          PPOT1490
020810     05  WS-EMP-HOME-DEPT         PIC X(06) VALUE SPACE.          PPOT1490
020900     05  WS-DED-EFF-DATE          PIC X(10).                      PPOT1490
021000     05  WS-NUMBER-EDITED         PIC S9(09)V9(09) USAGE COMP-3.  PPOT1490
021300                                                                  PPOT1490
021400 01  WS-RUN-TIME-FORMAT.                                          PPOT1490
021500     05  XH3-RPT-RUN-HR   PIC X(02) VALUE SPACES.                 PPOT1490
021600     05  FILLER           PIC X     VALUE ':'.                    PPOT1490
021700     05  XH3-RPT-RUN-MIN  PIC X(02) VALUE SPACES.                 PPOT1490
021800     05  FILLER           PIC X     VALUE ':'.                    PPOT1490
021900     05  XH3-RPT-RUN-SEC  PIC X(02) VALUE SPACES.                 PPOT1490
022000                                                                  PPOT1490
022100 01  WS-DATE-AND-TIME.                                            PPOT1490
022200     05  WS-TIMESTAMP.                                            PPOT1490
022300         10 WS-CC           PIC X(02).                            PPOT1490
022400         10 WS-YY           PIC X(02).                            PPOT1490
022500         10 WS-MM           PIC X(02).                            PPOT1490
022600         10 WS-DD           PIC X(02).                            PPOT1490
022700         10 WS-HH           PIC X(02).                            PPOT1490
022800         10 WS-MN           PIC X(02).                            PPOT1490
022900         10 WS-SS           PIC X(02).                            PPOT1490
023000 01  TIME-FORMAT.         COPY CPWSTIME.                          PPOT1490
023100 01  WS-RUN-TIME.                                                 PPOT1490
023200     05  WC1-RUN-TIME.                                            PPOT1490
023300         10  WC1-RUN-HOUR         PIC X(02).                      PPOT1490
023400         10  WC1-RUN-MIN          PIC X(02).                      PPOT1490
023500         10  WC1-RUN-SEC          PIC X(02).                      PPOT1490
023600                                                                  PPOT1490
023700                                                                  PPOT1490
023800 01  WS-ACCUMULATORS             COMP-3.                          PPOT1490
023900     05  WRN-LINE-COUNT          PIC S9(04) VALUE +60.            PPOT1490
024200     05  MAX-LINES-PAGE           PIC S9(06) VALUE +55.           PPOT1490
024300     05  MAX-LINES-PER-PAGE       PIC S9(04) VALUE +52.           PPOT1490
024400     05  RPT1-LINES-PER-PAGE      PIC S9(04) VALUE +99.           PPOT1490
024500     05  RPT2-LINES-PER-PAGE      PIC S9(04) VALUE +99.           PPOT1490
024600     05  WS-ONET-PAGE-NO-1        PIC S9(06) VALUE ZERO.          PPOT1490
024700     05  WS-ONET-PAGE-NO-2        PIC S9(06) VALUE ZERO.          PPOT1490
024800     05  WS-DBL-ROWS-G-DELETED    PIC S9(06) VALUE ZERO.          PPOT1490
025300     05  WS-BRS-ROWS-DELETED      PIC S9(06) VALUE ZERO.          PPOT1490
025600     05  WS-EMP-TOTAL             PIC S9(06) VALUE +0.            PPOT1490
025700                                                                  PPOT1490
025800 01  WS-OCC-KEY-G.                                                PPOT1490
025900     05  WS-GTN-NUM-G             PIC X(03).                      PPOT1490
026000     05  WS-GTN-IND-G             PIC X(01) VALUE 'G'.            PPOT1490
026010                                                                  PPOT1490
026100 01  WS-OCC-KEY-S.                                                PPOT1490
026200     05  WS-GTN-NUM-S             PIC X(03).                      PPOT1490
026300     05  WS-GTN-IND-S             PIC X(01) VALUE 'S'.            PPOT1490
026400                                                                  PPOT1490
026500 01  WS-OCC-KEY-E.                                                PPOT1490
026600     05  WS-GTN-NUM-E             PIC X(03).                      PPOT1490
026700     05  WS-GTN-IND-E             PIC X(01) VALUE 'E'.            PPOT1490
026800                                                                  PPOT1490
026900***********************************************************       PPOT1490
027000*    SWITCHES                                             *       PPOT1490
027100***********************************************************       PPOT1490
027200 01  WS-SWITCHES.                                                 PPOT1490
027300     05  WS-MESSAGE-SW           PIC X(01)  VALUE 'N'.            PPOT1490
027400         88  FATAL-ERROR                    VALUE 'Y'.            PPOT1490
027500     05  WS-EMPL-SELECT-SW       PIC X(01)  VALUE 'Y'.            PPOT1490
027600         88  NO-EMPL-SELECTED               VALUE 'N'.            PPOT1490
027700     05  HERE-BEFORE-SW          PIC X(01)  VALUE 'N'.            PPOT1490
027800         88 HERE-BEFORE                     VALUE 'Y'.            PPOT1490
027900     05  FIRST-TIME-SW           PIC X(01)  VALUE 'Y'.            PPOT1490
028000         88  FIRST-TIME                     VALUE 'Y'.            PPOT1490
028100         88  NOT-FIRST-TIME                 VALUE 'N'.            PPOT1490
028200     05  WS-ABEND-FLAG           PIC S9(01) VALUE +0.             PPOT1490
028300         88  WS-ABEND                       VALUE +1.             PPOT1490
028400     05  EOF-EMP-DATA-SW         PIC X(01)  VALUE SPACE.          PPOT1490
028500         88  EOF-EMP-DATA                   VALUE '1'.            PPOT1490
029200     EJECT                                                        PPOT1490
029300 01  WS-PGM-ID                PIC X(15)  VALUE 'PPOT1490'.        PPOT1490
029400                                                                  PPOT1490
029500***********************************************************       PPOT1490
029600*    COLUMN HEADINGS                                      *       PPOT1490
029700***********************************************************       PPOT1490
029800                                                                  PPOT1490
029900 01  PPOT1490-COL-HDR1.                                           PPOT1490
030000     05  FILLER                  PIC X(01).                       PPOT1490
030200     05  FILLER                  PIC X(14)                        PPOT1490
030300                           VALUE 'EMPLOYEE NAME/'.                PPOT1490
030400     05  FILLER                  PIC X(16) VALUE SPACES.          PPOT1490
030500     05  FILLER                  PIC X(16)                        PPOT1490
030600                           VALUE 'DEPARTMENT NAME/'.              PPOT1490
030610     05  FILLER                  PIC X(18) VALUE SPACES.          PPOT1490
030620     05  FILLER                  PIC X(09)                        PPOT1490
030630                           VALUE 'DEDUCTION'.                     PPOT1490
030640     05  FILLER                  PIC X(04) VALUE SPACES.          PPOT1490
030650     05  FILLER                  PIC X(18)                        PPOT1490
030660                           VALUE 'EMPLOYMENT STATUS'.             PPOT1490
030700     05  FILLER                  PIC X(37) VALUE SPACES.          PPOT1490
030800 01  PPOT1490-COL-HDR2.                                           PPOT1490
030900     05  FILLER                  PIC X(01).                       PPOT1490
031100     05  FILLER                  PIC X(11)                        PPOT1490
031200                           VALUE 'EMPLOYEE ID'.                   PPOT1490
031300     05  FILLER                  PIC X(19) VALUE SPACES.          PPOT1490
031400     05  FILLER                  PIC X(07)                        PPOT1490
031500                           VALUE 'ADDRESS'.                       PPOT1490
031510     05  FILLER                  PIC X(29) VALUE SPACES.          PPOT1490
031520     05  FILLER                  PIC X(06)                        PPOT1490
031530                           VALUE 'AMOUNT'.                        PPOT1490
031600     05  FILLER                  PIC X(60) VALUE SPACES.          PPOT1490
033700                                                                  PPOT1490
033800***********************************************************       PPOT1490
033900*    REPORT DETAIL RECORD                                 *       PPOT1490
034000***********************************************************       PPOT1490
034100 01  RPT-DETAIL-REC.                                              PPOT1490
034200     05  RPT-LINE-1.                                              PPOT1490
034300         10  FILLER                  PIC X(01).                   PPOT1490
034400         10  RPT-NAME-LN             PIC X(26).                   PPOT1490
034900         10  FILLER                  PIC X(04).                   PPOT1490
035000         10  RPT-DEPARTMENT-NAME     PIC X(15).                   PPOT1490
035100         10  FILLER                  PIC X(19).                   PPOT1490
035200         10  RPT-GTN-AMT             PIC ZZ,ZZ9.99.               PPOT1490
035500         10  FILLER                  PIC X(05).                   PPOT1490
035600         10  RPT-EMP-STATUS          PIC X(20).                   PPOT1490
035700         10  FILLER                  PIC X(34).                   PPOT1490
035800     05  RPT-LINE-2.                                              PPOT1490
035900         10  FILLER                  PIC X(01).                   PPOT1490
036000         10  RPT-EMP-ID              PIC X(09).                   PPOT1490
036100         10  FILLER                  PIC X(21).                   PPOT1490
036200         10  RPT-DEPARTMENT-ADDRESS  PIC X(30).                   PPOT1490
036700         10  FILLER                  PIC X(72).                   PPOT1490
039200                                                                  PPOT1490
039300***********************************************************       PPOT1490
039400*    REPORT TOTAL LINE                                    *       PPOT1490
039500***********************************************************       PPOT1490
039600                                                                  PPOT1490
039700 01  OT14902-TOTAL-LINE.                                          PPOT1490
039800     05  FILLER                  PIC X(01).                       PPOT1490
039900     05  RPT2-RECORD-DESC        PIC X(40) VALUE                  PPOT1490
040000                                'NUMBER OF EMPLOYEES SELECTED '.  PPOT1490
040100     05  RPT2-RECORD-TOTAL       PIC ZZZZZZ9.                     PPOT1490
040200     05  FILLER                  PIC X(85) VALUE SPACES.          PPOT1490
040201                                                                  PPOT1490
040220                                                                  PPOT1490
040300***********************************************************       PPOT1490
040400*    MESSAGE PRINT LINE                                   *       PPOT1490
040500***********************************************************       PPOT1490
040600 01  WS-MESSAGE.                                                  PPOT1490
040700     05  WS-DET1-CC              PIC X(01) VALUE SPACES.          PPOT1490
040800     05  WS-MESSAGE-1.                                            PPOT1490
040900         10  WS-MESSAGE-TEXT     PIC X(43)  VALUE SPACES.         PPOT1490
041000     05  WS-MESSAGE-2            PIC X(89)  VALUE SPACES.         PPOT1490
041100                                                                  PPOT1490
041200     EJECT                                                        PPOT1490
041300***********************************************************       PPOT1490
041400*        S T A N D A R D    C O P Y   M E M B E R S       *       PPOT1490
041500***********************************************************       PPOT1490
041600 01  XWHC-COMPILE-WORK-AREA.          COPY CPWSXWHC.              PPOT1490
041700     EJECT                                                        PPOT1490
041800 01  XSCR-SYSTEM-CONTROL-RECORD.      COPY CPWSXSCR.              PPOT1490
041900     EJECT                                                        PPOT1490
042000 01  DATE-CONVERSION-WORK-AREAS.      COPY CPWSXDC3.              PPOT1490
042100     EJECT                                                        PPOT1490
042200 01  EDB-CHANGE-RECORD.               COPY CPWSXCHG.              PPOT1490
042300     EJECT                                                        PPOT1490
042400 01  STND-RPT-HD.                     COPY CPWSPSHR.              PPOT1490
042500     EJECT                                                        PPOT1490
042600 01  XCSS-COMMON-SYSTEM-SWITCHES.     COPY CPWSSWCH.              PPOT1490
042700     EJECT                                                        PPOT1490
042800 01  PPDB2MSG-INTERFACE.              COPY CPLNKDB2.              PPOT1490
042900                                                                  PPOT1490
043500     EJECT                                                        PPOT1490
043600***********************************************************       PPOT1490
043700*    SQL WORKING STORAGE                                  *       PPOT1490
043800***********************************************************       PPOT1490
043900                                                                  PPOT1490
044000 01  SCR-ROW.                                                     PPOT1490
044100     EXEC SQL                                                     PPOT1490
044200          INCLUDE PPPVZSCR                                        PPOT1490
044300     END-EXEC.                                                    PPOT1490
044400                                                                  PPOT1490
044500 01  GTN-ROW.                                                     PPOT1490
044600     EXEC SQL                                                     PPOT1490
044700          INCLUDE PPPVZGTN                                        PPOT1490
044800     END-EXEC.                                                    PPOT1490
044900                                                                  PPOT1490
045000 01  DBL-ROW.                                                     PPOT1490
045100     EXEC SQL                                                     PPOT1490
045200         INCLUDE PPPVDBL1                                         PPOT1490
045300     END-EXEC.                                                    PPOT1490
045900                                                                  PPOT1490
046000 01  PER-ROW.                                                     PPOT1490
046100     EXEC SQL                                                     PPOT1490
046200          INCLUDE PPPVZPER                                        PPOT1490
046300     END-EXEC.                                                    PPOT1490
046310                                                                  PPOT1490
046320     EXEC SQL                                                     PPOT1490
046330       INCLUDE PPPVZHME                                           PPOT1490
046340     END-EXEC.                                                    PPOT1490
046400                                                                  PPOT1490
046500 01  BRS-ROW.                                                     PPOT1490
046600     EXEC SQL                                                     PPOT1490
046700         INCLUDE PPPVBRS1                                         PPOT1490
046800     END-EXEC.                                                    PPOT1490
046900                                                                  PPOT1490
047400                                                                  PPOT1490
047500     EXEC SQL                                                     PPOT1490
047600          INCLUDE SQLCA                                           PPOT1490
047700     END-EXEC.                                                    PPOT1490
047800                                                                  PPOT1490
047900     EJECT                                                        PPOT1490
048000******************************************************************PPOT1490
048100*          SQL - CURSORS                                         *PPOT1490
048200******************************************************************PPOT1490
048300*    MAIN CURSOR TO SELECT PPPDBL ROWS                           *PPOT1490
048400******************************************************************PPOT1490
048500                                                                  PPOT1490
048600     EXEC SQL                                                     PPOT1490
048700       DECLARE EMP_CURSOR CURSOR FOR                              PPOT1490
048800       SELECT DBL.EMPLOYEE_ID                                     PPOT1490
048900             ,GTN_NUMBER                                          PPOT1490
049000             ,GTN_IND                                             PPOT1490
049100             ,GTN_AMT                                             PPOT1490
049200             ,PER.EMP_NAME                                        PPOT1490
049210             ,PER.HOME_DEPT                                       PPOT1490
049220             ,PER.EMP_STATUS                                      PPOT1490
049300       FROM  PPPVDBL1_DBL DBL                                     PPOT1490
049400            ,PPPVZPER_PER PER                                     PPOT1490
049500       WHERE DBL.EMPLOYEE_ID = PER.EMPLOYEE_ID                    PPOT1490
049600         AND GTN_NUMBER = '284'                                   PPOT1490
049700         AND GTN_IND IN ('G', 'S')                                PPOT1490
049800       ORDER BY PER.EMP_NAME                                      PPOT1490
049900     END-EXEC.                                                    PPOT1490
050000                                                                  PPOT1490
050100     EJECT                                                        PPOT1490
050200                                                                  PPOT1490
050300 PROCEDURE DIVISION.                                              PPOT1490
050400     EXEC SQL                                                     PPOT1490
050500          INCLUDE CPPDXE99                                        PPOT1490
050600     END-EXEC.                                                    PPOT1490
050700                                                                  PPOT1490
050800     EJECT                                                        PPOT1490
050900***********************************************************       PPOT1490
051000*                    M A I N L I N E                      *       PPOT1490
051100***********************************************************       PPOT1490
051200 0000-MAINLINE.                                                   PPOT1490
051300                                                                  PPOT1490
051400     PERFORM 1000-INITIALIZATION.                                 PPOT1490
051500                                                                  PPOT1490
051600     IF NOT FATAL-ERROR                                           PPOT1490
051700        PERFORM 2000-EMP-CURSOR                                   PPOT1490
051800     END-IF.                                                      PPOT1490
051900                                                                  PPOT1490
052000     PERFORM 9000-FINALIZATION.                                   PPOT1490
052010                                                                  PPOT1490
052100     IF NOT FATAL-ERROR                                           PPOT1490
052200*----> AFTER CLOSING THE ECF (EMPLOYEE CHANGE FILE), THE FILE     PPOT1490
052300*----> IS SORTED IN THE PROPER SEQUENCE.                          PPOT1490
052400        SORT SORT-WORK-FILE-ECF                                   PPOT1490
052500           ASCENDING KEY SCHG-EMPLOYEE-ID                         PPOT1490
052600                         SCHG-DATA-ELEM-NO                        PPOT1490
052700                         SCHG-OCCURENCE-KEY                       PPOT1490
052800           USING   TEMP-EDBCHG                                    PPOT1490
052900           GIVING  EDBCHG                                         PPOT1490
053000     END-IF.                                                      PPOT1490
053200                                                                  PPOT1490
053300 0099-EOJ.                                                        PPOT1490
053400     IF FATAL-ERROR                                               PPOT1490
053500        MOVE +9 TO RETURN-CODE                                    PPOT1490
053600     ELSE                                                         PPOT1490
053700        IF NO-EMPL-SELECTED                                       PPOT1490
053800           MOVE +3 TO RETURN-CODE                                 PPOT1490
053900        END-IF                                                    PPOT1490
054000     END-IF.                                                      PPOT1490
054100                                                                  PPOT1490
054200     STOP RUN.                                                    PPOT1490
054300                                                                  PPOT1490
054400 0001-EXIT. EXIT.                                                 PPOT1490
054500     EJECT                                                        PPOT1490
054600                                                                  PPOT1490
054700 1000-INITIALIZATION       SECTION.                               PPOT1490
054800***********************************************************       PPOT1490
054900*     INITIALIZATION                                      *       PPOT1490
055000***********************************************************       PPOT1490
055100                                                                  PPOT1490
055200     OPEN INPUT  CARD-FILE                                        PPOT1490
055300     OPEN OUTPUT PRINT-FILE                                       PPOT1490
055400          OUTPUT POT14901-REPORT.                                 PPOT1490
055500                                                                  PPOT1490
055700     OPEN OUTPUT TEMP-EDBCHG                                      PPOT1490
055710          OUTPUT      EDBCHG.                                     PPOT1490
055720                                                                  PPOT1490
055800                                                                  PPOT1490
055900*** Display Program Id and Date/Time Compiled                     PPOT1490
056000     MOVE 'PPOT1490'                    TO XWHC-DISPLAY-MODULE    PPOT1490
056100                                           DB2MSG-PGM-ID.         PPOT1490
056200     COPY CPPDXWHC.                                               PPOT1490
056300                                                                  PPOT1490
056400     COPY CPPDTIME.                                               PPOT1490
056500     MOVE TIME-HHMMSS                   TO WC1-RUN-TIME           PPOT1490
056600     MOVE WC1-RUN-HOUR                  TO XH3-RPT-RUN-HR         PPOT1490
056700     MOVE WC1-RUN-MIN                   TO XH3-RPT-RUN-MIN        PPOT1490
056800     MOVE WC1-RUN-SEC                   TO XH3-RPT-RUN-SEC.       PPOT1490
056900                                                                  PPOT1490
057100     MOVE SPACES                        TO STND-RPT-COMMENT       PPOT1490
057200                                           STND-DATE2             PPOT1490
057300                                           STND-DATE2-TTL.        PPOT1490
057400*                                                                 PPOT1490
057500     MOVE 'OT14902'                     TO STND-RPT-ID.           PPOT1490
057600     MOVE WS-PGM-ID                     TO STND-PROG-ID.          PPOT1490
057700                                                                  PPOT1490
057800                                                                  PPOT1490
057900*** Create Timestamp for ECF in XDC3-GREGORIAN-CHAR               PPOT1490
058000     PERFORM 1400-CREATE-TIME-STAMP                               PPOT1490
058100     PERFORM 7050-BUILD-MESSAGE-HDR.                              PPOT1490
058200                                                                  PPOT1490
058300     INITIALIZE SCR-ROW.                                          PPOT1490
058400     PERFORM 1500-GET-SCR-DATA-DO-ECF-HDR.                        PPOT1490
058500*                                                                 PPOT1490
058600                                                                  PPOT1490
058700     PERFORM 8300-OPEN-EMP-CURSOR.                                PPOT1490
058800     PERFORM 1400-GET-GTN-DATA.                                   PPOT1490
058900                                                                  PPOT1490
059000     PERFORM 1100-VALIDATE-SPEC-CARD THRU 1100-EXIT.              PPOT1490
059200                                                                  PPOT1490
059300 1000-EXIT.  EXIT.                                                PPOT1490
059400                                                                  PPOT1490
059500   EJECT                                                          PPOT1490
059600 1100-VALIDATE-SPEC-CARD   SECTION.                               PPOT1490
059700***********************************************************       PPOT1490
059800*    READ AND EDIT THE RUN SPECIFICATION RECORD           *       PPOT1490
059900***********************************************************       PPOT1490
060000     READ CARD-FILE                                               PPOT1490
060100        AT END                                                    PPOT1490
060200***********************************************************       PPOT1490
060300*       A MISSING SPEC CARD IS A FATAL ERROR.             *       PPOT1490
060400***********************************************************       PPOT1490
060500        SET FATAL-ERROR TO TRUE                                   PPOT1490
060600        MOVE 'No Specification Card' TO WS-MESSAGE-TEXT           PPOT1490
060700        PERFORM 7000-BUILD-MESSAGE                                PPOT1490
060800        GO TO 1100-EXIT.                                          PPOT1490
060900*                                                                 PPOT1490
061000     MOVE 'SPEC Card:'                  TO WS-MESSAGE-TEXT        PPOT1490
061100     MOVE SPEC-CARD                     TO WS-MESSAGE-2           PPOT1490
061200     PERFORM 7000-BUILD-MESSAGE                                   PPOT1490
061300     MOVE SPACES                        TO WS-MESSAGE-2.          PPOT1490
061400                                                                  PPOT1490
061500     IF NOT VALID-SPEC-PGM-ID                                     PPOT1490
061600***********************************************************       PPOT1490
061700*       AN INVALID PROGRAM ID IS A FATAL ERROR.           *       PPOT1490
061800***********************************************************       PPOT1490
061900        SET FATAL-ERROR TO TRUE                                   PPOT1490
062000        MOVE 'Spec Program ID Invalid' TO WS-MESSAGE-TEXT         PPOT1490
062100        PERFORM 7000-BUILD-MESSAGE                                PPOT1490
062200        GO TO 1100-EXIT                                           PPOT1490
062300     END-IF.                                                      PPOT1490
062400                                                                  PPOT1490
062500     IF NOT VALID-SPEC-UPDATE                                     PPOT1490
062600***********************************************************       PPOT1490
062700*       AN INVALID UPDATE SELECTION IS A FATAL ERROR.     *       PPOT1490
062800***********************************************************       PPOT1490
062900        SET FATAL-ERROR TO TRUE                                   PPOT1490
063000        MOVE 'Program mode is invalid' TO WS-MESSAGE-TEXT         PPOT1490
063100        PERFORM 7000-BUILD-MESSAGE                                PPOT1490
063200        GO TO 1100-EXIT                                           PPOT1490
063300     ELSE                                                         PPOT1490
063400     IF EDB-UPDATE-REQUESTED                                      PPOT1490
063500        MOVE 'EDB Update selected' TO WS-MESSAGE-TEXT             PPOT1490
063600        PERFORM 7000-BUILD-MESSAGE                                PPOT1490
063700     ELSE                                                         PPOT1490
063800        MOVE 'EDB Report selected' TO WS-MESSAGE-TEXT             PPOT1490
063900        PERFORM 7000-BUILD-MESSAGE                                PPOT1490
064000     END-IF                                                       PPOT1490
064100     END-IF.                                                      PPOT1490
064200                                                                  PPOT1490
064300 1100-EXIT.                                                       PPOT1490
064400     EXIT.                                                        PPOT1490
064500     EJECT                                                        PPOT1490
064600                                                                  PPOT1490
064700 1400-GET-GTN-DATA SECTION.                                       PPOT1490
064800***********************************************                   PPOT1490
064900*  SELECT GTN TABLE ROW                                           PPOT1490
065000***********************************************                   PPOT1490
065100                                                                  PPOT1490
065200     MOVE 'SELECT GTN 284' TO DB2MSG-TAG.                         PPOT1490
065300                                                                  PPOT1490
065400     EXEC SQL                                                     PPOT1490
065500       SELECT                                                     PPOT1490
065600           PPPVZGTN_GTN.GTN_ICED_INDICATOR                        PPOT1490
065700       INTO                                                       PPOT1490
065800           :GTN-ICED-INDICATOR                                    PPOT1490
065900       FROM PPPVZGTN_GTN                                          PPOT1490
066000       WHERE PPPVZGTN_GTN.GTN_NUMBER = '284'                      PPOT1490
066100     END-EXEC.                                                    PPOT1490
066200     IF  SQLCODE =  ZERO                                          PPOT1490
066300         MOVE GTN-ICED-INDICATOR TO WS-GTN-ICED                   PPOT1490
066310     ELSE                                                         PPOT1490
066320         MOVE SPACE TO WS-GTN-ICED                                PPOT1490
066400     END-IF.                                                      PPOT1490
066500                                                                  PPOT1490
067900                                                                  PPOT1490
068000 1400-EXIT.                                                       PPOT1490
068100     EXIT.                                                        PPOT1490
068200*                                                                 PPOT1490
068300     EJECT                                                        PPOT1490
068400 1400-CREATE-TIME-STAMP               SECTION.                    PPOT1490
068500                                                                  PPOT1490
068600     PERFORM XDC3-GET-CURRENT-DATE                                PPOT1490
068700     MOVE XDC3-GREG-CC                  TO WS-CC                  PPOT1490
068800     MOVE XDC3-GREG-YY                  TO WS-YY                  PPOT1490
068900     MOVE XDC3-GREG-MM                  TO WS-MM                  PPOT1490
069000     MOVE XDC3-GREG-DD                  TO WS-DD                  PPOT1490
069100     MOVE XDC3-GREG-HH                  TO WS-HH                  PPOT1490
069200     MOVE XDC3-GREG-MM                  TO WS-MN                  PPOT1490
069300     MOVE XDC3-GREG-SS                  TO WS-SS.                 PPOT1490
069400                                                                  PPOT1490
069500     PERFORM XDC3-CONVERT-LILIAN-TO-ISO                           PPOT1490
069600                                                                  PPOT1490
069700     PERFORM XDC3-CONVERT-ISO-TO-FMT.                             PPOT1490
069800     MOVE XDC3-FMT-DATE TO WS-XDC3-FMT-DATE.                      PPOT1490
069900                                                                  PPOT1490
070000 1500-GET-SCR-DATA-DO-ECF-HDR         SECTION.                    PPOT1490
070100                                                                  PPOT1490
070200     MOVE 'SELECT SCR ROW'              TO DB2MSG-TAG.            PPOT1490
070300*** Get SCR Data for ECF Header Record                            PPOT1490
070400     EXEC SQL                                                     PPOT1490
070500         SELECT  CHAR(SCR_PROCESS_DATE, ISO),                     PPOT1490
070600                 CHAR(SCR_PURGE_DATE, ISO)  ,                     PPOT1490
070700                 CHAR(SCR_CURRENT_DATE, ISO),                     PPOT1490
070800                 SCR_NEXTCYCLE_MO           ,                     PPOT1490
070900                 SCR_NEXTCYCLE_QTR          ,                     PPOT1490
071000                 SCR_NEXTCYCLE_YR           ,                     PPOT1490
071100                 SCR_NEXTCYCLE_FYR          ,                     PPOT1490
071200                 SCR_EDB_GENNUM                                   PPOT1490
071300           INTO :SCR-PROCESS-DATE           ,                     PPOT1490
071400                :SCR-PURGE-DATE             ,                     PPOT1490
071500                :SCR-CURRENT-DATE           ,                     PPOT1490
071600                :SCR-NEXTCYCLE-MO           ,                     PPOT1490
071700                :SCR-NEXTCYCLE-QTR          ,                     PPOT1490
071800                :SCR-NEXTCYCLE-YR           ,                     PPOT1490
071900                :SCR-NEXTCYCLE-FYR          ,                     PPOT1490
072000                :SCR-EDB-GENNUM                                   PPOT1490
072100           FROM PPPVZSCR_SCR                                      PPOT1490
072200     END-EXEC.                                                    PPOT1490
072300     IF SQLCODE NOT = ZERO                                        PPOT1490
072400        SET FATAL-ERROR TO TRUE                                   PPOT1490
072500        MOVE 'Error in SCR Selection'   TO WS-MESSAGE-TEXT        PPOT1490
072600        PERFORM 7000-BUILD-MESSAGE                                PPOT1490
072700     ELSE                                                         PPOT1490
072800        PERFORM 1600-MOVE-AND-WRITE-SCR-HDR                       PPOT1490
072900     END-IF.                                                      PPOT1490
073000                                                                  PPOT1490
073100 1600-MOVE-AND-WRITE-SCR-HDR          SECTION.                    PPOT1490
073200                                                                  PPOT1490
073300     INITIALIZE XSCR-SYSTEM-CONTROL-RECORD.                       PPOT1490
073400     MOVE '          SCR'               TO XSCR-KEY-AREA          PPOT1490
073500     MOVE SCR-PROCESS-DATE OF SCR-ROW   TO XDC3-ISO-DATE          PPOT1490
073600     PERFORM XDC3-CONVERT-ISO-TO-STD                              PPOT1490
073700     MOVE XDC3-STD-DATE                 TO STD-SCR-PROCESS-DATE   PPOT1490
073800     MOVE STD-SCR-PROCESS-DATE          TO XSCR-PROCESS-DATE      PPOT1490
073900     MOVE SCR-NEXTCYCLE-MO OF SCR-ROW   TO XSCR-NEXT-MONTH        PPOT1490
074000     MOVE SCR-NEXTCYCLE-QTR OF SCR-ROW  TO XSCR-NEXT-QTR          PPOT1490
074100     MOVE SCR-NEXTCYCLE-YR OF SCR-ROW   TO XSCR-NEXT-YEAR         PPOT1490
074200     MOVE SCR-NEXTCYCLE-FYR OF SCR-ROW  TO XSCR-NEXT-FY           PPOT1490
074300     MOVE 'OT'                          TO XSCR-LAST-PGM-RUN      PPOT1490
074400     MOVE SCR-EDB-GENNUM OF SCR-ROW     TO XSCR-EDB-GEN-NO        PPOT1490
074500     MOVE SCR-PURGE-DATE OF SCR-ROW     TO XDC3-ISO-DATE          PPOT1490
074600     PERFORM XDC3-CONVERT-ISO-TO-STD                              PPOT1490
074700     MOVE XDC3-STD-DATE                 TO XSCR-PURGE-DATE        PPOT1490
074800     MOVE SCR-CURRENT-DATE OF SCR-ROW   TO XDC3-ISO-DATE          PPOT1490
074900     PERFORM XDC3-CONVERT-ISO-TO-STD                              PPOT1490
075000     MOVE XDC3-STD-DATE                 TO XSCR-CURRENT-DATE      PPOT1490
075100*** Now write Header Control Record to ECF File                   PPOT1490
075200     MOVE LOW-VALUES                    TO XCHG-ODO-LENGTHS       PPOT1490
075300     MOVE XSCR-SYSTEM-CONTROL-RECORD    TO EDB-CHANGE-RECORD      PPOT1490
075400     MOVE LOW-VALUES                    TO XCHG-ODO-LENGTHS       PPOT1490
075500     PERFORM 6000-WRITE-OUT-OCHG.                                 PPOT1490
075600                                                                  PPOT1490
075700     EJECT                                                        PPOT1490
075800 2000-EMP-CURSOR           SECTION.                               PPOT1490
075900***********************************************************       PPOT1490
076000*     PROCESS THE MAIN EMPLOYEE CURSOR LOOP.              *       PPOT1490
076100***********************************************************       PPOT1490
076200                                                                  PPOT1490
076300     PERFORM 8310-FETCH-EMP-CURSOR.                               PPOT1490
076400                                                                  PPOT1490
076500     IF EOF-EMP-DATA                                              PPOT1490
076600***********************************************************       PPOT1490
076700*       There were no employees with GTN 284 on DBL table.*       PPOT1490
076800*       Issue message and initialize DBL data for EOJ.    *       PPOT1490
076900***********************************************************       PPOT1490
077000        SET NO-EMPL-SELECTED TO TRUE                              PPOT1490
077100        MOVE 'No empls selected for One-time Process'             PPOT1490
077200                                    TO WS-MESSAGE-TEXT            PPOT1490
077300        PERFORM 7000-BUILD-MESSAGE                                PPOT1490
077400        INITIALIZE DBL-ROW                                        PPOT1490
077600        INITIALIZE BRS-ROW                                        PPOT1490
077800     ELSE                                                         PPOT1490
077900***********************************************************       PPOT1490
078000*       SET UP DATA FOR FIRST EMPLOYEE FETCHED.           *       PPOT1490
078100***********************************************************       PPOT1490
078200        PERFORM 2100-PROCESS-EMP-CURSOR                           PPOT1490
078300     END-IF.                                                      PPOT1490
078400                                                                  PPOT1490
078500***********************************************************       PPOT1490
078600*    PERFORM THE FETCH LOOP UNTIL THERE ARE NO MORE ROWS  *       PPOT1490
078700***********************************************************       PPOT1490
078800     PERFORM 2100-PROCESS-EMP-CURSOR                              PPOT1490
078900             UNTIL EOF-EMP-DATA                                   PPOT1490
079000                OR FATAL-ERROR.                                   PPOT1490
079100                                                                  PPOT1490
079200***********************************************************       PPOT1490
079300*    CLOSE THE CURSOR.                                    *       PPOT1490
079400***********************************************************       PPOT1490
079500     PERFORM 8320-CLOSE-EMP-CURSOR.                               PPOT1490
079600                                                                  PPOT1490
079700 2000-EXIT. EXIT.                                                 PPOT1490
079800                                                                  PPOT1490
079900     EJECT                                                        PPOT1490
080000 2100-PROCESS-EMP-CURSOR   SECTION.                               PPOT1490
080100***********************************************************       PPOT1490
080200*    PROCESS EACH RETURNED PPPDBL ROW AND RELATED DATA.   *       PPOT1490
080300***********************************************************       PPOT1490
080400                                                                  PPOT1490
080600     IF SQLCODE = ZERO                                            PPOT1490
082800        EVALUATE TRUE                                             PPOT1490
082801            WHEN WS-EMP-GTN-IND  = 'G'                            PPOT1490
082802               PERFORM 8200-DELETE-DBL-G                          PPOT1490
082803               PERFORM 3100-WRITE-DETAIL                          PPOT1490
082804                                                                  PPOT1490
082805               IF WS-GTN-ICED = 'V'                               PPOT1490
082806                  PERFORM 8050-SELECT-BRS-ROW                     PPOT1490
082807                  IF SQLCODE = ZERO                               PPOT1490
082808                     PERFORM 8200-DELETE-BRS-ROW                  PPOT1490
082809                  END-IF                                          PPOT1490
082810               END-IF                                             PPOT1490
082811            WHEN WS-EMP-GTN-IND  = 'S'                            PPOT1490
082812               PERFORM 8200-DELETE-DBL-S                          PPOT1490
082813        END-EVALUATE                                              PPOT1490
082820     END-IF.                                                      PPOT1490
084420                                                                  PPOT1490
084500     PERFORM 8310-FETCH-EMP-CURSOR.                               PPOT1490
084600                                                                  PPOT1490
084700 2100-EXIT. EXIT.                                                 PPOT1490
084800                                                                  PPOT1490
096900     EJECT                                                        PPOT1490
097000 3100-WRITE-DETAIL        SECTION.                                PPOT1490
097100***********************************************************       PPOT1490
097200*    WRITE DETAIL REPORTS                                 *       PPOT1490
097300***********************************************************       PPOT1490
097500                                                                  PPOT1490
097501     IF (RPT1-LINES-PER-PAGE > MAX-LINES-PER-PAGE)                PPOT1490
097502         PERFORM 3200-WRITE-RPT1-NEWPAGE                          PPOT1490
097503     END-IF.                                                      PPOT1490
099100                                                                  PPOT1490
099101     MOVE SPACES TO RPT-DETAIL-REC.                               PPOT1490
099102                                                                  PPOT1490
099110     MOVE WS-EMP-NAME TO RPT-NAME-LN.                             PPOT1490
099111     MOVE WS-EMP-EMPLOYEE-ID TO RPT-EMP-ID.                       PPOT1490
099112     MOVE WS-EMP-GTN-AMT TO RPT-GTN-AMT.                          PPOT1490
099120     MOVE HME-ABRV-DEPT-NAME TO RPT-DEPARTMENT-NAME.              PPOT1490
099121     MOVE HME-DEPT-ADDRESS TO RPT-DEPARTMENT-ADDRESS.             PPOT1490
099130                                                                  PPOT1490
099131     MOVE SPACES TO RPT-EMP-STATUS.                               PPOT1490
099132     EVALUATE WS-EMP-STATUS                                       PPOT1490
099133       WHEN ('A')                                                 PPOT1490
099134          MOVE 'ACTIVE' TO RPT-EMP-STATUS                         PPOT1490
099135       WHEN ('N')                                                 PPOT1490
099136          MOVE 'LEAVE WITHOUT PAY' TO RPT-EMP-STATUS              PPOT1490
099137       WHEN ('P')                                                 PPOT1490
099138          MOVE 'LEAVE WITH PAY'    TO RPT-EMP-STATUS              PPOT1490
099139       WHEN ('S')                                                 PPOT1490
099140          MOVE 'SEPARATED'         TO RPT-EMP-STATUS              PPOT1490
099141       WHEN ('I')                                                 PPOT1490
099142          MOVE 'INACTIVE'          TO RPT-EMP-STATUS              PPOT1490
099143     END-EVALUATE.                                                PPOT1490
099150                                                                  PPOT1490
099151     WRITE POT14901-LINE FROM RPT-LINE-1                          PPOT1490
099152                      AFTER ADVANCING +2.                         PPOT1490
099153     WRITE POT14901-LINE FROM RPT-LINE-2                          PPOT1490
099154                      AFTER ADVANCING +1.                         PPOT1490
099156                                                                  PPOT1490
099157     ADD +3 TO RPT1-LINES-PER-PAGE.                               PPOT1490
099160                                                                  PPOT1490
099200     EJECT                                                        PPOT1490
099300 3200-WRITE-RPT1-NEWPAGE   SECTION.                               PPOT1490
099400                                                                  PPOT1490
099500     MOVE SPACES                        TO STND-RPT-COMMENT.      PPOT1490
099600     MOVE 'RUN TIME'                    TO STND-DATE2-TTL         PPOT1490
099700     MOVE WS-RUN-TIME-FORMAT            TO STND-DATE2             PPOT1490
099800     MOVE '        ONE-TIME PROGRAM   ' TO STND-FUNC-AREA         PPOT1490
099900     MOVE '  AMERICAN CENTURY/CANCELLATION RPT ' TO STND-RPT-TTL. PPOT1490
100000     MOVE 'OT14901'                     TO STND-RPT-ID.           PPOT1490
100100     MOVE WS-PGM-ID                     TO STND-PROG-ID           PPOT1490
100200     MOVE WS-XDC3-FMT-DATE              TO STND-RPT-DATE.         PPOT1490
100300     ADD +1 TO WS-ONET-PAGE-NO-1.                                 PPOT1490
100400     MOVE WS-ONET-PAGE-NO-1 TO STND-PAGE-NO.                      PPOT1490
100500     INSPECT STND-PAGE-NO REPLACING LEADING ZEROS BY SPACE.       PPOT1490
100600                                                                  PPOT1490
100700     WRITE POT14901-LINE FROM STND-RPT-HD1                        PPOT1490
100800                     AFTER ADVANCING NEW-PAGE.                    PPOT1490
100900                                                                  PPOT1490
101000     WRITE POT14901-LINE FROM STND-RPT-HD2                        PPOT1490
101100                     AFTER ADVANCING +1.                          PPOT1490
101200                                                                  PPOT1490
101300     WRITE POT14901-LINE FROM STND-RPT-HD3                        PPOT1490
101400                     AFTER ADVANCING +1.                          PPOT1490
101500                                                                  PPOT1490
101600     WRITE POT14901-LINE FROM PPOT1490-COL-HDR1                   PPOT1490
101700                     AFTER ADVANCING +2.                          PPOT1490
101800                                                                  PPOT1490
101900     WRITE POT14901-LINE FROM PPOT1490-COL-HDR2                   PPOT1490
102000                     AFTER ADVANCING +1.                          PPOT1490
103100                                                                  PPOT1490
103200     MOVE +07 TO RPT1-LINES-PER-PAGE.                             PPOT1490
103400                                                                  PPOT1490
103500     EJECT                                                        PPOT1490
103600 4000-CREATE-ECF-G         SECTION.                               PPOT1490
103700******************************************************************PPOT1490
103800*     WRITE EDB CHANGE FILE                                      *PPOT1490
103900******************************************************************PPOT1490
104000                                                                  PPOT1490
104100     INITIALIZE XCHG-FIXED-AREA.                                  PPOT1490
104200     MOVE 'PPOT1490' TO XCHG-PROCESS-ID.                          PPOT1490
104300     MOVE XDC3-GREGORIAN-CHAR TO XCHG-TIMESTAMP.                  PPOT1490
104400                                                                  PPOT1490
104500     MOVE WS-EMP-EMPLOYEE-ID TO XCHG-EMPLOYEE-ID.                 PPOT1490
104600     MOVE '6000' TO XCHG-DATA-ELEM-NO.                            PPOT1490
104700     MOVE SPACES TO XCHG-OCCURENCE-KEY.                           PPOT1490
104800                                                                  PPOT1490
104900     MOVE +10               TO XCHG-OLD-VAL-LNGTH,                PPOT1490
105000                               XCHG-NEW-VAL2-LNGTH.               PPOT1490
105100                                                                  PPOT1490
105200     MOVE WS-EMP-GTN-AMT  TO WS-NUMBER-EDITED                     PPOT1490
105300     MOVE WS-NUMBER-EDITED  TO XCHG-OLD-VALUE.                    PPOT1490
105400     MOVE ZERO              TO WS-NUMBER-EDITED                   PPOT1490
105500     MOVE WS-NUMBER-EDITED  TO XCHG-NEW-VALUE2.                   PPOT1490
105600     MOVE '6000'            TO XCHG-DATA-ELEM-NO.                 PPOT1490
105700     MOVE '284'             TO WS-GTN-NUM-G.                      PPOT1490
105800     MOVE WS-OCC-KEY-G      TO XCHG-OCCURENCE-KEY.                PPOT1490
105900     PERFORM 6000-WRITE-OUT-OCHG.                                 PPOT1490
106000                                                                  PPOT1490
106100     EJECT                                                        PPOT1490
106200 4000-CREATE-ECF-S         SECTION.                               PPOT1490
106300******************************************************************PPOT1490
106400*     WRITE EDB CHANGE FILE                                      *PPOT1490
106500******************************************************************PPOT1490
106600                                                                  PPOT1490
106700     INITIALIZE XCHG-FIXED-AREA.                                  PPOT1490
106800     MOVE 'PPOT1490' TO XCHG-PROCESS-ID.                          PPOT1490
106900     MOVE XDC3-GREGORIAN-CHAR TO XCHG-TIMESTAMP.                  PPOT1490
107000                                                                  PPOT1490
107100     MOVE WS-EMP-EMPLOYEE-ID TO XCHG-EMPLOYEE-ID.                 PPOT1490
107200     MOVE '6000' TO XCHG-DATA-ELEM-NO.                            PPOT1490
107300     MOVE SPACES TO XCHG-OCCURENCE-KEY.                           PPOT1490
107400                                                                  PPOT1490
107500     MOVE +10               TO XCHG-OLD-VAL-LNGTH,                PPOT1490
107600                               XCHG-NEW-VAL2-LNGTH.               PPOT1490
107700                                                                  PPOT1490
107800     MOVE WS-EMP-GTN-AMT  TO WS-NUMBER-EDITED                     PPOT1490
107900     MOVE WS-NUMBER-EDITED  TO XCHG-OLD-VALUE.                    PPOT1490
108000     MOVE ZERO              TO WS-NUMBER-EDITED                   PPOT1490
108100     MOVE WS-NUMBER-EDITED  TO XCHG-NEW-VALUE2.                   PPOT1490
108200     MOVE '6000'            TO XCHG-DATA-ELEM-NO.                 PPOT1490
108300     MOVE '284'             TO WS-GTN-NUM-S.                      PPOT1490
108400     MOVE WS-OCC-KEY-S      TO XCHG-OCCURENCE-KEY.                PPOT1490
108500     PERFORM 6000-WRITE-OUT-OCHG.                                 PPOT1490
116900                                                                  PPOT1490
117000     EJECT                                                        PPOT1490
117100 4300-CREATE-ECF-BRSC          SECTION.                           PPOT1490
117200******************************************************************PPOT1490
117300*     WRITE EDB CHANGE FILE                                      *PPOT1490
117400******************************************************************PPOT1490
117500                                                                  PPOT1490
117600     INITIALIZE XCHG-FIXED-AREA.                                  PPOT1490
117700     MOVE 'PPOT1490' TO XCHG-PROCESS-ID.                          PPOT1490
117800     MOVE XDC3-GREGORIAN-CHAR TO XCHG-TIMESTAMP.                  PPOT1490
117900                                                                  PPOT1490
118000     MOVE WS-EMP-EMPLOYEE-ID TO XCHG-EMPLOYEE-ID.                 PPOT1490
118100     MOVE '7000' TO XCHG-DATA-ELEM-NO.                            PPOT1490
118200     MOVE SPACES TO XCHG-OCCURENCE-KEY.                           PPOT1490
118300                                                                  PPOT1490
118500     MOVE +10                 TO XCHG-OLD-VAL-LNGTH,              PPOT1490
118600                               XCHG-NEW-VAL2-LNGTH.               PPOT1490
118700     MOVE WS-DED-EFF-DATE     TO XCHG-OLD-VALUE.                  PPOT1490
118800     MOVE '0001-01-01'        TO XCHG-NEW-VALUE2.                 PPOT1490
118900     MOVE '7000'              TO XCHG-DATA-ELEM-NO.               PPOT1490
119000     MOVE '284'               TO WS-GTN-NUM-E                     PPOT1490
119100     MOVE WS-OCC-KEY-E        TO XCHG-OCCURENCE-KEY.              PPOT1490
119200     PERFORM 6000-WRITE-OUT-OCHG.                                 PPOT1490
121600                                                                  PPOT1490
121700 6000-WRITE-OUT-OCHG                  SECTION.                    PPOT1490
121800                                                                  PPOT1490
121900     WRITE OCHG-EDB-CHANGE-RECORD  FROM EDB-CHANGE-RECORD         PPOT1490
122000     ADD 1                              TO WS-ECF-WRITES.         PPOT1490
122100     MOVE SPACE                         TO XCHG-OCCURENCE-KEY.    PPOT1490
122200                                                                  PPOT1490
122300     EJECT                                                        PPOT1490
122400 7000-BUILD-MESSAGE        SECTION.                               PPOT1490
122500***********************************************************       PPOT1490
122600*     PRINT MESSAGES                                      *       PPOT1490
122700***********************************************************       PPOT1490
122800                                                                  PPOT1490
122900     IF   WRN-LINE-COUNT  > MAX-LINES-PAGE                        PPOT1490
123000          PERFORM 7050-BUILD-MESSAGE-HDR                          PPOT1490
123100     END-IF.                                                      PPOT1490
123200     MOVE WS-MESSAGE                    TO PRINT-REC.             PPOT1490
123300     WRITE PRINT-REC AFTER ADVANCING 1                            PPOT1490
123400     MOVE SPACES                        TO PRINT-REC.             PPOT1490
123500     WRITE PRINT-REC AFTER ADVANCING 1                            PPOT1490
123600     ADD +2                             TO WRN-LINE-COUNT.        PPOT1490
123700                                                                  PPOT1490
123800                                                                  PPOT1490
123900 7000-EXIT.  EXIT.                                                PPOT1490
124000                                                                  PPOT1490
124100 7050-BUILD-MESSAGE-HDR    SECTION.                               PPOT1490
124200***********************************************************       PPOT1490
124300*     PRINT MESSAGE REPORT HEADERS                        *       PPOT1490
124400***********************************************************       PPOT1490
124500                                                                  PPOT1490
124600     MOVE SPACES                        TO STND-RPT-COMMENT.      PPOT1490
124700     MOVE 'RUN TIME'                    TO STND-DATE2-TTL         PPOT1490
124800     MOVE WS-RUN-TIME-FORMAT            TO STND-DATE2             PPOT1490
124900     MOVE '        ONE-TIME PROGRAM   ' TO STND-FUNC-AREA         PPOT1490
125000     MOVE '          WARNINGS AND MESSAGES' TO STND-RPT-TTL.      PPOT1490
125100     MOVE 'OT14902'                     TO STND-RPT-ID.           PPOT1490
125200     MOVE WS-PGM-ID                     TO STND-PROG-ID           PPOT1490
125300     MOVE WS-XDC3-FMT-DATE              TO STND-RPT-DATE.         PPOT1490
125400     ADD +1 TO WS-ONET-PAGE-NO-2.                                 PPOT1490
125500     MOVE WS-ONET-PAGE-NO-2 TO STND-PAGE-NO.                      PPOT1490
125600     INSPECT STND-PAGE-NO REPLACING LEADING ZEROS BY SPACE.       PPOT1490
125700                                                                  PPOT1490
125800     MOVE STND-RPT-HD1 TO PRINT-REC.                              PPOT1490
125900     WRITE PRINT-REC AFTER ADVANCING NEW-PAGE.                    PPOT1490
126000                                                                  PPOT1490
126100     MOVE STND-RPT-HD2 TO PRINT-REC.                              PPOT1490
126200     WRITE PRINT-REC AFTER ADVANCING +1.                          PPOT1490
126300                                                                  PPOT1490
126400     MOVE STND-RPT-HD3 TO PRINT-REC.                              PPOT1490
126500     WRITE PRINT-REC AFTER ADVANCING +1.                          PPOT1490
126600                                                                  PPOT1490
126700     MOVE SPACES TO PRINT-REC.                                    PPOT1490
126800     WRITE PRINT-REC AFTER ADVANCING +1.                          PPOT1490
126900     MOVE +4 TO WRN-LINE-COUNT.                                   PPOT1490
127000                                                                  PPOT1490
127100 7050-EXIT. EXIT.                                                 PPOT1490
127200                                                                  PPOT1490
135700     EJECT                                                        PPOT1490
135800 8050-SELECT-BRS-ROW       SECTION.                               PPOT1490
135900***********************************************************       PPOT1490
136000*     SELECT THE PPPBRS ROW                               *       PPOT1490
136100***********************************************************       PPOT1490
136200     MOVE 'SELECT PPPBRS ROW' TO DB2MSG-TAG.                      PPOT1490
136300                                                                  PPOT1490
136400     EXEC SQL                                                     PPOT1490
136500       SELECT DED_EFF_DATE                                        PPOT1490
136600       INTO                                                       PPOT1490
136700       :WS-DED-EFF-DATE                                           PPOT1490
136800       FROM PPPVBRS1_BRS                                          PPOT1490
136900       WHERE EMPLOYEE_ID  = :WS-EMP-EMPLOYEE-ID                   PPOT1490
137000         AND BENRATE_GTN  = '284'                                 PPOT1490
137100     END-EXEC.                                                    PPOT1490
137200                                                                  PPOT1490
147100    EJECT                                                         PPOT1490
147200 8200-DELETE-DBL-G         SECTION.                               PPOT1490
147300***********************************************************       PPOT1490
147400*     DELETE THE PPPDBL ROW                               *       PPOT1490
147500***********************************************************       PPOT1490
147600     PERFORM 4000-CREATE-ECF-G.                                   PPOT1490
147610                                                                  PPOT1490
147700     IF EDB-UPDATE-REQUESTED                                      PPOT1490
147800        MOVE 'DELETE PPPDBL ROW' TO DB2MSG-TAG                    PPOT1490
147900                                                                  PPOT1490
148000        EXEC SQL                                                  PPOT1490
148100           DELETE FROM PPPVDBL1_DBL                               PPOT1490
148200           WHERE EMPLOYEE_ID  = :WS-EMP-EMPLOYEE-ID               PPOT1490
148300             AND GTN_NUMBER   = '284'                             PPOT1490
148400             AND GTN_IND    = 'G'                                 PPOT1490
148500        END-EXEC                                                  PPOT1490
148600                                                                  PPOT1490
148700        IF SQLCODE = ZERO                                         PPOT1490
148800           ADD +1 TO  WS-DBL-ROWS-G-DELETED                       PPOT1490
148900        END-IF                                                    PPOT1490
149000     END-IF.                                                      PPOT1490
149010                                                                  PPOT1490
149011    EJECT                                                         PPOT1490
149020 8200-DELETE-DBL-S         SECTION.                               PPOT1490
149030***********************************************************       PPOT1490
149040*     DELETE THE PPPDBL ROW                               *       PPOT1490
149050***********************************************************       PPOT1490
149060     PERFORM 4000-CREATE-ECF-S.                                   PPOT1490
149070                                                                  PPOT1490
149080     IF EDB-UPDATE-REQUESTED                                      PPOT1490
149090        MOVE 'DELETE PPPDBL ROW' TO DB2MSG-TAG                    PPOT1490
149091                                                                  PPOT1490
149092        EXEC SQL                                                  PPOT1490
149093           DELETE FROM PPPVDBL1_DBL                               PPOT1490
149094           WHERE EMPLOYEE_ID  = :WS-EMP-EMPLOYEE-ID               PPOT1490
149095             AND GTN_NUMBER   = '284'                             PPOT1490
149096             AND GTN_IND    = 'S'                                 PPOT1490
149097        END-EXEC                                                  PPOT1490
149098                                                                  PPOT1490
149099        IF SQLCODE = ZERO                                         PPOT1490
149100           ADD +1 TO  WS-DBL-ROWS-G-DELETED                       PPOT1490
149110        END-IF                                                    PPOT1490
149120     END-IF.                                                      PPOT1490
149200                                                                  PPOT1490
153000     EJECT                                                        PPOT1490
153100 8200-DELETE-BRS-ROW    SECTION.                                  PPOT1490
153200***********************************************************       PPOT1490
153300*     DELETE THE PPPBRS ROW                               *       PPOT1490
153400***********************************************************       PPOT1490
153500     IF EDB-UPDATE-REQUESTED                                      PPOT1490
153600        MOVE 'DELETE PPPBRS ROW' TO DB2MSG-TAG                    PPOT1490
153700                                                                  PPOT1490
153800        EXEC SQL                                                  PPOT1490
153900          DELETE FROM PPPVBRS1_BRS                                PPOT1490
154000          WHERE EMPLOYEE_ID  = :WS-EMP-EMPLOYEE-ID                PPOT1490
154100            AND BENRATE_GTN  = '284'                              PPOT1490
154200        END-EXEC                                                  PPOT1490
154300                                                                  PPOT1490
154400        IF SQLCODE  = ZERO                                        PPOT1490
154500           ADD +1 TO  WS-BRS-ROWS-DELETED                         PPOT1490
154600        END-IF                                                    PPOT1490
154700     END-IF.                                                      PPOT1490
154710                                                                  PPOT1490
154800     PERFORM 4300-CREATE-ECF-BRSC.                                PPOT1490
154900                                                                  PPOT1490
155000 8300-OPEN-EMP-CURSOR      SECTION.                               PPOT1490
155100***********************************************************       PPOT1490
155200*     OPEN MAIN EMP_CURSOR                                *       PPOT1490
155300***********************************************************       PPOT1490
155400                                                                  PPOT1490
155500     MOVE 'OPEN MAIN CURSOR' TO DB2MSG-TAG                        PPOT1490
155600     EXEC SQL                                                     PPOT1490
155700       OPEN EMP_CURSOR                                            PPOT1490
155800     END-EXEC.                                                    PPOT1490
155900                                                                  PPOT1490
156000 8310-FETCH-EMP-CURSOR     SECTION.                               PPOT1490
156100***********************************************************       PPOT1490
156200*     FETCH MAIN EMP_CURSOR                               *       PPOT1490
156300***********************************************************       PPOT1490
156400                                                                  PPOT1490
156500      MOVE 'FETCH EMP ROW' TO DB2MSG-TAG.                         PPOT1490
156600      EXEC SQL                                                    PPOT1490
156700          FETCH EMP_CURSOR INTO                                   PPOT1490
156800            :WS-EMP-EMPLOYEE-ID                                   PPOT1490
156900           ,:WS-EMP-GTN-NUMBER                                    PPOT1490
157000           ,:WS-EMP-GTN-IND                                       PPOT1490
157100           ,:WS-EMP-GTN-AMT                                       PPOT1490
157200           ,:WS-EMP-NAME                                          PPOT1490
157210           ,:WS-EMP-HOME-DEPT                                     PPOT1490
157220           ,:WS-EMP-STATUS                                        PPOT1490
157300      END-EXEC.                                                   PPOT1490
157400                                                                  PPOT1490
157700      IF SQLCODE = +100                                           PPOT1490
157800         SET EOF-EMP-DATA TO TRUE                                 PPOT1490
157900      ELSE                                                        PPOT1490
158000         IF SQLCODE = 0                                           PPOT1490
158400            ADD  +1 TO WS-EMP-TOTAL                               PPOT1490
158500            PERFORM 8500-SELECT-FROM-HME                          PPOT1490
160200         END-IF                                                   PPOT1490
160300      END-IF.                                                     PPOT1490
160400                                                                  PPOT1490
160500 8320-CLOSE-EMP-CURSOR     SECTION.                               PPOT1490
160600***********************************************************       PPOT1490
160700*     CLOSE MAIN DBL_CURSOR                               *       PPOT1490
160800***********************************************************       PPOT1490
160900                                                                  PPOT1490
161000     MOVE 'CLOSE MAIN CURSOR' TO DB2MSG-TAG                       PPOT1490
161100     EXEC SQL                                                     PPOT1490
161200       CLOSE EMP_CURSOR                                           PPOT1490
161300     END-EXEC.                                                    PPOT1490
161510                                                                  PPOT1490
161511     EJECT                                                        PPOT1490
161512***********************************************************       PPOT1490
161520 8500-SELECT-FROM-HME SECTION.                                    PPOT1490
161521***********************************************************       PPOT1490
161522                                                                  PPOT1490
161530     MOVE 'SELECT HME' TO DB2MSG-TAG.                             PPOT1490
161540     EXEC SQL                                                     PPOT1490
161550          SELECT                                                  PPOT1490
161551                 HME_ABRV_DEPT_NAME                               PPOT1490
161560                ,HME_DEPT_ADDRESS                                 PPOT1490
161570            INTO                                                  PPOT1490
161580                :HME-ABRV-DEPT-NAME                               PPOT1490
161581               ,:HME-DEPT-ADDRESS                                 PPOT1490
161590            FROM PPPVZHME_HME                                     PPOT1490
161591           WHERE HME_DEPT_NO = :WS-EMP-HOME-DEPT                  PPOT1490
161592     END-EXEC.                                                    PPOT1490
161593     IF SQLCODE = +100                                            PPOT1490
161594        MOVE SPACES TO  HME-ABRV-DEPT-NAME                        PPOT1490
161595                        HME-DEPT-ADDRESS                          PPOT1490
161596     END-EXEC.                                                    PPOT1490
161600                                                                  PPOT1490
161700 9000-FINALIZATION         SECTION.                               PPOT1490
161800***********************************************************       PPOT1490
161900*     FINALIZATION                                        *       PPOT1490
162000***********************************************************       PPOT1490
162100                                                                  PPOT1490
162200     PERFORM 7050-BUILD-MESSAGE-HDR.                              PPOT1490
162400                                                                  PPOT1490
162500     MOVE 'TOTAL NUMBER OF EMPLOYEES SELECTED'                    PPOT1490
162600                                TO RPT2-RECORD-DESC.              PPOT1490
162700     MOVE WS-EMP-TOTAL          TO RPT2-RECORD-TOTAL.             PPOT1490
162800     MOVE OT14902-TOTAL-LINE TO PRINT-REC.                        PPOT1490
162900     WRITE PRINT-REC AFTER ADVANCING +1.                          PPOT1490
163000                                                                  PPOT1490
163100     MOVE 'TOTAL NUMBER OF EMPLOYEE CHANGE RECORDS'               PPOT1490
163200                                TO RPT2-RECORD-DESC.              PPOT1490
163300     MOVE WS-ECF-WRITES         TO RPT2-RECORD-TOTAL.             PPOT1490
163400     MOVE OT14902-TOTAL-LINE TO PRINT-REC.                        PPOT1490
163500     WRITE PRINT-REC AFTER ADVANCING +2.                          PPOT1490
163600                                                                  PPOT1490
163700     MOVE 'NUMBER OF DBL ROWS DELETED'                            PPOT1490
163800                                TO RPT2-RECORD-DESC.              PPOT1490
163900     MOVE WS-DBL-ROWS-G-DELETED TO RPT2-RECORD-TOTAL.             PPOT1490
164000     MOVE OT14902-TOTAL-LINE TO PRINT-REC.                        PPOT1490
164100     WRITE PRINT-REC AFTER ADVANCING +2.                          PPOT1490
164200                                                                  PPOT1490
164800                                                                  PPOT1490
166700     MOVE 'NUMBER OF BRS ROWS DELETED' TO RPT2-RECORD-DESC.       PPOT1490
166800     MOVE WS-BRS-ROWS-DELETED TO RPT2-RECORD-TOTAL.               PPOT1490
166900     MOVE OT14902-TOTAL-LINE TO PRINT-REC.                        PPOT1490
167000     WRITE PRINT-REC AFTER ADVANCING +2.                          PPOT1490
167700                                                                  PPOT1490
167800     CLOSE PRINT-FILE                                             PPOT1490
167900           POT14901-REPORT                                        PPOT1490
168000           CARD-FILE                                              PPOT1490
168200           TEMP-EDBCHG                                            PPOT1490
168210                EDBCHG.                                           PPOT1490
168300                                                                  PPOT1490
168400     EJECT                                                        PPOT1490
168500 XDC3-DATE-CONVERSION      SECTION.                               PPOT1490
168600***********************************************************       PPOT1490
168700*     XDC3 DATE ROUTINES                                  *       PPOT1490
168800***********************************************************       PPOT1490
168900                                            COPY CPPDXDC3.        PPOT1490
169000                                                                  PPOT1490
169100     EJECT                                                        PPOT1490
169200***********************************************************       PPOT1490
169300*     NEGATIVE SQL ERROR                                  *       PPOT1490
169400***********************************************************       PPOT1490
169500*999999-SQL-ERROR.                                                PPOT1490
169600     EXEC SQL                                                     PPOT1490
169700          INCLUDE CPPDXP99                                        PPOT1490
169800     END-EXEC.                                                    PPOT1490
169900     IF NOT HERE-BEFORE                                           PPOT1490
170000         SET HERE-BEFORE TO TRUE                                  PPOT1490
170100         MOVE 'UPDATE ROLLBACK' TO DB2MSG-TAG                     PPOT1490
170200         EXEC SQL                                                 PPOT1490
170300             ROLLBACK WORK                                        PPOT1490
170400         END-EXEC                                                 PPOT1490
170500     END-IF.                                                      PPOT1490
170600     SET FATAL-ERROR TO TRUE                                      PPOT1490
170700     MOVE 'Negative SQL-See PPDB2MSG Diagnostics'                 PPOT1490
170800                    TO WS-MESSAGE-TEXT                            PPOT1490
170900     PERFORM 7000-BUILD-MESSAGE.                                  PPOT1490
171000     PERFORM 9000-FINALIZATION.                                   PPOT1490
171100     MOVE +9               TO RETURN-CODE.                        PPOT1490
171200     STOP RUN.                                                    PPOT1490
171300                                                                  PPOT1490
171400********  END OF PROGRAM PPOT1490 ********                        PPOT1490
