000009**************************************************************/   42601134
000010*  PROGRAM: PPOT1134                                         */   42601134
000011*  RELEASE: ___1134______ SERVICE REQUEST(S): ____14260____  */   42601134
000020*  NAME:__PHIL THOMPSON__ CREATION DATE:      ___07/11/97__  */   42601134
000030*  DESCRIPTION:                                              */   42601134
000040*  - REDERIVE THE UI CODE ALL FOR NON-SEPARATED EMPLOYEES.   */   42601134
000060**************************************************************/   42601134
001000 IDENTIFICATION DIVISION.                                         PPOT1134
001100 PROGRAM-ID. PPOT1134.                                            PPOT1134
001200 AUTHOR. UCOP                                                     PPOT1134
001300                                                                  PPOT1134
001400*REMARKS.                                                         PPOT1134
001500                                                                  PPOT1134
001700***********************************************************       PPOT1134
001800*        E N V I R O N M E N T     D I V I S I O N        *       PPOT1134
001900***********************************************************       PPOT1134
002000                                                                  PPOT1134
002100 ENVIRONMENT DIVISION.                                            PPOT1134
002200 CONFIGURATION SECTION.                                           PPOT1134
002300                                                                  PPOT1134
002400 SPECIAL-NAMES.                                                   PPOT1134
002500     C01 IS NEW-PAGE.                                             PPOT1134
002600                                                                  PPOT1134
002700 INPUT-OUTPUT SECTION.                                            PPOT1134
002800 FILE-CONTROL.                                                    PPOT1134
002900                                                                  PPOT1134
002901***********************************************************       PPOT1134
002910*    REPORT PRINT FILES                                   *       PPOT1134
002920***********************************************************       PPOT1134
003000     SELECT POT11341-REPORT ASSIGN TO UT-S-POT11341.              PPOT1134
003551     SELECT PRINT-FILE      ASSIGN TO UT-S-POT11342.              PPOT1134
003552                                                                  PPOT1134
003553***********************************************************       PPOT1134
003554*    REPORT DATA SORT FILES                               *       PPOT1134
003555***********************************************************       PPOT1134
003556     SELECT POSRTB1        ASSIGN TO UT-S-POSRTB1.                PPOT1134
003557     SELECT POSRTB2        ASSIGN TO UT-S-POSRTB2.                PPOT1134
003558     SELECT POSRTB3        ASSIGN TO UT-S-POSRTB3.                PPOT1134
003562                                                                  PPOT1134
003563***********************************************************       PPOT1134
003564*    SPEC CARD                                            *       PPOT1134
003565***********************************************************       PPOT1134
003570     SELECT CARDFILE       ASSIGN TO UT-S-CARDFIL.                PPOT1134
003700                                                                  PPOT1134
003710***********************************************************       PPOT1134
003720*    ECF                                                  *       PPOT1134
003730***********************************************************       PPOT1134
003800     SELECT EDBCHG         ASSIGN TO UT-S-EDBCHG.                 PPOT1134
003921                                                                  PPOT1134
003922***********************************************************       PPOT1134
003923*    SORT WORK FILE                                       *       PPOT1134
003924***********************************************************       PPOT1134
003925     SELECT SORT-WORK-FILE         COPY CPSLXSRT.                 PPOT1134
003930                                                                  PPOT1134
004100     EJECT                                                        PPOT1134
004200***********************************************************       PPOT1134
004300*                D A T A     D I V I S I O N              *       PPOT1134
004400***********************************************************       PPOT1134
004500                                                                  PPOT1134
004600 DATA DIVISION.                                                   PPOT1134
004700 FILE SECTION.                                                    PPOT1134
006910                                                                  PPOT1134
006920***********************************************************       PPOT1134
006930*    REPORT PRINT FILES                                   *       PPOT1134
006940***********************************************************       PPOT1134
007000 FD  POT11341-REPORT                                              PPOT1134
007100     LABEL RECORDS ARE OMITTED                                    PPOT1134
007200     BLOCK CONTAINS 0 RECORDS                                     PPOT1134
007300     RECORDING MODE IS F                                          PPOT1134
007400     RECORD CONTAINS 133 CHARACTERS.                              PPOT1134
007500                                                                  PPOT1134
007600 01  PPOT11341-LINE.                                              PPOT1134
007700     05  FILLER                   PIC X.                          PPOT1134
007800     05  PPOT11341-DATA           PIC X(132).                     PPOT1134
009912                                                                  PPOT1134
009913 FD  PRINT-FILE                  COPY CPFDXPRT.                   PPOT1134
009914                                                                  PPOT1134
009915***********************************************************       PPOT1134
009916*    REPORT DATA SORT FILES                               *       PPOT1134
009917***********************************************************       PPOT1134
009918 FD  POSRTB1                                                      PPOT1134
009919     LABEL RECORDS ARE OMITTED                                    PPOT1134
009920     BLOCK CONTAINS 0 RECORDS                                     PPOT1134
009921     RECORDING MODE IS F                                          PPOT1134
009922     RECORD CONTAINS 137 CHARACTERS.                              PPOT1134
009923                                                                  PPOT1134
009924 01  POSRTB1-REC.                                                 PPOT1134
009925     05  POSRTB1-KEY              PIC X(32).                      PPOT1134
009926     05  POSRTB1-DATA             PIC X(105).                     PPOT1134
009927                                                                  PPOT1134
009928 FD  POSRTB2                                                      PPOT1134
009929     LABEL RECORDS ARE OMITTED                                    PPOT1134
009930     BLOCK CONTAINS 0 RECORDS                                     PPOT1134
009931     RECORDING MODE IS F                                          PPOT1134
009932     RECORD CONTAINS 137 CHARACTERS.                              PPOT1134
009933                                                                  PPOT1134
009934 01  POSRTB2-REC.                                                 PPOT1134
009935     05  POSRTB2-KEY              PIC X(32).                      PPOT1134
009936     05  POSRTB2-DATA             PIC X(105).                     PPOT1134
009937                                                                  PPOT1134
009938 FD  POSRTB3                                                      PPOT1134
009939     LABEL RECORDS ARE OMITTED                                    PPOT1134
009940     BLOCK CONTAINS 0 RECORDS                                     PPOT1134
009941     RECORDING MODE IS F                                          PPOT1134
009942     RECORD CONTAINS 137 CHARACTERS.                              PPOT1134
009943                                                                  PPOT1134
009944 01  POSRTB3-REC.                                                 PPOT1134
009945     05  POSRTB3-KEY              PIC X(32).                      PPOT1134
009946     05  POSRTB3-DATA             PIC X(105).                     PPOT1134
009990                                                                  PPOT1134
010110***********************************************************       PPOT1134
010120*    SPEC CARD                                            *       PPOT1134
010130***********************************************************       PPOT1134
010200 FD  CARDFILE                                                     PPOT1134
010300     LABEL RECORDS ARE OMITTED                                    PPOT1134
010310     BLOCK CONTAINS 0 RECORDS                                     PPOT1134
010400     RECORDING MODE IS F                                          PPOT1134
010500     RECORD CONTAINS 80 CHARACTERS.                               PPOT1134
010700                                                                  PPOT1134
010800 01  SPEC-CARD.                                                   PPOT1134
010900     05  SPEC-PGM-ID             PIC X(10).                       PPOT1134
011000         88  VALID-SPEC-PGM-ID              VALUE 'PPPOT-SPEC'.   PPOT1134
011100     05  SPEC-RPT-SORT1          PIC X(03).                       PPOT1134
011200         88  VALID-SPEC-SORT1               VALUES 'I  '          PPOT1134
011300                                                   ' N '          PPOT1134
011400                                                   '  D'          PPOT1134
011500                                                   ' ND'          PPOT1134
011600                                                   'IN '          PPOT1134
011700                                                   'IND'.         PPOT1134
011800     05  SPEC-RPT-SORT-R1 REDEFINES SPEC-RPT-SORT1.               PPOT1134
011900         10  RPT-SORT1-ID        PIC X.                           PPOT1134
012000                 88 ID-REPORT1                VALUE 'I'.          PPOT1134
012100         10  RPT-SORT1-NAME      PIC X.                           PPOT1134
012200                 88  NAME-REPORT1             VALUE 'N'.          PPOT1134
012300         10  RPT-SORT1-DEPT      PIC X.                           PPOT1134
012400             88  DEPT-REPORT1                 VALUE 'D'.          PPOT1134
012496     05  SPEC-PGM-UPDATE         PIC X(06).                       PPOT1134
012497         88  VALID-SPEC-UPDATE              VALUES '      '       PPOT1134
012498                                                   'UPDATE'.      PPOT1134
012499         88  UPDATE-REQUESTED               VALUES 'UPDATE'.      PPOT1134
012500     05  FILLER                  PIC X(61).                       PPOT1134
012641                                                                  PPOT1134
012642***********************************************************       PPOT1134
012643*    EDB CHANGE FILE                                      *       PPOT1134
012644***********************************************************       PPOT1134
012645 FD  EDBCHG                    COPY  CPFDXCHG                     PPOT1134
012646         REPLACING EDB-CHANGE-RECORD BY OCHG-EDB-CHANGE-RECORD.   PPOT1134
012647 01  OCHG-EDB-CHANGE-RECORD.   COPY CPWSXCHG                      PPOT1134
012648         REPLACING XCHG-FIXED-AREA     BY OCHG-FIXED-AREA         PPOT1134
012649                   XCHG-EMPLOYEE-ID    BY OCHG-EMPLOYEE-ID        PPOT1134
012650                   XCHG-DATA-ELEM-NO   BY OCHG-DATA-ELEM-NO       PPOT1134
012651                   XCHG-OCCURENCE-KEY  BY OCHG-OCCURENCE-KEY      PPOT1134
012652                   XCHG-PROCESS-ID     BY OCHG-PROCESS-ID         PPOT1134
012653                   XCHG-CHANGE-SOURCE  BY OCHG-CHANGE-SOURCE      PPOT1134
012654                   XCHG-TIMESTAMP      BY OCHG-TIMESTAMP          PPOT1134
012655                   XCHG-ODO-LENGTHS    BY OCHG-ODO-LENGTHS        PPOT1134
012656                   XCHG-OLD-VAL-LNGTH  BY OCHG-OLD-VAL-LNGTH      PPOT1134
012657                   XCHG-NEW-VAL1-LNGTH BY OCHG-NEW-VAL1-LNGTH     PPOT1134
012658                   XCHG-NEW-VAL2-LNGTH BY OCHG-NEW-VAL2-LNGTH     PPOT1134
012659                   XCHG-OLD-VALUE      BY OCHG-OLD-VALUE          PPOT1134
012660                   XCHG-OLD-VAL        BY OCHG-OLD-VAL            PPOT1134
012661                   XCHG-NEW-VALUE1     BY OCHG-NEW-VALUE1         PPOT1134
012662                   XCHG-NEW-VAL1       BY OCHG-NEW-VAL1           PPOT1134
012663                   XCHG-NEW-VALUE2     BY OCHG-NEW-VALUE2         PPOT1134
012664                   XCHG-NEW-VAL2       BY OCHG-NEW-VAL2.          PPOT1134
012665                                                                  PPOT1134
012690***********************************************************       PPOT1134
012691*    SORT WORK FILE                                       *       PPOT1134
012692***********************************************************       PPOT1134
012693 SD  SORT-WORK-FILE                                               PPOT1134
012695     RECORD CONTAINS 137 CHARACTERS                               PPOT1134
012696     DATA RECORD IS SORT-WORK-RECORD.                             PPOT1134
012697 01  SORT-WORK-RECORD.                                            PPOT1134
012698     05  SORT-WORK-KEY           PIC X(32).                       PPOT1134
012699     05  SORT-WORK-DATA          PIC X(105).                      PPOT1134
012700     EJECT                                                        PPOT1134
012800 WORKING-STORAGE SECTION.                                         PPOT1134
012900***********************************************************       PPOT1134
013000*    WORKING STORAGE                                      *       PPOT1134
013100***********************************************************       PPOT1134
014500***********************************************************       PPOT1134
014600*    REPORT KEY AND DATA FIELDS                           *       PPOT1134
014610***********************************************************       PPOT1134
014700 01  SRT-REPORT-REC.                                              PPOT1134
014710     05  SRT-REPORT-KEY.                                          PPOT1134
014800         10  SRT-KEY-ID.                                          PPOT1134
014801             15  SRT-KEY1-ID              PIC X(09).              PPOT1134
014810             15  FILLER                   PIC X(23).              PPOT1134
014811         10  SRT-KEY-NAME      REDEFINES SRT-KEY-ID.              PPOT1134
014813             15  SRT-KEY2-NAME            PIC X(26).              PPOT1134
014814             15  FILLER                   PIC X(06).              PPOT1134
014815         10  SRT-KEY-DEPT-NAME REDEFINES SRT-KEY-ID.              PPOT1134
014816             15  SRT-KEY3-DEPT            PIC X(06).              PPOT1134
014817             15  SRT-KEY3-NAME            PIC X(26).              PPOT1134
014820     05  SRT-REPORT-DATA.                                         PPOT1134
014853         10  SRT-EMPLOYEE-ID         PIC X(09).                   PPOT1134
014855         10  SRT-EMP-NAME            PIC X(26).                   PPOT1134
014857         10  SRT-SOC-SEC-NUM         PIC X(09).                   PPOT1134
014859         10  SRT-HOME-DEPT           PIC X(06).                   PPOT1134
014861         10  SRT-HOME-DEPT-NAME      PIC X(16).                   PPOT1134
014863         10  SRT-ORIG-HIRE-DATE      PIC X(08).                   PPOT1134
014865         10  SRT-HIRE-DATE           PIC X(08).                   PPOT1134
014867         10  SRT-EMP-STATUS          PIC X(01).                   PPOT1134
014871         10  SRT-CITIZEN-CODE        PIC X(01).                   PPOT1134
014873         10  SRT-VISA-TYPE           PIC X(03).                   PPOT1134
014874         10  SRT-RET-ELIG-CODE       PIC X(03).                   PPOT1134
014875         10  SRT-UI-ELIG-CODE        PIC X(03).                   PPOT1134
014876         10  SRT-RET-FICA-DERIVE     PIC X(01).                   PPOT1134
014877         10  SRT-BELI-IND            PIC X(01).                   PPOT1134
014878         10  SRT-PRIMARY-TITLE       PIC X(04).                   PPOT1134
014879         10  SRT-STUDENT-STATUS      PIC X(01).                   PPOT1134
014880         10  SRT-REGISTERD-UNITS     PIC 99.9.                    PPOT1134
014881         10  SRT-SAFETY-IND          PIC X(01).                   PPOT1134
014883***********************************************************       PPOT1134
014884*    MISCELLANEOUS                                        *       PPOT1134
014890***********************************************************       PPOT1134
014900 01  WS-WORK-MISC.                                                PPOT1134
014910     05  WS-PGM-ID                PIC X(15)  VALUE                PPOT1134
015000                                            'PPOT1134/071197'.    PPOT1134
015700     05  PGM-PPTCTUTL             PIC X(08)  VALUE 'PPTCTUTL'.    PPOT1134
015710     05  WS-EMPLOYEE-ID           PIC X(09)  VALUE SPACES.        PPOT1134
016410     05  WS-VISA-TYPE-2X.                                         PPOT1134
016420         10  WS-VISA-2X-CHAR1     PIC X(01)  VALUE SPACES.        PPOT1134
016421         10  WS-VISA-2X-CHAR2     PIC X(01)  VALUE SPACES.        PPOT1134
016422     05  WS-VISA-TYPE-3X.                                         PPOT1134
016423         10  WS-VISA-3X-CHAR1     PIC X(01)  VALUE SPACES.        PPOT1134
016424         10  FILLER               PIC X(01)  VALUE '-'.           PPOT1134
016425         10  WS-VISA-3X-CHAR2     PIC X(01)  VALUE SPACES.        PPOT1134
016426     05  WS-PRIOR-NEW.                                            PPOT1134
016427         10  WS-PRIOR             PIC X(01)  VALUE SPACES.        PPOT1134
016428         10  FILLER               PIC X(01)  VALUE '/'.           PPOT1134
016429         10  WS-NEW               PIC X(01)  VALUE SPACES.        PPOT1134
016430     05  WS-SAVE-HOME-DEPT        PIC X(6)   VALUE SPACES.        PPOT1134
017600     05  MAX-LINES-PER-PAGE       PIC S9(04) VALUE +51.           PPOT1134
017700     05  RPT1-LINES-PER-PAGE      PIC S9(04) VALUE +60.           PPOT1134
018200     05  WS-ERROR-PAGE-NO         PIC S9(04) VALUE 0.             PPOT1134
018300     05  WS-SAVE-PAGE-NO          PIC S9(04) VALUE 0.             PPOT1134
018400     05  WS-APPT-SEGMENT-IDX      PIC S9(04) VALUE ZEROS.         PPOT1134
018500     05  WS-EVEN                  PIC S9(04) VALUE 0.             PPOT1134
018600     05  WS-ODD                   PIC S9(04) VALUE 0.             PPOT1134
021400 01  WS-ACCUMULATORS             COMP-3.                          PPOT1134
021500     05  WS-PRINT-LINES-RPT      PIC S9(06) VALUE +65.            PPOT1134
021600     05  WS-REPORT-LINE-ADVANCE  PIC S9(06) VALUE +0.             PPOT1134
021601     05  WS-SORT-RECORDS         PIC S9(05) VALUE +0.             PPOT1134
021610***********************************************************       PPOT1134
021620*    SWITCHES                                             *       PPOT1134
021630***********************************************************       PPOT1134
021700 01  WS-SWITCHES.                                                 PPOT1134
021800     05  WS-MESSAGE-SW           PIC S9(01) VALUE +0.             PPOT1134
021900         88  FATAL-ERROR                    VALUE +1.             PPOT1134
021910     05  HERE-BEFORE-SW          PIC X(01)  VALUE SPACE.          PPOT1134
021920         88 HERE-BEFORE                     VALUE 'Y'.            PPOT1134
021930     05  FIRST-TIME-SW           PIC X(01)  VALUE 'Y'.            PPOT1134
021940         88  FIRST-TIME                     VALUE 'Y'.            PPOT1134
021950         88  NOT-FIRST-TIME                 VALUE 'N'.            PPOT1134
021960     05  PER-CURSOR-SW           PIC X(01)  VALUE 'N'.            PPOT1134
021970         88  EOF-PER-CURSOR                 VALUE 'Y'.            PPOT1134
021995     05  SORT-SW                 PIC X(01)  VALUE 'N'.            PPOT1134
021996         88  NOT-EOF-SORT                   VALUE 'N'.            PPOT1134
021997         88  EOF-SORT                       VALUE 'Y'.            PPOT1134
022010     05  DEPT-REPORT-SW          PIC X(01)  VALUE 'N'.            PPOT1134
022020         88  PRINTING-DEPT-REPORT1          VALUE '1'.            PPOT1134
022030     05  PAY-ROW-SW              PIC X(01)  VALUE 'N'.            PPOT1134
022040         88  PAY-ROW-OK                     VALUE 'Y'.            PPOT1134
022041         88  PAY-ROW-MISSING                VALUE 'N'.            PPOT1134
022042     05  BEN-ROW-SW              PIC X(01)  VALUE 'N'.            PPOT1134
022043         88  BEN-ROW-OK                     VALUE 'Y'.            PPOT1134
022044         88  BEN-ROW-MISSING                VALUE 'N'.            PPOT1134
022048     EJECT                                                        PPOT1134
022049***********************************************************       PPOT1134
022050*    REPORT HEADERS AND DETAIL LINES                      *       PPOT1134
022060***********************************************************       PPOT1134
023010 01  PPOT1134-HDR1.                                               PPOT1134
023020     05  FILLER                  PIC X(01).                       PPOT1134
023030     05  FILLER                  PIC X(45) VALUE SPACES.          PPOT1134
023100     05  FILLER                  PIC X(42) VALUE                  PPOT1134
023200           'ONE-TIME, AUTO DERIVATION, UI CODE CHANGED'.          PPOT1134
023300     05  FILLER                  PIC X(45) VALUE SPACES.          PPOT1134
023400                                                                  PPOT1134
023500 01  PPOT1134-HDR2.                                               PPOT1134
023600     05  FILLER                  PIC X(01).                       PPOT1134
023700     05  FILLER                  PIC X(12) VALUE                  PPOT1134
023800                                 'EMPLOYEE ID/'.                  PPOT1134
023900     05  FILLER                  PIC X(120) VALUE SPACES.         PPOT1134
024000                                                                  PPOT1134
025200 01  PPOT1134-HDR3.                                               PPOT1134
025300     05  FILLER                  PIC X(01).                       PPOT1134
025400     05  FILLER                  PIC X(14) VALUE 'EMPLOYEE NAME/'.PPOT1134
025500     05  FILLER                  PIC X(14) VALUE SPACES.          PPOT1134
025800     05  FILLER                  PIC X(09) VALUE 'HOME DEPT'.     PPOT1134
025900     05  FILLER                  PIC X(08) VALUE SPACES.          PPOT1134
026000     05  FILLER                  PIC X(09) VALUE 'HIRE DATE'.     PPOT1134
026100     05  FILLER                  PIC X(01) VALUE SPACES.          PPOT1134
026200     05  FILLER                  PIC X(09) VALUE 'EMP STAT/'.     PPOT1134
026300     05  FILLER                  PIC X(02) VALUE SPACES.          PPOT1134
026400     05  FILLER                  PIC X(04) VALUE SPACES.          PPOT1134
026500     05  FILLER                  PIC X(01) VALUE SPACES.          PPOT1134
026600     05  FILLER                  PIC X(09) VALUE 'CIT CODE/'.     PPOT1134
026700     05  FILLER                  PIC X(01) VALUE SPACES.          PPOT1134
026800     05  FILLER                  PIC X(08) VALUE 'STDT ST/'.      PPOT1134
026900     05  FILLER                  PIC X(01) VALUE SPACES.          PPOT1134
027000     05  FILLER                  PIC X(08) VALUE 'ASSIGNED'.      PPOT1134
027100     05  FILLER                  PIC X(02) VALUE SPACES.          PPOT1134
027200     05  FILLER                  PIC X(08) VALUE 'RET CODE'.      PPOT1134
027400     05  FILLER                  PIC X(03) VALUE SPACES.          PPOT1134
027410     05  FILLER                  PIC X(09) VALUE 'UI CODE'.       PPOT1134
027420     05  FILLER                  PIC X(02) VALUE SPACES.          PPOT1134
027430     05  FILLER                  PIC X(08) VALUE 'RET/FICA'.      PPOT1134
027440     05  FILLER                  PIC X(04) VALUE SPACES.          PPOT1134
027500                                                                  PPOT1134
027600 01  PPOT1134-HDR4.                                               PPOT1134
027700     05  FILLER                  PIC X(01).                       PPOT1134
027800     05  FILLER                  PIC X(10) VALUE 'SOC SEC NO'.    PPOT1134
027900     05  FILLER                  PIC X(18) VALUE SPACES.          PPOT1134
027901     05  FILLER                  PIC X(09) VALUE 'CODE/NAME'.     PPOT1134
027902     05  FILLER                  PIC X(08) VALUE SPACES.          PPOT1134
027903     05  FILLER                  PIC X(08) VALUE 'ORIG/REC'.      PPOT1134
027904     05  FILLER                  PIC X(02) VALUE SPACES.          PPOT1134
027905     05  FILLER                  PIC X(10) VALUE 'PRIM TITLE'.    PPOT1134
027906     05  FILLER                  PIC X(01) VALUE SPACES.          PPOT1134
027907     05  FILLER                  PIC X(03) VALUE SPACES.          PPOT1134
027908     05  FILLER                  PIC X(02) VALUE SPACES.          PPOT1134
027909     05  FILLER                  PIC X(04) VALUE 'VISA'.          PPOT1134
027910     05  FILLER                  PIC X(06) VALUE SPACES.          PPOT1134
027911     05  FILLER                  PIC X(05) VALUE 'UNITS'.         PPOT1134
027912     05  FILLER                  PIC X(04) VALUE SPACES.          PPOT1134
027913     05  FILLER                  PIC X(04) VALUE 'BELI'.          PPOT1134
027914     05  FILLER                  PIC X(06) VALUE SPACES.          PPOT1134
027915     05  FILLER                  PIC X(09) VALUE SPACES.          PPOT1134
027916     05  FILLER                  PIC X(02) VALUE SPACES.          PPOT1134
027917     05  FILLER                  PIC X(09) VALUE 'PRIOR/NEW'.     PPOT1134
027918     05  FILLER                  PIC X(02) VALUE SPACES.          PPOT1134
027921     05  FILLER                  PIC X(07) VALUE 'DER IND'.       PPOT1134
027922     05  FILLER                  PIC X(05) VALUE SPACES.          PPOT1134
027930                                                                  PPOT1134
028000 01  PPOT1134-DETAIL-LINE1.                                       PPOT1134
028100     05  FILLER                  PIC X(01) VALUE SPACES.          PPOT1134
028200     05  RPT-EMPLOYEE-ID         PIC X(09).                       PPOT1134
028201     05  FILLER                  PIC X(19) VALUE SPACES.          PPOT1134
028230     05  RPT-HOME-DEPT           PIC X(06).                       PPOT1134
028241     05  FILLER                  PIC X(11) VALUE SPACES.          PPOT1134
028250     05  RPT-ORIG-HIRE-DATE      PIC X(08).                       PPOT1134
028251     05  FILLER                  PIC X(02) VALUE SPACES.          PPOT1134
028270     05  RPT-EMP-STATUS          PIC X(01).                       PPOT1134
028271     05  FILLER                  PIC X(10) VALUE SPACES.          PPOT1134
028280     05  FILLER                  PIC X(01) VALUE SPACES.          PPOT1134
028281     05  FILLER                  PIC X(04) VALUE SPACES.          PPOT1134
028290     05  RPT-CITIZEN-CODE        PIC X(01).                       PPOT1134
028291     05  FILLER                  PIC X(09) VALUE SPACES.          PPOT1134
028292     05  RPT-STUDENT-STATUS      PIC X(01).                       PPOT1134
028293     05  FILLER                  PIC X(08) VALUE SPACES.          PPOT1134
028294     05  RPT-BELI-IND            PIC X(01).                       PPOT1134
028295     05  FILLER                  PIC X(09) VALUE SPACES.          PPOT1134
028296     05  RPT-RET-ELIG-CODE       PIC X(03).                       PPOT1134
028297     05  FILLER                  PIC X(08) VALUE SPACES.          PPOT1134
028299     05  RPT-UI-ELIG-CODE        PIC X(03).                       PPOT1134
028300     05  FILLER                  PIC X(08) VALUE SPACES.          PPOT1134
028301     05  RPT-RET-FICA-DERIVE     PIC X(01).                       PPOT1134
028302     05  FILLER                  PIC X(12) VALUE SPACES.          PPOT1134
028303                                                                  PPOT1134
028304 01  PPOT1134-DETAIL-LINE2.                                       PPOT1134
028305     05  FILLER                  PIC X(01) VALUE SPACES.          PPOT1134
028306     05  RPT-EMP-NAME            PIC X(26).                       PPOT1134
028307     05  FILLER                  PIC X(02) VALUE SPACES.          PPOT1134
028308     05  RPT-HOME-DEPT-NAME      PIC X(16).                       PPOT1134
028309     05  FILLER                  PIC X(01) VALUE SPACES.          PPOT1134
028310     05  RPT-HIRE-DATE           PIC X(08).                       PPOT1134
028311     05  FILLER                  PIC X(02) VALUE SPACES.          PPOT1134
028312     05  RPT-PRIMARY-TITLE       PIC X(04).                       PPOT1134
028313     05  FILLER                  PIC X(12) VALUE SPACES.          PPOT1134
028314     05  RPT-VISA-TYPE           PIC X(03).                       PPOT1134
028315     05  FILLER                  PIC X(07) VALUE SPACES.          PPOT1134
028316     05  RPT-REGISTERD-UNITS     PIC 99.9.                        PPOT1134
028317     05  FILLER                  PIC X(49) VALUE SPACES.          PPOT1134
028318                                                                  PPOT1134
028319 01  PPOT1134-DETAIL-LINE3.                                       PPOT1134
028320     05  FILLER                  PIC X(01) VALUE SPACES.          PPOT1134
028321     05  RPT-SOC-SEC-NUM         PIC X(09).                       PPOT1134
028330     05  FILLER                  PIC X(123) VALUE SPACES.         PPOT1134
028400                                                                  PPOT1134
034500 01  PPOT1134-TOTAL-LINE.                                         PPOT1134
034600     05  FILLER                  PIC X(01).                       PPOT1134
034700     05  FILLER                  PIC X(26) VALUE                  PPOT1134
034800           'TOTAL NUMBER OF RECORDS:  '.                          PPOT1134
034900     05  RPT-RECORD-TOTAL-Z      PIC ZZZZ9.                       PPOT1134
034901     05  RPT-RECORD-TOTAL-9 REDEFINES RPT-RECORD-TOTAL-Z          PPOT1134
034902                                 PIC 99999.                       PPOT1134
034910     05  FILLER                  PIC X(101) VALUE SPACES.         PPOT1134
035000***********************************************************       PPOT1134
035100*    MESSAGE PRINT LINE                                   *       PPOT1134
035200***********************************************************       PPOT1134
035400 01  WS-MESSAGE.                                                  PPOT1134
035500     05  WS-DET1-CC              PIC X(01) VALUE SPACES.          PPOT1134
035800     05  WS-MESSAGE-1.                                            PPOT1134
035900         10  WS-MESSAGE-TEXT     PIC X(43)  VALUE SPACES.         PPOT1134
036320     05  WS-MESSAGE-2            PIC X(89)  VALUE SPACES.         PPOT1134
036400                                                                  PPOT1134
036500     EJECT                                                        PPOT1134
036600***********************************************************       PPOT1134
036700*        S T A N D A R D    C O P Y   M E M B E R S       *       PPOT1134
036800***********************************************************       PPOT1134
036900                                                                  PPOT1134
036910 01  WS-COMPILE-WORK-AREA.                  COPY CPWSXWHC.        PPOT1134
036920     EJECT                                                        PPOT1134
037000 01  PPTCTUTL-INTERFACE EXTERNAL.           COPY CPLNKTCL.        PPOT1134
037001     EJECT                                                        PPOT1134
037002 01  DOST-DESCR-OF-SERV-TABLE EXTERNAL.     COPY CPWSDOST.        PPOT1134
037003 01  KDOS-INTERFACE.                        COPY CPLN2DOS.        PPOT1134
037004     EJECT                                                        PPOT1134
037005 01  DATA-ELEMENT-CHANGE-INDICATORS.        COPY CPWSXDEC.        PPOT1134
037006     EJECT                                                        PPOT1134
037008 01  DATE-FORMAT.                           COPY CPWSDATE.        PPOT1134
037010 01  DATE-CONVERSION-WORK-AREAS.            COPY CPWSXDC3.        PPOT1134
037020     EJECT                                                        PPOT1134
037100 01  XSCR-SYSTEM-CONTROL-RECORD.            COPY CPWSXSCR.        PPOT1134
037200     EJECT                                                        PPOT1134
037500 01  EDB-CHANGE-RECORD.                     COPY CPWSXCHG.        PPOT1134
037600     EJECT                                                        PPOT1134
038500 01  STND-RPT-HD.                           COPY CPWSPSHR.        PPOT1134
038600     EJECT                                                        PPOT1134
038700 01  PPDB2MSG-INTERFACE.                    COPY CPLNKDB2.        PPOT1134
038750 01  PPFICRET-INTERFACE.                    COPY CPLNKFIC.        PPOT1134
038770 01  PPAXDUTL-INTERFACE.                    COPY CPLNKAXD.        PPOT1134
038790 01  AXD-ARRAY  EXTERNAL.                                         PPOT1134
038791     03  FILLER                                  OCCURS 27.       PPOT1134
038792             07  APP-ROW-DELETE-BYTE  PIC X(1).                   PPOT1134
038793             88  APP-ROW-DELETED VALUE HIGH-VALUES.               PPOT1134
038794             07  APP-ROW-SEG-ID       PIC X(2).                   PPOT1134
038795             07  FILLER                          OCCURS 3.        PPOT1134
038796             08  APP-ROW.                                         PPOT1134
038801             COPY CPWSRAPP.                                       PPOT1134
038802     03  FILLER                                  OCCURS 27.       PPOT1134
038803             07  DIS-ROW-DELETE-BYTE  PIC X(1).                   PPOT1134
038804             88  DIS-ROW-DELETED VALUE HIGH-VALUES.               PPOT1134
038805             07  DIS-ROW-SEG-ID       PIC X(2).                   PPOT1134
038806             07  FILLER                          OCCURS 3.        PPOT1134
038807             08  DIS-ROW.                                         PPOT1134
038808             COPY CPWSRDIS.                                       PPOT1134
038809     EJECT                                                        PPOT1134
038830***********************************************************       PPOT1134
038900*    SQL WORKING STORAGE                                  *       PPOT1134
039000***********************************************************       PPOT1134
039100 01  SCR-ROW.                                                     PPOT1134
042020     EXEC SQL                                                     PPOT1134
042030          INCLUDE PPPVSCR1                                        PPOT1134
042040     END-EXEC.                                                    PPOT1134
042050                                                                  PPOT1134
042100 01  PER-ROW EXTERNAL.                                            PPOT1134
042200     EXEC SQL                                                     PPOT1134
042300          INCLUDE PPPVPER1                                        PPOT1134
042400     END-EXEC.                                                    PPOT1134
042410                                                                  PPOT1134
042500 01  PAY-ROW EXTERNAL.                                            PPOT1134
042600     EXEC SQL                                                     PPOT1134
042700          INCLUDE PPPVPAY1                                        PPOT1134
042800     END-EXEC.                                                    PPOT1134
042810                                                                  PPOT1134
042900 01  BEN-ROW EXTERNAL.                                            PPOT1134
043000     EXEC SQL                                                     PPOT1134
043100          INCLUDE PPPVBEN1                                        PPOT1134
043200     END-EXEC.                                                    PPOT1134
043210                                                                  PPOT1134
043220 01  BEL-ROW.                                                     PPOT1134
043230     EXEC SQL                                                     PPOT1134
043240          INCLUDE PPPVBEL1                                        PPOT1134
043250     END-EXEC.                                                    PPOT1134
043300                                                                  PPOT1134
044900 01  HME-ROW-DATA.                                                PPOT1134
045000     EXEC SQL                                                     PPOT1134
045100          INCLUDE PPPVZHME                                        PPOT1134
045200     END-EXEC.                                                    PPOT1134
045201                                                                  PPOT1134
045210 01  PAY-ROW-FOR-UPDATE.                                          PPOT1134
045220     EXEC SQL                                                     PPOT1134
045230          INCLUDE PPPVPAY2                                        PPOT1134
045240     END-EXEC.                                                    PPOT1134
045241                                                                  PPOT1134
045300     EXEC SQL                                                     PPOT1134
045400          INCLUDE SQLCA                                           PPOT1134
045500     END-EXEC.                                                    PPOT1134
045510                                                                  PPOT1134
045600 01  WS-END-FLAG                 PIC X(36) VALUE                  PPOT1134
045700     'PPOT1134 WORKING STORAGE ENDS HERE'.                        PPOT1134
045710******************************************************************PPOT1134
045720*          SQL - CURSORS                                         *PPOT1134
045730******************************************************************PPOT1134
045750*    MAIN CURSOR TO SELECT AFFECTED POPULATION FOR UI DERIVATION *PPOT1134
045760******************************************************************PPOT1134
045800     EXEC SQL                                                     PPOT1134
045900       DECLARE PER_CURSOR CURSOR FOR                              PPOT1134
046000       SELECT *                                                   PPOT1134
046100       FROM  PPPVPER1_PER                                         PPOT1134
046200       WHERE EMP_STATUS NOT IN ('S')                              PPOT1134
046210         AND EMP_NAME NOT LIKE '*%'                               PPOT1134
046300       ORDER BY EMPLOYEE_ID                                       PPOT1134
046400     END-EXEC.                                                    PPOT1134
048000     EJECT                                                        PPOT1134
048010                                                                  PPOT1134
048100 PROCEDURE DIVISION.                                              PPOT1134
048200     EXEC SQL                                                     PPOT1134
048300          INCLUDE CPPDXE99                                        PPOT1134
048400     END-EXEC.                                                    PPOT1134
048500                                                                  PPOT1134
048600***********************************************************       PPOT1134
048700*                    M A I N L I N E                      *       PPOT1134
048800***********************************************************       PPOT1134
048900                                                                  PPOT1134
049000 0000-MAINLINE.                                                   PPOT1134
049100                                                                  PPOT1134
049200     PERFORM 1000-INITIALIZATION.                                 PPOT1134
049210                                                                  PPOT1134
049300     IF NOT FATAL-ERROR                                           PPOT1134
049410        MOVE 'D' TO PPFICRET-CALL-FLAG                            PPOT1134
049500        PERFORM 2000-PER-CURSOR                                   PPOT1134
049520        PERFORM 3000-PRINT-REPORTS                                PPOT1134
049540        PERFORM 9000-FINALIZATION                                 PPOT1134
049600     END-IF.                                                      PPOT1134
049601                                                                  PPOT1134
049610     IF FATAL-ERROR                                               PPOT1134
049620        MOVE +08 TO RETURN-CODE                                   PPOT1134
049630     END-IF.                                                      PPOT1134
049800     STOP RUN.                                                    PPOT1134
049900                                                                  PPOT1134
050000 0001-EXIT. EXIT.                                                 PPOT1134
050100     EJECT                                                        PPOT1134
050200***********************************************************       PPOT1134
050300*                   I N I T I A L I Z E                   *       PPOT1134
050400***********************************************************       PPOT1134
050500                                                                  PPOT1134
050600 1000-INITIALIZATION       SECTION.                               PPOT1134
050700                                                                  PPOT1134
050710     OPEN OUTPUT PRINT-FILE.                                      PPOT1134
050900     MOVE WS-PGM-ID TO STND-PROG-ID.                              PPOT1134
051000     MOVE STND-PROG-ID TO DB2MSG-PGM-ID.                          PPOT1134
051010     PERFORM XDC3-GET-CURRENT-DATE.                               PPOT1134
051020     PERFORM XDC3-CONVERT-LILIAN-TO-ISO.                          PPOT1134
051030     PERFORM XDC3-CONVERT-ISO-TO-FMT.                             PPOT1134
051100     MOVE XDC3-FMT-DATE TO STND-RPT-DATE.                         PPOT1134
051200     MOVE '            WARNINGS AND MESSAGES' TO STND-RPT-TTL.    PPOT1134
051400     MOVE SPACES TO STND-RPT-COMMENT                              PPOT1134
051500                    STND-DATE2                                    PPOT1134
051600                    STND-DATE2-TTL.                               PPOT1134
051603                                                                  PPOT1134
051604     OPEN INPUT CARDFILE.                                         PPOT1134
051605     PERFORM 1100-VALIDATE-SPEC-CARD THRU 1100-EXIT.              PPOT1134
051606     IF FATAL-ERROR GO TO 1000-EXIT.                              PPOT1134
051607                                                                  PPOT1134
051608***********************************************************       PPOT1134
051609*    OPEN FILES BASED ON REQUESTED ACTIONS IN SPEC CARD   *       PPOT1134
051610***********************************************************       PPOT1134
051640     IF ID-REPORT1                                                PPOT1134
051900        OPEN OUTPUT POSRTB1                                       PPOT1134
051920     END-IF.                                                      PPOT1134
051921     IF NAME-REPORT1                                              PPOT1134
051922        OPEN OUTPUT POSRTB2                                       PPOT1134
051924     END-IF.                                                      PPOT1134
051925     IF DEPT-REPORT1                                              PPOT1134
051926        OPEN OUTPUT POSRTB3                                       PPOT1134
051928     END-IF.                                                      PPOT1134
051931***********************************************************       PPOT1134
051932*    LOAD DOS TABLE                                       *       PPOT1134
051933***********************************************************       PPOT1134
051934     MOVE 'ALL' TO KDOS-ACTION-REQUEST.                           PPOT1134
051935     CALL 'PPDOSUT2' USING KDOS-INTERFACE                         PPOT1134
051936                           DOST-DESCR-OF-SERV-TABLE.              PPOT1134
051937     EVALUATE TRUE                                                PPOT1134
051938        WHEN KDOS-CTL-FILE-ERROR                                  PPOT1134
051939             SET FATAL-ERROR TO TRUE                              PPOT1134
051940             MOVE 'DOS TABLE LOAD PROBLEM (CONTROL FILE)'         PPOT1134
051941                             TO WS-MESSAGE-TEXT                   PPOT1134
051942             PERFORM 7000-BUILD-MESSAGE                           PPOT1134
051943             GO TO 1000-EXIT                                      PPOT1134
051944        WHEN KDOS-NO-DOS-DELIMITER                                PPOT1134
051945             SET FATAL-ERROR TO TRUE                              PPOT1134
051946             MOVE 'DESC OF SERVICE CNTL TBL DELMTR RCD MISSING'   PPOT1134
051947                             TO WS-MESSAGE-TEXT                   PPOT1134
051948             PERFORM 7000-BUILD-MESSAGE                           PPOT1134
051949             GO TO 1000-EXIT                                      PPOT1134
051950        WHEN KDOS-TABLE-OVERFLOW                                  PPOT1134
051951             SET FATAL-ERROR TO TRUE                              PPOT1134
051952             MOVE 'DESC OF SERVICE TABLE EXCEEDS MAX TABL LIMT'   PPOT1134
051953                             TO WS-MESSAGE-TEXT                   PPOT1134
051954             PERFORM 7000-BUILD-MESSAGE                           PPOT1134
051955             GO TO 1000-EXIT                                      PPOT1134
051956     END-EVALUATE.                                                PPOT1134
051960                                                                  PPOT1134
051975***********************************************************       PPOT1134
051976*    SET XDEC OFF FOR RETIREMENT CODE FOR PPFICRET LOGIC. *       PPOT1134
051977***********************************************************       PPOT1134
051978     MOVE ZERO TO XDEC-DATA-ELEM-CHANGE-IND (0122).               PPOT1134
051979                                                                  PPOT1134
052110***********************************************************       PPOT1134
052120*    GET SCR DATA                                         *       PPOT1134
052130***********************************************************       PPOT1134
052300     MOVE 'SELECT SCR ROW' TO DB2MSG-TAG.                         PPOT1134
052400     EXEC SQL                                                     PPOT1134
052500       SELECT                                                     PPOT1134
052600          SCR_PROCESS_DATE                                        PPOT1134
052700         ,SCR_PURGE_DATE                                          PPOT1134
052800         ,SCR_CURRENT_DATE                                        PPOT1134
052900         ,SCR_NEXTCYCLE_MO                                        PPOT1134
053000         ,SCR_NEXTCYCLE_QTR                                       PPOT1134
053100         ,SCR_NEXTCYCLE_YR                                        PPOT1134
053200         ,SCR_NEXTCYCLE_FYR                                       PPOT1134
053300         ,SCR_EDB_GENNUM                                          PPOT1134
053400       INTO                                                       PPOT1134
053500         :SCR-PROCESS-DATE                                        PPOT1134
053600        ,:SCR-PURGE-DATE                                          PPOT1134
053700        ,:SCR-CURRENT-DATE                                        PPOT1134
053800        ,:SCR-NEXTCYCLE-MO                                        PPOT1134
053900        ,:SCR-NEXTCYCLE-QTR                                       PPOT1134
054000        ,:SCR-NEXTCYCLE-YR                                        PPOT1134
054100        ,:SCR-NEXTCYCLE-FYR                                       PPOT1134
054200        ,:SCR-EDB-GENNUM                                          PPOT1134
054300       FROM PPPVSCR1_SCR                                          PPOT1134
054400     END-EXEC.                                                    PPOT1134
054410                                                                  PPOT1134
054500     IF SQLCODE NOT = ZERO                                        PPOT1134
054600        SET FATAL-ERROR TO TRUE                                   PPOT1134
054610        MOVE 'ERROR IN SCR ROW SELECT' TO WS-MESSAGE-TEXT         PPOT1134
055000        PERFORM 7000-BUILD-MESSAGE                                PPOT1134
055100        GO TO 1000-EXIT                                           PPOT1134
055200     END-IF.                                                      PPOT1134
058300                                                                  PPOT1134
058500***********************************************************       PPOT1134
058510*    PERFORM INITIALIZATION CALL TO PPFICRET.             *       PPOT1134
058520***********************************************************       PPOT1134
058530     MOVE ZEROS TO PPFICRET-INTERFACE.                            PPOT1134
058540     MOVE 'I' TO PPFICRET-CALL-FLAG.                              PPOT1134
058550     MOVE SCR-CURRENT-DATE TO XDC3-ISO-DATE.                      PPOT1134
058560     PERFORM XDC3-CONVERT-ISO-TO-STD.                             PPOT1134
058570     MOVE XDC3-STD-DATE-LNG4 TO PPFICRET-AS-OF-DATE.              PPOT1134
058580     PERFORM 8800-CALL-PPFICRET.                                  PPOT1134
058590     IF FATAL-ERROR GO TO 1000-EXIT.                              PPOT1134
058591                                                                  PPOT1134
058592***********************************************************       PPOT1134
058593*    IF NOT UPDATE SKIP THE ECF SETUP.                    *       PPOT1134
058594***********************************************************       PPOT1134
058595     IF NOT UPDATE-REQUESTED                                      PPOT1134
058596        GO TO 1000-EXIT                                           PPOT1134
058597     END-IF.                                                      PPOT1134
058598                                                                  PPOT1134
058600     INITIALIZE XSCR-SYSTEM-CONTROL-RECORD.                       PPOT1134
058700     MOVE '          SCR' TO XSCR-KEY-AREA.                       PPOT1134
058800     MOVE SCR-PROCESS-DATE OF SCR-ROW TO XDC3-ISO-DATE.           PPOT1134
058900     PERFORM XDC3-CONVERT-ISO-TO-STD                              PPOT1134
059000     MOVE XDC3-STD-DATE TO XSCR-PROCESS-DATE.                     PPOT1134
059200     MOVE SCR-NEXTCYCLE-MO OF SCR-ROW TO XSCR-NEXT-MONTH.         PPOT1134
059300     MOVE SCR-NEXTCYCLE-QTR OF SCR-ROW TO XSCR-NEXT-QTR.          PPOT1134
059400     MOVE SCR-NEXTCYCLE-YR OF SCR-ROW TO XSCR-NEXT-YEAR.          PPOT1134
059500     MOVE SCR-NEXTCYCLE-FYR OF SCR-ROW TO XSCR-NEXT-FY.           PPOT1134
059600     MOVE 'OT' TO XSCR-LAST-PGM-RUN.                              PPOT1134
059700     MOVE SCR-EDB-GENNUM OF SCR-ROW TO XSCR-EDB-GEN-NO.           PPOT1134
059800     MOVE SCR-PURGE-DATE OF SCR-ROW TO XDC3-ISO-DATE.             PPOT1134
059900     PERFORM XDC3-CONVERT-ISO-TO-STD.                             PPOT1134
060000     MOVE XDC3-STD-DATE TO XSCR-PURGE-DATE.                       PPOT1134
060100     MOVE SCR-CURRENT-DATE OF SCR-ROW TO XDC3-ISO-DATE.           PPOT1134
060200     PERFORM XDC3-CONVERT-ISO-TO-STD.                             PPOT1134
060300     MOVE XDC3-STD-DATE TO XSCR-CURRENT-DATE.                     PPOT1134
060600                                                                  PPOT1134
060700     MOVE LOW-VALUES TO XCHG-ODO-LENGTHS.                         PPOT1134
060800     MOVE XSCR-SYSTEM-CONTROL-RECORD TO EDB-CHANGE-RECORD.        PPOT1134
060901                                                                  PPOT1134
060910     OPEN OUTPUT EDBCHG.                                          PPOT1134
060930     WRITE OCHG-EDB-CHANGE-RECORD FROM EDB-CHANGE-RECORD.         PPOT1134
062020                                                                  PPOT1134
062100 1000-EXIT.  EXIT.                                                PPOT1134
062110                                                                  PPOT1134
062200 1100-VALIDATE-SPEC-CARD   SECTION.                               PPOT1134
062300***********************************************************       PPOT1134
062310*    READ AND EDIT THE RUN SPECIFICATION RECORD           *       PPOT1134
062320***********************************************************       PPOT1134
062400     READ CARDFILE                                                PPOT1134
062500          AT END                                                  PPOT1134
062600                SET FATAL-ERROR TO TRUE                           PPOT1134
062700                MOVE 'SPECIFICATION CARD IS MISSING'              PPOT1134
062800                                 TO WS-MESSAGE-TEXT               PPOT1134
062900                PERFORM 7000-BUILD-MESSAGE                        PPOT1134
063000                GO TO 1100-EXIT.                                  PPOT1134
063010                                                                  PPOT1134
063011     MOVE 'SPEC CARD:' TO WS-MESSAGE-TEXT.                        PPOT1134
063020     MOVE SPEC-CARD TO WS-MESSAGE-2.                              PPOT1134
063030     PERFORM 7000-BUILD-MESSAGE.                                  PPOT1134
063040     MOVE SPACES TO WS-MESSAGE-2.                                 PPOT1134
063100                                                                  PPOT1134
063300     IF NOT VALID-SPEC-PGM-ID                                     PPOT1134
063400        SET FATAL-ERROR TO TRUE                                   PPOT1134
063500        MOVE 'INVALID PROGRAM IDENTIFICATION ON SPEC CARD'        PPOT1134
063600                     TO WS-MESSAGE-TEXT                           PPOT1134
063700        PERFORM 7000-BUILD-MESSAGE                                PPOT1134
063800     END-IF.                                                      PPOT1134
063900                                                                  PPOT1134
064000      IF NOT VALID-SPEC-SORT1                                     PPOT1134
064100         SET FATAL-ERROR TO TRUE                                  PPOT1134
064210         IF SPEC-RPT-SORT1 = SPACES                               PPOT1134
064211            MOVE 'MUST REQUEST AT LEAST ONE REPORT SORT'          PPOT1134
064212                         TO WS-MESSAGE-TEXT                       PPOT1134
064220         ELSE                                                     PPOT1134
064222            MOVE 'INVALID SORT OPTION FOR POT11341 REPORT'        PPOT1134
064223                         TO WS-MESSAGE-TEXT                       PPOT1134
064230         END-IF                                                   PPOT1134
064400         PERFORM 7000-BUILD-MESSAGE                               PPOT1134
064500      END-IF.                                                     PPOT1134
064501                                                                  PPOT1134
064560      IF NOT VALID-SPEC-UPDATE                                    PPOT1134
064570         SET FATAL-ERROR TO TRUE                                  PPOT1134
064571         MOVE 'INVALID UPDATE OPTION' TO WS-MESSAGE-TEXT          PPOT1134
064573         PERFORM 7000-BUILD-MESSAGE                               PPOT1134
064574      ELSE                                                        PPOT1134
064575        IF UPDATE-REQUESTED                                       PPOT1134
064576           MOVE 'THE EDB UPDATE OPTION HAS BEEN SELECTED'         PPOT1134
064577                          TO WS-MESSAGE-TEXT                      PPOT1134
064578           PERFORM 7000-BUILD-MESSAGE                             PPOT1134
064579        ELSE                                                      PPOT1134
064580           MOVE 'THE EDB UPDATE OPTION WAS NOT SELECTED'          PPOT1134
064581                          TO WS-MESSAGE-TEXT                      PPOT1134
064582           PERFORM 7000-BUILD-MESSAGE                             PPOT1134
064583        END-IF                                                    PPOT1134
064584      END-IF.                                                     PPOT1134
064590                                                                  PPOT1134
064600 1100-EXIT.                                                       PPOT1134
064700     EXIT.                                                        PPOT1134
064701                                                                  PPOT1134
064719     EJECT                                                        PPOT1134
064720                                                                  PPOT1134
064800 2000-PER-CURSOR           SECTION.                               PPOT1134
064900                                                                  PPOT1134
065300     PERFORM 8300-OPEN-PER-CURSOR.                                PPOT1134
065500     PERFORM 8310-FETCH-PER-CURSOR.                               PPOT1134
065510                                                                  PPOT1134
065520***********************************************************       PPOT1134
065530*    PROCESS THE MAIN CURSOR UNTIL EOF.                   *       PPOT1134
065540***********************************************************       PPOT1134
065700     PERFORM 2100-PROCESS-PER-CURSOR                              PPOT1134
065800             UNTIL EOF-PER-CURSOR                                 PPOT1134
065801                OR FATAL-ERROR.                                   PPOT1134
065802                                                                  PPOT1134
065810     PERFORM 8320-CLOSE-PER-CURSOR.                               PPOT1134
065900                                                                  PPOT1134
074000 2000-EXIT. EXIT.                                                 PPOT1134
074100     EJECT                                                        PPOT1134
074200                                                                  PPOT1134
074600 2100-PROCESS-PER-CURSOR   SECTION.                               PPOT1134
075052     MOVE EMPLOYEE-ID OF PER-ROW TO WS-EMPLOYEE-ID                PPOT1134
075053                                    PPAXDUTL-EMPLOYEE-ID.         PPOT1134
075057     PERFORM 8400-SELECT-PAY-ROW.                                 PPOT1134
075058     PERFORM 8500-SELECT-BEN-ROW.                                 PPOT1134
075059     PERFORM 8600-SELECT-BEL-ROW.                                 PPOT1134
075061     IF PAY-ROW-MISSING                                           PPOT1134
075062     OR BEN-ROW-MISSING                                           PPOT1134
075063        GO TO 2100-EXIT                                           PPOT1134
075064     END-IF.                                                      PPOT1134
075065                                                                  PPOT1134
075066     INITIALIZE AXD-ARRAY.                                        PPOT1134
075067     CALL 'PPAXDUTL' USING PPAXDUTL-INTERFACE AXD-ARRAY.          PPOT1134
075068     IF PPAXDUTL-ERROR                                            PPOT1134
075069        SET FATAL-ERROR TO TRUE                                   PPOT1134
075070        MOVE 'PPAXDUTL PROCESSING FAILURE' TO WS-MESSAGE-TEXT     PPOT1134
075071        PERFORM 7000-BUILD-MESSAGE                                PPOT1134
075072        GO TO 2100-EXIT                                           PPOT1134
075073     END-IF.                                                      PPOT1134
075074                                                                  PPOT1134
075075     PERFORM 8800-CALL-PPFICRET.                                  PPOT1134
075076     IF FATAL-ERROR                                               PPOT1134
075077        GO TO 2100-EXIT                                           PPOT1134
075078     END-IF.                                                      PPOT1134
075079                                                                  PPOT1134
075080     IF PPFICRET-DERIVED                                          PPOT1134
075081        AND                                                       PPOT1134
075082       (PPFICRET-UI-CODE NOT = SPACES AND                         PPOT1134
075083        PPFICRET-UI-CODE NOT = UI-ELIG-CODE OF PAY-ROW)           PPOT1134
075087        PERFORM 2400-WRITE-REPORT-DATA                            PPOT1134
075088***********************************************************       PPOT1134
075089*    IF AN UPDATE HAS BEEN REQUESTED ON THE SPEC CARD,    *       PPOT1134
075090*    UPDATE THE EDB AND WRITE A RECORD TO THE ECF.        *       PPOT1134
075091***********************************************************       PPOT1134
075092        IF UPDATE-REQUESTED                                       PPOT1134
075093           PERFORM 2700-UPDATE-EDB                                PPOT1134
075094        END-IF                                                    PPOT1134
075095     END-IF.                                                      PPOT1134
075096                                                                  PPOT1134
075097***********************************************************       PPOT1134
075098*    FETCH THE NEXT MAIN CURSOR ROW.                      *       PPOT1134
075099***********************************************************       PPOT1134
075100     PERFORM 8310-FETCH-PER-CURSOR.                               PPOT1134
075110                                                                  PPOT1134
075200 2100-EXIT. EXIT.                                                 PPOT1134
075300                                                                  PPOT1134
077646 2400-WRITE-REPORT-DATA    SECTION.                               PPOT1134
077647***********************************************************       PPOT1134
077648*    WRITE EACH FILE, PER SORTS REQUESTED ON SPEC CARD     *      PPOT1134
077650***********************************************************       PPOT1134
077661                                                                  PPOT1134
077662     INITIALIZE SRT-REPORT-REC.                                   PPOT1134
077663                                                                  PPOT1134
077672     PERFORM 8700-SELECT-HME-ROW.                                 PPOT1134
077673                                                                  PPOT1134
077674     MOVE WS-EMPLOYEE-ID TO SRT-EMPLOYEE-ID.                      PPOT1134
077675     MOVE EMP-NAME TO SRT-EMP-NAME.                               PPOT1134
077676     MOVE SOC-SEC-NUM OF PAY-ROW TO SRT-SOC-SEC-NUM.              PPOT1134
077677     MOVE HOME-DEPT TO  SRT-HOME-DEPT.                            PPOT1134
077678     MOVE HME-ABRV-DEPT-NAME TO SRT-HOME-DEPT-NAME.               PPOT1134
077679     MOVE ORIG-HIRE-DATE TO XDC3-ISO-DATE.                        PPOT1134
077680     PERFORM XDC3-CONVERT-ISO-TO-FMT.                             PPOT1134
077681     MOVE XDC3-FMT-DATE TO SRT-ORIG-HIRE-DATE.                    PPOT1134
077682     MOVE HIRE-DATE TO XDC3-ISO-DATE.                             PPOT1134
077683     PERFORM XDC3-CONVERT-ISO-TO-FMT.                             PPOT1134
077684     MOVE XDC3-FMT-DATE TO SRT-HIRE-DATE.                         PPOT1134
077685     MOVE EMP-STATUS TO SRT-EMP-STATUS.                           PPOT1134
077686     MOVE CITIZEN-CODE OF PAY-ROW TO SRT-CITIZEN-CODE.            PPOT1134
077687     IF VISA-TYPE OF PAY-ROW = SPACES                             PPOT1134
077688        MOVE SPACES TO SRT-VISA-TYPE                              PPOT1134
077689     ELSE                                                         PPOT1134
077690        MOVE VISA-TYPE OF PAY-ROW TO WS-VISA-TYPE-2X              PPOT1134
077691        MOVE WS-VISA-2X-CHAR1 TO WS-VISA-3X-CHAR1                 PPOT1134
077692        MOVE WS-VISA-2X-CHAR2 TO WS-VISA-3X-CHAR2                 PPOT1134
077693        MOVE WS-VISA-TYPE-3X TO SRT-VISA-TYPE                     PPOT1134
077694     END-IF.                                                      PPOT1134
077695     MOVE RET-ELIG-CODE OF BEN-ROW TO SRT-RET-ELIG-CODE.          PPOT1134
077698     MOVE UI-ELIG-CODE OF PAY-ROW TO WS-PRIOR.                    PPOT1134
077699     MOVE PPFICRET-UI-CODE TO WS-NEW.                             PPOT1134
077700     MOVE WS-PRIOR-NEW TO SRT-UI-ELIG-CODE.                       PPOT1134
077701     MOVE RET-FICA-DERIVE OF PAY-ROW TO SRT-RET-FICA-DERIVE.      PPOT1134
077702     MOVE BELI-IND TO SRT-BELI-IND.                               PPOT1134
077703     MOVE PRIMARY-TITLE TO SRT-PRIMARY-TITLE.                     PPOT1134
077704     MOVE STUDENT-STATUS TO SRT-STUDENT-STATUS.                   PPOT1134
077705     MOVE REGISTERD-UNITS TO SRT-REGISTERD-UNITS.                 PPOT1134
077706                                                                  PPOT1134
077707     IF ID-REPORT1                                                PPOT1134
077708        MOVE SPACES TO SRT-KEY-ID                                 PPOT1134
077709        MOVE WS-EMPLOYEE-ID TO SRT-KEY1-ID                        PPOT1134
077710        MOVE SRT-REPORT-KEY TO POSRTB1-KEY                        PPOT1134
077711        MOVE SRT-REPORT-DATA TO POSRTB1-DATA                      PPOT1134
077712        WRITE POSRTB1-REC                                         PPOT1134
077713     END-IF.                                                      PPOT1134
077714                                                                  PPOT1134
077715     IF NAME-REPORT1                                              PPOT1134
077716        MOVE SPACES TO SRT-KEY-NAME                               PPOT1134
077717        MOVE EMP-NAME TO SRT-KEY2-NAME                            PPOT1134
077718        MOVE SRT-REPORT-KEY TO POSRTB2-KEY                        PPOT1134
077719        MOVE SRT-REPORT-DATA TO POSRTB2-DATA                      PPOT1134
077720        WRITE POSRTB2-REC                                         PPOT1134
077721     END-IF.                                                      PPOT1134
077722                                                                  PPOT1134
077723     IF DEPT-REPORT1                                              PPOT1134
077724        MOVE SPACES TO SRT-KEY-DEPT-NAME                          PPOT1134
077725        MOVE HOME-DEPT TO SRT-KEY3-DEPT                           PPOT1134
077726        MOVE EMP-NAME TO SRT-KEY3-NAME                            PPOT1134
077727        MOVE SRT-REPORT-KEY TO POSRTB3-KEY                        PPOT1134
077728        MOVE SRT-REPORT-DATA TO POSRTB3-DATA                      PPOT1134
077729        WRITE POSRTB3-REC                                         PPOT1134
077730     END-IF.                                                      PPOT1134
077731                                                                  PPOT1134
077786 2700-UPDATE-EDB           SECTION.                               PPOT1134
077787***********************************************************       PPOT1134
077788*    UPDATE THE EDB AND WRITE AN ECF RECORD.               *      PPOT1134
077789***********************************************************       PPOT1134
077790                                                                  PPOT1134
077791     IF PPFICRET-UI-CODE NOT = UI-ELIG-CODE OF PAY-ROW            PPOT1134
077792        PERFORM 2750-CREATE-ECF                                   PPOT1134
077793        MOVE PPFICRET-UI-CODE TO UI-ELIG-CODE OF PAY-ROW          PPOT1134
077794        PERFORM 8100-UPDATE-PAY-ROW                               PPOT1134
077795     END-IF.                                                      PPOT1134
077900                                                                  PPOT1134
086200 2750-CREATE-ECF           SECTION.                               PPOT1134
086210***********************************************************       PPOT1134
086220*    PRODUCE EDB CHANGE FILE FOR PAY-ROW CHANGE           *       PPOT1134
086230***********************************************************       PPOT1134
086300     INITIALIZE XCHG-FIXED-AREA.                                  PPOT1134
086400     MOVE 'PPOT1134'                   TO XCHG-PROCESS-ID.        PPOT1134
086500     MOVE XDC3-GREGORIAN-CHAR          TO XCHG-TIMESTAMP.         PPOT1134
086600     MOVE WS-EMPLOYEE-ID               TO XCHG-EMPLOYEE-ID.       PPOT1134
086610     MOVE '0121'                       TO XCHG-DATA-ELEM-NO.      PPOT1134
086700     MOVE SPACES                       TO XCHG-OCCURENCE-KEY.     PPOT1134
086900     MOVE +1                           TO XCHG-OLD-VAL-LNGTH      PPOT1134
087000                                          XCHG-NEW-VAL1-LNGTH     PPOT1134
087100                                          XCHG-NEW-VAL2-LNGTH.    PPOT1134
087500     MOVE UI-ELIG-CODE OF PAY-ROW      TO XCHG-OLD-VALUE.         PPOT1134
087700     MOVE PPFICRET-UI-CODE             TO XCHG-NEW-VALUE1.        PPOT1134
087710     MOVE PPFICRET-UI-CODE             TO XCHG-NEW-VALUE2.        PPOT1134
087800     WRITE OCHG-EDB-CHANGE-RECORD FROM EDB-CHANGE-RECORD.         PPOT1134
088100                                                                  PPOT1134
088200 2750-EXIT. EXIT.                                                 PPOT1134
088221                                                                  PPOT1134
088222 3000-PRINT-REPORTS        SECTION.                               PPOT1134
088223***********************************************************       PPOT1134
088224*      PRINT REPORTS SELECTED ON THE SPEC CARD            *       PPOT1134
088225***********************************************************       PPOT1134
088234     OPEN OUTPUT POT11341-REPORT.                                 PPOT1134
088238                                                                  PPOT1134
088239     IF ID-REPORT1                                                PPOT1134
088240        CLOSE POSRTB1                                             PPOT1134
088241        SET NOT-EOF-SORT TO TRUE                                  PPOT1134
088242        MOVE ZERO TO WS-SORT-RECORDS                              PPOT1134
088243        SORT SORT-WORK-FILE                                       PPOT1134
088244          ASCENDING KEY SORT-WORK-KEY                             PPOT1134
088245            USING POSRTB1                                         PPOT1134
088246            OUTPUT PROCEDURE 3100-SORTOUT-POT11341                PPOT1134
088247        PERFORM 3370-WRITE-RPT1-TOTAL                             PPOT1134
088250     END-IF.                                                      PPOT1134
088251                                                                  PPOT1134
088252     IF NAME-REPORT1                                              PPOT1134
088253        CLOSE POSRTB2                                             PPOT1134
088254        DIVIDE STND-PAGE-NO BY 2 GIVING WS-EVEN REMAINDER WS-ODD  PPOT1134
088255        IF STND-PAGE-NO = +1                                      PPOT1134
088256        OR WS-ODD = 1                                             PPOT1134
088257           MOVE  SPACES TO PPOT11341-LINE                         PPOT1134
088258           WRITE PPOT11341-LINE AFTER NEW-PAGE                    PPOT1134
088259        END-IF                                                    PPOT1134
088260        MOVE ZERO TO STND-PAGE-NO                                 PPOT1134
088261        MOVE +99  TO RPT1-LINES-PER-PAGE                          PPOT1134
088262        SET FIRST-TIME TO TRUE                                    PPOT1134
088263        SET NOT-EOF-SORT TO TRUE                                  PPOT1134
088264        MOVE ZERO TO WS-SORT-RECORDS                              PPOT1134
088265        SORT SORT-WORK-FILE                                       PPOT1134
088266          ASCENDING KEY SORT-WORK-KEY                             PPOT1134
088267            USING POSRTB2                                         PPOT1134
088268            OUTPUT PROCEDURE 3100-SORTOUT-POT11341                PPOT1134
088269        PERFORM 3370-WRITE-RPT1-TOTAL                             PPOT1134
088270     END-IF.                                                      PPOT1134
088271                                                                  PPOT1134
088272     IF DEPT-REPORT1                                              PPOT1134
088273        CLOSE POSRTB3                                             PPOT1134
088274        DIVIDE STND-PAGE-NO BY 2 GIVING WS-EVEN REMAINDER WS-ODD  PPOT1134
088275        IF STND-PAGE-NO = +1                                      PPOT1134
088276        OR WS-ODD = 1                                             PPOT1134
088277           MOVE  SPACES TO PPOT11341-LINE                         PPOT1134
088278           WRITE PPOT11341-LINE AFTER NEW-PAGE                    PPOT1134
088279        END-IF                                                    PPOT1134
088280        MOVE ZERO TO STND-PAGE-NO                                 PPOT1134
088281        MOVE +99  TO RPT1-LINES-PER-PAGE                          PPOT1134
088282        SET FIRST-TIME TO TRUE                                    PPOT1134
088283        SET NOT-EOF-SORT TO TRUE                                  PPOT1134
088284        SET PRINTING-DEPT-REPORT1 TO TRUE                         PPOT1134
088285        MOVE ZERO TO WS-SORT-RECORDS                              PPOT1134
088286        SORT SORT-WORK-FILE                                       PPOT1134
088287          ASCENDING KEY SORT-WORK-KEY                             PPOT1134
088288            USING POSRTB3                                         PPOT1134
088289            OUTPUT PROCEDURE 3100-SORTOUT-POT11341                PPOT1134
088290        PERFORM 3370-WRITE-RPT1-TOTAL                             PPOT1134
088291     END-IF.                                                      PPOT1134
088292                                                                  PPOT1134
088300     CLOSE POT11341-REPORT.                                       PPOT1134
088363                                                                  PPOT1134
088364 3100-SORTOUT-POT11341     SECTION.                               PPOT1134
088365***********************************************************       PPOT1134
088366*    PERFORM SORT RETURN AND PRINT UNTIL END OF SORT.     *       PPOT1134
088367***********************************************************       PPOT1134
088368                                                                  PPOT1134
088369     PERFORM 3110-PRINT-POT11341 UNTIL EOF-SORT.                  PPOT1134
088370                                                                  PPOT1134
088371 3110-PRINT-POT11341       SECTION.                               PPOT1134
088372***********************************************************       PPOT1134
088373*    PRINT POT11341 REPORT FROM SORTED POSRTB1,2,3 FILES  *       PPOT1134
088374***********************************************************       PPOT1134
088375     RETURN SORT-WORK-FILE INTO SRT-REPORT-REC                    PPOT1134
088376       AT END SET EOF-SORT TO TRUE                                PPOT1134
088377              GO TO 3110-EXIT.                                    PPOT1134
088378                                                                  PPOT1134
088379     ADD +1 TO WS-SORT-RECORDS.                                   PPOT1134
088380                                                                  PPOT1134
088381     MOVE SRT-EMPLOYEE-ID TO RPT-EMPLOYEE-ID.                     PPOT1134
088382     MOVE SRT-EMP-NAME TO RPT-EMP-NAME.                           PPOT1134
088383     MOVE SRT-SOC-SEC-NUM TO RPT-SOC-SEC-NUM.                     PPOT1134
088384     MOVE SRT-HOME-DEPT TO RPT-HOME-DEPT.                         PPOT1134
088385     MOVE SRT-HOME-DEPT-NAME TO RPT-HOME-DEPT-NAME.               PPOT1134
088386     MOVE SRT-ORIG-HIRE-DATE TO RPT-ORIG-HIRE-DATE.               PPOT1134
088387     MOVE SRT-HIRE-DATE TO RPT-HIRE-DATE.                         PPOT1134
088388     MOVE SRT-EMP-STATUS TO RPT-EMP-STATUS.                       PPOT1134
088391     MOVE SRT-CITIZEN-CODE TO RPT-CITIZEN-CODE.                   PPOT1134
088393     MOVE SRT-VISA-TYPE TO RPT-VISA-TYPE.                         PPOT1134
088394     MOVE SRT-RET-ELIG-CODE TO RPT-RET-ELIG-CODE.                 PPOT1134
088395     MOVE SRT-UI-ELIG-CODE TO RPT-UI-ELIG-CODE.                   PPOT1134
088396     MOVE SRT-RET-FICA-DERIVE TO RPT-RET-FICA-DERIVE.             PPOT1134
088397     MOVE SRT-BELI-IND TO RPT-BELI-IND.                           PPOT1134
088398     MOVE SRT-PRIMARY-TITLE TO RPT-PRIMARY-TITLE.                 PPOT1134
088399     MOVE SRT-STUDENT-STATUS TO RPT-STUDENT-STATUS.               PPOT1134
088400     MOVE SRT-REGISTERD-UNITS TO RPT-REGISTERD-UNITS.             PPOT1134
088401                                                                  PPOT1134
088402     PERFORM 3300-WRITE-REPORT1.                                  PPOT1134
088403                                                                  PPOT1134
088410 3110-EXIT.  EXIT.                                                PPOT1134
088500     EJECT                                                        PPOT1134
095210                                                                  PPOT1134
095300 3300-WRITE-REPORT1        SECTION.                               PPOT1134
095310***********************************************************       PPOT1134
095320*    WRITE DETAIL REPORTS                                 *       PPOT1134
095330***********************************************************       PPOT1134
095400                                                                  PPOT1134
095701     IF (RPT1-LINES-PER-PAGE > MAX-LINES-PER-PAGE)                PPOT1134
095702         OR                                                       PPOT1134
095703        (PRINTING-DEPT-REPORT1 AND                                PPOT1134
095704         SRT-HOME-DEPT NOT = WS-SAVE-HOME-DEPT)                   PPOT1134
095705         PERFORM 3350-WRITE-RPT1-NEWPAGE                          PPOT1134
095706         MOVE SRT-HOME-DEPT TO WS-SAVE-HOME-DEPT                  PPOT1134
095707     END-IF.                                                      PPOT1134
095710                                                                  PPOT1134
095800     WRITE PPOT11341-LINE FROM PPOT1134-DETAIL-LINE1 AFTER 2.     PPOT1134
095900     WRITE PPOT11341-LINE FROM PPOT1134-DETAIL-LINE2 AFTER 1.     PPOT1134
096000     WRITE PPOT11341-LINE FROM PPOT1134-DETAIL-LINE3 AFTER 1.     PPOT1134
096200     ADD +4 TO RPT1-LINES-PER-PAGE.                               PPOT1134
096300                                                                  PPOT1134
096400 3350-WRITE-RPT1-NEWPAGE   SECTION.                               PPOT1134
097410                                                                  PPOT1134
097420     MOVE 'OT11341' TO STND-RPT-ID.                               PPOT1134
097500     ADD +1 TO STND-PAGE-NO.                                      PPOT1134
097600     INSPECT STND-PAGE-NO REPLACING LEADING ZEROS BY SPACE.       PPOT1134
097700     WRITE PPOT11341-LINE FROM STND-RPT-HD1                       PPOT1134
097800                                        AFTER ADVANCING NEW-PAGE. PPOT1134
097900     WRITE PPOT11341-LINE FROM STND-RPT-HD2  AFTER 1.             PPOT1134
098100     WRITE PPOT11341-LINE FROM PPOT1134-HDR1 AFTER 1.             PPOT1134
098110     WRITE PPOT11341-LINE FROM PPOT1134-HDR2 AFTER 2.             PPOT1134
098200     WRITE PPOT11341-LINE FROM PPOT1134-HDR3 AFTER 1.             PPOT1134
098210     WRITE PPOT11341-LINE FROM PPOT1134-HDR4 AFTER 1.             PPOT1134
098410                                                                  PPOT1134
098500     MOVE +6 TO RPT1-LINES-PER-PAGE.                              PPOT1134
107946                                                                  PPOT1134
107947 3370-WRITE-RPT1-TOTAL     SECTION.                               PPOT1134
107948***********************************************************       PPOT1134
107949*    WRITE TOTAL OF SORT RECORDS FOR REPORT.              *       PPOT1134
107950***********************************************************       PPOT1134
107951                                                                  PPOT1134
107952     IF RPT1-LINES-PER-PAGE > MAX-LINES-PER-PAGE                  PPOT1134
107953        PERFORM 3350-WRITE-RPT1-NEWPAGE                           PPOT1134
107954     END-IF.                                                      PPOT1134
107955                                                                  PPOT1134
107956     COMPUTE RPT-RECORD-TOTAL-9 = WS-SORT-RECORDS.                PPOT1134
107957     WRITE PPOT11341-LINE FROM PPOT1134-TOTAL-LINE AFTER 3.       PPOT1134
107958     ADD +3 TO RPT1-LINES-PER-PAGE.                               PPOT1134
108073     EJECT                                                        PPOT1134
108074 7000-BUILD-MESSAGE        SECTION.                               PPOT1134
108075***********************************************************       PPOT1134
108076*      PRINT MESSAGES                                     *       PPOT1134
108077***********************************************************       PPOT1134
108078                                                                  PPOT1134
108079     IF   WS-PRINT-LINES-RPT > MAX-LINES-PER-PAGE                 PPOT1134
108080          PERFORM 7050-BUILD-MESSAGE-HDR                          PPOT1134
108081          MOVE WS-MESSAGE TO PRINT-REC                            PPOT1134
108082          WRITE PRINT-REC AFTER ADVANCING +1                      PPOT1134
108083          ADD +1 TO WS-PRINT-LINES-RPT                            PPOT1134
108084     ELSE                                                         PPOT1134
108085          MOVE WS-MESSAGE TO PRINT-REC                            PPOT1134
108086          WRITE PRINT-REC AFTER ADVANCING +1                      PPOT1134
108087          ADD +1 TO WS-PRINT-LINES-RPT                            PPOT1134
108088     END-IF.                                                      PPOT1134
108089                                                                  PPOT1134
108090*****IF FATAL-ERROR                                               PPOT1134
108091*****   MOVE +08 TO RETURN-CODE                                   PPOT1134
108092*****END-IF.                                                      PPOT1134
108094                                                                  PPOT1134
108095 7000-EXIT.  EXIT.                                                PPOT1134
108096                                                                  PPOT1134
108097 7050-BUILD-MESSAGE-HDR    SECTION.                               PPOT1134
108098                                                                  PPOT1134
108099     MOVE 'OT11342' TO STND-RPT-ID.                               PPOT1134
108100     MOVE STND-PAGE-NO TO  WS-SAVE-PAGE-NO.                       PPOT1134
108101     ADD +1 TO WS-ERROR-PAGE-NO.                                  PPOT1134
108102     MOVE WS-ERROR-PAGE-NO TO STND-PAGE-NO.                       PPOT1134
108103     INSPECT STND-PAGE-NO REPLACING LEADING ZEROS BY SPACE.       PPOT1134
108104                                                                  PPOT1134
108105     MOVE STND-RPT-HD1 TO PRINT-REC.                              PPOT1134
108106     WRITE PRINT-REC AFTER ADVANCING NEW-PAGE.                    PPOT1134
108108     MOVE WS-SAVE-PAGE-NO TO STND-PAGE-NO.                        PPOT1134
108109                                                                  PPOT1134
108110     MOVE STND-RPT-HD2 TO PRINT-REC.                              PPOT1134
108111     WRITE PRINT-REC AFTER ADVANCING +1.                          PPOT1134
108112                                                                  PPOT1134
108113     MOVE STND-RPT-HD3 TO PRINT-REC.                              PPOT1134
108114     WRITE PRINT-REC AFTER ADVANCING +1.                          PPOT1134
108115                                                                  PPOT1134
108116     MOVE SPACES TO PRINT-REC.                                    PPOT1134
108117     WRITE PRINT-REC AFTER ADVANCING +1.                          PPOT1134
108118     MOVE +4 TO WS-PRINT-LINES-RPT.                               PPOT1134
108119                                                                  PPOT1134
108120 7050-EXIT. EXIT.                                                 PPOT1134
109600     EJECT                                                        PPOT1134
109610                                                                  PPOT1134
110000 8100-UPDATE-PAY-ROW       SECTION.                               PPOT1134
110010***********************************************************       PPOT1134
110020*    UPDATE UI ELIGIBILITY CODE ON EDB                    *       PPOT1134
110030***********************************************************       PPOT1134
110100     MOVE 'UPDATE PAY ROW'      TO DB2MSG-TAG.                    PPOT1134
110200                                                                  PPOT1134
110300     EXEC SQL                                                     PPOT1134
110400       UPDATE PPPVPAY2_PAY                                        PPOT1134
110600         SET UI_ELIG_CODE = :PAY-ROW.UI-ELIG-CODE                 PPOT1134
110700         WHERE EMPLOYEE_ID = :WS-EMPLOYEE-ID                      PPOT1134
110800     END-EXEC.                                                    PPOT1134
110900                                                                  PPOT1134
111000     IF SQLCODE NOT = 0                                           PPOT1134
111100        SET FATAL-ERROR TO TRUE                                   PPOT1134
111200        MOVE 'NON ZERO SQLCODE IN UPDATE ROW PAY '                PPOT1134
111300              TO WS-MESSAGE-TEXT                                  PPOT1134
111500        PERFORM 7000-BUILD-MESSAGE                                PPOT1134
111700     END-IF.                                                      PPOT1134
111900                                                                  PPOT1134
113500 8300-OPEN-PER-CURSOR      SECTION.                               PPOT1134
113510***********************************************************       PPOT1134
113520*    MAIN CURSOR SQL                                      *       PPOT1134
113530***********************************************************       PPOT1134
113600                                                                  PPOT1134
113700     MOVE 'OPEN MAIN CURSOR' TO DB2MSG-TAG.                       PPOT1134
113900     EXEC SQL                                                     PPOT1134
114000       OPEN PER_CURSOR                                            PPOT1134
114100     END-EXEC.                                                    PPOT1134
114200                                                                  PPOT1134
116400 8310-FETCH-PER-CURSOR     SECTION.                               PPOT1134
116410                                                                  PPOT1134
116500     MOVE 'FETCH MAIN CURSOR' TO DB2MSG-TAG.                      PPOT1134
116700     EXEC SQL                                                     PPOT1134
116800       FETCH PER_CURSOR                                           PPOT1134
116810       INTO :PER-ROW                                              PPOT1134
116900     END-EXEC                                                     PPOT1134
117000                                                                  PPOT1134
118400     IF SQLCODE = +100                                            PPOT1134
118500        SET EOF-PER-CURSOR TO TRUE                                PPOT1134
118600     END-IF.                                                      PPOT1134
121210                                                                  PPOT1134
121300 8320-CLOSE-PER-CURSOR     SECTION.                               PPOT1134
121400                                                                  PPOT1134
121500     MOVE 'CLOSE MAIN CURSOR' TO DB2MSG-TAG                       PPOT1134
121700     EXEC SQL                                                     PPOT1134
121800       CLOSE PER_CURSOR                                           PPOT1134
121900     END-EXEC.                                                    PPOT1134
122000     EJECT                                                        PPOT1134
124395 8400-SELECT-PAY-ROW       SECTION.                               PPOT1134
124396***********************************************************       PPOT1134
124397*    SELECT PAY-ROW DATA                                  *       PPOT1134
124398***********************************************************       PPOT1134
124399                                                                  PPOT1134
124400     MOVE 'SELECT PAY DATA' TO DB2MSG-TAG.                        PPOT1134
124401     EXEC SQL                                                     PPOT1134
124402       SELECT *                                                   PPOT1134
124408       INTO :PAY-ROW                                              PPOT1134
124414       FROM PPPVPAY1_PAY                                          PPOT1134
124415       WHERE EMPLOYEE_ID = :WS-EMPLOYEE-ID                        PPOT1134
124416     END-EXEC.                                                    PPOT1134
124417     IF SQLCODE = ZERO                                            PPOT1134
124418        SET PAY-ROW-OK TO TRUE                                    PPOT1134
124419     ELSE                                                         PPOT1134
124420        SET PAY-ROW-MISSING TO TRUE                               PPOT1134
124421     END-IF.                                                      PPOT1134
124422                                                                  PPOT1134
124423                                                                  PPOT1134
124424 8500-SELECT-BEN-ROW       SECTION.                               PPOT1134
124425***********************************************************       PPOT1134
124426*    SELECT BEN-ROW DATA                                  *       PPOT1134
124427***********************************************************       PPOT1134
124428                                                                  PPOT1134
124429     MOVE 'SELECT BEN DATA' TO DB2MSG-TAG.                        PPOT1134
124430     EXEC SQL                                                     PPOT1134
124431       SELECT *                                                   PPOT1134
124432       INTO :BEN-ROW                                              PPOT1134
124433       FROM PPPVBEN1_BEN                                          PPOT1134
124434       WHERE EMPLOYEE_ID = :WS-EMPLOYEE-ID                        PPOT1134
124435     END-EXEC.                                                    PPOT1134
124436     IF SQLCODE = ZERO                                            PPOT1134
124437        SET BEN-ROW-OK TO TRUE                                    PPOT1134
124438     ELSE                                                         PPOT1134
124439        SET BEN-ROW-MISSING TO TRUE                               PPOT1134
124440     END-IF.                                                      PPOT1134
124441                                                                  PPOT1134
124442 8600-SELECT-BEL-ROW       SECTION.                               PPOT1134
124443***********************************************************       PPOT1134
124444*    SELECT BELI INDICATOR                                *       PPOT1134
124445***********************************************************       PPOT1134
124446                                                                  PPOT1134
124447     MOVE 'SELECT BEL DATA' TO DB2MSG-TAG.                        PPOT1134
124448     EXEC SQL                                                     PPOT1134
124449       SELECT BELI_IND                                            PPOT1134
124450       INTO :BELI-IND                                             PPOT1134
124451       FROM PPPVBEL1_BEL                                          PPOT1134
124452       WHERE EMPLOYEE_ID = :WS-EMPLOYEE-ID                        PPOT1134
124453     END-EXEC.                                                    PPOT1134
124454                                                                  PPOT1134
124455 8700-SELECT-HME-ROW       SECTION.                               PPOT1134
124456***********************************************************       PPOT1134
124457*    SELECT HME ABBREVIATED DEPARTMENT NAME               *       PPOT1134
124458***********************************************************       PPOT1134
124459                                                                  PPOT1134
124460     MOVE 'SELECT HME DATA' TO DB2MSG-TAG.                        PPOT1134
124461     EXEC SQL                                                     PPOT1134
124462       SELECT                                                     PPOT1134
124463          HME_ABRV_DEPT_NAME                                      PPOT1134
124464       INTO                                                       PPOT1134
124465         :HME-ABRV-DEPT-NAME                                      PPOT1134
124466       FROM PPPVZHME_HME                                          PPOT1134
124467       WHERE HME_DEPT_NO = :HOME-DEPT                             PPOT1134
124468     END-EXEC                                                     PPOT1134
124469                                                                  PPOT1134
124470     IF SQLCODE = +100                                            PPOT1134
124471        MOVE 'UNKNOWN DEPARTMENT' TO HME-ABRV-DEPT-NAME           PPOT1134
124472     END-IF.                                                      PPOT1134
124473                                                                  PPOT1134
124474 8800-CALL-PPFICRET SECTION.                                      PPOT1134
124475***********************************************************       PPOT1134
124476*    CALL PPFICRET FOR DERIVATION                         *       PPOT1134
124477***********************************************************       PPOT1134
124478     CALL  'PPFICRET'   USING PPFICRET-INTERFACE.                 PPOT1134
124479                                                                  PPOT1134
124480     IF PPFICRET-RETURN-STATUS-FLAG NOT = ZERO                    PPOT1134
124481        SET FATAL-ERROR TO TRUE                                   PPOT1134
124482        MOVE 'PPFICRET PROCESSING FAILURE' TO WS-MESSAGE-TEXT     PPOT1134
124483        PERFORM 7000-BUILD-MESSAGE                                PPOT1134
124484     END-IF.                                                      PPOT1134
124490     EJECT                                                        PPOT1134
127000 9000-FINALIZATION         SECTION.                               PPOT1134
127010***********************************************************       PPOT1134
127020*                    F I N A L I Z E                      *       PPOT1134
127030***********************************************************       PPOT1134
127700                                                                  PPOT1134
127710     IF UPDATE-REQUESTED                                          PPOT1134
127800        CLOSE EDBCHG                                              PPOT1134
127820     END-IF.                                                      PPOT1134
127830                                                                  PPOT1134
127840     CLOSE PRINT-FILE.                                            PPOT1134
127850     CLOSE CARDFILE.                                              PPOT1134
127900                                                                  PPOT1134
127920 DATE-CONVERSION-DB2       SECTION.         COPY CPPDXDC3.        PPOT1134
127930                                                                  PPOT1134
128000*999999-SQL-ERROR.                                                PPOT1134
128100     EXEC SQL                                                     PPOT1134
128200          INCLUDE CPPDXP99                                        PPOT1134
128300     END-EXEC.                                                    PPOT1134
128400     IF NOT HERE-BEFORE                                           PPOT1134
128500         SET HERE-BEFORE TO TRUE                                  PPOT1134
128600         MOVE 'UPDATE ROLLBACK' TO DB2MSG-TAG                     PPOT1134
128700         EXEC SQL                                                 PPOT1134
128800             ROLLBACK WORK                                        PPOT1134
128900         END-EXEC                                                 PPOT1134
129000     END-IF.                                                      PPOT1134
129100     MOVE +9               TO RETURN-CODE.                        PPOT1134
129200     STOP RUN.                                                    PPOT1134
129300********  END OF PROGRAM PPOT1134 ********                        PPOT1134
