000000**************************************************************/   49031194
000001*  PROGRAM: PPOT1194                                         */   49031194
000002*  RELEASE: ___1194______ SERVICE REQUEST(S): ____14903____  */   49031194
000003*  NAME:_______QUAN______ CREATION DATE:      ___06/18/98__  */   49031194
000004*  DESCRIPTION:                                              */   49031194
000005*  - ONETIME PROGRAM TO INTIALIZE THE EMPLOYMENT STATUS      */   49031194
000006*    CHANGE DATE.                                            */   49031194
000010**************************************************************/   49031194
001300***************************************************************   PPOT1194
001400 IDENTIFICATION DIVISION.                                         PPOT1194
001500 PROGRAM-ID. PPOT1194.                                            PPOT1194
001600 AUTHOR.  UCOP                                                    PPOT1194
001700 DATE-WRITTEN.   JUNE, 1998.                                      PPOT1194
001800                                                                  PPOT1194
001900 DATE-COMPILED.                                                   PPOT1194
002000                                                                  PPOT1194
002100*REMARKS.                                                         PPOT1194
002200******************************************************************PPOT1194
002300*                                                                 PPOT1194
002400* THE PURPOSE OF THIS ONE-TIME PROGRAM IS TO INTIALIZE THE        PPOT1194
002500* EMPLOYMENT STATUS CHANGE DATE TO THE PROPER VALUE BASED ON      PPOT1194
002600* THE EMPLOYEE'S EMPLOYMENT STATUS AT THE TIME THIS ONETIME IS    PPOT1194
002700* RUN.                                                            PPOT1194
002710*                                                                 PPOT1194
003000* A CONTROL TOTALS REPORT IS WRITTEN FOR THOSE EMPLOYEES WHOSE    PPOT1194
003010* EMPLOYMENT STATUS CHANGE DATE HAVE CHANGED.                     PPOT1194
003100******************************************************************PPOT1194
003200                                                                  PPOT1194
003300 ENVIRONMENT DIVISION.                                            PPOT1194
003400                                                                  PPOT1194
003500 CONFIGURATION SECTION.                                           PPOT1194
003600 SPECIAL-NAMES.                                                   PPOT1194
003700                                                                  PPOT1194
003800     C01 IS NEW-PAGE.                                             PPOT1194
003900     EJECT                                                        PPOT1194
004000 INPUT-OUTPUT SECTION.                                            PPOT1194
004100 FILE-CONTROL.                                                    PPOT1194
004200                                                                  PPOT1194
004310     SELECT POT11941-REPORT ASSIGN TO UT-S-POT11941.              PPOT1194
004311                                                                  PPOT1194
004320     SELECT POT11942-REPORT ASSIGN TO UT-S-POT11942.              PPOT1194
004330                                                                  PPOT1194
004370     SELECT EDBCHG         ASSIGN TO UT-S-EDBCHG.                 PPOT1194
004500******************************************************************PPOT1194
004600*                                                                *PPOT1194
004700*                         DATA DIVISION                          *PPOT1194
004800*                                                                *PPOT1194
004900******************************************************************PPOT1194
005000 DATA DIVISION.                                                   PPOT1194
005100 FILE SECTION.                                                    PPOT1194
005200                                                                  PPOT1194
007300                                                                  PPOT1194
007310 FD  POT11941-REPORT                                              PPOT1194
007320     LABEL RECORDS ARE OMITTED                                    PPOT1194
007330     BLOCK CONTAINS 0 RECORDS                                     PPOT1194
007340     RECORDING MODE IS F                                          PPOT1194
007350     RECORD CONTAINS 133 CHARACTERS.                              PPOT1194
007360                                                                  PPOT1194
007370 01  PPOT11941-LINE.                                              PPOT1194
007380     05  FILLER                   PIC X.                          PPOT1194
007390     05  PPOT11941-DATA           PIC X(132).                     PPOT1194
007391                                                                  PPOT1194
007392 FD  POT11942-REPORT                                              PPOT1194
007393     LABEL RECORDS ARE OMITTED                                    PPOT1194
007394     BLOCK CONTAINS 0 RECORDS                                     PPOT1194
007395     RECORDING MODE IS F                                          PPOT1194
007396     RECORD CONTAINS 133 CHARACTERS.                              PPOT1194
007397                                                                  PPOT1194
007398 01  PPOT11942-LINE.                                              PPOT1194
007399     05  FILLER                   PIC X.                          PPOT1194
007400     05  PPOT11942-DATA           PIC X(132).                     PPOT1194
007402                                                                  PPOT1194
007403***********************************************************       PPOT1194
007404*    EDB CHANGE FILE                                      *       PPOT1194
007405***********************************************************       PPOT1194
007406 FD  EDBCHG                    COPY  CPFDXCHG                     PPOT1194
007407         REPLACING EDB-CHANGE-RECORD BY OCHG-EDB-CHANGE-RECORD.   PPOT1194
007408 01  OCHG-EDB-CHANGE-RECORD.   COPY CPWSXCHG                      PPOT1194
007409         REPLACING XCHG-FIXED-AREA     BY OCHG-FIXED-AREA         PPOT1194
007410                   XCHG-EMPLOYEE-ID    BY OCHG-EMPLOYEE-ID        PPOT1194
007411                   XCHG-DATA-ELEM-NO   BY OCHG-DATA-ELEM-NO       PPOT1194
007412                   XCHG-OCCURENCE-KEY  BY OCHG-OCCURENCE-KEY      PPOT1194
007413                   XCHG-PROCESS-ID     BY OCHG-PROCESS-ID         PPOT1194
007414                   XCHG-CHANGE-SOURCE  BY OCHG-CHANGE-SOURCE      PPOT1194
007415                   XCHG-TIMESTAMP      BY OCHG-TIMESTAMP          PPOT1194
007416                   XCHG-ODO-LENGTHS    BY OCHG-ODO-LENGTHS        PPOT1194
007417                   XCHG-OLD-VAL-LNGTH  BY OCHG-OLD-VAL-LNGTH      PPOT1194
007418                   XCHG-NEW-VAL1-LNGTH BY OCHG-NEW-VAL1-LNGTH     PPOT1194
007419                   XCHG-NEW-VAL2-LNGTH BY OCHG-NEW-VAL2-LNGTH     PPOT1194
007420                   XCHG-OLD-VALUE      BY OCHG-OLD-VALUE          PPOT1194
007421                   XCHG-OLD-VAL        BY OCHG-OLD-VAL            PPOT1194
007422                   XCHG-NEW-VALUE1     BY OCHG-NEW-VALUE1         PPOT1194
007423                   XCHG-NEW-VAL1       BY OCHG-NEW-VAL1           PPOT1194
007424                   XCHG-NEW-VALUE2     BY OCHG-NEW-VALUE2         PPOT1194
007425                   XCHG-NEW-VAL2       BY OCHG-NEW-VAL2.          PPOT1194
007426                                                                  PPOT1194
007427                                                                  PPOT1194
007430                                                                  PPOT1194
007500     EJECT                                                        PPOT1194
007600******************************************************************PPOT1194
007700*                                                                *PPOT1194
007800*                     WORKING-STORAGE SECTION                    *PPOT1194
007900*                                                                *PPOT1194
008000******************************************************************PPOT1194
008100 WORKING-STORAGE SECTION.                                         PPOT1194
009300                                                                  PPOT1194
009400 01  WS-FLAGS.                                                    PPOT1194
009500     05  WS-ABEND-FLAG           PIC S9(01) VALUE +0.             PPOT1194
009600         88  WS-ABEND                       VALUE +1.             PPOT1194
009700                                                                  PPOT1194
009800 01  WS-MISC.                                                     PPOT1194
010120     05  WS-PGM-ID                PIC X(15)  VALUE                PPOT1194
010130                                            'PPOT1194/061798'.    PPOT1194
010131     05  LUW-TIMESTAMP-X26       PIC X(26).                       PPOT1194
010132     05  WS-TODAYS-DATE          PIC X(10).                       PPOT1194
010140     05  WS-SEVERITY-LEVEL       PIC 9(01)     VALUE ZERO.        PPOT1194
010150     05  WS-SEVERITY-LEVEL-HIGH  PIC 9(01)     VALUE ZERO.        PPOT1194
010195                                                                  PPOT1194
010196     05  WS-PER-SQLCODE          PIC S9(09) COMP VALUE ZERO.      PPOT1194
010197     05  WS-NER-SQLCODE          PIC S9(09) COMP VALUE ZERO.      PPOT1194
010300     05  WS-EMPLOYEE-ID          PIC X(09)  VALUE SPACES.         PPOT1194
010500     05  EMP-CURSOR-OPEN-SW      PIC X(01)  VALUE SPACE.          PPOT1194
010600         88  EMP-CURSOR-OPEN                VALUE '1'.            PPOT1194
010700     05  EOF-EMP-DATA-SW         PIC X(01)  VALUE SPACE.          PPOT1194
010800         88  EOF-EMP-DATA                   VALUE '1'.            PPOT1194
010900     05  HERE-BEFORE-SW          PIC X(01)  VALUE SPACE.          PPOT1194
011000         88 HERE-BEFORE                     VALUE 'Y'.            PPOT1194
011410     05  MAX-LINES-PER-PAGE      PIC S9(04) VALUE +55.            PPOT1194
011420     05  RPT1-LINES-PER-PAGE     PIC S9(04) VALUE +99.            PPOT1194
011421     05  RPT1-PAGE-NO            PIC S9(04) VALUE ZERO.           PPOT1194
011422     05  RPT2-LINES-PER-PAGE     PIC S9(04) VALUE +99.            PPOT1194
011424     05  RPT2-PAGE-NO            PIC S9(04) VALUE ZERO.           PPOT1194
011430     05  WS-ECF-COUNT            PIC S9(07) VALUE ZERO.           PPOT1194
011440     05  WS-PER-COUNT            PIC S9(07) VALUE ZERO.           PPOT1194
011500                                                                  PPOT1194
011600*                                                                *PPOT1194
011700 01  WA-ERROR-DETAIL-1.                                           PPOT1194
011800     05  WA-DET1-CC              PIC  X(01)  VALUE SPACES.        PPOT1194
011900     05  SEVERITY-TEXT           PIC  X(30)  VALUE SPACES.        PPOT1194
012000     05  WA-ERROR-MESSAGE-1.                                      PPOT1194
012100         10  WA-ERROR-TEXT       PIC  X(50)  VALUE SPACES.        PPOT1194
012200         10  FILLER              PIC  X(52)  VALUE SPACES.        PPOT1194
012300     SKIP1                                                        PPOT1194
019144                                                                  PPOT1194
019170****************************************************************  PPOT1194
019180*     CONTROL TOTAL HEADINGS                                      PPOT1194
019190****************************************************************  PPOT1194
019200 01  CNTLR-1.                                                     PPOT1194
019300     05  FILLER                   PIC X(1)   VALUE ' '.           PPOT1194
019400     05  FILLER                   PIC X(43)                       PPOT1194
019500              VALUE 'TOTAL EMPLOYEES SELECTED ON EDB:      '.     PPOT1194
019600     05  FILLER                   PIC X(04) VALUE SPACES.         PPOT1194
019700     05  TOT-PER-RECS             PIC ZZ,ZZZ,ZZ9 VALUE ZERO.      PPOT1194
019800     05  FILLER                   PIC X(75) VALUE SPACES.         PPOT1194
019900 01  CNTLR-2.                                                     PPOT1194
020000     05  FILLER                   PIC X(1)   VALUE ' '.           PPOT1194
020100     05  FILLER                   PIC X(43)                       PPOT1194
020110              VALUE 'TOTAL EMPLOYEES WRITTEN TO ECF FILE:  '.     PPOT1194
020300     05  FILLER                   PIC X(04) VALUE SPACES.         PPOT1194
020400     05  TOT-ECF-RECS             PIC ZZ,ZZZ,ZZ9 VALUE ZERO.      PPOT1194
020500     05  FILLER                   PIC X(75) VALUE SPACES.         PPOT1194
021600     EJECT                                                        PPOT1194
021700***********************************************************       PPOT1194
021800*        S T A N D A R D    C O P Y   M E M B E R S       *       PPOT1194
021900***********************************************************       PPOT1194
022100                                                                  PPOT1194
022200 01  XWHC-COMPILE-WORK-AREA.          COPY CPWSXWHC.              PPOT1194
022500                                                                  PPOT1194
022600 01  DATE-CONVERSION-WORK-AREAS.      COPY CPWSXDC3.              PPOT1194
023100                                                                  PPOT1194
023200 01  STND-RPT-HD.                     COPY CPWSPSHR.              PPOT1194
023210                                                                  PPOT1194
023220 01  XSCR-SYSTEM-CONTROL-RECORD.      COPY CPWSXSCR.              PPOT1194
023300                                                                  PPOT1194
023342 01  EDB-CHANGE-RECORD.               COPY CPWSXCHG.              PPOT1194
023350                                                                  PPOT1194
023400 01  PPDB2MSG-INTERFACE.              COPY CPLNKDB2.              PPOT1194
023500     EJECT                                                        PPOT1194
023600******************************************************************PPOT1194
023700*                      SQL WORKING-STORAGE.                      *PPOT1194
023800******************************************************************PPOT1194
023900 01  SCR-ROW.                                                     PPOT1194
024000     EXEC SQL                                                     PPOT1194
024100          INCLUDE PPPVSCR1                                        PPOT1194
024200     END-EXEC.                                                    PPOT1194
025900                                                                  PPOT1194
026000 01  PER-ROW.                                                     PPOT1194
026100     EXEC SQL                                                     PPOT1194
026200         INCLUDE PPPVPER1                                         PPOT1194
026300     END-EXEC.                                                    PPOT1194
026400                                                                  PPOT1194
026420 01  PER-ROW-FOR-UPDATE.                                          PPOT1194
026430     EXEC SQL                                                     PPOT1194
026440         INCLUDE PPPVPER2                                         PPOT1194
026450     END-EXEC.                                                    PPOT1194
026460                                                                  PPOT1194
026500     EXEC SQL                                                     PPOT1194
026600         INCLUDE SQLCA                                            PPOT1194
026700     END-EXEC.                                                    PPOT1194
026900                                                                  PPOT1194
027000     EXEC SQL                                                     PPOT1194
027100          DECLARE PER_CSR CURSOR FOR                              PPOT1194
027200            SELECT PPPVPER1_PER.EMPLOYEE_ID                       PPOT1194
027300                  ,PPPVPER1_PER.EMP_STATUS                        PPOT1194
027400                  ,PPPVPER1_PER.SEPARATE_DATE                     PPOT1194
027500                  ,PPPVPER1_PER.LOA_BEGIN_DATE                    PPOT1194
027600                  ,PPPVPER1_PER.EMP_STATUS_CHG_DT                 PPOT1194
027800                FROM PPPVPER1_PER                                 PPOT1194
027810            WHERE (EMP_NAME  NOT LIKE '*%')                       PPOT1194
028400            ORDER BY PPPVPER1_PER.EMPLOYEE_ID                     PPOT1194
028500     END-EXEC.                                                    PPOT1194
028800                                                                  PPOT1194
028900******************************************************************PPOT1194
029000*                      PROCEDURE DIVISION.                       *PPOT1194
029100*                                                                *PPOT1194
029200******************************************************************PPOT1194
029300 PROCEDURE DIVISION.                                              PPOT1194
029400                                                                  PPOT1194
029500     EXEC SQL                                                     PPOT1194
029600         INCLUDE CPPDXE99                                         PPOT1194
029700     END-EXEC.                                                    PPOT1194
029800                                                                  PPOT1194
029900     EJECT                                                        PPOT1194
030000******************************************************************PPOT1194
030100*                       MAIN-ROUTINE                             *PPOT1194
030200******************************************************************PPOT1194
030300                                                                  PPOT1194
030400 0001-MAIN-ROUTINE.                                               PPOT1194
030500                                                                  PPOT1194
030600     PERFORM 1000-INITIALIZATION.                                 PPOT1194
030700                                                                  PPOT1194
030900     PERFORM 2000-PROCESS-EMPLOYEE.                               PPOT1194
031200                                                                  PPOT1194
031300     PERFORM 9000-TERMINATION.                                    PPOT1194
031310     MOVE WS-SEVERITY-LEVEL-HIGH TO RETURN-CODE.                  PPOT1194
031710                                                                  PPOT1194
031800     STOP RUN.                                                    PPOT1194
032000                                                                  PPOT1194
032100 0001-MAIN-EXIT. EXIT.                                            PPOT1194
032200                                                                  PPOT1194
032300     EJECT                                                        PPOT1194
032400******************************************************************PPOT1194
032500*                       1000-INITIALIZATION                      *PPOT1194
032600******************************************************************PPOT1194
032700                                                                  PPOT1194
032800 1000-INITIALIZATION  SECTION.                                    PPOT1194
032900                                                                  PPOT1194
032910                                                                  PPOT1194
032920     OPEN OUTPUT POT11941-REPORT                                  PPOT1194
032921                 POT11942-REPORT.                                 PPOT1194
032930                                                                  PPOT1194
033000     MOVE 'PPOT1194' TO XWHC-DISPLAY-MODULE                       PPOT1194
033100     COPY CPPDXWHC.                                               PPOT1194
033101                                                                  PPOT1194
033103     MOVE WS-PGM-ID TO STND-PROG-ID.                              PPOT1194
033104     MOVE STND-PROG-ID TO DB2MSG-PGM-ID.                          PPOT1194
033105     PERFORM XDC3-GET-CURRENT-DATE.                               PPOT1194
033106     PERFORM XDC3-CONVERT-LILIAN-TO-ISO.                          PPOT1194
033107     MOVE XDC3-ISO-DATE TO WS-TODAYS-DATE.                        PPOT1194
033108     PERFORM XDC3-CONVERT-ISO-TO-FMT.                             PPOT1194
033109     MOVE XDC3-FMT-DATE TO STND-RPT-DATE.                         PPOT1194
033110                                                                  PPOT1194
033111     PERFORM 8200-OT11941-HEAD.                                   PPOT1194
033120     PERFORM 8300-OT11942-HEAD.                                   PPOT1194
033130                                                                  PPOT1194
033140     IF WS-ABEND                                                  PPOT1194
033150        GO TO 1000-EXIT                                           PPOT1194
033160     END-IF.                                                      PPOT1194
033170                                                                  PPOT1194
033180***********************************************************       PPOT1194
033190*    GET SCR DATA                                         *       PPOT1194
033200***********************************************************       PPOT1194
033300     MOVE 'SELECT SCR ROW' TO DB2MSG-TAG.                         PPOT1194
033400     EXEC SQL                                                     PPOT1194
033500       SELECT                                                     PPOT1194
033600          SCR_PROCESS_DATE                                        PPOT1194
033700         ,SCR_PURGE_DATE                                          PPOT1194
033800         ,SCR_CURRENT_DATE                                        PPOT1194
033900         ,SCR_NEXTCYCLE_MO                                        PPOT1194
034000         ,SCR_NEXTCYCLE_QTR                                       PPOT1194
034100         ,SCR_NEXTCYCLE_YR                                        PPOT1194
034200         ,SCR_NEXTCYCLE_FYR                                       PPOT1194
034300         ,SCR_EDB_GENNUM                                          PPOT1194
034400       INTO                                                       PPOT1194
034500         :SCR-PROCESS-DATE                                        PPOT1194
034600        ,:SCR-PURGE-DATE                                          PPOT1194
034700        ,:SCR-CURRENT-DATE                                        PPOT1194
034800        ,:SCR-NEXTCYCLE-MO                                        PPOT1194
034900        ,:SCR-NEXTCYCLE-QTR                                       PPOT1194
035000        ,:SCR-NEXTCYCLE-YR                                        PPOT1194
035100        ,:SCR-NEXTCYCLE-FYR                                       PPOT1194
035200        ,:SCR-EDB-GENNUM                                          PPOT1194
035300       FROM PPPVSCR1_SCR                                          PPOT1194
035400     END-EXEC.                                                    PPOT1194
035500                                                                  PPOT1194
035600     IF SQLCODE NOT = ZERO                                        PPOT1194
035800        MOVE 'ERROR IN SCR ROW SELECT' TO WA-ERROR-TEXT           PPOT1194
036020        MOVE  9  TO WS-SEVERITY-LEVEL                             PPOT1194
036050        PERFORM 7000-PRINT-ERROR-DETAIL                           PPOT1194
036060        GO TO 1000-EXIT                                           PPOT1194
036100     END-IF.                                                      PPOT1194
036200                                                                  PPOT1194
036300     INITIALIZE XSCR-SYSTEM-CONTROL-RECORD.                       PPOT1194
036400     MOVE '          SCR' TO XSCR-KEY-AREA.                       PPOT1194
036500     MOVE SCR-PROCESS-DATE OF SCR-ROW TO XDC3-ISO-DATE.           PPOT1194
036600     PERFORM XDC3-CONVERT-ISO-TO-STD                              PPOT1194
036700     MOVE XDC3-STD-DATE TO XSCR-PROCESS-DATE.                     PPOT1194
036800     MOVE SCR-NEXTCYCLE-MO OF SCR-ROW TO XSCR-NEXT-MONTH.         PPOT1194
036900     MOVE SCR-NEXTCYCLE-QTR OF SCR-ROW TO XSCR-NEXT-QTR.          PPOT1194
037000     MOVE SCR-NEXTCYCLE-YR OF SCR-ROW TO XSCR-NEXT-YEAR.          PPOT1194
037100     MOVE SCR-NEXTCYCLE-FYR OF SCR-ROW TO XSCR-NEXT-FY.           PPOT1194
037200     MOVE 'OT' TO XSCR-LAST-PGM-RUN.                              PPOT1194
037300     MOVE SCR-EDB-GENNUM OF SCR-ROW TO XSCR-EDB-GEN-NO.           PPOT1194
037400     MOVE SCR-PURGE-DATE OF SCR-ROW TO XDC3-ISO-DATE.             PPOT1194
037500     PERFORM XDC3-CONVERT-ISO-TO-STD.                             PPOT1194
037600     MOVE XDC3-STD-DATE TO XSCR-PURGE-DATE.                       PPOT1194
037700     MOVE SCR-CURRENT-DATE OF SCR-ROW TO XDC3-ISO-DATE.           PPOT1194
037800     PERFORM XDC3-CONVERT-ISO-TO-STD.                             PPOT1194
037900     MOVE XDC3-STD-DATE TO XSCR-CURRENT-DATE.                     PPOT1194
038000                                                                  PPOT1194
038100     MOVE LOW-VALUES TO XCHG-ODO-LENGTHS.                         PPOT1194
038200     MOVE XSCR-SYSTEM-CONTROL-RECORD TO EDB-CHANGE-RECORD.        PPOT1194
038300                                                                  PPOT1194
038400     OPEN OUTPUT EDBCHG.                                          PPOT1194
038500     WRITE OCHG-EDB-CHANGE-RECORD FROM EDB-CHANGE-RECORD.         PPOT1194
038600                                                                  PPOT1194
038700     MOVE 'SELECT TIMESTAMP'   TO DB2MSG-TAG                      PPOT1194
038800     EXEC SQL                                                     PPOT1194
038900       SELECT CURRENT TIMESTAMP                                   PPOT1194
039000       INTO   :LUW-TIMESTAMP-X26                                  PPOT1194
039100       FROM   PPPVSCR1_SCR                                        PPOT1194
039200     END-EXEC.                                                    PPOT1194
039700                                                                  PPOT1194
039800 1000-EXIT. EXIT.                                                 PPOT1194
039820                                                                  PPOT1194
039927     EJECT                                                        PPOT1194
039930                                                                  PPOT1194
040100***********************************************************       PPOT1194
040200*               PROCESS EMPLOYEE LEVEL DATA               *       PPOT1194
040300***********************************************************       PPOT1194
040400 2000-PROCESS-EMPLOYEE  SECTION.                                  PPOT1194
040500                                                                  PPOT1194
040600     PERFORM SQL-OPEN-EMP-CURSOR.                                 PPOT1194
040700     PERFORM SQL-FETCH-EMP-DATA.                                  PPOT1194
040800                                                                  PPOT1194
040900     PERFORM 2100-PROCESS-EMPLOYEES                               PPOT1194
041000                  UNTIL EOF-EMP-DATA                              PPOT1194
041100                     OR WS-ABEND.                                 PPOT1194
041200                                                                  PPOT1194
041300 2000-EXIT. EXIT.                                                 PPOT1194
041310                                                                  PPOT1194
041400     EJECT                                                        PPOT1194
041410                                                                  PPOT1194
041500 2100-PROCESS-EMPLOYEES  SECTION.                                 PPOT1194
042000                                                                  PPOT1194
042010     IF SQLCODE = ZERO                                            PPOT1194
042030        IF EMP-STATUS OF PER-ROW = 'S'                            PPOT1194
042040           MOVE SEPARATE-DATE OF PER-ROW                          PPOT1194
042041                        TO EMP-STATUS-CHG-DT OF PER-ROW-FOR-UPDATEPPOT1194
042042        ELSE                                                      PPOT1194
042043           IF EMP-STATUS OF PER-ROW = 'I'                         PPOT1194
042044              MOVE WS-TODAYS-DATE                                 PPOT1194
042045                        TO EMP-STATUS-CHG-DT OF PER-ROW-FOR-UPDATEPPOT1194
042046           ELSE                                                   PPOT1194
042047              IF EMP-STATUS OF PER-ROW  = ('N' OR 'P')            PPOT1194
042048                 MOVE LOA-BEGIN-DATE OF PER-ROW                   PPOT1194
042049                        TO EMP-STATUS-CHG-DT OF PER-ROW-FOR-UPDATEPPOT1194
042050              ELSE                                                PPOT1194
042051                 MOVE XDC3-LOW-ISO-DATE                           PPOT1194
042052                        TO EMP-STATUS-CHG-DT OF PER-ROW-FOR-UPDATEPPOT1194
042053              END-IF                                              PPOT1194
042054           END-IF                                                 PPOT1194
042055        END-IF                                                    PPOT1194
042056                                                                  PPOT1194
042057        PERFORM SQL-UPDATE-EMP-DATA                               PPOT1194
042058        PERFORM 2800-CREATE-ECF                                   PPOT1194
042060                                                                  PPOT1194
042070     END-IF.                                                      PPOT1194
042080                                                                  PPOT1194
042100     PERFORM SQL-FETCH-EMP-DATA.                                  PPOT1194
042200                                                                  PPOT1194
042300 2100-EXIT. EXIT.                                                 PPOT1194
042400                                                                  PPOT1194
042510 2800-CREATE-ECF           SECTION.                               PPOT1194
042520***********************************************************       PPOT1194
042530*    PRODUCE EDB CHANGE FILE RECORDS                      *       PPOT1194
042540***********************************************************       PPOT1194
042550     INITIALIZE XCHG-FIXED-AREA.                                  PPOT1194
042551     MOVE 'PPOT1194'                   TO XCHG-PROCESS-ID.        PPOT1194
042552     MOVE XDC3-GREGORIAN-CHAR          TO XCHG-TIMESTAMP.         PPOT1194
042553     MOVE WS-EMPLOYEE-ID               TO XCHG-EMPLOYEE-ID.       PPOT1194
042554                                                                  PPOT1194
042555     IF EMP-STATUS-CHG-DT OF PER-ROW NOT =                        PPOT1194
042556        EMP-STATUS-CHG-DT OF PER-ROW-FOR-UPDATE                   PPOT1194
042557        MOVE '0766'                    TO XCHG-DATA-ELEM-NO       PPOT1194
042558        MOVE SPACES                    TO XCHG-OCCURENCE-KEY      PPOT1194
042559        MOVE +10                       TO XCHG-OLD-VAL-LNGTH      PPOT1194
042560                                          XCHG-NEW-VAL1-LNGTH     PPOT1194
042561                                          XCHG-NEW-VAL2-LNGTH     PPOT1194
042562        MOVE EMP-STATUS-CHG-DT OF PER-ROW                         PPOT1194
042563                                       TO XCHG-OLD-VALUE          PPOT1194
042564        MOVE EMP-STATUS-CHG-DT OF PER-ROW-FOR-UPDATE              PPOT1194
042565                                       TO XCHG-NEW-VALUE1         PPOT1194
042566        MOVE EMP-STATUS-CHG-DT OF PER-ROW-FOR-UPDATE              PPOT1194
042567                                       TO XCHG-NEW-VALUE2         PPOT1194
042568        WRITE OCHG-EDB-CHANGE-RECORD FROM EDB-CHANGE-RECORD       PPOT1194
042569        ADD 1 TO WS-ECF-COUNT                                     PPOT1194
042570     END-IF.                                                      PPOT1194
042580                                                                  PPOT1194
042602                                                                  PPOT1194
042603 2800-EXIT. EXIT.                                                 PPOT1194
042604     EJECT                                                        PPOT1194
042605                                                                  PPOT1194
042606 3100-WRITE-CONTROL-TOTALS SECTION.                               PPOT1194
042607                                                                  PPOT1194
042608     IF RPT1-LINES-PER-PAGE > MAX-LINES-PER-PAGE                  PPOT1194
042609         PERFORM 8200-OT11941-HEAD                                PPOT1194
042610     END-IF.                                                      PPOT1194
042611                                                                  PPOT1194
042612     MOVE WS-PER-COUNT TO TOT-PER-RECS.                           PPOT1194
042613     MOVE WS-ECF-COUNT TO TOT-ECF-RECS.                           PPOT1194
042614                                                                  PPOT1194
042615     WRITE PPOT11941-LINE FROM CNTLR-1  AFTER 2.                  PPOT1194
042616     WRITE PPOT11941-LINE FROM CNTLR-2  AFTER 1.                  PPOT1194
042617                                                                  PPOT1194
042618     MOVE +4 TO RPT1-LINES-PER-PAGE.                              PPOT1194
042619     EJECT                                                        PPOT1194
042620*---------------------------------------------------------------- PPOT1194
042621 7000-PRINT-ERROR-DETAIL SECTION.                                 PPOT1194
042622*---------------------------------------------------------------- PPOT1194
042623                                                                  PPOT1194
042624     IF RPT2-LINES-PER-PAGE > MAX-LINES-PER-PAGE                  PPOT1194
042625         PERFORM 8300-OT11942-HEAD                                PPOT1194
042626     END-IF.                                                      PPOT1194
042627                                                                  PPOT1194
042628     MOVE WA-ERROR-DETAIL-1  TO PPOT11942-DATA.                   PPOT1194
042629     WRITE PPOT11942-LINE AFTER ADVANCING 2.                      PPOT1194
042630     ADD +2 TO RPT2-LINES-PER-PAGE.                               PPOT1194
042631                                                                  PPOT1194
042632     IF WS-SEVERITY-LEVEL > 7                                     PPOT1194
042633        SET WS-ABEND TO TRUE                                      PPOT1194
042634     END-IF.                                                      PPOT1194
042635                                                                  PPOT1194
042636     IF WS-SEVERITY-LEVEL > WS-SEVERITY-LEVEL-HIGH                PPOT1194
042637        MOVE WS-SEVERITY-LEVEL TO WS-SEVERITY-LEVEL-HIGH          PPOT1194
042638     END-IF.                                                      PPOT1194
042639                                                                  PPOT1194
042640 7000-EXIT.    EXIT.                                              PPOT1194
042641                                                                  PPOT1194
042642     EJECT                                                        PPOT1194
042643                                                                  PPOT1194
042644*---------------------------------------------------------------- PPOT1194
042645 8200-OT11941-HEAD       SECTION.                                 PPOT1194
042646*---------------------------------------------------------------- PPOT1194
042647                                                                  PPOT1194
042648     ADD   1               TO RPT1-PAGE-NO.                       PPOT1194
042649     MOVE  RPT1-PAGE-NO TO STND-PAGE-NO.                          PPOT1194
042650     INSPECT STND-PAGE-NO REPLACING LEADING ZEROS BY SPACE.       PPOT1194
042651     MOVE 'OT11941' TO STND-RPT-ID.                               PPOT1194
042652     MOVE WS-PGM-ID TO STND-PROG-ID.                              PPOT1194
042653     MOVE STND-PROG-ID TO DB2MSG-PGM-ID.                          PPOT1194
042655     MOVE '      EMPLYMNT STAT CHG DATE  ' TO STND-FUNC-AREA.     PPOT1194
042656     MOVE '    DERIVE EMPLOYMENT STATUS CHANGE DATE       '       PPOT1194
042657                                         TO STND-RPT-TTL.         PPOT1194
042658     MOVE SPACES TO STND-RPT-COMMENT                              PPOT1194
042659                    STND-DATE2                                    PPOT1194
042660                    STND-DATE2-TTL.                               PPOT1194
042661                                                                  PPOT1194
042662     WRITE PPOT11941-LINE FROM STND-RPT-HD1 AFTER ADVANCING PAGE. PPOT1194
042663     WRITE PPOT11941-LINE FROM STND-RPT-HD2                       PPOT1194
042664                                          AFTER ADVANCING 1 LINES.PPOT1194
042665     WRITE PPOT11941-LINE FROM STND-RPT-HD3                       PPOT1194
042666                                          AFTER ADVANCING 1 LINES.PPOT1194
042667                                                                  PPOT1194
042668     MOVE 5 TO RPT1-LINES-PER-PAGE.                               PPOT1194
042669                                                                  PPOT1194
042670 8200-EXIT.                                                       PPOT1194
042671     EXIT.                                                        PPOT1194
042672                                                                  PPOT1194
042673     EJECT                                                        PPOT1194
042674                                                                  PPOT1194
042675*---------------------------------------------------------------- PPOT1194
042676 8300-OT11942-HEAD       SECTION.                                 PPOT1194
042677*---------------------------------------------------------------- PPOT1194
042678                                                                  PPOT1194
042679     ADD   1               TO RPT2-PAGE-NO.                       PPOT1194
042680     MOVE  RPT2-PAGE-NO TO STND-PAGE-NO.                          PPOT1194
042681     INSPECT STND-PAGE-NO REPLACING LEADING ZEROS BY SPACE.       PPOT1194
042682     MOVE '      EMPLYMNT STAT CHG DATE  ' TO STND-FUNC-AREA.     PPOT1194
042683     MOVE '            WARNINGS AND MESSAGES' TO STND-RPT-TTL.    PPOT1194
042684     MOVE SPACES TO STND-RPT-COMMENT                              PPOT1194
042685                    STND-DATE2                                    PPOT1194
042686                    STND-DATE2-TTL.                               PPOT1194
042687                                                                  PPOT1194
042688     MOVE 'OT11942'  TO STND-RPT-ID.                              PPOT1194
042689                                                                  PPOT1194
042690     WRITE PPOT11942-LINE FROM STND-RPT-HD1 AFTER ADVANCING PAGE. PPOT1194
042691     WRITE PPOT11942-LINE FROM STND-RPT-HD2                       PPOT1194
042692                                          AFTER ADVANCING 1 LINES.PPOT1194
042693     WRITE PPOT11942-LINE FROM STND-RPT-HD3                       PPOT1194
042694                                          AFTER ADVANCING 1 LINES.PPOT1194
042695     MOVE 5 TO RPT2-LINES-PER-PAGE.                               PPOT1194
042696                                                                  PPOT1194
042697 8300-EXIT.                                                       PPOT1194
042698     EXIT.                                                        PPOT1194
042699                                                                  PPOT1194
042700                                                                  PPOT1194
046400     EJECT                                                        PPOT1194
046600                                                                  PPOT1194
046700 9000-TERMINATION  SECTION.                                       PPOT1194
046800                                                                  PPOT1194
046900******************************************************************PPOT1194
047000*    WRITE TOTALS FOR CONTROL REPORT                             *PPOT1194
047100******************************************************************PPOT1194
047400                                                                  PPOT1194
047500     IF  EMP-CURSOR-OPEN                                          PPOT1194
047600         PERFORM SQL-CLOSE-EMP-CURSOR                             PPOT1194
047700     END-IF.                                                      PPOT1194
047800                                                                  PPOT1194
047810     PERFORM 3100-WRITE-CONTROL-TOTALS.                           PPOT1194
047820                                                                  PPOT1194
047821     CLOSE POT11941-REPORT                                        PPOT1194
047822           POT11942-REPORT.                                       PPOT1194
047823                                                                  PPOT1194
047900     EJECT                                                        PPOT1194
049410                                                                  PPOT1194
049500 DATE-CONVERSION-DB2 SECTION.                                     PPOT1194
049600                                            COPY CPPDXDC3.        PPOT1194
049700     EJECT                                                        PPOT1194
049701                                                                  PPOT1194
049800**************************************************************/  *PPOT1194
049900*  PROCEDURE DIVISION SQL                                    */  *PPOT1194
050000**************************************************************/  *PPOT1194
050100                                                                  PPOT1194
050200 SQL-OPEN-EMP-CURSOR SECTION.                                     PPOT1194
050300                                                                  PPOT1194
050400     MOVE 'OPEN EMP CURSOR' TO DB2MSG-TAG.                        PPOT1194
050500     EXEC SQL                                                     PPOT1194
050600         OPEN PER_CSR                                             PPOT1194
050700     END-EXEC.                                                    PPOT1194
050800     SET EMP-CURSOR-OPEN TO TRUE.                                 PPOT1194
050900                                                                  PPOT1194
051000 SQL-FETCH-EMP-DATA SECTION.                                      PPOT1194
051100                                                                  PPOT1194
051200     MOVE 'FETCH PER ROW' TO DB2MSG-TAG.                          PPOT1194
051300     EXEC SQL                                                     PPOT1194
051400         FETCH PER_CSR INTO                                       PPOT1194
051700             :PER-ROW.EMPLOYEE-ID                                 PPOT1194
051800            ,:PER-ROW.EMP-STATUS                                  PPOT1194
051900            ,:PER-ROW.SEPARATE-DATE                               PPOT1194
051910            ,:PER-ROW.LOA-BEGIN-DATE                              PPOT1194
051920            ,:PER-ROW.EMP-STATUS-CHG-DT                           PPOT1194
052000     END-EXEC.                                                    PPOT1194
052100                                                                  PPOT1194
052200     IF SQLCODE = ZERO                                            PPOT1194
052300        ADD 1 TO WS-PER-COUNT                                     PPOT1194
052400        MOVE EMPLOYEE-ID OF PER-ROW TO WS-EMPLOYEE-ID             PPOT1194
053501     ELSE                                                         PPOT1194
053502        IF SQLCODE = +100                                         PPOT1194
053510           SET EOF-EMP-DATA TO TRUE                               PPOT1194
053520        ELSE                                                      PPOT1194
053530           SET WS-ABEND TO TRUE                                   PPOT1194
053532           MOVE  9  TO WS-SEVERITY-LEVEL                          PPOT1194
053533           MOVE 'ERROR IN FETCH PER ROW'                          PPOT1194
053534                                 TO WA-ERROR-TEXT                 PPOT1194
053535           PERFORM 7000-PRINT-ERROR-DETAIL                        PPOT1194
053537           SET EOF-EMP-DATA TO TRUE                               PPOT1194
053538        END-IF                                                    PPOT1194
053539     END-IF.                                                      PPOT1194
053550                                                                  PPOT1194
053700                                                                  PPOT1194
053800 SQL-CLOSE-EMP-CURSOR SECTION.                                    PPOT1194
053900                                                                  PPOT1194
054000     MOVE 'CLOSE EMP CURSOR' TO DB2MSG-TAG.                       PPOT1194
054100     EXEC SQL                                                     PPOT1194
054200         CLOSE PER_CSR                                            PPOT1194
054300     END-EXEC.                                                    PPOT1194
054400                                                                  PPOT1194
054500 SQL-UPDATE-EMP-DATA   SECTION.                                   PPOT1194
054600                                                                  PPOT1194
054700     MOVE 'UPDATE PER ROW' TO DB2MSG-TAG.                         PPOT1194
054710                                                                  PPOT1194
054800     EXEC SQL                                                     PPOT1194
054900         UPDATE PPPVPER2_PER                                      PPOT1194
055000             SET EMP_STATUS_CHG_DT                                PPOT1194
055100                       = :PER-ROW-FOR-UPDATE.EMP-STATUS-CHG-DT    PPOT1194
055300         WHERE PPPVPER2_PER.EMPLOYEE_ID  = :WS-EMPLOYEE-ID        PPOT1194
055400     END-EXEC.                                                    PPOT1194
055500                                                                  PPOT1194
055501     IF SQLCODE NOT = ZERO                                        PPOT1194
055510        SET WS-ABEND TO TRUE                                      PPOT1194
055600        MOVE  9  TO WS-SEVERITY-LEVEL                             PPOT1194
055700        MOVE 'ERROR IN UPDATE PER ROW'                            PPOT1194
055800                              TO WA-ERROR-TEXT                    PPOT1194
055900        PERFORM 7000-PRINT-ERROR-DETAIL                           PPOT1194
056000        SET EOF-EMP-DATA TO TRUE                                  PPOT1194
056100     END-IF.                                                      PPOT1194
058600                                                                  PPOT1194
058700*999999-SQL-ERROR.                                               *PPOT1194
058800******************************************************************PPOT1194
058900*    THIS CODE IS EXECUTED IF A NEGATIVE SQLCODE IS RETURNED     *PPOT1194
059000*    TO THIS PROGRAM. ALL WORK IS ROLLED BACK, RETURN CODE IS    *PPOT1194
059100*    SET TO 9, AND PROCESSING IS HALTED.                         *PPOT1194
059200*                                                                *PPOT1194
059300******************************************************************PPOT1194
059400     EXEC SQL                                                     PPOT1194
059500          INCLUDE CPPDXP99                                        PPOT1194
059600     END-EXEC.                                                    PPOT1194
059700                                                                  PPOT1194
059710     MOVE SQLCODE TO WS-PER-SQLCODE.                              PPOT1194
059800     IF NOT HERE-BEFORE                                           PPOT1194
059900         SET HERE-BEFORE TO TRUE                                  PPOT1194
060000         MOVE 'UPDATE ROLLBACK' TO DB2MSG-TAG                     PPOT1194
060100         EXEC SQL                                                 PPOT1194
060200             ROLLBACK WORK                                        PPOT1194
060300         END-EXEC                                                 PPOT1194
060310         MOVE 'DB2 ERROR ON PPPPER'                               PPOT1194
060320                  TO WA-ERROR-TEXT                                PPOT1194
060330         MOVE  9  TO WS-SEVERITY-LEVEL                            PPOT1194
060400     END-IF.                                                      PPOT1194
060410                                                                  PPOT1194
060530     PERFORM 7000-PRINT-ERROR-DETAIL.                             PPOT1194
060600                                                                  PPOT1194
060700********  END OF PROGRAM PPOT1194********                         PPOT1194
