000010*==========================================================%      UCSD0000
000011*= UCSD LOCAL CHANGES HAVE BEEN IMPLEMENTED.              =%      UCSD0000
000012*= COLUMN 73 THRU 80 DENOTES CHANGE NUMBER - UCSD9999     =%      UCSD0000
000013*=                                                        =%      UCSD0000
000014*==========================================================%      UCSD0000
000024*==========================================================%      UCSD0058
000025*=    PROGRAM PPOT1116                                    =%      UCSD0058
000026*=    CHANGE # UCSD0058     PROJ. REQUEST: REL1116        =%      UCSD0058
000027*=    NAME:  R. WOLBERG     MODIFICATION DATE: 03/28/97   =%      UCSD0058
000028*=                                                        =%      UCSD0058
000029*=    DESCRIPTION                                         =%      UCSD0058
000030*=      COMMENT OUT    COST-CENTER AND PROJECT-CODE       =%      UCSD0058
000031*=      RELATED CODES TO ACCOMMODATE THE LOCAL IFIS       =%      UCSD0058
000032*=      CHANGES.                                          =%      UCSD0058
000033*==========================================================%      UCSD0058
000034*==========================================================%      UCSD0033
000035*=    PROGRAM PPOT1116                                    =%      UCSD0033
000036*=    CHANGE # UCSD0033     PROJ. REQUEST: REL1116        =%      UCSD0033
000037*=    NAME: RENA WOLBERG    MODIFICATION DATE: 03/28/97   =%      UCSD0033
000038*=                                                        =%      UCSD0033
000039*=    DESCRIPTION:                                        =%      UCSD0033
000040*=     INSTALL IFIS CHANGES                               =%      UCSD0033
000041*=                                                        =%      UCSD0033
000042*==========================================================%      UCSD0033
000043**************************************************************/   34261116
000044*  PROGRAM: PPOT1116                                         */   34261116
000045*  RELEASE: ___1116______ SERVICE REQUEST(S): ____13426____  */   34261116
000046*  NAME:__JXQ__           CREATION DATE:      ___03/05/97__  */   34261116
000047*  DESCRIPTION:                                              */   34261116
000048*  - EDIT THE SPEC CARD FOR THE PROGRAM-ID, BATCH HEADER,    */   34261116
000049*    AND PAY PERIOD END DATES.                               */   34261116
000050*  - CREATE SX LUMP SUM TRANSACTIONS (AP TRANS).             */   34261116
000051*  - PRODUCE CONTROL/DETAIL REPORTS.                         */   34261116
000060*  - 04/08/97 (MOVE VALUE 'A' TO RATE-CODE ON AP TRANS FOR   */   34261116
000061*    ALL AP TRANSACTIONS).                                   */   34261116
000062*  - 04/15/97 ADD A READ TO THE EMPLOYEE'S EDB FOR HIRE DATE,*/   34261116
000063*    IF THE HIRE DATE IS AFTER 10/01/96 - DON'T PAY LUMP SUM.*/   34261116
000064*    ALSO CHECK THE EMPLOYEE'S PRIMARY PAY SCHEDULE ON EDB.  */   34261116
000065*    THE AP TRANSACTION WILL BE WRITTEN TO THE APPROPRIATE   */   34261116
000066*    AP TRANS FILE BASED UPON THE EMPLOYEE'S PRIMARY PAY     */   34261116
000067*    SCHEDULE ON THE EDB.                                    */   34261116
000060**************************************************************/   34261116
000900 IDENTIFICATION DIVISION.                                         PPOT1116
001000 PROGRAM-ID. PPOT1116.                                            PPOT1116
001100 ENVIRONMENT DIVISION.                                            PPOT1116
001200 CONFIGURATION SECTION.                                           PPOT1116
001300 SPECIAL-NAMES.                                                   PPOT1116
001400 INPUT-OUTPUT SECTION.                                            PPOT1116
001500 FILE-CONTROL.                                                    PPOT1116
001510                                                                  PPOT1116
001525**************************************************************/   PPOT1116
001526*    INPUT REPORT FILE FROM PPP930                           */   PPOT1116
001527**************************************************************/   PPOT1116
001529     SELECT REPORT-FILE          ASSIGN TO UT-S-REPTFIL.          PPOT1116
001530                                                                  PPOT1116
001531**************************************************************/   PPOT1116
001532*    RUN SPECIFICATION RECORD                                */   PPOT1116
001533**************************************************************/   PPOT1116
001534     SELECT CARDFIL-FILE         ASSIGN TO UT-S-CARDFIL.          PPOT1116
001535                                                                  PPOT1116
001536**************************************************************/   PPOT1116
001537*    AP TRANSACTION FILES FOR SEPARATE PAY CYCLES.           */   PPOT1116
001538**************************************************************/   PPOT1116
001539                                                                  PPOT1116
001540     SELECT APFIL-MO-FILE        ASSIGN TO UT-S-APFILMO.          PPOT1116
001541     SELECT APFIL-BW-FILE        ASSIGN TO UT-S-APFILBW.          PPOT1116
001542     SELECT APFIL-SM-FILE        ASSIGN TO UT-S-APFILSM.          PPOT1116
001543                                                                  PPOT1116
001544**************************************************************/   PPOT1116
001545*    CONTROL REPORT                                          */   PPOT1116
001546**************************************************************/   PPOT1116
001547     SELECT POT11161-FILE        ASSIGN TO UT-S-POT11161.         PPOT1116
001548                                                                  PPOT1116
001549**************************************************************/   PPOT1116
001550*    DETAIL REPORT                                           */   PPOT1116
001551**************************************************************/   PPOT1116
001552     SELECT POT11162-FILE        ASSIGN TO UT-S-POT11162.         PPOT1116
001560                                                                  PPOT1116
001572**************************************************************/   PPOT1116
001573*    SORT FILE                                               */   PPOT1116
001574**************************************************************/   PPOT1116
001580     SELECT  SORT-FILE      ASSIGN TO UT-S-SORTWK01.              PPOT1116
001590                                                                  PPOT1116
001600 DATA DIVISION.                                                   PPOT1116
001601 FILE SECTION.                                                    PPOT1116
001830                                                                  PPOT1116
001831 FD  REPORT-FILE                                                  PPOT1116
001832*    RECORD CONTAINS 192 CHARACTERS                               UCSD0058
001833     RECORD CONTAINS 197 CHARACTERS                               UCSD0058
001834     RECORDING MODE IS F                                          PPOT1116
001835     LABEL RECORDS ARE STANDARD                                   PPOT1116
001836     DATA RECORD IS REPORT-REC.                                   PPOT1116
001837                                                                  PPOT1116
001838*01  REPORT-REC                   PIC X(192).                     UCSD0058
001839 01  REPORT-REC                   PIC X(197).                     UCSD0058
001840                                                                  PPOT1116
001841 FD  CARDFIL-FILE                                                 PPOT1116
001842     RECORD CONTAINS 80 CHARACTERS                                PPOT1116
001843     RECORDING MODE IS F                                          PPOT1116
001844     LABEL RECORDS ARE STANDARD                                   PPOT1116
001845     DATA RECORD IS CARDFIL-REC.                                  PPOT1116
001846                                                                  PPOT1116
001847 01  CARDFIL-REC                  PIC X(80).                      PPOT1116
001848                                                                  PPOT1116
001849 FD  APFIL-MO-FILE                                                PPOT1116
001850     RECORD CONTAINS 118 CHARACTERS                               PPOT1116
001851     RECORDING MODE IS F                                          PPOT1116
001852     LABEL RECORDS ARE STANDARD                                   PPOT1116
001853     DATA RECORD IS APFIL-MO-REC.                                 PPOT1116
001854                                                                  PPOT1116
001855 01  APFIL-MO-REC                  PIC X(118).                    PPOT1116
001856                                                                  PPOT1116
001857 FD  APFIL-BW-FILE                                                PPOT1116
001858     RECORD CONTAINS 118 CHARACTERS                               PPOT1116
001859     RECORDING MODE IS F                                          PPOT1116
001860     LABEL RECORDS ARE STANDARD                                   PPOT1116
001861     DATA RECORD IS APFIL-BW-REC.                                 PPOT1116
001862                                                                  PPOT1116
001863 01  APFIL-BW-REC                  PIC X(118).                    PPOT1116
001864                                                                  PPOT1116
001865 FD  APFIL-SM-FILE                                                PPOT1116
001866     RECORD CONTAINS 118 CHARACTERS                               PPOT1116
001867     RECORDING MODE IS F                                          PPOT1116
001868     LABEL RECORDS ARE STANDARD                                   PPOT1116
001869     DATA RECORD IS APFIL-SM-REC.                                 PPOT1116
001870                                                                  PPOT1116
001871 01  APFIL-SM-REC                  PIC X(118).                    PPOT1116
001872                                                                  PPOT1116
001873 FD  POT11161-FILE                                                PPOT1116
001874     RECORD CONTAINS 133 CHARACTERS                               PPOT1116
001875     RECORDING MODE IS F                                          PPOT1116
001876     LABEL RECORDS ARE STANDARD                                   PPOT1116
001877     DATA RECORD IS POT11161-REC.                                 PPOT1116
001878                                                                  PPOT1116
001879 01  POT11161-REC                 PIC X(133).                     PPOT1116
001880                                                                  PPOT1116
001881 FD  POT11162-FILE                                                PPOT1116
001882     RECORD CONTAINS 133 CHARACTERS                               PPOT1116
001883     RECORDING MODE IS F                                          PPOT1116
001884     LABEL RECORDS ARE STANDARD                                   PPOT1116
001885     DATA RECORD IS POT11162-REC.                                 PPOT1116
001886                                                                  PPOT1116
001887 01  POT11162-REC                 PIC X(133).                     PPOT1116
001888                                                                  PPOT1116
001889 SD  SORT-FILE                                                    PPOT1116
001890         RECORDING MODE IS F                                      PPOT1116
001891         DATA RECORD IS SORT-FILE-RCD.                            PPOT1116
001892 01  SORT-FILE-RCD.                                               PPOT1116
001893     05  SORT-1-KEY-RPT           PIC X(02).                      PPOT1116
001894*    05  SORT-1-KEY-FIELD         PIC X(33).                      PPOT1116
001895     05  SORT-1-KEY-FIELD         PIC X(23).                      UCSD0058
001896     05  SORT-1-KEY-ID            PIC X(09).                      PPOT1116
001897     05  SORT-1-FILLER-1          PIC X(41).                      PPOT1116
001898*    05  SORT-1-FAU               PIC X(23).                      PPOT1116
001899     05  SORT-1-FAU               PIC X(13).                      UCSD0058
001900     05  SORT-1-FAU-RDF REDEFINES SORT-1-FAU.                     UCSD0058
001901         10  SORT-1-FAU-LOC       PIC X(1).                       UCSD0058
001902         10  SORT-1-FAU-FILLER    PIC X(11).                      UCSD0058
001903         10  SORT-1-FAU-SUB       PIC 9.                          UCSD0058
001904     05  SORT-1-FILLER-2          PIC X(42).                      PPOT1116
001905     05  SORT-1-GROSS             PIC S9(05)V9(02).               PPOT1116
001906     05  SORT-1-FILLER-3          PIC X(35).                      PPOT1116
001907     05  SORT-1-IFIS-INFO.                                        UCSD0033
001908         10  SORT-1-IFIS-INDEX        PIC X(7).                   UCSD0033
001909         10  SORT-1-IFIS-FUND.                                    UCSD0033
001910             15  SORT-1-IFIS-FUND-5   PIC X(5).                   UCSD0033
001911             15  SORT-1-IFIS-FUND-X   PIC X(1).                   UCSD0033
001912         10  SORT-1-IFIS-ORG          PIC X(6).                   UCSD0033
001913         10  SORT-1-IFIS-PROGRAM      PIC X(6).                   UCSD0033
001914*-->  THE ABOVE RECORD SHOULD ADD UP TO 192.                      PPOT1116
001915*-->  THE ABOVE RECORD SHOULD ADD UP TO 197.                      UCSD0033
001916     EJECT                                                        PPOT1116
001917                                                                  PPOT1116
001920 WORKING-STORAGE SECTION.                                         PPOT1116
002000                                                                  PPOT1116
002310 01  WS-SWITCHES.                                                 PPOT1116
002850     05  WS-EOF-REPTFIL           PIC X(1)       VALUE 'N'.       PPOT1116
002860         88 EOF-REPTFIL                          VALUE 'Y'.       PPOT1116
002870     05  WS-EOF-CARDFIL           PIC X(1)       VALUE 'N'.       PPOT1116
002880         88 EOF-CARDFIL                          VALUE 'Y'.       PPOT1116
002890     05  WS-EOF-SORTFILE-SW       PIC X(01) VALUE 'N'.            PPOT1116
002900         88  EOF-SORTFILE                   VALUE 'Y'.            PPOT1116
003000     05  UNIQUE-NUMBER-FLAG       PIC X(01) VALUE 'Y'.            PPOT1116
003010         88  NOT-UNIQUE-NUMBER              VALUE 'N'.            PPOT1116
003100         88  FOUND-UNIQUE-NUM               VALUE 'Y'.            PPOT1116
003101     05  800-DOS-FOUND-SW         PIC 9     VALUE ZERO.           PPOT1116
003102         88  DOS-FOUND                      VALUE 1.              PPOT1116
003103     05  HERE-BEFORE-SW           PIC 9     VALUE ZERO.           PPOT1116
003104         88  HERE-BEFORE                    VALUE 1.              42611093
003105         88  NOT-HERE-BEFORE                VALUE 0.              42611093
003117 01  WS-EMPLOYEE-ID               PIC X(9)       VALUE SPACES.    PPOT1116
003118 01  WS-PREVIOUS-EMPLOYEE-ID      PIC X(9)       VALUE SPACES.    PPOT1116
003122 01  WS-CURRENT-EMPLOYEE-ID       PIC X(9)       VALUE SPACES.    PPOT1116
003123 01  WS-SAVE-EMP-NAME             PIC X(26)      VALUE SPACES.    PPOT1116
003124 01  WS-SAVE-EMP-HOME-DEPT        PIC X(06)      VALUE SPACES.    PPOT1116
003131 01  WS-AMOUNT                    PIC S9(5)V9(2) COMP-3 VALUE +0. PPOT1116
003132 01  WS-WRK-AMOUNT                PIC S9(5)V9(7) COMP-3 VALUE +0. PPOT1116
003133 01  WS-NET-AMOUNT                PIC S9(7)V9(2) COMP-3 VALUE +0. PPOT1116
003134 01  WS-LUMP-SUM-DCL              PIC S9(5)V9(2) COMP-3 VALUE +0. PPOT1116
003138 01  WS-TOT-RECS-READ             PIC S9(9) COMP VALUE +0.        PPOT1116
003139 01  WS-TOT-RECS-PROCESSED        PIC S9(9) COMP VALUE +0.        PPOT1116
003140 01  WS-TOT-RECS-BYPASSED         PIC S9(9) COMP VALUE +0.        PPOT1116
003141 01  WS-TOT-AP-WRITTEN            PIC S9(7) COMP VALUE +0.        PPOT1116
003142 01  WS-COUNT                     PIC S9(9) COMP VALUE +0.        PPOT1116
003143 01  WS-UNIQUE-NUM-COUNTER        PIC S9(4) COMP VALUE +0.        PPOT1116
003144 01  KCYCLE-SUB                   PIC S9(4) COMP.                 PPOT1116
003145 01  TABLE-SUB                    PIC S9(4) COMP.                 PPOT1116
003147 01  POT11161-LINE-NO             PIC S9(3)      VALUE +999.      PPOT1116
003148 01  POT11161-PAGE-NO             PIC S9(3)      VALUE +0.        PPOT1116
003149 01  POT11162-LINE-NO             PIC S9(3)      VALUE +999.      PPOT1116
003150 01  POT11162-PAGE-NO             PIC S9(3)      VALUE +0.        PPOT1116
003217****************************************************************  PPOT1116
003218*    RETURN CODE AND MESSAGE SEVERITIES                           PPOT1116
003219****************************************************************  PPOT1116
003220 01  WS-RETURN-CODE               PIC 9          VALUE 0.         PPOT1116
003221     88 FATAL-ERROR                              VALUE 8 THRU 9.  PPOT1116
003222 01  WS-MESSAGE-SEVERITY          PIC 9          VALUE 0.         PPOT1116
003223     88 SEVERITY-1                               VALUE 1.         PPOT1116
003224     88 SEVERITY-2                               VALUE 2.         PPOT1116
003225     88 SEVERITY-3                               VALUE 3.         PPOT1116
003226     88 SEVERITY-4                               VALUE 4.         PPOT1116
003227     88 SEVERITY-5                               VALUE 5.         PPOT1116
003228     88 SEVERITY-6                               VALUE 6.         PPOT1116
003229     88 SEVERITY-7                               VALUE 7.         PPOT1116
003230     88 SEVERITY-8                               VALUE 8.         PPOT1116
003231     88 SEVERITY-9                               VALUE 9.         PPOT1116
003232     EJECT                                                        PPOT1116
003233****************************************************************  PPOT1116
003234*    WORK RECORD FOR RUN SPECIFICATION RECORD                     PPOT1116
003235****************************************************************  PPOT1116
003236 01  WS-SPEC-CARD-REC.                                            PPOT1116
003237     05  WS-SPEC-PGM-ID           PIC X(13).                      PPOT1116
003238         88 VALID-PROGRAM-ID      VALUE 'PPOT1116-SPEC'.          PPOT1116
003257****************************************************************  PPOT1116
003258*           BATCH NUMBER TO BE PUT ON BATCH HEADER RECORD.        PPOT1116
003259****************************************************************  PPOT1116
003260     05  WS-SPEC-BAT-HD-NUM       PIC X(3).                       PPOT1116
003261****************************************************************  PPOT1116
003262*           PAY PERIOD END DATE TO BE PUT ON AP TRANS:            PPOT1116
003263*           MMDDYY FORMAT.                                        PPOT1116
003264****************************************************************  PPOT1116
003265     05  WS-SPEC-PAY-END-DT-MO    PIC X(6).                       PPOT1116
003266     05  WS-SPEC-PAY-END-DT-BW    PIC X(6).                       PPOT1116
003267     05  WS-SPEC-PAY-END-DT-SM    PIC X(6).                       PPOT1116
003268     05  FILLER                   PIC X(46).                      PPOT1116
003269 01  WS-CHECK-DATE-YYMMDD.                                        PPOT1116
003270     05  WS-CHECK-DT-MO           PIC 9(6)  VALUE ZERO.           PPOT1116
003271     05  WS-CHECK-DT-BW           PIC 9(6)  VALUE ZERO.           PPOT1116
003272     05  WS-CHECK-DT-SM           PIC 9(6)  VALUE ZERO.           PPOT1116
003273 01  WS-PERIOD-END-DATE.                                          PPOT1116
003274     05  WS-PERIOD-DT-MO.                                         PPOT1116
003275         07  WS-PERIOD-DT-MO-YY    PIC 9(02).                     PPOT1116
003276         07  WS-PERIOD-DT-MO-MM    PIC 9(02).                     PPOT1116
003277         07  WS-PERIOD-DT-MO-DD    PIC 9(02).                     PPOT1116
003278     05  WS-PERIOD-DT-BW.                                         PPOT1116
003279         07  WS-PERIOD-DT-BW-YY    PIC 9(02).                     PPOT1116
003280         07  WS-PERIOD-DT-BW-MM    PIC 9(02).                     PPOT1116
003281         07  WS-PERIOD-DT-BW-DD    PIC 9(02).                     PPOT1116
003282     05  WS-PERIOD-DT-SM.                                         PPOT1116
003283         07  WS-PERIOD-DT-SM-YY    PIC 9(02).                     PPOT1116
003284         07  WS-PERIOD-DT-SM-MM    PIC 9(02).                     PPOT1116
003285         07  WS-PERIOD-DT-SM-DD    PIC 9(02).                     PPOT1116
003286 01  WS-RANGE-ADJ-PAY-END-DATE-MO  PIC 9(06)                      PPOT1116
003287                                   VALUE 961031.                  PPOT1116
003288 01  WS-RANGE-ADJ-PAY-END-DATE-B1  PIC 9(06)                      PPOT1116
003289                                   VALUE 961005.                  PPOT1116
003290 01  WS-RANGE-ADJ-PAY-END-DATE-B2  PIC 9(06)                      PPOT1116
003291                                   VALUE 961019.                  PPOT1116
003292 01  WS-RANGE-ADJ-PAY-END-DATE-SM  PIC 9(06)                      PPOT1116
003293                                   VALUE 961015.                  PPOT1116
003294     EJECT                                                        PPOT1116
003295****************************************************************  PPOT1116
003296*    BATCH HEADER RECORD. BATCH NUMBER COMES FROM SPEC CARD.      PPOT1116
003297****************************************************************  PPOT1116
003298 01  BATCH-HEADER-RECORD.                                         PPOT1116
003299     03  FILLER                   PIC X(9)   VALUE SPACES.        PPOT1116
003300     03  FILLER                   PIC X(3)   VALUE 'BAT'.         PPOT1116
003301     03  BATCH-HD-NUMBER          PIC X(3).                       PPOT1116
003302     03  FILLER                   PIC X(16)  VALUE                PPOT1116
003303                                 'PAY0010000000000'.              PPOT1116
003304     03  FILLER                   PIC X(87)  VALUE SPACES.        PPOT1116
003305     EJECT                                                        PPOT1116
003306****************************************************************  PPOT1116
003307*    WORK RECORD FOR AP TRANSACTIONS                              PPOT1116
003308****************************************************************  PPOT1116
003309 01  WS-FILE-WORK-REC.               COPY CPWSXWTX.               PPOT1116
003310     EJECT                                                        PPOT1116
003311 01  WS-SORT-REC.                    COPY CPWSXR93.               PPOT1116
003312     EJECT                                                        PPOT1116
003313 01  XDC3-DATE-CONVERSION-WORK.      COPY CPWSXDC3.               PPOT1116
003314     EJECT                                                        PPOT1116
003315 01  DATE-FORMAT.                    COPY CPWSDATE.               PPOT1116
003316     EJECT                                                        PPOT1116
003317 01  DOST-DESCR-OF-SERV-TABLE.       COPY CPWSDOST.               PPOT1116
003319     EJECT                                                        PPOT1116
003320 01  CALENDAR-INTERFACE.             COPY CPLNKCAL.               PPOT1116
003321     EJECT                                                        PPOT1116
003322 01  KDOS-INTERFACE.                 COPY CPLN2DOS.               PPOT1116
003323     EJECT                                                        PPOT1116
003324****************************************************************  PPOT1116
003325*      REPORT HEADINGS AND DETAIL                                 PPOT1116
003326****************************************************************  PPOT1116
003327 01  STND-RPT-HD.                    COPY CPWSPSHR.               PPOT1116
003328     EJECT                                                        PPOT1116
003329****************************************************************  PPOT1116
003330*     HEADINGS:  REPORT DESCRIPTION                               PPOT1116
003331****************************************************************  PPOT1116
003332 01  HDR1-1.                                                      PPOT1116
003333     05  FILLER                   PIC X(01)  VALUE '0'.           PPOT1116
003334     05  FILLER                   PIC X(52)  VALUE SPACES.        PPOT1116
003335     05  MAIN-TITLE               PIC X(33)  VALUE                PPOT1116
003336         '      SX LUMP SUM PAYMENTS  '.                          PPOT1116
003337     05  FILLER                   PIC X(47)  VALUE SPACES.        PPOT1116
003338 01  SPACE-LINE.                                                  PPOT1116
003339     05  FILLER                   PIC X(133) VALUE SPACES.        PPOT1116
003340****************************************************************  PPOT1116
003341*     CONTROL REPORT: MESSAGES                               ***  PPOT1116
003342****************************************************************  PPOT1116
003343 01  MSG-LINE.                                                    PPOT1116
003344     05  FILLER                   PIC X(01)  VALUE SPACES.        PPOT1116
003345     05  MSG-ID                   PIC X(20)  VALUE SPACES.        PPOT1116
003346     05  MSG-MESSAGE              PIC X(48) VALUE SPACES.         PPOT1116
003347     05  DATA-DISPLAY             PIC X(64) VALUE SPACES.         PPOT1116
003348                                                                  PPOT1116
003349 01  MESSAGE-TEXT.                                                PPOT1116
003350     05  MESSAGE1                 PIC X(48) VALUE                 PPOT1116
003351         'RUN SPECIFICATION RECORD IS MISSING          '.         PPOT1116
003352     05  MESSAGE2                 PIC X(48) VALUE                 PPOT1116
003353         'INVALID RUN SPECIFICATION PROGRAM ID'.                  PPOT1116
003354     05  MESSAGE3                 PIC X(48) VALUE                 PPOT1116
003355         'ERROR ON RETURN FROM PPCALUTL - ERROR CODE = '.         PPOT1116
003356     05  MESSAGE4                 PIC X(48) VALUE                 PPOT1116
003357         'BATCH HEADER NUMBER IS NOT NUMERIC           '.         PPOT1116
003358     05  MESSAGE5                 PIC X(48) VALUE                 PPOT1116
003359         'NO CHECK DATE FOUND FOR THIS END DATE:       '.         PPOT1116
003360     05  MESSAGE6                 PIC X(48) VALUE                 PPOT1116
003361         'PAY PERIOD END DATE IS NOT A VALID DATE:     '.         PPOT1116
003362     05  MESSAGE7                 PIC X(48) VALUE                 PPOT1116
003363         'NO MO PAY PERIOD END DATE SPECIFIED ON SPEC CARD'.      PPOT1116
003364     05  MESSAGE8                 PIC X(48) VALUE                 PPOT1116
003365         'NO BW PAY PERIOD END DATE SPECIFIED ON SPEC CARD'.      PPOT1116
003366     05  MESSAGE9                 PIC X(48) VALUE                 PPOT1116
003367         'NO SM PAY PERIOD END DATE SPECIFIED ON SPEC CARD'.      PPOT1116
003368     05  MESSAGE10                PIC X(48) VALUE                 PPOT1116
003369         'ERROR ACCESSING DB2 DOS TABLE                   '.      PPOT1116
003370     05  MESSAGE11                PIC X(48) VALUE                 PPOT1116
003371         'INTERNAL DOS TABLE ENTRIES EXCEEDED TABLE LIMIT '.      PPOT1116
003372     05  MESSAGE12                PIC X(48) VALUE                 PPOT1116
003373         'DOS TABLE EMPTY                                 '.      PPOT1116
003374     05  MESSAGE13                PIC X(48) VALUE                 PPOT1116
003375         'DB2 SQL ERROR                                   '.      PPOT1116
003374                                                                  PPOT1116
003375****************************************************************  PPOT1116
003376*     CONTROL TOTAL HEADINGS                                      PPOT1116
003377****************************************************************  PPOT1116
003378 01  CNTLR-1.                                                     PPOT1116
003379     05  FILLER                   PIC X(1)   VALUE ' '.           PPOT1116
003380     05  FILLER                   PIC X(28)                       PPOT1116
003381                            VALUE 'TOTAL INPUT RECS READ:      '. PPOT1116
003382     05  TOT-RECS-READ            PIC ZZZ,ZZ9 VALUE ZERO.         PPOT1116
003383     05  FILLER                   PIC X(97) VALUE SPACES.         PPOT1116
003384 01  CNTLR-2.                                                     PPOT1116
003385     05  FILLER                   PIC X(1)   VALUE ' '.           PPOT1116
003386     05  FILLER                   PIC X(28)                       PPOT1116
003387                            VALUE 'TOTAL INPUT RECS PROCESSED: '. PPOT1116
003388     05  TOT-RECS-PROCESSED       PIC ZZZ,ZZ9 VALUE ZERO.         PPOT1116
003389     05  FILLER                   PIC X(97) VALUE SPACES.         PPOT1116
003390 01  CNTLR-3.                                                     PPOT1116
003391     05  FILLER                   PIC X(1)   VALUE ' '.           PPOT1116
003392     05  FILLER                   PIC X(28)                       PPOT1116
003393                            VALUE 'TOTAL INPUT RECS BYPASSED:  '. PPOT1116
003394     05  TOT-RECS-BYPASSED        PIC ZZZ,ZZ9 VALUE ZERO.         PPOT1116
003395     05  FILLER                   PIC X(97) VALUE SPACES.         PPOT1116
003396 01  CNTLR-4.                                                     PPOT1116
003397     05  FILLER                   PIC X(1)   VALUE ' '.           PPOT1116
003398     05  FILLER                   PIC X(28)                       PPOT1116
003399                            VALUE 'TOTAL AP TRANS WRITTEN:     '. PPOT1116
003400     05  TOT-AP-WRITTEN           PIC ZZZ,ZZ9 VALUE ZERO.         PPOT1116
003401     05  FILLER                   PIC X(97) VALUE SPACES.         PPOT1116
003402****************************************************************  PPOT1116
003403*     C2 REPORT: EMPLOYEE LUMP SUM  DETAIL                   ***  PPOT1116
003404*                DETAIL HEADER                               ***  PPOT1116
003405****************************************************************  PPOT1116
003406 01  RPT-C2-HEADER.                                               PPOT1116
003407     05  FILLER                   PIC X(01)  VALUE SPACES.        PPOT1116
003408     05  FILLER                   PIC X(11)  VALUE 'EMPLOYEE ID'. PPOT1116
003409     05  FILLER                   PIC X(04)  VALUE SPACES.        PPOT1116
003410     05  FILLER                   PIC X(13)                       PPOT1116
003411                                           VALUE 'EMPLOYEE NAME'. PPOT1116
003412     05  FILLER                   PIC X(16)  VALUE SPACES.        PPOT1116
003413     05  FILLER                   PIC X(09)  VALUE 'HOME DEPT'.   PPOT1116
003414     05  FILLER                   PIC X(07)  VALUE SPACES.        PPOT1116
003415     05  FILLER                   PIC X(10)  VALUE 'TITLE CODE'.  PPOT1116
003416     05  FILLER                   PIC X(04)  VALUE SPACES.        PPOT1116
003417     05  FILLER                   PIC X(12)  VALUE 'CHECK DATE'.  PPOT1116
003418     05  FILLER                   PIC X(46)  VALUE SPACES.        PPOT1116
003419****************************************************************  PPOT1116
003420*     C2 REPORT DETAIL LINES                                 ***  PPOT1116
003421****************************************************************  PPOT1116
003422 01  RPT-C2-DETAIL-LINE.                                          PPOT1116
003423     05  FILLER                   PIC X(01)  VALUE SPACES.        PPOT1116
003424     05  RPT-C2-EMP-ID            PIC X(09)  VALUE SPACES.        PPOT1116
003425     05  FILLER                   PIC X(06)  VALUE SPACES.        PPOT1116
003426     05  RPT-C2-EMP-NAME          PIC X(26)  VALUE SPACES.        PPOT1116
003427     05  FILLER                   PIC X(04)  VALUE SPACES.        PPOT1116
003428     05  RPT-C2-HOME-DEPT         PIC X(06)  VALUE SPACES.        PPOT1116
003429     05  FILLER                   PIC X(12)  VALUE SPACES.        PPOT1116
003430     05  RPT-C2-TITLE-CODE        PIC X(04)  VALUE SPACES.        PPOT1116
003431     05  FILLER                   PIC X(08)  VALUE SPACES.        PPOT1116
003432     05  RPT-C2-CHECK-DATE.                                       PPOT1116
003433         07  RPT-C2-CHECK-MM          PIC X(02).                  PPOT1116
003434         07  FILLER                   PIC X(01)  VALUE '/'.       PPOT1116
003435         07  RPT-C2-CHECK-DD          PIC X(02).                  PPOT1116
003436         07  FILLER                   PIC X(01)  VALUE '/'.       PPOT1116
003437         07  RPT-C2-CHECK-YY          PIC X(02).                  PPOT1116
003438     05  FILLER                   PIC X(49)  VALUE SPACES.        PPOT1116
003439****************************************************************  PPOT1116
003440 01  TBL-C2-COUNTER               PIC S9(04) COMP VALUE ZERO.     PPOT1116
003441 01  TBL-C2-DETAIL.                                               PPOT1116
003442     05  TBL-C2-COLUMN OCCURS 20 TIMES.                           PPOT1116
003443            15  TBL-C2-LOC        PIC X(02).                      PPOT1116
003444            15  TBL-C2-ACCT       PIC X(06).                      PPOT1116
003445*           15  TBL-C2-CC         PIC X(04).                      UCSD0058
003446            15  TBL-C2-FUND       PIC X(05).                      PPOT1116
003447*           15  TBL-C2-PROJ       PIC X(06).                      UCSD0058
003448            15  TBL-C2-SUB        PIC X(01).                      PPOT1116
003449            15  TBL-C2-TITLE      PIC X(04).                      PPOT1116
003450            15  TBL-C2-END-DATE   PIC X(06).                      PPOT1116
003451            15  TBL-C2-AMOUNT     PIC S9(05)V99 COMP-3.           PPOT1116
003452            15  TBL-C2-RATE-CD    PIC X.                          PPOT1116
003453            15  TBL-C2-PAY-CYCLE  PIC X(01).                      PPOT1116
003454            15  TBL-C2-FLAG       PIC X(01).                      PPOT1116
003455            15  TBL-C2-IFIS-INFO.                                 UCSD0033
003456                20  TBL-C2-IFIS-INDEX    PIC X(07).               UCSD0033
003457                20  TBL-C2-IFIS-FUND-X   PIC X(01).               UCSD0033
003458                20  TBL-C2-IFIS-ORG      PIC X(06).               UCSD0033
003459                20  TBL-C2-IFIS-PROGRAM  PIC X(06).               UCSD0033
003460 01  LOCATION          PIC X(02).                                 PPOT1116
003461 01  ACCOUNT           PIC X(06).                                 PPOT1116
003462 01  COST-CENTER       PIC X(04).                                 PPOT1116
003463 01  FUND              PIC X(05).                                 PPOT1116
003464 01  PROJECT           PIC X(06).                                 PPOT1116
003465 01  SUB               PIC X(01).                                 PPOT1116
003466 01  IFIS-INDEX        PIC X(07).                                 UCSD0033
003469 01  PPDB2MSG-INTERFACE.             COPY CPLNKDB2.               PPOT1116
003470     EJECT                                                        PPOT1116
003900                                                                  PPOT1116
004000******************************************************************PPOT1116
004100*              SQL WORKING STORAGE                               *PPOT1116
004200******************************************************************PPOT1116
004300                                                                  PPOT1116
004400 01  PER-ROW-DATA.                                                PPOT1116
004500      EXEC SQL                                                    PPOT1116
004600        INCLUDE PPPVPER1                                          PPOT1116
004700      END-EXEC.                                                   PPOT1116
004800                                                                  PPOT1116
004900 01  PCM-ROW-DATA.                                                PPOT1116
005000      EXEC SQL                                                    PPOT1116
005100        INCLUDE PPPVZPCM                                          PPOT1116
005200      END-EXEC.                                                   PPOT1116
005300                                                                  PPOT1116
005400      EXEC SQL                                                    PPOT1116
005500        INCLUDE SQLCA                                             PPOT1116
005600      END-EXEC.                                                   PPOT1116
005700                                                                  PPOT1116
005800                                                                  PPOT1116
007200 PROCEDURE DIVISION.                                              PPOT1116
007201                                                                  PPOT1116
007214****************************************************************  PPOT1116
007220*    MAINLINE                                                     PPOT1116
007230****************************************************************  PPOT1116
007300 0000-MAINLINE             SECTION.                               PPOT1116
007807                                                                  PPOT1116
007809     PERFORM 0100-INITIALIZATION.                                 PPOT1116
007820                                                                  PPOT1116
007821     IF NOT FATAL-ERROR                                           PPOT1116
007824        SORT SORT-FILE    ON ASCENDING KEY SORT-1-KEY-ID          PPOT1116
007825*                         ON ASCENDING KEY SORT-1-FAU             PPOT1116
007826                          ON ASCENDING KEY SORT-1-FAU-LOC         UCSD0033
007827                          ON ASCENDING KEY SORT-1-IFIS-INDEX      UCSD0033
007828                          ON ASCENDING KEY SORT-1-FAU-SUB         UCSD0033
007829                          ON DESCENDING KEY SORT-1-GROSS          PPOT1116
007830             USING  REPORT-FILE                                   PPOT1116
007831             OUTPUT PROCEDURE IS 3000-RETURN-SORT-RECORD          PPOT1116
007840     END-IF.                                                      PPOT1116
007850                                                                  PPOT1116
007851     IF WS-NET-AMOUNT > ZERO                                      PPOT1116
007860        PERFORM 4000-CREATE-AP-TRANS                              PPOT1116
007870     END-IF.                                                      PPOT1116
008200                                                                  PPOT1116
008411 0099-EOJ.                                                        PPOT1116
008412                                                                  PPOT1116
008420     PERFORM 0900-TERMINATION.                                    PPOT1116
009307                                                                  PPOT1116
009309     MOVE WS-RETURN-CODE TO RETURN-CODE.                          PPOT1116
009310     STOP RUN.                                                    PPOT1116
009410     EJECT                                                        PPOT1116
009500                                                                  PPOT1116
009700 0100-INITIALIZATION       SECTION.                               PPOT1116
009720******************************************************************PPOT1116
009730**   SET UP REPORT HEADINGS AND OPEN FILES.                     **PPOT1116
009735******************************************************************PPOT1116
009739                                                                  PPOT1116
009742     OPEN OUTPUT POT11161-FILE                                    PPOT1116
009743                 POT11162-FILE.                                   PPOT1116
009744     COPY CPPDDATE.                                               PPOT1116
009746     MOVE 'PPOT1116'       TO STND-PROG-ID.                       PPOT1116
009748     MOVE GREGORIAN-DATE   TO STND-RPT-DATE.                      PPOT1116
009749     MOVE SPACES           TO STND-DATE2-TTL.                     PPOT1116
009750     MOVE '        ONETIME PROCESSING'  TO STND-FUNC-AREA.        PPOT1116
009752     MOVE 'OT11161'        TO STND-RPT-ID.                        PPOT1116
009754     PERFORM 9000-POT11161-HEAD.                                  PPOT1116
009757                                                                  PPOT1116
009759     OPEN INPUT CARDFIL-FILE.                                     PPOT1116
009760     OPEN OUTPUT APFIL-MO-FILE                                    PPOT1116
009761                 APFIL-BW-FILE                                    PPOT1116
009762                 APFIL-SM-FILE.                                   PPOT1116
009763                                                                  PPOT1116
009770     PERFORM 0110-EDIT-SPEC-CARD.                                 PPOT1116
009781     CLOSE CARDFIL-FILE.                                          PPOT1116
009783     INITIALIZE TBL-C2-DETAIL.                                    PPOT1116
009784     MOVE SPACES  TO WS-FILE-WORK-REC.                            PPOT1116
009794                                                                  PPOT1116
009795     MOVE  1  TO KDOS-NBR-OF-PAY-CAT-TO-SEL.                      PPOT1116
009796     MOVE 'N' TO KDOS-PAY-ITEMS (1).                              PPOT1116
009797     CALL 'PPDOSUT2' USING KDOS-INTERFACE                         PPOT1116
009798                           DOST-DESCR-OF-SERV-TABLE.              PPOT1116
009799     EVALUATE TRUE                                                PPOT1116
009800         WHEN KDOS-CTL-FILE-ERROR                                 PPOT1116
009801            SET SEVERITY-8 TO TRUE                                PPOT1116
009802            MOVE MESSAGE10 TO MSG-MESSAGE                         PPOT1116
009803            PERFORM 9100-POT11161-DETAIL                          PPOT1116
009810         WHEN KDOS-TABLE-OVERFLOW                                 PPOT1116
009811            SET SEVERITY-8 TO TRUE                                PPOT1116
009812            MOVE MESSAGE11 TO MSG-MESSAGE                         PPOT1116
009814            PERFORM 9100-POT11161-DETAIL                          PPOT1116
009816         WHEN KDOS-NOT-FOUND                                      PPOT1116
009817            SET SEVERITY-8 TO TRUE                                PPOT1116
009818            MOVE MESSAGE12 TO MSG-MESSAGE                         PPOT1116
009819            PERFORM 9100-POT11161-DETAIL                          PPOT1116
009822     END-EVALUATE.                                                PPOT1116
009823                                                                  PPOT1116
009824 0100-EXIT.                                                       PPOT1116
009825     EXIT.                                                        PPOT1116
009826     EJECT                                                        PPOT1116
009827                                                                  PPOT1116
009828 0110-EDIT-SPEC-CARD       SECTION.                               PPOT1116
009829******************************************************************PPOT1116
009830**   EDIT SPEC CARD; JOB STOPS IF A FATAL ERROR                 **PPOT1116
009831******************************************************************PPOT1116
009832                                                                  PPOT1116
009833     MOVE 'SPEC CARD:' TO MSG-ID.                                 PPOT1116
009834                                                                  PPOT1116
009835     READ CARDFIL-FILE INTO WS-SPEC-CARD-REC                      PPOT1116
009836                 AT END SET EOF-CARDFIL TO TRUE.                  PPOT1116
009837     IF EOF-CARDFIL                                               PPOT1116
009838******************************************************************PPOT1116
009839**      SPEC CARD MISSING: FATAL.                               **PPOT1116
009840******************************************************************PPOT1116
009841        SET SEVERITY-8 TO TRUE                                    PPOT1116
009842        MOVE MESSAGE1 TO MSG-MESSAGE                              PPOT1116
009843        PERFORM 9100-POT11161-DETAIL                              PPOT1116
009844        GO TO 0110-EXIT                                           PPOT1116
009845     ELSE                                                         PPOT1116
009846        SET SEVERITY-1 TO TRUE                                    PPOT1116
009847        MOVE WS-SPEC-CARD-REC TO MSG-MESSAGE                      PPOT1116
009848        PERFORM 9100-POT11161-DETAIL                              PPOT1116
009849     END-IF.                                                      PPOT1116
009850                                                                  PPOT1116
009851     IF VALID-PROGRAM-ID                                          PPOT1116
009852        CONTINUE                                                  PPOT1116
009853     ELSE                                                         PPOT1116
009854******************************************************************PPOT1116
009855**      PROGRAM ID IS NOT FOR THIS PROGRAM: FATAL               **PPOT1116
009856******************************************************************PPOT1116
009857        SET SEVERITY-8 TO TRUE                                    PPOT1116
009858        MOVE MESSAGE2 TO MSG-MESSAGE                              PPOT1116
009859        MOVE WS-SPEC-CARD-REC (1:13) TO DATA-DISPLAY              PPOT1116
009860        PERFORM 9100-POT11161-DETAIL                              PPOT1116
009861     END-IF.                                                      PPOT1116
009862                                                                  PPOT1116
009863     IF  WS-SPEC-BAT-HD-NUM NUMERIC                               PPOT1116
009864         MOVE WS-SPEC-BAT-HD-NUM TO BATCH-HD-NUMBER               PPOT1116
009865         WRITE APFIL-MO-REC FROM BATCH-HEADER-RECORD              PPOT1116
009866         WRITE APFIL-BW-REC FROM BATCH-HEADER-RECORD              PPOT1116
009867         WRITE APFIL-SM-REC FROM BATCH-HEADER-RECORD              PPOT1116
009868     ELSE                                                         PPOT1116
009869******************************************************************PPOT1116
009870**      BATCH HEADER NUMBER IS NOT NUMERIC: FATAL.              **PPOT1116
009871******************************************************************PPOT1116
009872        SET SEVERITY-8 TO TRUE                                    PPOT1116
009873        MOVE MESSAGE4 TO MSG-MESSAGE                              PPOT1116
009874        MOVE WS-SPEC-CARD-REC (14:3) TO DATA-DISPLAY              PPOT1116
009875        PERFORM 9100-POT11161-DETAIL                              PPOT1116
009876     END-IF.                                                      PPOT1116
009877                                                                  PPOT1116
009878     IF  WS-SPEC-PAY-END-DT-MO NOT = SPACES                       PPOT1116
009879         MOVE WS-SPEC-PAY-END-DT-MO TO XDC3-INPUT6-DATE           PPOT1116
009884         PERFORM XDC3-VALIDATE-INPUT6-TO-ISO                      PPOT1116
009886         IF XDC3-VALID-DATE                                       PPOT1116
009887            MOVE XDC3-ISO-DD   TO WS-PERIOD-DT-MO-DD              PPOT1116
009888            MOVE XDC3-ISO-YY   TO WS-PERIOD-DT-MO-YY              PPOT1116
009889            MOVE XDC3-ISO-CCYY TO KCAL-YEAR                       PPOT1116
009890            MOVE XDC3-ISO-MM   TO KCAL-MONTH                      PPOT1116
009891                                  WS-PERIOD-DT-MO-MM              PPOT1116
009892            CALL 'PPCALUTL' USING CALENDAR-INTERFACE              PPOT1116
009893               MOVE WS-SPEC-CARD-REC (29:6) TO DATA-DISPLAY       PPOT1116
009894            IF KCAL-NORMAL-RETURN                                 PPOT1116
009895                PERFORM                                           PPOT1116
009896                VARYING KCYCLE-SUB FROM 1 BY 1                    PPOT1116
009897                UNTIL KCYCLE-SUB > KCAL-NUMBER-OF-PAY-CYCLES      PPOT1116
009898                    IF KCAL-CYCLE-TYPE (KCYCLE-SUB) = 'MO'        PPOT1116
009899                    AND KCAL-CYCLE-END-DATE (KCYCLE-SUB)          PPOT1116
009900                                     = WS-PERIOD-DT-MO            PPOT1116
009901                        MOVE KCAL-CYCLE-CHECK-DATE (KCYCLE-SUB)   PPOT1116
009902                                            TO WS-CHECK-DT-MO     PPOT1116
009903                    END-IF                                        PPOT1116
009904                END-PERFORM                                       PPOT1116
009905                IF WS-CHECK-DT-MO = ZEROES                        PPOT1116
009906                   SET SEVERITY-8 TO TRUE                         PPOT1116
009907                   MOVE MESSAGE5 TO MSG-MESSAGE                   PPOT1116
009908                   MOVE WS-SPEC-CARD-REC (17:6) TO DATA-DISPLAY   PPOT1116
009909                   PERFORM 9100-POT11161-DETAIL                   PPOT1116
009910                END-IF                                            PPOT1116
009911            ELSE                                                  PPOT1116
009912               SET SEVERITY-8 TO TRUE                             PPOT1116
009913               MOVE MESSAGE3 TO MSG-MESSAGE                       PPOT1116
009914               MOVE KCAL-RETURN-CODE TO DATA-DISPLAY (1:1)        PPOT1116
009915               PERFORM 9100-POT11161-DETAIL                       PPOT1116
009916            END-IF                                                PPOT1116
009917         ELSE                                                     PPOT1116
009918******************************************************************PPOT1116
009919**      PAY PERIOD END DATE ONSPEC IS NOT A VALID DATE.         **PPOT1116
009921******************************************************************PPOT1116
009922            SET SEVERITY-8 TO TRUE                                PPOT1116
009923            MOVE MESSAGE6 TO MSG-MESSAGE                          PPOT1116
009924            MOVE WS-SPEC-CARD-REC (17:6) TO DATA-DISPLAY          PPOT1116
009925            PERFORM 9100-POT11161-DETAIL                          PPOT1116
009926         END-IF                                                   PPOT1116
009927     END-IF.                                                      PPOT1116
009928                                                                  PPOT1116
009929     IF  WS-SPEC-PAY-END-DT-BW NOT = SPACES                       PPOT1116
009930         MOVE WS-SPEC-PAY-END-DT-BW TO XDC3-INPUT6-DATE           PPOT1116
009931         PERFORM XDC3-VALIDATE-INPUT6-TO-ISO                      PPOT1116
009932         IF XDC3-VALID-DATE                                       PPOT1116
009933            MOVE XDC3-ISO-DD   TO WS-PERIOD-DT-BW-DD              PPOT1116
009934            MOVE XDC3-ISO-YY   TO WS-PERIOD-DT-BW-YY              PPOT1116
009935            MOVE XDC3-ISO-CCYY TO KCAL-YEAR                       PPOT1116
009936            MOVE XDC3-ISO-MM   TO KCAL-MONTH                      PPOT1116
009937                                  WS-PERIOD-DT-BW-MM              PPOT1116
009938            CALL 'PPCALUTL' USING CALENDAR-INTERFACE              PPOT1116
009939            IF KCAL-NORMAL-RETURN                                 PPOT1116
009940                PERFORM                                           PPOT1116
009941                VARYING KCYCLE-SUB FROM 1 BY 1                    PPOT1116
009942                UNTIL KCYCLE-SUB > KCAL-NUMBER-OF-PAY-CYCLES      PPOT1116
009943                    IF KCAL-CYCLE-TYPE (KCYCLE-SUB) = 'B1' OR     PPOT1116
009944                                                      'B2'        PPOT1116
009945                    AND KCAL-CYCLE-END-DATE (KCYCLE-SUB)          PPOT1116
009946                                     = WS-PERIOD-DT-BW            PPOT1116
009947                        MOVE KCAL-CYCLE-CHECK-DATE (KCYCLE-SUB)   PPOT1116
009948                                            TO WS-CHECK-DT-BW     PPOT1116
009949                    END-IF                                        PPOT1116
009950                END-PERFORM                                       PPOT1116
009951                IF WS-CHECK-DT-BW = ZEROES                        PPOT1116
009952                   SET SEVERITY-8 TO TRUE                         PPOT1116
009953                   MOVE MESSAGE5 TO MSG-MESSAGE                   PPOT1116
009954                   MOVE WS-SPEC-CARD-REC (23:6) TO DATA-DISPLAY   PPOT1116
009955                   PERFORM 9100-POT11161-DETAIL                   PPOT1116
009956                END-IF                                            PPOT1116
009957            ELSE                                                  PPOT1116
009958               SET SEVERITY-8 TO TRUE                             PPOT1116
009959               MOVE MESSAGE3 TO MSG-MESSAGE                       PPOT1116
009960               MOVE KCAL-RETURN-CODE TO DATA-DISPLAY (1:1)        PPOT1116
009961               PERFORM 9100-POT11161-DETAIL                       PPOT1116
009962            END-IF                                                PPOT1116
009963         ELSE                                                     PPOT1116
009964******************************************************************PPOT1116
009965**      PAY PERIOD END DATE ONSPEC IS NOT A VALID DATE.         **PPOT1116
009968******************************************************************PPOT1116
009969            SET SEVERITY-8 TO TRUE                                PPOT1116
009970            MOVE MESSAGE6 TO MSG-MESSAGE                          PPOT1116
009971            MOVE WS-SPEC-CARD-REC (23:6) TO DATA-DISPLAY          PPOT1116
009972            PERFORM 9100-POT11161-DETAIL                          PPOT1116
009973         END-IF                                                   PPOT1116
009974     END-IF.                                                      PPOT1116
009975                                                                  PPOT1116
009976     IF  WS-SPEC-PAY-END-DT-SM NOT = SPACES                       PPOT1116
009977         MOVE WS-SPEC-PAY-END-DT-SM TO XDC3-INPUT6-DATE           PPOT1116
009978         PERFORM XDC3-VALIDATE-INPUT6-TO-ISO                      PPOT1116
009979         IF XDC3-VALID-DATE                                       PPOT1116
009980            MOVE XDC3-ISO-DD   TO WS-PERIOD-DT-SM-DD              PPOT1116
009981            MOVE XDC3-ISO-YY   TO WS-PERIOD-DT-SM-YY              PPOT1116
009982            MOVE XDC3-ISO-CCYY TO KCAL-YEAR                       PPOT1116
009983            MOVE XDC3-ISO-MM   TO KCAL-MONTH                      PPOT1116
009984                                  WS-PERIOD-DT-SM-MM              PPOT1116
009985            CALL 'PPCALUTL' USING CALENDAR-INTERFACE              PPOT1116
009986            IF KCAL-NORMAL-RETURN                                 PPOT1116
009987                PERFORM                                           PPOT1116
009988                VARYING KCYCLE-SUB FROM 1 BY 1                    PPOT1116
009989                UNTIL KCYCLE-SUB > KCAL-NUMBER-OF-PAY-CYCLES      PPOT1116
009990                    IF KCAL-CYCLE-TYPE (KCYCLE-SUB) = 'SM'        PPOT1116
009991                    AND KCAL-CYCLE-END-DATE (KCYCLE-SUB)          PPOT1116
009992                                     = WS-PERIOD-DT-SM            PPOT1116
009993                        MOVE KCAL-CYCLE-CHECK-DATE (KCYCLE-SUB)   PPOT1116
009994                                            TO WS-CHECK-DT-SM     PPOT1116
009995                    END-IF                                        PPOT1116
009996                END-PERFORM                                       PPOT1116
009997                IF WS-CHECK-DT-SM = ZEROES                        PPOT1116
009998                   SET SEVERITY-8 TO TRUE                         PPOT1116
009999                   MOVE MESSAGE5 TO MSG-MESSAGE                   PPOT1116
010000                   MOVE WS-SPEC-CARD-REC (29:6) TO DATA-DISPLAY   PPOT1116
010001                   PERFORM 9100-POT11161-DETAIL                   PPOT1116
010002                END-IF                                            PPOT1116
010003            ELSE                                                  PPOT1116
010004               SET SEVERITY-8 TO TRUE                             PPOT1116
010005               MOVE MESSAGE3 TO MSG-MESSAGE                       PPOT1116
010006               MOVE KCAL-RETURN-CODE TO DATA-DISPLAY (1:1)        PPOT1116
010007               PERFORM 9100-POT11161-DETAIL                       PPOT1116
010008            END-IF                                                PPOT1116
010009         ELSE                                                     PPOT1116
010010******************************************************************PPOT1116
010011**      PAY PERIOD END DATE ONSPEC IS NOT A VALID DATE.         **PPOT1116
010014******************************************************************PPOT1116
010015            SET SEVERITY-8 TO TRUE                                PPOT1116
010016            MOVE MESSAGE6 TO MSG-MESSAGE                          PPOT1116
010017            MOVE WS-SPEC-CARD-REC (29:6) TO DATA-DISPLAY          PPOT1116
010018            PERFORM 9100-POT11161-DETAIL                          PPOT1116
010019         END-IF                                                   PPOT1116
010020     END-IF.                                                      PPOT1116
010021                                                                  PPOT1116
010022 0110-EXIT.                                                       PPOT1116
010023     EXIT.                                                        PPOT1116
010024     EJECT                                                        PPOT1116
010025                                                                  PPOT1116
010026 0900-TERMINATION          SECTION.                               PPOT1116
010027******************************************************************PPOT1116
010028**   PRINT TOTALS.                                              **PPOT1116
010029******************************************************************PPOT1116
010030                                                                  PPOT1116
010031     PERFORM 9150-POT11161-CONTROL.                               PPOT1116
010032                                                                  PPOT1116
010033     CLOSE      POT11161-FILE                                     PPOT1116
010034                POT11162-FILE.                                    PPOT1116
010035                                                                  PPOT1116
010036     CLOSE      APFIL-MO-FILE                                     PPOT1116
010037                APFIL-BW-FILE                                     PPOT1116
010038                APFIL-SM-FILE.                                    PPOT1116
010039                                                                  PPOT1116
010040 0900-EXIT.                                                       PPOT1116
010041     EXIT.                                                        PPOT1116
010050     EJECT                                                        PPOT1116
014790                                                                  PPOT1116
014800 3000-RETURN-SORT-RECORD  SECTION.                                PPOT1116
014900     SKIP1                                                        PPOT1116
015000     PERFORM 3100-READ-FROM-SORT THRU                             PPOT1116
015010             3100-READ-FROM-SORT-EXIT.                            PPOT1116
015011     MOVE SRT-RPT-EMP-ID TO WS-CURRENT-EMPLOYEE-ID                PPOT1116
015012                            WS-PREVIOUS-EMPLOYEE-ID.              PPOT1116
015013     PERFORM 9500-SELECT-PCM.                                     PPOT1116
015013     PERFORM 3200-PROCESS-FROM-SORT  THRU                         PPOT1116
015020             3200-PROCESS-FROM-SORT-EXIT                          PPOT1116
015021     UNTIL EOF-SORTFILE OR FATAL-ERROR.                           PPOT1116
015022     SKIP1                                                        PPOT1116
015023                                                                  PPOT1116
015024 3100-RETURN-FROM-SORT  SECTION.                                  PPOT1116
015025******************************************************************PPOT1116
015026*                                                                *PPOT1116
015027*      RETURN THE SORT RECORD                                    *PPOT1116
015028*                                                                *PPOT1116
015029******************************************************************PPOT1116
015030 3100-READ-FROM-SORT.                                             PPOT1116
015031     SKIP1                                                        PPOT1116
015032     RETURN SORT-FILE  INTO  WS-SORT-REC                          PPOT1116
015033         AT END MOVE 'Y' TO WS-EOF-SORTFILE-SW.                   PPOT1116
015034                                                                  PPOT1116
015035     IF NOT EOF-SORTFILE                                          PPOT1116
015036        MOVE SRT-RPT-EMP-ID TO WS-CURRENT-EMPLOYEE-ID             PPOT1116
015037        ADD 1 TO WS-TOT-RECS-READ                                 PPOT1116
015050     END-IF.                                                      PPOT1116
015051     SKIP1                                                        PPOT1116
015052 3100-READ-FROM-SORT-EXIT.                                        PPOT1116
015053     EXIT.                                                        PPOT1116
015054                                                                  PPOT1116
015055     EJECT                                                        PPOT1116
015056 3200-PROCESS-SORT  SECTION.                                      PPOT1116
015057 3200-PROCESS-FROM-SORT.                                          PPOT1116
015058     SKIP1                                                        PPOT1116
015059     IF SRT-RPT-ID  = '05'                                        PPOT1116
015060        ADD 1 TO WS-TOT-RECS-PROCESSED                            PPOT1116
015061        IF WS-CURRENT-EMPLOYEE-ID = WS-PREVIOUS-EMPLOYEE-ID       PPOT1116
015070           PERFORM 3300-LOAD-TABLE-DATA                           PPOT1116
015071        ELSE                                                      PPOT1116
015074           IF WS-NET-AMOUNT > ZERO                                PPOT1116
015075              PERFORM 4000-CREATE-AP-TRANS                        PPOT1116
015076           END-IF                                                 PPOT1116
015077           INITIALIZE TBL-C2-DETAIL                               PPOT1116
015078           MOVE ZERO TO TBL-C2-COUNTER                            PPOT1116
015079                        WS-NET-AMOUNT                             PPOT1116
015081           MOVE SRT-RPT-EMP-ID TO WS-CURRENT-EMPLOYEE-ID          PPOT1116
015082                                  WS-PREVIOUS-EMPLOYEE-ID         PPOT1116
015085           PERFORM 9500-SELECT-PCM                                PPOT1116
015086           PERFORM 3300-LOAD-TABLE-DATA                           PPOT1116
015083        END-IF                                                    PPOT1116
015084     ELSE                                                         PPOT1116
015085        ADD 1 TO WS-TOT-RECS-BYPASSED                             PPOT1116
015086     END-IF.                                                      PPOT1116
015087                                                                  PPOT1116
015088     MOVE SRT-RPT-EMP-NAME TO WS-SAVE-EMP-NAME.                   PPOT1116
015089     MOVE SRT-RPT-HOME-DEPT TO WS-SAVE-EMP-HOME-DEPT.             PPOT1116
015090                                                                  PPOT1116
015091     PERFORM 3100-READ-FROM-SORT THRU                             PPOT1116
015092             3100-READ-FROM-SORT-EXIT.                            PPOT1116
015093     SKIP1                                                        PPOT1116
015094 3200-PROCESS-FROM-SORT-EXIT.                                     PPOT1116
015095     EXIT.                                                        PPOT1116
015096 3300-LOAD-TABLE-DATA    SECTION.                                 PPOT1116
015097                                                                  PPOT1116
015098     EVALUATE SRT-RPT-PAY-CYCLE                                   PPOT1116
015099       WHEN 'M'                                                   PPOT1116
015100             IF SRT-RPT-PAY-END-DATE                              PPOT1116
015101                                = WS-RANGE-ADJ-PAY-END-DATE-MO    PPOT1116
015102                PERFORM 3350-LOOKUP-DOS                           PPOT1116
015103                IF DOS-FOUND                                      PPOT1116
015104                   ADD SRT-RPT-GROSS TO WS-NET-AMOUNT             PPOT1116
015105                   IF SRT-RPT-GROSS > ZERO                        PPOT1116
015108                      PERFORM 3400-INSERT-ENTRY-DATA              PPOT1116
015109                   END-IF                                         PPOT1116
015110                END-IF                                            PPOT1116
015111             END-IF                                               PPOT1116
015112       WHEN 'B'                                                   PPOT1116
015113             IF SRT-RPT-PAY-END-DATE                              PPOT1116
015114                                = (WS-RANGE-ADJ-PAY-END-DATE-B1   PPOT1116
015115                             OR    WS-RANGE-ADJ-PAY-END-DATE-B2)  PPOT1116
015123                PERFORM 3350-LOOKUP-DOS                           PPOT1116
015124                IF DOS-FOUND                                      PPOT1116
015125                   ADD SRT-RPT-GROSS TO WS-NET-AMOUNT             PPOT1116
015126                   IF SRT-RPT-GROSS > ZERO                        PPOT1116
015127                      PERFORM 3400-INSERT-ENTRY-DATA              PPOT1116
015128                   END-IF                                         PPOT1116
015129                END-IF                                            PPOT1116
015130             END-IF                                               PPOT1116
015131       WHEN 'S'                                                   PPOT1116
015132             IF SRT-RPT-PAY-END-DATE                              PPOT1116
015133                                =  WS-RANGE-ADJ-PAY-END-DATE-SM   PPOT1116
015134                PERFORM 3350-LOOKUP-DOS                           PPOT1116
015135                IF DOS-FOUND                                      PPOT1116
015136                   ADD SRT-RPT-GROSS TO WS-NET-AMOUNT             PPOT1116
015137                   IF SRT-RPT-GROSS > ZERO                        PPOT1116
015138                      PERFORM 3400-INSERT-ENTRY-DATA              PPOT1116
015139                   END-IF                                         PPOT1116
015140                END-IF                                            PPOT1116
015148             END-IF                                               PPOT1116
015149     END-EVALUATE.                                                PPOT1116
015150                                                                  PPOT1116
015160 3350-LOOKUP-DOS  SECTION.                                        PPOT1116
015170                                                                  PPOT1116
015171     SET DOST-INDEX TO 1.                                         PPOT1116
015172     MOVE  0  TO  800-DOS-FOUND-SW.                               PPOT1116
015173     PERFORM 3360-DOS-LOOP                                        PPOT1116
015174         UNTIL DOST-INDEX > DOST-MAXIMUM-LOADED OR DOS-FOUND.     PPOT1116
015175                                                                  PPOT1116
015176 3360-DOS-LOOP   SECTION.                                         PPOT1116
015177                                                                  PPOT1116
015178     IF  SRT-RPT-DOS                                              PPOT1116
015179          =  DOST-EARNINGS-TYPE (DOST-INDEX)                      PPOT1116
015180         AND DOST-HOURS-CODE (DOST-INDEX) = 'R'                   PPOT1116
015181         MOVE  1  TO  800-DOS-FOUND-SW                            PPOT1116
015182     END-IF.                                                      PPOT1116
015183                                                                  PPOT1116
015184     SET DOST-INDEX UP BY 1.                                      PPOT1116
015185                                                                  PPOT1116
015186                                                                  PPOT1116
015187 3400-INSERT-ENTRY-DATA  SECTION.                                 PPOT1116
015188                                                                  PPOT1116
015189     ADD 1 TO TBL-C2-COUNTER.                                     PPOT1116
015190     MOVE SRT-RPT-LOC TO TBL-C2-LOC (TBL-C2-COUNTER)              PPOT1116
015191                          LOCATION.                               PPOT1116
015192     MOVE SRT-RPT-ACCT TO TBL-C2-ACCT (TBL-C2-COUNTER)            PPOT1116
015193                          ACCOUNT.                                PPOT1116
015194*    MOVE SRT-RPT-CC   TO TBL-C2-CC (TBL-C2-COUNTER)              UCSD0058
015195*                         COST-CENTER.                            UCSD0058
015196     MOVE SRT-RPT-FUND TO TBL-C2-FUND (TBL-C2-COUNTER)            PPOT1116
015197                          FUND.                                   PPOT1116
015198*    MOVE SRT-RPT-PC   TO TBL-C2-PROJ (TBL-C2-COUNTER)            UCSD0058
015199*                         PROJECT.                                UCSD0058
015200     MOVE SRT-RPT-SUB  TO TBL-C2-SUB (TBL-C2-COUNTER)             PPOT1116
015201                          SUB.                                    PPOT1116
015202     MOVE SRT-RPT-TITLE-CODE TO TBL-C2-TITLE (TBL-C2-COUNTER).    PPOT1116
015203     MOVE SRT-RPT-PAY-END-DATE                                    PPOT1116
015204                        TO TBL-C2-END-DATE (TBL-C2-COUNTER).      PPOT1116
015205     MOVE PRI-PAY-SCHED (1:1)                                     PPOT1116
015206                            TO TBL-C2-PAY-CYCLE (TBL-C2-COUNTER).
015206     MOVE SRT-RPT-GROSS TO TBL-C2-AMOUNT (TBL-C2-COUNTER).        PPOT1116
015207     MOVE SRT-RPT-RATE-TYPE TO TBL-C2-RATE-CD (TBL-C2-COUNTER).   PPOT1116
015209     MOVE SRT-RPT-IFIS-INDEX  TO                                  UCSD0033
015210                             TBL-C2-IFIS-INDEX (TBL-C2-COUNTER)   UCSD0033
015211                             IFIS-INDEX.                          UCSD0033
015212     MOVE SRT-RPT-IFIS-FUND-X TO                                  UCSD0033
015213                             TBL-C2-IFIS-FUND-X (TBL-C2-COUNTER). UCSD0033
015214     MOVE SRT-RPT-IFIS-ORG    TO                                  UCSD0033
015215                             TBL-C2-IFIS-ORG (TBL-C2-COUNTER).    UCSD0033
015216     MOVE SRT-RPT-IFIS-PROGRAM TO                                 UCSD0033
015217                             TBL-C2-IFIS-PROGRAM (TBL-C2-COUNTER).UCSD0033
015218*                                                                 PPOT1116
015219************************************************************      PPOT1116
015220*-----IDENTIFY ALL UNIQUE LOC/ACCT/CC/FUND/PROJ/SUB ON TABLE      PPOT1116
015221*-----BY SETTING FLAG ON (Y) FOR LATER WRITING OF AP TRANS.       PPOT1116
015222************************************************************      PPOT1116
015223     MOVE 'Y' TO UNIQUE-NUMBER-FLAG.                              PPOT1116
015224     IF TBL-C2-COUNTER = 1                                        PPOT1116
015225        MOVE 'Y' TO TBL-C2-FLAG (TBL-C2-COUNTER)                  PPOT1116
015226     ELSE                                                         PPOT1116
015227        PERFORM VARYING TABLE-SUB FROM 1 BY 1                     PPOT1116
015228            UNTIL TABLE-SUB > TBL-C2-COUNTER                      PPOT1116
015229            IF TABLE-SUB = TBL-C2-COUNTER                         PPOT1116
015230               AND FOUND-UNIQUE-NUM                               PPOT1116
015231               MOVE 'Y' TO TBL-C2-FLAG (TBL-C2-COUNTER)           PPOT1116
015232            ELSE                                                  PPOT1116
015233***** ROLL UP BASED ON LOC, INDEX, SUB RATHER THAN UCOP FAU       UCSD0033
015234               IF TBL-C2-LOC (TABLE-SUB) = LOCATION               PPOT1116
015235*                 AND TBL-C2-ACCT (TABLE-SUB) = ACCOUNT           UCSD0033
015236*                 AND TBL-C2-FUND (TABLE-SUB) = FUND              UCSD0033
015237*                 AND TBL-C2-PROJ (TABLE-SUB) = PROJECT           UCSD0058
015238                  AND TBL-C2-IFIS-INDEX (TABLE-SUB) = IFIS-INDEX  UCSD0033
015239                  AND TBL-C2-SUB  (TABLE-SUB) = SUB               PPOT1116
015240                  SET NOT-UNIQUE-NUMBER TO TRUE                   PPOT1116
015241               END-IF                                             PPOT1116
015242            END-IF                                                PPOT1116
015243        END-PERFORM                                               PPOT1116
015244     END-IF.                                                      PPOT1116
015245                                                                  PPOT1116
015246 3400-INSERT-ENTRY-DATA-EXIT.                                     PPOT1116
015247     EXIT.                                                        PPOT1116
015248                                                                  PPOT1116
015249 4000-CREATE-AP-TRANS      SECTION.                               PPOT1116
015250                                                                  PPOT1116
015251     PERFORM 9400-SELECT-PER.                                     PPOT1116
015252     IF SQLCODE  = ZERO                                           PPOT1116
015253*-------> DON'T PAY LUMP SUM IF HIRED AFTER 10/01/96.             PPOT1116
015254        IF HIRE-DATE > '1996-10-01'                               PPOT1116
015255           MOVE SPACES TO WS-FILE-WORK-REC                        PPOT1116
015256           GO TO 4000-CREATE-AP-TRANS-EXIT                        PPOT1116
015257        END-IF                                                    PPOT1116
015258     ELSE                                                         PPOT1116
015259        MOVE SPACES TO WS-FILE-WORK-REC                           PPOT1116
015260        GO TO 4000-CREATE-AP-TRANS-EXIT                           PPOT1116
015261     END-IF.                                                      PPOT1116
015251     MOVE ZERO TO WS-UNIQUE-NUM-COUNTER                           PPOT1116
015252                  WS-AMOUNT.                                      PPOT1116
015253     MOVE 125.00 TO  WS-LUMP-SUM-DCL.                             PPOT1116
015254     PERFORM VARYING TABLE-SUB FROM 1 BY 1                        PPOT1116
015255        UNTIL TABLE-SUB > TBL-C2-COUNTER                          PPOT1116
015256            IF TBL-C2-FLAG (TABLE-SUB) = 'Y'                      PPOT1116
015257               ADD 1 TO WS-UNIQUE-NUM-COUNTER                     PPOT1116
015258               COMPUTE WS-AMOUNT = WS-AMOUNT                      PPOT1116
015259                                 + TBL-C2-AMOUNT (TABLE-SUB)      PPOT1116
015260            END-IF                                                PPOT1116
015261     END-PERFORM.                                                 PPOT1116
015262     IF WS-AMOUNT > ZERO                                          PPOT1116
015263        IF TBL-C2-COUNTER = 1                                     PPOT1116
015264           OR WS-UNIQUE-NUM-COUNTER = 1                           PPOT1116
015265           MOVE 125.00 TO XWTX-RATE9                              PPOT1116
015266           MOVE TBL-C2-COUNTER TO TABLE-SUB                       PPOT1116
015267           PERFORM 9300-POT11162-PAGE-PRINT                       PPOT1116
015268           PERFORM 4100-AP-TRANS                                  PPOT1116
015269        ELSE                                                      PPOT1116
015270           IF WS-UNIQUE-NUM-COUNTER > 1                           PPOT1116
015271              PERFORM 9300-POT11162-PAGE-PRINT                    PPOT1116
015272              PERFORM VARYING TABLE-SUB FROM 1 BY 1               PPOT1116
015273                 UNTIL TABLE-SUB > TBL-C2-COUNTER                 PPOT1116
015274                   IF TBL-C2-FLAG (TABLE-SUB) = 'Y'               PPOT1116
015275*------------------------------------------------------------     PPOT1116
015276                      COMPUTE WS-WRK-AMOUNT =                     PPOT1116
015277                          (TBL-C2-AMOUNT (TABLE-SUB)              PPOT1116
015278                             /   WS-AMOUNT)                       PPOT1116
015279                             *   125.00                           PPOT1116
015280*------------------------------------------------------------     PPOT1116
015281*                                                                 PPOT1116
015282                      MOVE WS-WRK-AMOUNT TO XWTX-RATE9            PPOT1116
015283                      SUBTRACT  XWTX-RATE9                        PPOT1116
015284                                FROM  WS-LUMP-SUM-DCL             PPOT1116
015285                      IF  WS-LUMP-SUM-DCL  <  .05                 PPOT1116
015286                          COMPUTE  XWTX-RATE9                     PPOT1116
015287                                 = XWTX-RATE9  + WS-LUMP-SUM-DCL  PPOT1116
015288                      END-IF                                      PPOT1116
015289                      PERFORM 4100-AP-TRANS                       PPOT1116
015290                   END-IF                                         PPOT1116
015291              END-PERFORM                                         PPOT1116
015292           END-IF                                                 PPOT1116
015293        END-IF                                                    PPOT1116
015294     END-IF.                                                      PPOT1116
015295                                                                  PPOT1116
015296 4000-CREATE-AP-TRANS-EXIT.                                       PPOT1116
015297     EXIT.                                                        PPOT1116
015298                                                                  PPOT1116
015299 4100-AP-TRANS      SECTION.                                      PPOT1116
015300                                                                  PPOT1116
015301     MOVE 'AP'                     TO  XWTX-TRAN-CD.              PPOT1116
015302     MOVE 'LSS'                    TO  XWTX-1ST-DOS.              PPOT1116
015303     MOVE WS-PREVIOUS-EMPLOYEE-ID  TO  XWTX-ID.                   PPOT1116
015304     MOVE TBL-C2-LOC (TABLE-SUB)   TO  XWTX-LOC.                  PPOT1116
015305     MOVE TBL-C2-ACCT (TABLE-SUB)  TO  XWTX-ACCT.                 PPOT1116
015306*    MOVE TBL-C2-CC   (TABLE-SUB)  TO  XWTX-COST-CENTER.          UCSD0058
015307     MOVE TBL-C2-FUND (TABLE-SUB)  TO  XWTX-FND.                  PPOT1116
015308*    MOVE TBL-C2-PROJ (TABLE-SUB)  TO  XWTX-PROJECT-CODE.         UCSD0058
015309     MOVE TBL-C2-SUB  (TABLE-SUB)  TO  XWTX-SUB.                  PPOT1116
015310     MOVE TBL-C2-TITLE (TABLE-SUB) TO  XWTX-TTL-CODE.             PPOT1116
015322*****MOVE TBL-C2-RATE-CD (TABLE-SUB)   TO  XWTX-ANNL-HRLY-IND.    PPOT1116
015312     MOVE 'A'                      TO  XWTX-ANNL-HRLY-IND.        PPOT1116
015313     MOVE TBL-C2-PAY-CYCLE (TABLE-SUB) TO  XWTX-PAY-CYCLE.        PPOT1116
015314     MOVE TBL-C2-IFIS-INFO (TABLE-SUB) TO  XWTX-FILLER-COS.       UCSD0033
015315                                                                  PPOT1116
015316     EVALUATE TRUE                                                PPOT1116
015317        WHEN (TBL-C2-PAY-CYCLE (TABLE-SUB) =  'M')                PPOT1116
015318           MOVE WS-SPEC-PAY-END-DT-MO TO XWTX-PAY-PER-DATE        PPOT1116
015319           IF WS-SPEC-PAY-END-DT-MO NOT = SPACES                  PPOT1116
015320              WRITE APFIL-MO-REC FROM WS-FILE-WORK-REC            PPOT1116
015321           ELSE                                                   PPOT1116
015322               SET SEVERITY-8 TO TRUE                             PPOT1116
015323               MOVE MESSAGE7 TO MSG-MESSAGE                       PPOT1116
015324               PERFORM 9100-POT11161-DETAIL                       PPOT1116
015325           END-IF                                                 PPOT1116
015326        WHEN (TBL-C2-PAY-CYCLE (TABLE-SUB) =  'B')                PPOT1116
015327           MOVE WS-SPEC-PAY-END-DT-BW TO XWTX-PAY-PER-DATE        PPOT1116
015328           IF WS-SPEC-PAY-END-DT-BW NOT = SPACES                  PPOT1116
015329              WRITE APFIL-BW-REC FROM WS-FILE-WORK-REC            PPOT1116
015330           ELSE                                                   PPOT1116
015331               SET SEVERITY-8 TO TRUE                             PPOT1116
015332               MOVE MESSAGE8 TO MSG-MESSAGE                       PPOT1116
015333               PERFORM 9100-POT11161-DETAIL                       PPOT1116
015334           END-IF                                                 PPOT1116
015335        WHEN (TBL-C2-PAY-CYCLE (TABLE-SUB) =  'S')                PPOT1116
015336           MOVE WS-SPEC-PAY-END-DT-SM TO XWTX-PAY-PER-DATE        PPOT1116
015337           IF  WS-SPEC-PAY-END-DT-SM NOT = SPACES                 PPOT1116
015338               WRITE APFIL-SM-REC FROM WS-FILE-WORK-REC           PPOT1116
015339           ELSE                                                   PPOT1116
015340               SET SEVERITY-8 TO TRUE                             PPOT1116
015341               MOVE MESSAGE9 TO MSG-MESSAGE                       PPOT1116
015342               PERFORM 9100-POT11161-DETAIL                       PPOT1116
015343           END-IF                                                 PPOT1116
015344     END-EVALUATE.                                                PPOT1116
015345                                                                  PPOT1116
015346     MOVE SPACES  TO WS-FILE-WORK-REC.                            PPOT1116
015347     ADD +1 TO WS-TOT-AP-WRITTEN.                                 PPOT1116
015348                                                                  PPOT1116
015349 4100-AP-TRANS-EXIT.                                              PPOT1116
015350     EXIT.                                                        PPOT1116
015351                                                                  PPOT1116
015352 5000-CREATE-REPORTS       SECTION.                               PPOT1116
015353******************************************************************PPOT1116
015354**   CREATE THE TWO BASE REPORTS                                **PPOT1116
015355******************************************************************PPOT1116
015356                                                                  PPOT1116
015357     PERFORM 5100-POT11162-REPORT.                                PPOT1116
015358                                                                  PPOT1116
015359 5000-EXIT.                                                       PPOT1116
015360     EXIT.                                                        PPOT1116
015361                                                                  PPOT1116
015362 5100-POT11162-REPORT      SECTION.                               PPOT1116
015363******************************************************************PPOT1116
015364**   SET UP AND PRINT FIRST PAGE HEADER AND EMP ID AND NAME     **PPOT1116
015365******************************************************************PPOT1116
015366     MOVE 'OT11162'        TO STND-RPT-ID.                        PPOT1116
015370     MOVE '        ONETIME PROCESSING'  TO STND-FUNC-AREA.        PPOT1116
015400     MOVE '     LUMP SUM PAYMENT DETAIL ' TO MAIN-TITLE.          PPOT1116
016700     EJECT                                                        PPOT1116
016800                                                                  PPOT1116
020414 9000-POT11161-HEAD        SECTION.                               PPOT1116
020415******************************************************************PPOT1116
020416**   WRITE HEADINGS FOR POT11161 REPORT.                        **PPOT1116
020417******************************************************************PPOT1116
020418                                                                  PPOT1116
020419     ADD +1                   TO  POT11161-PAGE-NO.               PPOT1116
020420     MOVE POT11161-PAGE-NO    TO  STND-PAGE-NO.                   PPOT1116
020421                                                                  PPOT1116
020422     WRITE POT11161-REC FROM STND-RPT-HD1 AFTER ADVANCING PAGE.   PPOT1116
020423     WRITE POT11161-REC FROM STND-RPT-HD2 AFTER ADVANCING 1 LINES.PPOT1116
020424     WRITE POT11161-REC FROM HDR1-1 AFTER ADVANCING 2 LINES.      PPOT1116
020425     WRITE POT11161-REC FROM SPACE-LINE  AFTER ADVANCING 1 LINES. PPOT1116
020426     MOVE +5 TO POT11161-LINE-NO.                                 PPOT1116
020427                                                                  PPOT1116
020440 9100-POT11161-DETAIL SECTION.                                    PPOT1116
020500******************************************************************PPOT1116
020600**   WRITE MESSAGES FOR POT11161 REPORT.                        **PPOT1116
020700******************************************************************PPOT1116
020800                                                                  PPOT1116
020900     IF POT11161-LINE-NO > 55                                     PPOT1116
020910        PERFORM 9000-POT11161-HEAD                                PPOT1116
020920     END-IF.                                                      PPOT1116
020930                                                                  PPOT1116
021000     WRITE POT11161-REC FROM MSG-LINE AFTER ADVANCING 2 LINES.    PPOT1116
021100     ADD +2 TO POT11161-LINE-NO.                                  PPOT1116
021200                                                                  PPOT1116
021300     IF WS-MESSAGE-SEVERITY > WS-RETURN-CODE                      PPOT1116
021400        MOVE WS-MESSAGE-SEVERITY TO WS-RETURN-CODE                PPOT1116
021500     END-IF.                                                      PPOT1116
021600     MOVE SPACES TO MSG-LINE.                                     PPOT1116
021900     EJECT                                                        PPOT1116
021901                                                                  PPOT1116
021902 9150-POT11161-CONTROL   SECTION.                                 PPOT1116
021903******************************************************************PPOT1116
021904**   WRITE CONTROL TOTALS.                                      **PPOT1116
021905******************************************************************PPOT1116
021906                                                                  PPOT1116
021907     IF POT11161-LINE-NO > 49                                     PPOT1116
021908        PERFORM 9000-POT11161-HEAD                                PPOT1116
021909     END-IF.                                                      PPOT1116
021910                                                                  PPOT1116
021911     MOVE WS-TOT-RECS-READ TO TOT-RECS-READ.                      PPOT1116
021912     MOVE WS-TOT-RECS-PROCESSED TO TOT-RECS-PROCESSED.            PPOT1116
021913     MOVE WS-TOT-RECS-BYPASSED  TO TOT-RECS-BYPASSED.             PPOT1116
021914     MOVE WS-TOT-AP-WRITTEN     TO TOT-AP-WRITTEN.                PPOT1116
021915     WRITE POT11161-REC FROM CNTLR-1  AFTER ADVANCING 2 LINES.    PPOT1116
021916     WRITE POT11161-REC FROM CNTLR-2  AFTER ADVANCING 1 LINES.    PPOT1116
021917     WRITE POT11161-REC FROM CNTLR-3  AFTER ADVANCING 1 LINES.    PPOT1116
021918     WRITE POT11161-REC FROM CNTLR-4  AFTER ADVANCING 1 LINES.    PPOT1116
021919                                                                  PPOT1116
021920     EJECT                                                        PPOT1116
021921                                                                  PPOT1116
021922 9200-POT11162-HEAD        SECTION.                               PPOT1116
021930******************************************************************PPOT1116
021940**   WRITE HEADINGS FOR POT11162 REPORT.                        **PPOT1116
021950******************************************************************PPOT1116
021960                                                                  PPOT1116
021970     PERFORM 5000-CREATE-REPORTS.                                 PPOT1116
021971     ADD +1                   TO  POT11162-PAGE-NO.               PPOT1116
021980     MOVE POT11162-PAGE-NO    TO  STND-PAGE-NO.                   PPOT1116
021990                                                                  PPOT1116
021991     WRITE POT11162-REC FROM STND-RPT-HD1 AFTER ADVANCING PAGE.   PPOT1116
021992     WRITE POT11162-REC FROM STND-RPT-HD2 AFTER ADVANCING 1 LINES.PPOT1116
021993     WRITE POT11162-REC FROM HDR1-1 AFTER ADVANCING 1 LINES.      PPOT1116
022001     WRITE POT11162-REC FROM RPT-C2-HEADER                        PPOT1116
022002                                         AFTER ADVANCING 2 LINES. PPOT1116
022003     MOVE +5 TO POT11162-LINE-NO.                                 PPOT1116
022017                                                                  PPOT1116
022018 9300-POT11162-PAGE-PRINT  SECTION.                               PPOT1116
022022                                                                  PPOT1116
022024     IF POT11162-LINE-NO > 55                                     PPOT1116
022025        PERFORM 9200-POT11162-HEAD                                PPOT1116
022026     END-IF.                                                      PPOT1116
022027                                                                  PPOT1116
022073     MOVE WS-PREVIOUS-EMPLOYEE-ID TO RPT-C2-EMP-ID.               PPOT1116
022078     MOVE WS-SAVE-EMP-NAME        TO RPT-C2-EMP-NAME.             PPOT1116
022079     MOVE WS-SAVE-EMP-HOME-DEPT   TO RPT-C2-HOME-DEPT.            PPOT1116
022080     MOVE TBL-C2-TITLE (1)        TO RPT-C2-TITLE-CODE.           PPOT1116
022081     EVALUATE TBL-C2-PAY-CYCLE (1)                                PPOT1116
022082        WHEN 'M'                                                  PPOT1116
022083            MOVE WS-CHECK-DT-MO (3:2) TO RPT-C2-CHECK-MM          PPOT1116
022084            MOVE WS-CHECK-DT-MO (5:2) TO RPT-C2-CHECK-DD          PPOT1116
022085            MOVE WS-CHECK-DT-MO (1:2) TO RPT-C2-CHECK-YY          PPOT1116
022086        WHEN 'B'                                                  PPOT1116
022087            MOVE WS-CHECK-DT-BW (3:2) TO RPT-C2-CHECK-MM          PPOT1116
022088            MOVE WS-CHECK-DT-BW (5:2) TO RPT-C2-CHECK-DD          PPOT1116
022089            MOVE WS-CHECK-DT-BW (1:2) TO RPT-C2-CHECK-YY          PPOT1116
022090        WHEN 'S'                                                  PPOT1116
022091            MOVE WS-CHECK-DT-SM (3:2) TO RPT-C2-CHECK-MM          PPOT1116
022092            MOVE WS-CHECK-DT-SM (5:2) TO RPT-C2-CHECK-DD          PPOT1116
022093            MOVE WS-CHECK-DT-SM (1:2) TO RPT-C2-CHECK-YY          PPOT1116
022094     END-EVALUATE.                                                PPOT1116
022095                                                                  PPOT1116
022096     WRITE POT11162-REC FROM RPT-C2-DETAIL-LINE                   PPOT1116
022097                                        AFTER ADVANCING 2 LINE.   PPOT1116
022098     ADD 2 TO POT11162-LINE-NO.                                   PPOT1116
022100     EJECT                                                        PPOT1116
022110                                                                  PPOT1116
022120 9400-SELECT-PER   SECTION.                                       PPOT1116
022130                                                                  PPOT1116
022140     MOVE 'SELECT PER' TO DB2MSG-TAG.                             PPOT1116
022150                                                                  PPOT1116
022160     EXEC SQL                                                     PPOT1116
022170        SELECT HIRE_DATE                                          PPOT1116
022180        INTO                                                      PPOT1116
022190              :HIRE-DATE                                          PPOT1116
022191        FROM PPPVPER1_PER                                         PPOT1116
022192        WHERE EMPLOYEE_ID = :WS-PREVIOUS-EMPLOYEE-ID              PPOT1116
022193     END-EXEC.                                                    PPOT1116
022194                                                                  PPOT1116
022195 9500-SELECT-PCM   SECTION.                                       PPOT1116
022196                                                                  PPOT1116
022197     MOVE 'SELECT PCM' TO DB2MSG-TAG.                             PPOT1116
022198                                                                  PPOT1116
022199     EXEC SQL                                                     PPOT1116
022200        SELECT PRI_PAY_SCHED                                      PPOT1116
022201        INTO                                                      PPOT1116
022202              :PRI-PAY-SCHED                                      PPOT1116
022203        FROM PPPVZPCM_PCM                                         PPOT1116
022204        WHERE EMPLOYEE_ID = :WS-PREVIOUS-EMPLOYEE-ID              PPOT1116
022205     END-EXEC.                                                    PPOT1116
022206     IF SQLCODE = ZERO                                            PPOT1116
022207        CONTINUE                                                  PPOT1116
022208     ELSE                                                         PPOT1116
022209*------> DEFAULT EMPLOYEE INTO MO PAY SCHEDULE                    PPOT1116
022210*------> IF FOR SOME REASON NO PCM RECORD. IT'S VERY UNLIKELY.    PPOT1116
022211        MOVE 'MO' TO PRI-PAY-SCHED                                PPOT1116
022212     END-IF.                                                      PPOT1116
022213                                                                  PPOT1116
022214     EJECT                                                        PPOT1116
022200******************************************************************PPOT1116
022300 XDC3-CONVERT-DATES    SECTION.                                   PPOT1116
022400                                     COPY CPPDXDC3.               PPOT1116
022410     EJECT                                                        PPOT1116
022420*----------------------------------------------------------------*PPOT1116
022430*999999-SQL-ERROR SECTION.                                        PPOT1116
022440*----------------------------------------------------------------*PPOT1116
022450**************************************************************    PPOT1116
022460*  COPIED PROCEDURE DIVISION CODE FOR SQL ERROR HANDLING     *    PPOT1116
022470**************************************************************    PPOT1116
022480                                                                  PPOT1116
022490     EXEC SQL                                                     PPOT1116
022491           INCLUDE CPPDXP99                                       PPOT1116
022492     END-EXEC.                                                    PPOT1116
022493                                                                  PPOT1116
022494     IF NOT HERE-BEFORE                                           PPOT1116
022495        SET HERE-BEFORE TO TRUE                                   PPOT1116
022496        SET SEVERITY-9 TO TRUE                                    PPOT1116
022497        MOVE MESSAGE13 TO MSG-MESSAGE                             PPOT1116
022498        PERFORM 9100-POT11161-DETAIL                              PPOT1116
022499     END-IF.                                                      PPOT1116
022500                                                                  PPOT1116
022501     GO TO 0099-EOJ.                                              PPOT1116
