000100**************************************************************/   EFIX1189
000200*  PROGRAM: PPOT1189                                         */   EFIX1189
000300*  RELEASE: ___1189______ SERVICE REQUEST(S): _____EFIX____  */   EFIX1189
000400*  NAME:__PHIL THOMPSON__ CREATION DATE:      ___06/08/98__  */   EFIX1189
000500*  DESCRIPTION:                                              */   EFIX1189
000600*  - IDENTIFY EMPLOYEES WITH AN EXCEEDE PIE DATE BUT WHO     */   EFIX1189
000700*    STILL HAVE A DEFAULT DM, DD OR DV PLAN EITHE ON THE     */   EFIX1189
000800*    PPPBEN ROW OR A PPPPPA ROW. BYPASS SEPARATED AND STUB ID*/   EFIX1189
000900*  - PRODUCE A REPORT SHOWING ID, NAME, HIRE DATE, PIE END   */   EFIX1189
001000*    DATE, HEALTH PLAN CODES, EMPLOYMENT STATUS AND PPA DATA.*/   EFIX1189
001100*    THE REPORT IS IN ID ORDER.                              */   EFIX1189
001120*  - PER THE SPEC CARD THE PROGRAM CAN BE RUN IN NON-UPDATE  */   EFIX1189
001130*    AND UPDATE MODE. IN NON-UPDATE MODE ONLY THE REPORT(S)  */   EFIX1189
001140*    WILL BE PRINTED. ADDITIONALLY, IN UPDATE MODE, THE      */   EFIX1189
001150*    HEALTH PLANS WILL BE CHANGED FROM DM TO CM, DD TO D1    */   EFIX1189
001160*    AND/OR DV TO VI. THESE CHANGES WILL BE AUDITED. THE PPA */   EFIX1189
001170*    ROWS WILL BE DELETED WITHOUT AUDIT.                     */   EFIX1189
001200**************************************************************/   EFIX1189
001300 IDENTIFICATION DIVISION.                                         PPOT1189
001400 PROGRAM-ID. PPOT1189.                                            PPOT1189
001500 AUTHOR. UCOP                                                     PPOT1189
001600                                                                  PPOT1189
001700*REMARKS.                                                         PPOT1189
001800                                                                  PPOT1189
001810***********************************************************       PPOT1189
001820*   THE MAIN CURSOR FOR THIS PROGRAM PRODUCES A LIST OF   *       PPOT1189
001830*   EMPLOYEES WHO HAVE A MORE THAN TWO DAY OLD PIE END    *       PPOT1189
001840*   DATE. IF SEPARATED OR STUB ID RECORDS, BYPASS.        *       PPOT1189
001860*   FOR EACH EMPLOYEE ID RETURNED BY THE CURSOR, THE      *       PPOT1189
001870*   HEALTH PLAN CODES WILL BE CHANGED FROM DM TO CM,      *       PPOT1189
001880*   DD TO D1 AND DV TO VI. ECF RECORDS WILL BE WRITTEN    *       PPOT1189
001890*   AND THE EDB UPDATED IN UPDATE MODE.                   *       PPOT1189
001891*   FOR EACH PLAN TYPE CHANGED, PPA ROWS WILL BE DELETED. *       PPOT1189
001905*   THIS PROGRAM CAN BE RUN IN NON-UPDATE MODE. THE       *       PPOT1189
001906*   REPORT WILL PROJECT WHAT WOULD OCCUR IN UPDATE MODE.  *       PPOT1189
001907*   THE MODE IS CONTROLLED BY THE UPDATE FIELD ON THE     *       PPOT1189
001908*   SPEC CARD.                                            *       PPOT1189
001910***********************************************************       PPOT1189
002000*        E N V I R O N M E N T     D I V I S I O N        *       PPOT1189
002100***********************************************************       PPOT1189
002200                                                                  PPOT1189
002300 ENVIRONMENT DIVISION.                                            PPOT1189
002400 CONFIGURATION SECTION.                                           PPOT1189
002500                                                                  PPOT1189
002600 SPECIAL-NAMES.                                                   PPOT1189
002700     C01 IS NEW-PAGE.                                             PPOT1189
002800                                                                  PPOT1189
002900 INPUT-OUTPUT SECTION.                                            PPOT1189
003000 FILE-CONTROL.                                                    PPOT1189
003100                                                                  PPOT1189
003200***********************************************************       PPOT1189
003300*    REPORT PRINT FILE                                    *       PPOT1189
003400***********************************************************       PPOT1189
003500     SELECT POT11891-REPORT ASSIGN TO UT-S-POT11891.              PPOT1189
003600***********************************************************       PPOT1189
003610*    WARNINGS AND MESSAGES REPORT                         *       PPOT1189
003620***********************************************************       PPOT1189
003700     SELECT PRINT-FILE      ASSIGN TO UT-S-POT11892.              PPOT1189
003800                                                                  PPOT1189
003900***********************************************************       PPOT1189
004000*    REPORT DATA SORT FILE                                *       PPOT1189
004100***********************************************************       PPOT1189
004200     SELECT POSRTB1        ASSIGN TO UT-S-POSRTB1.                PPOT1189
004400                                                                  PPOT1189
004500***********************************************************       PPOT1189
004600*    SPEC CARD                                            *       PPOT1189
004700***********************************************************       PPOT1189
004800     SELECT CARDFILE       ASSIGN TO UT-S-CARDFIL.                PPOT1189
004900                                                                  PPOT1189
005000***********************************************************       PPOT1189
005100*    EDB CHANGE FILE                                      *       PPOT1189
005200***********************************************************       PPOT1189
005300     SELECT EDBCHG         ASSIGN TO UT-S-EDBCHG.                 PPOT1189
005400                                                                  PPOT1189
005500***********************************************************       PPOT1189
005600*    SORT WORK FILE                                       *       PPOT1189
005700***********************************************************       PPOT1189
005800     SELECT SORT-WORK-FILE         COPY CPSLXSRT.                 PPOT1189
006000     EJECT                                                        PPOT1189
006100***********************************************************       PPOT1189
006200*                D A T A     D I V I S I O N              *       PPOT1189
006300***********************************************************       PPOT1189
006400                                                                  PPOT1189
006500 DATA DIVISION.                                                   PPOT1189
006600 FILE SECTION.                                                    PPOT1189
006700                                                                  PPOT1189
006800***********************************************************       PPOT1189
006900*    REPORT PRINT FILES                                   *       PPOT1189
007000***********************************************************       PPOT1189
007100 FD  POT11891-REPORT                                              PPOT1189
007200     LABEL RECORDS ARE OMITTED                                    PPOT1189
007300     BLOCK CONTAINS 0 RECORDS                                     PPOT1189
007400     RECORDING MODE IS F                                          PPOT1189
007500     RECORD CONTAINS 133 CHARACTERS.                              PPOT1189
007600                                                                  PPOT1189
007700 01  PPOT11891-LINE.                                              PPOT1189
007800     05  FILLER                   PIC X.                          PPOT1189
007900     05  PPOT11891-DATA           PIC X(132).                     PPOT1189
009000                                                                  PPOT1189
009100 FD  PRINT-FILE                  COPY CPFDXPRT.                   PPOT1189
009200                                                                  PPOT1189
009300***********************************************************       PPOT1189
009400*    REPORT DATA SORT FILES                               *       PPOT1189
009500***********************************************************       PPOT1189
009600 FD  POSRTB1                                                      PPOT1189
009700     LABEL RECORDS ARE OMITTED                                    PPOT1189
009800     BLOCK CONTAINS 0 RECORDS                                     PPOT1189
009900     RECORDING MODE IS F                                          PPOT1189
010000     RECORD CONTAINS  70 CHARACTERS.                              PPOT1189
010100                                                                  PPOT1189
010200 01  POSRTB1-REC.                                                 PPOT1189
010300     05  POSRTB1-KEY              PIC X(09).                      PPOT1189
010400     05  POSRTB1-DATA             PIC X(61).                      PPOT1189
010500                                                                  PPOT1189
011500                                                                  PPOT1189
011600***********************************************************       PPOT1189
011700*    SPEC CARD                                            *       PPOT1189
011800***********************************************************       PPOT1189
011900 FD  CARDFILE                                                     PPOT1189
012000     LABEL RECORDS ARE OMITTED                                    PPOT1189
012100     BLOCK CONTAINS 0 RECORDS                                     PPOT1189
012200     RECORDING MODE IS F                                          PPOT1189
012300     RECORD CONTAINS 80 CHARACTERS.                               PPOT1189
012400                                                                  PPOT1189
012500 01  SPEC-CARD.                                                   PPOT1189
012600     05  SPEC-PGM-ID             PIC X(10).                       PPOT1189
012700         88  VALID-SPEC-PGM-ID              VALUE 'PPOTA-SPEC'.   PPOT1189
012800     05  SPEC-PGM-UPDATE         PIC X(06).                       PPOT1189
012900         88  VALID-SPEC-UPDATE              VALUES '      '       PPOT1189
013000                                                   'UPDATE'.      PPOT1189
013100         88  UPDATE-REQUESTED               VALUES 'UPDATE'.      PPOT1189
013200     05  FILLER                  PIC X(64).                       PPOT1189
013300                                                                  PPOT1189
013400***********************************************************       PPOT1189
013500*    EDB CHANGE FILE                                      *       PPOT1189
013600***********************************************************       PPOT1189
013700 FD  EDBCHG                    COPY  CPFDXCHG                     PPOT1189
013800         REPLACING EDB-CHANGE-RECORD BY OCHG-EDB-CHANGE-RECORD.   PPOT1189
013900 01  OCHG-EDB-CHANGE-RECORD.   COPY CPWSXCHG                      PPOT1189
014000         REPLACING XCHG-FIXED-AREA     BY OCHG-FIXED-AREA         PPOT1189
014100                   XCHG-EMPLOYEE-ID    BY OCHG-EMPLOYEE-ID        PPOT1189
014200                   XCHG-DATA-ELEM-NO   BY OCHG-DATA-ELEM-NO       PPOT1189
014300                   XCHG-OCCURENCE-KEY  BY OCHG-OCCURENCE-KEY      PPOT1189
014400                   XCHG-PROCESS-ID     BY OCHG-PROCESS-ID         PPOT1189
014500                   XCHG-CHANGE-SOURCE  BY OCHG-CHANGE-SOURCE      PPOT1189
014600                   XCHG-TIMESTAMP      BY OCHG-TIMESTAMP          PPOT1189
014700                   XCHG-ODO-LENGTHS    BY OCHG-ODO-LENGTHS        PPOT1189
014800                   XCHG-OLD-VAL-LNGTH  BY OCHG-OLD-VAL-LNGTH      PPOT1189
014900                   XCHG-NEW-VAL1-LNGTH BY OCHG-NEW-VAL1-LNGTH     PPOT1189
015000                   XCHG-NEW-VAL2-LNGTH BY OCHG-NEW-VAL2-LNGTH     PPOT1189
015100                   XCHG-OLD-VALUE      BY OCHG-OLD-VALUE          PPOT1189
015200                   XCHG-OLD-VAL        BY OCHG-OLD-VAL            PPOT1189
015300                   XCHG-NEW-VALUE1     BY OCHG-NEW-VALUE1         PPOT1189
015400                   XCHG-NEW-VAL1       BY OCHG-NEW-VAL1           PPOT1189
015500                   XCHG-NEW-VALUE2     BY OCHG-NEW-VALUE2         PPOT1189
015600                   XCHG-NEW-VAL2       BY OCHG-NEW-VAL2.          PPOT1189
015700                                                                  PPOT1189
015800***********************************************************       PPOT1189
015900*    SORT WORK FILE                                       *       PPOT1189
016000***********************************************************       PPOT1189
016100 SD  SORT-WORK-FILE                                               PPOT1189
016200     RECORD CONTAINS  88 CHARACTERS                               PPOT1189
016300     DATA RECORD IS SORT-WORK-RECORD.                             PPOT1189
016400                                                                  PPOT1189
016500 01  SORT-WORK-RECORD.                                            PPOT1189
016600     05  SORT-WORK-KEY      PIC X(09).                            PPOT1189
016700     05  SORT-WORK-DATA     PIC X(61).                            PPOT1189
016800     EJECT                                                        PPOT1189
016900 WORKING-STORAGE SECTION.                                         PPOT1189
017000***********************************************************       PPOT1189
017100*    WORKING STORAGE                                      *       PPOT1189
017200***********************************************************       PPOT1189
017300***********************************************************       PPOT1189
017400*    REPORT KEY AND DATA FIELDS                           *       PPOT1189
017500***********************************************************       PPOT1189
017600 01  SORT-REPORT-REC.                                             PPOT1189
017700     05  SORT-REPORT-KEY.                                         PPOT1189
018100         10  SORT-KEY-ID           PIC X(09).                     PPOT1189
018500     05  SORT-REPORT-DATA.                                        PPOT1189
018700         10 SORT-EMP-NAME          PIC X(26).                     PPOT1189
018710         10 SORT-EMP-STATUS        PIC X(03).                     PPOT1189
018800         10 SORT-HIRE-DATE         PIC X(10).                     PPOT1189
018900         10 SORT-PIE-END-DATE      PIC X(10).                     PPOT1189
019000         10 SORT-HLTH-PLAN-OLD     PIC X(02).                     PPOT1189
019010         10 SORT-HLTH-PLAN-NEW     PIC X(02).                     PPOT1189
019100         10 SORT-DENTAL-PLAN-OLD   PIC X(02).                     PPOT1189
019110         10 SORT-DENTAL-PLAN-NEW   PIC X(02).                     PPOT1189
019200         10 SORT-VIS-PLAN-OLD      PIC X(02).                     PPOT1189
019210         10 SORT-VIS-PLAN-NEW      PIC X(02).                     PPOT1189
020100***********************************************************       PPOT1189
020200*    MISCELLANEOUS                                        *       PPOT1189
020300***********************************************************       PPOT1189
020400 01  WS-WORK-MISC.                                                PPOT1189
020500     05  WS-PGM-ID                PIC X(15)  VALUE                PPOT1189
020600                                            'PPOT1189/060998'.    PPOT1189
020700     05  WS-CHANGED-BY            PIC X(08)  VALUE 'PPOT1189'.    PPOT1189
020800     05  WS-EMPLOYEE-ID           PIC X(09)  VALUE SPACES.        PPOT1189
020900     05  WS-LOW-ISO-DATE          PIC X(10)  VALUE SPACES.        PPOT1189
021000     05  WS-DEFAULT-DM            PIC X(02)  VALUE 'DM'.          PPOT1189
021100     05  WS-DEFAULT-DD            PIC X(02)  VALUE 'DD'.          PPOT1189
021200     05  WS-DEFAULT-DV            PIC X(02)  VALUE 'DV'.          PPOT1189
021210     05  WS-TWO-DAYS-AGO          PIC X(10)  VALUE '9999-99-99'.  PPOT1189
021700 01  LUW-TIMESTAMP-X26            PIC X(26).                      PPOT1189
021800 01  WS-ACCUMULATORS             COMP-3.                          PPOT1189
021900     05  WS-PRINT-LINES-RPT       PIC S9(06) VALUE +65.           PPOT1189
022000     05  WS-REPORT-LINE-ADVANCE   PIC S9(06) VALUE +0.            PPOT1189
022100     05  MAX-LINES-PPA-PAGE       PIC S9(04) VALUE +55.           PPOT1189
022200     05  RPT1-LINES-PPA-PAGE      PIC S9(04) VALUE +60.           PPOT1189
023600     05  WS-ERROR-PAGE-NO         PIC S9(04) VALUE 0.             PPOT1189
023700     05  WS-SAVE-PAGE-NO          PIC S9(04) VALUE 0.             PPOT1189
023900 01  WS-NON-WOD-COUNT             PIC S9(09) COMP VALUE ZERO.     PPOT1189
024000***********************************************************       PPOT1189
024100*    SWITCHES                                             *       PPOT1189
024200***********************************************************       PPOT1189
024300 01  WS-SWITCHES.                                                 PPOT1189
024400     05  WS-MESSAGE-SW           PIC S9(01) VALUE +0.             PPOT1189
024500         88  FATAL-ERROR                    VALUE +1.             PPOT1189
024600     05  HERE-BEFORE-SW          PIC X(01)  VALUE SPACE.          PPOT1189
024700         88 HERE-BEFORE                     VALUE 'Y'.            PPOT1189
024800     05  FIRST-TIME-SW           PIC X(01)  VALUE 'Y'.            PPOT1189
024900         88  FIRST-TIME                     VALUE 'Y'.            PPOT1189
025000         88  NOT-FIRST-TIME                 VALUE 'N'.            PPOT1189
025100     05  DEF-CURSOR-SW           PIC X(01)  VALUE 'N'.            PPOT1189
025200         88  EOF-DEF-CURSOR                 VALUE 'Y'.            PPOT1189
025210     05  PPA-CURSOR-SW           PIC X(01)  VALUE 'N'.            PPOT1189
025220         88  EOF-PPA-CURSOR                 VALUE 'Y'.            PPOT1189
025230         88  NOT-EOF-PPA-CURSOR             VALUE 'N'.            PPOT1189
025300     05  SORT-SW                 PIC X(01)  VALUE 'N'.            PPOT1189
025400         88  NOT-EOF-SORT                   VALUE 'N'.            PPOT1189
025500         88  EOF-SORT                       VALUE 'Y'.            PPOT1189
025900     05  BEN-ROW-SW              PIC X(01)  VALUE 'N'.            PPOT1189
026000         88  BEN-ROW-OK                     VALUE 'Y'.            PPOT1189
026100         88  BEN-ROW-MISSING                VALUE 'N'.            PPOT1189
026101     05  CONVERT-PLAN-SW         PIC X(01)  VALUE 'N'.            PPOT1189
026102         88  PLAN-CONVERTED                 VALUE 'Y'.            PPOT1189
026103         88  PLAN-NOT-CONVERTED             VALUE 'N'.            PPOT1189
026200     EJECT                                                        PPOT1189
026300***********************************************************       PPOT1189
026400*    REPORT HEADERS AND DETAIL LINES                      *       PPOT1189
026500***********************************************************       PPOT1189
026600 01  POT11891-HDR1.                                               PPOT1189
026700     05  FILLER                  PIC X(01).                       PPOT1189
026800     05  FILLER                  PIC X(42) VALUE SPACES.          PPOT1189
026900     05  POT11891-HDR1-TEXT      PIC X(48) VALUE                  PPOT1189
027000           '     CONVERT PENDING DEFAULT HEALTH PLAN CODES'.      PPOT1189
027100     05  FILLER                  PIC X(42) VALUE SPACES.          PPOT1189
027900                                                                  PPOT1189
028000 01  POT11891-HDR2.                                               PPOT1189
028100     05  FILLER                  PIC X(01).                       PPOT1189
028200     05  FILLER                  PIC X(11) VALUE 'EMPLOYEE ID'.   PPOT1189
028300     05  FILLER                  PIC X(02) VALUE SPACES.          PPOT1189
028310     05  FILLER                  PIC X(13) VALUE 'EMPLOYEE NAME'. PPOT1189
028320     05  FILLER                  PIC X(16) VALUE SPACES.          PPOT1189
028400     05  FILLER                  PIC X(07) VALUE 'MEDICAL'.       PPOT1189
028500     05  FILLER                  PIC X(06) VALUE SPACES.          PPOT1189
028600     05  FILLER                  PIC X(06) VALUE 'DENTAL'.        PPOT1189
028700     05  FILLER                  PIC X(08) VALUE SPACES.          PPOT1189
028800     05  FILLER                  PIC X(06) VALUE 'VISION'.        PPOT1189
028900     05  FILLER                  PIC X(07) VALUE SPACES.          PPOT1189
028910     05  FILLER                  PIC X(03) VALUE 'EMP'.           PPOT1189
028911     05  FILLER                  PIC X(04) VALUE SPACES.          PPOT1189
028912     05  FILLER                  PIC X(04) VALUE 'HIRE'.          PPOT1189
028913     05  FILLER                  PIC X(12) VALUE SPACES.          PPOT1189
028914     05  FILLER                  PIC X(07) VALUE 'PIE END'.       PPOT1189
028920     05  FILLER                  PIC X(20) VALUE SPACES.          PPOT1189
029000                                                                  PPOT1189
029100 01  POT11891-HDR3.                                               PPOT1189
029200     05  FILLER                  PIC X(01).                       PPOT1189
029400     05  FILLER                  PIC X(42) VALUE SPACES.          PPOT1189
029700     05  FILLER                  PIC X(07) VALUE 'OLD/NEW'.       PPOT1189
029800     05  FILLER                  PIC X(06) VALUE SPACES.          PPOT1189
029810     05  FILLER                  PIC X(07) VALUE 'OLD/NEW'.       PPOT1189
030000     05  FILLER                  PIC X(07) VALUE SPACES.          PPOT1189
030010     05  FILLER                  PIC X(07) VALUE 'OLD/NEW'.       PPOT1189
030020     05  FILLER                  PIC X(06) VALUE SPACES.          PPOT1189
030030     05  FILLER                  PIC X(04) VALUE 'STAT'.          PPOT1189
030040     05  FILLER                  PIC X(03) VALUE SPACES.          PPOT1189
030050     05  FILLER                  PIC X(04) VALUE 'DATE'.          PPOT1189
030060     05  FILLER                  PIC X(12) VALUE SPACES.          PPOT1189
030070     05  FILLER                  PIC X(04) VALUE 'DATE'.          PPOT1189
030080     05  FILLER                  PIC X(23) VALUE SPACES.          PPOT1189
030090                                                                  PPOT1189
030110 01  POT11891-HDR4.                                               PPOT1189
030200     05  FILLER                  PIC X(01) VALUE SPACES.          PPOT1189
030300     05  FILLER                  PIC X(43) VALUE SPACES.          PPOT1189
030400     05  FILLER                  PIC X(04) VALUE 'TYPE'.          PPOT1189
030500     05  FILLER                  PIC X(04) VALUE SPACES.          PPOT1189
030600     05  FILLER                  PIC X(03) VALUE 'CYC'.           PPOT1189
030700     05  FILLER                  PIC X(04) VALUE SPACES.          PPOT1189
030800     05  FILLER                  PIC X(07) VALUE 'PAY END'.       PPOT1189
030900     05  FILLER                  PIC X(05) VALUE SPACES.          PPOT1189
031000     05  FILLER                  PIC X(04) VALUE 'PLAN'.          PPOT1189
031100     05  FILLER                  PIC X(03) VALUE SPACES.          PPOT1189
031200     05  FILLER                  PIC X(03) VALUE 'COV'.           PPOT1189
031300     05  FILLER                  PIC X(04) VALUE SPACES.          PPOT1189
031400     05  FILLER                  PIC X(04) VALUE 'FLAG'.          PPOT1189
031500     05  FILLER                  PIC X(22) VALUE SPACES.          PPOT1189
033600                                                                  PPOT1189
035900 01  POT11891-DETAIL-LINE1.                                       PPOT1189
036000     05  FILLER                  PIC X(01) VALUE SPACES.          PPOT1189
036100     05  RPT1-EMPLOYEE-ID        PIC X(09).                       PPOT1189
036200     05  FILLER                  PIC X(04) VALUE SPACES.          PPOT1189
036300     05  RPT1-EMP-NAME           PIC X(26).                       PPOT1189
036400     05  FILLER                  PIC X(04) VALUE SPACES.          PPOT1189
036500     05  RPT1-HLTH-PLAN-OLD      PIC X(02).                       PPOT1189
036510     05  FILLER                  PIC X(01) VALUE '/'.             PPOT1189
036520     05  RPT1-HLTH-PLAN-NEW      PIC X(02).                       PPOT1189
036530     05  FILLER                  PIC X(08) VALUE SPACES.          PPOT1189
036540     05  RPT1-DENTAL-PLAN-OLD    PIC X(02).                       PPOT1189
036550     05  FILLER                  PIC X(01) VALUE '/'.             PPOT1189
036560     05  RPT1-DENTAL-PLAN-NEW    PIC X(02).                       PPOT1189
036570     05  FILLER                  PIC X(09) VALUE SPACES.          PPOT1189
036580     05  RPT1-VIS-PLAN-OLD       PIC X(02).                       PPOT1189
036590     05  FILLER                  PIC X(01) VALUE '/'.             PPOT1189
036591     05  RPT1-VIS-PLAN-NEW       PIC X(02).                       PPOT1189
036592     05  FILLER                  PIC X(07) VALUE SPACES.          PPOT1189
036593     05  RPT1-EMP-STATUS         PIC X(01) VALUE SPACES.          PPOT1189
036594     05  FILLER                  PIC X(06) VALUE SPACES.          PPOT1189
036595     05  RPT1-HIRE-DATE          PIC X(10) VALUE SPACES.          PPOT1189
036596     05  FILLER                  PIC X(06) VALUE SPACES.          PPOT1189
036597     05  RPT1-PIE-END-DATE       PIC X(10) VALUE SPACES.          PPOT1189
036598     05  FILLER                  PIC X(17) VALUE SPACES.          PPOT1189
036620                                                                  PPOT1189
036627 01  POT11891-DETAIL-LINE2.                                       PPOT1189
036628     05  FILLER                  PIC X(01) VALUE SPACES.          PPOT1189
036631     05  RPT1-PPA-DELETED        PIC X(43) VALUE SPACES.          PPOT1189
036632     05  RPT1-PPA-BENEFIT-TYPE   PIC X(01).                       PPOT1189
036633     05  FILLER                  PIC X(07) VALUE SPACES.          PPOT1189
036634     05  RPT1-PPA-PAY-CYCLE      PIC X(01).                       PPOT1189
036635     05  FILLER                  PIC X(06) VALUE SPACES.          PPOT1189
036636     05  RPT1-PPA-PAY-END-DATE   PIC X(10).                       PPOT1189
036637     05  FILLER                  PIC X(02) VALUE SPACES.          PPOT1189
036638     05  RPT1-PPA-PLAN-CODE      PIC X(02).                       PPOT1189
036639     05  FILLER                  PIC X(05) VALUE SPACES.          PPOT1189
036640     05  RPT1-PPA-COVERAGE       PIC X(03).                       PPOT1189
036641     05  FILLER                  PIC X(04) VALUE SPACES.          PPOT1189
036642     05  RPT1-PPA-FLAG           PIC X(01).                       PPOT1189
036650     05  FILLER                  PIC X(47) VALUE SPACES.          PPOT1189
036660                                                                  PPOT1189
036700 01  POT11891-TOTAL-LINE.                                         PPOT1189
036800     05  FILLER                  PIC X(01).                       PPOT1189
036900     05  RPT1-RECORD-DESC        PIC X(40) VALUE                  PPOT1189
037000                                'TOTAL NUMBER OF EMPLOYEES'.      PPOT1189
037100     05  RPT1-RECORD-TOTAL-Z     PIC ZZZZ9.                       PPOT1189
037400     05  FILLER                  PIC X(87) VALUE SPACES.          PPOT1189
042900***********************************************************       PPOT1189
043000*    MESSAGE PRINT LINE                                   *       PPOT1189
043100***********************************************************       PPOT1189
043200 01  WS-MESSAGE.                                                  PPOT1189
043300     05  WS-DET1-CC              PIC X(01) VALUE SPACES.          PPOT1189
043400     05  WS-MESSAGE-1.                                            PPOT1189
043500         10  WS-MESSAGE-TEXT     PIC X(43)  VALUE SPACES.         PPOT1189
043600     05  WS-MESSAGE-2            PIC X(89)  VALUE SPACES.         PPOT1189
043900***********************************************************       PPOT1189
044000*        S T A N D A R D    C O P Y   M E M B E R S       *       PPOT1189
044100***********************************************************       PPOT1189
044200                                                                  PPOT1189
044300 01  WS-COMPILE-WORK-AREA.                  COPY CPWSXWHC.        PPOT1189
044400     EJECT                                                        PPOT1189
045300 01  DATE-FORMAT.                           COPY CPWSDATE.        PPOT1189
045400 01  DATE-CONVERSION-WORK-AREAS.            COPY CPWSXDC3.        PPOT1189
045500     EJECT                                                        PPOT1189
045600 01  XSCR-SYSTEM-CONTROL-RECORD.            COPY CPWSXSCR.        PPOT1189
045700     EJECT                                                        PPOT1189
045800 01  EDB-CHANGE-RECORD.                     COPY CPWSXCHG.        PPOT1189
045900     EJECT                                                        PPOT1189
046000 01  STND-RPT-HD.                           COPY CPWSPSHR.        PPOT1189
046100     EJECT                                                        PPOT1189
046200 01  PPDB2MSG-INTERFACE.                    COPY CPLNKDB2.        PPOT1189
048000     EJECT                                                        PPOT1189
048100***********************************************************       PPOT1189
048200*    SQL WORKING STORAGE                                  *       PPOT1189
048300***********************************************************       PPOT1189
048400 01  SCR-ROW.                                                     PPOT1189
048500     EXEC SQL                                                     PPOT1189
048600          INCLUDE PPPVSCR1                                        PPOT1189
048700     END-EXEC.                                                    PPOT1189
048800                                                                  PPOT1189
048900 01  PPA-ROW.                                                     PPOT1189
049000     EXEC SQL                                                     PPOT1189
049100          INCLUDE PPPVPPA1                                        PPOT1189
049200     END-EXEC.                                                    PPOT1189
049800                                                                  PPOT1189
049900 01  BEN-ROW.                                                     PPOT1189
050000     EXEC SQL                                                     PPOT1189
050100          INCLUDE PPPVBEN1                                        PPOT1189
050200     END-EXEC.                                                    PPOT1189
050800                                                                  PPOT1189
050900 01  PER-ROW-DATA.                                                PPOT1189
051000     EXEC SQL                                                     PPOT1189
051100          INCLUDE PPPVPER1                                        PPOT1189
051200     END-EXEC.                                                    PPOT1189
052300                                                                  PPOT1189
052400 01  BEN-ROW-FOR-UPDATE.                                          PPOT1189
052500     EXEC SQL                                                     PPOT1189
052600          INCLUDE PPPVBEN2                                        PPOT1189
052700     END-EXEC.                                                    PPOT1189
052800                                                                  PPOT1189
052900     EXEC SQL                                                     PPOT1189
053000          INCLUDE SQLCA                                           PPOT1189
053100     END-EXEC.                                                    PPOT1189
053200                                                                  PPOT1189
053300 01  WS-END-FLAG                 PIC X(36) VALUE                  PPOT1189
053400     'PPOT1189 WORKING STORAGE ENDS HERE'.                        PPOT1189
053500******************************************************************PPOT1189
053600*          SQL - CURSORS                                         *PPOT1189
053700******************************************************************PPOT1189
053800*    MAIN CURSOR TO SELECT AFFECTED POPULATION FOR PLAN          *PPOT1189
053900*    CODES WITHOUT DOMESTIC PARTNER.                             *PPOT1189
054000******************************************************************PPOT1189
054100     EXEC SQL                                                     PPOT1189
054200       DECLARE DEF_CURSOR CURSOR FOR                              PPOT1189
054300       SELECT DISTINCT (EMPLOYEE_ID)                              PPOT1189
054400       FROM  PPPVBEN1_BEN A                                       PPOT1189
054500       WHERE HLTH_PLAN = :WS-DEFAULT-DM                           PPOT1189
054510          OR DENTAL_PLAN = :WS-DEFAULT-DD                         PPOT1189
054520          OR VIS_PLAN = :WS-DEFAULT-DV                            PPOT1189
054700       UNION                                                      PPOT1189
054730       SELECT DISTINCT (EMPLOYEE_ID)                              PPOT1189
054740       FROM  PPPVPPA1_PPA B                                       PPOT1189
054750       WHERE PPA_PLAN_CODE = :WS-DEFAULT-DM                       PPOT1189
054751          OR PPA_PLAN_CODE = :WS-DEFAULT-DD                       PPOT1189
054752          OR PPA_PLAN_CODE = :WS-DEFAULT-DV                       PPOT1189
054760       ORDER BY 1                                                 PPOT1189
054770     END-EXEC.                                                    PPOT1189
054780******************************************************************PPOT1189
054790*    PPA CURSOR FOR REPORTING PPA DATA                           *PPOT1189
054792******************************************************************PPOT1189
054793     EXEC SQL                                                     PPOT1189
054794       DECLARE PPA_CURSOR CURSOR FOR                              PPOT1189
054795       SELECT                                                     PPOT1189
054829          PPA_BENEFIT_TYPE                                        PPOT1189
054830         ,PPA_PAY_CYCLE                                           PPOT1189
054831         ,PPA_PAY_END_DATE                                        PPOT1189
054832         ,PPA_PLAN_CODE                                           PPOT1189
054833         ,PPA_COVERAGE                                            PPOT1189
054834         ,PPA_FLAG                                                PPOT1189
054837       FROM  PPPVPPA1_PPA                                         PPOT1189
054838       WHERE EMPLOYEE_ID = :WS-EMPLOYEE-ID                        PPOT1189
054839       ORDER BY PPA_PAY_END_DATE                                  PPOT1189
054840               ,PPA_BENEFIT_TYPE                                  PPOT1189
054841     END-EXEC.                                                    PPOT1189
054850     EJECT                                                        PPOT1189
054900                                                                  PPOT1189
055000 PROCEDURE DIVISION.                                              PPOT1189
055100     EXEC SQL                                                     PPOT1189
055200          INCLUDE CPPDXE99                                        PPOT1189
055300     END-EXEC.                                                    PPOT1189
055400                                                                  PPOT1189
055500***********************************************************       PPOT1189
055600*                    M A I N L I N E                      *       PPOT1189
055700***********************************************************       PPOT1189
055800                                                                  PPOT1189
055900 0000-MAINLINE.                                                   PPOT1189
056000                                                                  PPOT1189
056100     PERFORM 1000-INITIALIZATION.                                 PPOT1189
056200                                                                  PPOT1189
056300     IF NOT FATAL-ERROR                                           PPOT1189
056500        PERFORM 2000-DEF-CURSOR                                   PPOT1189
056600        PERFORM 3000-PRINT-REPORTS                                PPOT1189
056700        PERFORM 9000-FINALIZATION                                 PPOT1189
056800     END-IF.                                                      PPOT1189
056900                                                                  PPOT1189
057000     IF FATAL-ERROR                                               PPOT1189
057100        MOVE +08 TO RETURN-CODE                                   PPOT1189
057200     END-IF.                                                      PPOT1189
057300     STOP RUN.                                                    PPOT1189
057400                                                                  PPOT1189
057500 0001-EXIT. EXIT.                                                 PPOT1189
057600     EJECT                                                        PPOT1189
058100 1000-INITIALIZATION       SECTION.                               PPOT1189
058110***********************************************************       PPOT1189
058120*                   I N I T I A L I Z E                   *       PPOT1189
058130***********************************************************       PPOT1189
058200                                                                  PPOT1189
058300     OPEN OUTPUT PRINT-FILE.                                      PPOT1189
058400     MOVE WS-PGM-ID TO STND-PROG-ID.                              PPOT1189
058500     MOVE STND-PROG-ID TO DB2MSG-PGM-ID.                          PPOT1189
058600     PERFORM XDC3-GET-CURRENT-DATE.                               PPOT1189
058700     PERFORM XDC3-CONVERT-LILIAN-TO-ISO.                          PPOT1189
058800     PERFORM XDC3-CONVERT-ISO-TO-FMT.                             PPOT1189
058900     MOVE XDC3-FMT-DATE TO STND-RPT-DATE.                         PPOT1189
058910     MOVE XDC3-LOW-ISO-DATE TO WS-LOW-ISO-DATE.                   PPOT1189
058911                                                                  PPOT1189
058912***********************************************************       PPOT1189
058913*    CALCULATE DATE TWO DAYS PRIOR TO TODAY FOR PIE END   *       PPOT1189
058914*    DATE COMPARISON. THIS MATCHES LOGIC IN PPP130 AND    *       PPOT1189
058915*    PPEI320 FOR XDTS-ISO-DLY-RUN-PIE-DATE.               *       PPOT1189
058916***********************************************************       PPOT1189
058917     SUBTRACT +2 FROM XDC3-LILIAN-DATE                            PPOT1189
058918     PERFORM XDC3-CONVERT-LILIAN-TO-ISO                           PPOT1189
058919     MOVE XDC3-ISO-DATE TO WS-TWO-DAYS-AGO.                       PPOT1189
059000                                                                  PPOT1189
059100     OPEN INPUT CARDFILE.                                         PPOT1189
059200     PERFORM 1100-VALIDATE-SPEC-CARD THRU 1100-EXIT.              PPOT1189
059300     IF FATAL-ERROR GO TO 1000-EXIT.                              PPOT1189
059400                                                                  PPOT1189
059500***********************************************************       PPOT1189
059600*    OPEN REPORT SORT FILES.                              *       PPOT1189
059700***********************************************************       PPOT1189
059800     OPEN OUTPUT POSRTB1.                                         PPOT1189
060000                                                                  PPOT1189
063700***********************************************************       PPOT1189
063800*    GET SCR DATA                                         *       PPOT1189
063900***********************************************************       PPOT1189
064000     MOVE 'SELECT SCR ROW' TO DB2MSG-TAG.                         PPOT1189
064100     EXEC SQL                                                     PPOT1189
064200       SELECT                                                     PPOT1189
064300          SCR_PROCESS_DATE                                        PPOT1189
064400         ,SCR_PURGE_DATE                                          PPOT1189
064500         ,SCR_CURRENT_DATE                                        PPOT1189
064600         ,SCR_NEXTCYCLE_MO                                        PPOT1189
064700         ,SCR_NEXTCYCLE_QTR                                       PPOT1189
064800         ,SCR_NEXTCYCLE_YR                                        PPOT1189
064900         ,SCR_NEXTCYCLE_FYR                                       PPOT1189
065000         ,SCR_EDB_GENNUM                                          PPOT1189
065100       INTO                                                       PPOT1189
065200         :SCR-PROCESS-DATE                                        PPOT1189
065300        ,:SCR-PURGE-DATE                                          PPOT1189
065400        ,:SCR-CURRENT-DATE                                        PPOT1189
065500        ,:SCR-NEXTCYCLE-MO                                        PPOT1189
065600        ,:SCR-NEXTCYCLE-QTR                                       PPOT1189
065700        ,:SCR-NEXTCYCLE-YR                                        PPOT1189
065800        ,:SCR-NEXTCYCLE-FYR                                       PPOT1189
065900        ,:SCR-EDB-GENNUM                                          PPOT1189
066000       FROM PPPVSCR1_SCR                                          PPOT1189
066100     END-EXEC.                                                    PPOT1189
066200                                                                  PPOT1189
066300     IF SQLCODE NOT = ZERO                                        PPOT1189
066400        SET FATAL-ERROR TO TRUE                                   PPOT1189
066500        MOVE 'ERROR IN SCR ROW SELECT' TO WS-MESSAGE-TEXT         PPOT1189
066600        PERFORM 7000-BUILD-MESSAGE                                PPOT1189
066700        GO TO 1000-EXIT                                           PPOT1189
066800     END-IF.                                                      PPOT1189
068100                                                                  PPOT1189
068200     INITIALIZE XSCR-SYSTEM-CONTROL-RECORD.                       PPOT1189
068300     MOVE '          SCR' TO XSCR-KEY-AREA.                       PPOT1189
068400     MOVE SCR-PROCESS-DATE OF SCR-ROW TO XDC3-ISO-DATE.           PPOT1189
068500     PERFORM XDC3-CONVERT-ISO-TO-STD                              PPOT1189
068600     MOVE XDC3-STD-DATE TO XSCR-PROCESS-DATE.                     PPOT1189
068700     MOVE SCR-NEXTCYCLE-MO OF SCR-ROW TO XSCR-NEXT-MONTH.         PPOT1189
068800     MOVE SCR-NEXTCYCLE-QTR OF SCR-ROW TO XSCR-NEXT-QTR.          PPOT1189
068900     MOVE SCR-NEXTCYCLE-YR OF SCR-ROW TO XSCR-NEXT-YEAR.          PPOT1189
069000     MOVE SCR-NEXTCYCLE-FYR OF SCR-ROW TO XSCR-NEXT-FY.           PPOT1189
069100     MOVE 'OT' TO XSCR-LAST-PGM-RUN.                              PPOT1189
069200     MOVE SCR-EDB-GENNUM OF SCR-ROW TO XSCR-EDB-GEN-NO.           PPOT1189
069300     MOVE SCR-PURGE-DATE OF SCR-ROW TO XDC3-ISO-DATE.             PPOT1189
069400     PERFORM XDC3-CONVERT-ISO-TO-STD.                             PPOT1189
069500     MOVE XDC3-STD-DATE TO XSCR-PURGE-DATE.                       PPOT1189
069600     MOVE SCR-CURRENT-DATE OF SCR-ROW TO XDC3-ISO-DATE.           PPOT1189
069700     PERFORM XDC3-CONVERT-ISO-TO-STD.                             PPOT1189
069800     MOVE XDC3-STD-DATE TO XSCR-CURRENT-DATE.                     PPOT1189
069900                                                                  PPOT1189
070000     MOVE LOW-VALUES TO XCHG-ODO-LENGTHS.                         PPOT1189
070100     MOVE XSCR-SYSTEM-CONTROL-RECORD TO EDB-CHANGE-RECORD.        PPOT1189
070200                                                                  PPOT1189
070300     OPEN OUTPUT EDBCHG.                                          PPOT1189
070400     WRITE OCHG-EDB-CHANGE-RECORD FROM EDB-CHANGE-RECORD.         PPOT1189
070500                                                                  PPOT1189
070600     MOVE 'SELECT TIMESTAMP'   TO DB2MSG-TAG                      PPOT1189
070700     EXEC SQL                                                     PPOT1189
070800       SELECT CURRENT TIMESTAMP                                   PPOT1189
070900       INTO   :LUW-TIMESTAMP-X26                                  PPOT1189
071000       FROM   PPPVSCR1_SCR                                        PPOT1189
071100     END-EXEC.                                                    PPOT1189
071200                                                                  PPOT1189
071300 1000-EXIT.  EXIT.                                                PPOT1189
071400                                                                  PPOT1189
071500 1100-VALIDATE-SPEC-CARD   SECTION.                               PPOT1189
071600***********************************************************       PPOT1189
071700*    READ AND EDIT THE RUN SPECIFICATION RECORD           *       PPOT1189
071800***********************************************************       PPOT1189
071900     READ CARDFILE                                                PPOT1189
072000          AT END                                                  PPOT1189
072100                SET FATAL-ERROR TO TRUE                           PPOT1189
072200                MOVE 'SPECIFICATION CARD IS MISSING'              PPOT1189
072300                                 TO WS-MESSAGE-TEXT               PPOT1189
072400                PERFORM 7000-BUILD-MESSAGE                        PPOT1189
072500                GO TO 1100-EXIT.                                  PPOT1189
072600                                                                  PPOT1189
072700     MOVE 'SPEC CARD:' TO WS-MESSAGE-TEXT.                        PPOT1189
072800     MOVE SPEC-CARD TO WS-MESSAGE-2.                              PPOT1189
072900     PERFORM 7000-BUILD-MESSAGE.                                  PPOT1189
073000     MOVE SPACES TO WS-MESSAGE-2.                                 PPOT1189
073100                                                                  PPOT1189
073200     IF NOT VALID-SPEC-PGM-ID                                     PPOT1189
073300        SET FATAL-ERROR TO TRUE                                   PPOT1189
073400        MOVE 'INVALID PROGRAM IDENTIFICATION ON SPEC CARD'        PPOT1189
073500                     TO WS-MESSAGE-TEXT                           PPOT1189
073600        PERFORM 7000-BUILD-MESSAGE                                PPOT1189
073700     END-IF.                                                      PPOT1189
073800                                                                  PPOT1189
073900      IF NOT VALID-SPEC-UPDATE                                    PPOT1189
074000         SET FATAL-ERROR TO TRUE                                  PPOT1189
074100         MOVE 'INVALID UPDATE OPTION' TO WS-MESSAGE-TEXT          PPOT1189
074200         PERFORM 7000-BUILD-MESSAGE                               PPOT1189
074300      ELSE                                                        PPOT1189
074400        IF UPDATE-REQUESTED                                       PPOT1189
074500           MOVE 'THE EDB UPDATE OPTION HAS BEEN SELECTED'         PPOT1189
074600                          TO WS-MESSAGE-TEXT                      PPOT1189
074700           PERFORM 7000-BUILD-MESSAGE                             PPOT1189
074800        ELSE                                                      PPOT1189
074900           MOVE 'THE EDB UPDATE OPTION WAS NOT SELECTED'          PPOT1189
075000                          TO WS-MESSAGE-TEXT                      PPOT1189
075100           PERFORM 7000-BUILD-MESSAGE                             PPOT1189
075200        END-IF                                                    PPOT1189
075300      END-IF.                                                     PPOT1189
075400                                                                  PPOT1189
075500 1100-EXIT.                                                       PPOT1189
075600     EXIT.                                                        PPOT1189
075700     EJECT                                                        PPOT1189
075800                                                                  PPOT1189
075900 2000-DEF-CURSOR           SECTION.                               PPOT1189
076000                                                                  PPOT1189
076100     PERFORM 8300-OPEN-DEF-CURSOR.                                PPOT1189
076200     PERFORM 8310-FETCH-DEF-CURSOR.                               PPOT1189
076300                                                                  PPOT1189
076400***********************************************************       PPOT1189
076500*    PROCESS THE MAIN CURSOR UNTIL EOF.                   *       PPOT1189
076600***********************************************************       PPOT1189
076700     PERFORM 2100-PROCESS-DEF-CURSOR                              PPOT1189
076800             UNTIL EOF-DEF-CURSOR                                 PPOT1189
076900                OR FATAL-ERROR.                                   PPOT1189
077000                                                                  PPOT1189
077100     PERFORM 8320-CLOSE-DEF-CURSOR.                               PPOT1189
077200                                                                  PPOT1189
077300 2000-EXIT. EXIT.                                                 PPOT1189
077400     EJECT                                                        PPOT1189
077500                                                                  PPOT1189
077600 2100-PROCESS-DEF-CURSOR   SECTION.                               PPOT1189
077610                                                                  PPOT1189
078000     PERFORM 8500-SELECT-BEN-ROW.                                 PPOT1189
078200     IF BEN-ROW-MISSING                                           PPOT1189
078201     OR PIE-END-DATE OF BEN-ROW >= WS-TWO-DAYS-AGO                PPOT1189
078210        PERFORM 8310-FETCH-DEF-CURSOR                             PPOT1189
078300        GO TO 2100-EXIT                                           PPOT1189
078400     END-IF.                                                      PPOT1189
078500     PERFORM 8600-SELECT-PER-ROW.                                 PPOT1189
078600     IF EMP-STATUS = 'S'                                          PPOT1189
078610     OR EMP-NAME = ALL '*'                                        PPOT1189
078700        PERFORM 8310-FETCH-DEF-CURSOR                             PPOT1189
078800        GO TO 2100-EXIT                                           PPOT1189
078900     END-IF.                                                      PPOT1189
080000                                                                  PPOT1189
081200***********************************************************       PPOT1189
081300*    IF AN UPDATE HAS BEEN REQUESTED ON THE SPEC CARD,    *       PPOT1189
081400*    WRITE RECORDS TO ECF AND UPDATE THE EDB.             *       PPOT1189
081500***********************************************************       PPOT1189
081600     PERFORM 2200-CONVERT-PLAN-CODES.                             PPOT1189
081700     IF UPDATE-REQUESTED                                          PPOT1189
081710     AND PLAN-CONVERTED                                           PPOT1189
081800        PERFORM 2800-CREATE-ECF                                   PPOT1189
081900        PERFORM 2700-UPDATE-BEN-PER                               PPOT1189
082100     END-IF.                                                      PPOT1189
082101                                                                  PPOT1189
082110     PERFORM 2500-WRITE-REPORT-DATA.                              PPOT1189
082200                                                                  PPOT1189
082300***********************************************************       PPOT1189
082400*    FETCH THE NEXT MAIN CURSOR ROW.                      *       PPOT1189
082500***********************************************************       PPOT1189
082600     PERFORM 8310-FETCH-DEF-CURSOR.                               PPOT1189
082700                                                                  PPOT1189
082800 2100-EXIT. EXIT.                                                 PPOT1189
082900                                                                  PPOT1189
083801 2200-CONVERT-PLAN-CODES   SECTION.                               PPOT1189
083802***********************************************************       PPOT1189
083803*    IF PLAN IS PENDING PREMIUM PLAN CODE, CONVERT TO     *       PPOT1189
083804*    TRUE DEFAULT PLAN.                                   *       PPOT1189
083805***********************************************************       PPOT1189
083806                                                                  PPOT1189
083807     SET PLAN-NOT-CONVERTED TO TRUE.                              PPOT1189
083808                                                                  PPOT1189
083809     IF HLTH-PLAN OF BEN-ROW = 'DM'                               PPOT1189
083810        MOVE 'CM' TO HLTH-PLAN OF BEN-ROW-FOR-UPDATE              PPOT1189
083811        SET PLAN-CONVERTED TO TRUE                                PPOT1189
083812     END-IF.                                                      PPOT1189
083813                                                                  PPOT1189
083814     IF DENTAL-PLAN OF BEN-ROW = 'DD'                             PPOT1189
083815        MOVE 'D1' TO DENTAL-PLAN OF BEN-ROW-FOR-UPDATE            PPOT1189
083816        SET PLAN-CONVERTED TO TRUE                                PPOT1189
083817     END-IF.                                                      PPOT1189
083818                                                                  PPOT1189
083819     IF VIS-PLAN OF BEN-ROW = 'DV'                                PPOT1189
083820        MOVE 'VI' TO VIS-PLAN OF BEN-ROW-FOR-UPDATE               PPOT1189
083821        SET PLAN-CONVERTED TO TRUE                                PPOT1189
083822     END-IF.                                                      PPOT1189
083823                                                                  PPOT1189
083824 2500-WRITE-REPORT-DATA    SECTION.                               PPOT1189
083825***********************************************************       PPOT1189
083826*    CREATE SORT RECORD KEY AND DATA, AND WRITE FOR       *       PPOT1189
083827*    LATER SORT FOR REPORT IN ID ORDER.                   *       PPOT1189
083828***********************************************************       PPOT1189
083829                                                                  PPOT1189
083830     INITIALIZE SORT-REPORT-REC.                                  PPOT1189
083840     MOVE WS-EMPLOYEE-ID TO SORT-KEY-ID.                          PPOT1189
083910     MOVE EMP-NAME TO SORT-EMP-NAME.                              PPOT1189
083920     MOVE EMP-STATUS TO SORT-EMP-STATUS.                          PPOT1189
083930     MOVE HIRE-DATE TO SORT-HIRE-DATE.                            PPOT1189
083940     MOVE PIE-END-DATE OF BEN-ROW TO SORT-PIE-END-DATE.           PPOT1189
083950     MOVE HLTH-PLAN OF BEN-ROW TO SORT-HLTH-PLAN-OLD.             PPOT1189
083951     MOVE HLTH-PLAN OF BEN-ROW-FOR-UPDATE TO SORT-HLTH-PLAN-NEW.  PPOT1189
083960     MOVE DENTAL-PLAN OF BEN-ROW TO SORT-DENTAL-PLAN-OLD.         PPOT1189
083961     MOVE DENTAL-PLAN OF BEN-ROW-FOR-UPDATE                       PPOT1189
083962                                         TO SORT-DENTAL-PLAN-NEW. PPOT1189
083970     MOVE VIS-PLAN OF BEN-ROW TO SORT-VIS-PLAN-OLD.               PPOT1189
083980     MOVE VIS-PLAN OF BEN-ROW-FOR-UPDATE TO SORT-VIS-PLAN-NEW.    PPOT1189
086300     MOVE SORT-REPORT-KEY TO POSRTB1-KEY.                         PPOT1189
086400     MOVE SORT-REPORT-DATA TO POSRTB1-DATA.                       PPOT1189
086500     WRITE POSRTB1-REC.                                           PPOT1189
086600                                                                  PPOT1189
086700 2700-UPDATE-BEN-PER       SECTION.                               PPOT1189
086800***********************************************************       PPOT1189
086900*    UPDATE THE EDB.                                      *       PPOT1189
087000***********************************************************       PPOT1189
087100                                                                  PPOT1189
087200     PERFORM 8100-UPDATE-BEN-ROW.                                 PPOT1189
087300     PERFORM 8200-UPDATE-PER-ROW.                                 PPOT1189
088500                                                                  PPOT1189
088600 2800-CREATE-ECF           SECTION.                               PPOT1189
088700***********************************************************       PPOT1189
088800*    PRODUCE EDB CHANGE FILE RECORDS                      *       PPOT1189
088900***********************************************************       PPOT1189
089000     INITIALIZE XCHG-FIXED-AREA.                                  PPOT1189
089100     MOVE 'PPOT1189'                   TO XCHG-PROCESS-ID.        PPOT1189
089200     MOVE XDC3-GREGORIAN-CHAR          TO XCHG-TIMESTAMP.         PPOT1189
089300     MOVE WS-EMPLOYEE-ID               TO XCHG-EMPLOYEE-ID.       PPOT1189
089400                                                                  PPOT1189
089500     IF DENTAL-PLAN OF BEN-ROW NOT =                              PPOT1189
089510        DENTAL-PLAN OF BEN-ROW-FOR-UPDATE                         PPOT1189
089600        MOVE '0272'                    TO XCHG-DATA-ELEM-NO       PPOT1189
089700        MOVE SPACES                    TO XCHG-OCCURENCE-KEY      PPOT1189
089800        MOVE +2                        TO XCHG-OLD-VAL-LNGTH      PPOT1189
089900                                          XCHG-NEW-VAL1-LNGTH     PPOT1189
090000                                          XCHG-NEW-VAL2-LNGTH     PPOT1189
090110        MOVE DENTAL-PLAN OF BEN-ROW    TO XCHG-OLD-VALUE          PPOT1189
090120        MOVE DENTAL-PLAN OF BEN-ROW-FOR-UPDATE                    PPOT1189
090130                                       TO XCHG-NEW-VALUE1         PPOT1189
090140        MOVE DENTAL-PLAN OF BEN-ROW-FOR-UPDATE                    PPOT1189
090150                                       TO XCHG-NEW-VALUE2         PPOT1189
090400        WRITE OCHG-EDB-CHANGE-RECORD FROM EDB-CHANGE-RECORD       PPOT1189
090500     END-IF.                                                      PPOT1189
090600                                                                  PPOT1189
090700     IF HLTH-PLAN OF BEN-ROW NOT =                                PPOT1189
090800        HLTH-PLAN OF BEN-ROW-FOR-UPDATE                           PPOT1189
090900        MOVE '0292'                    TO XCHG-DATA-ELEM-NO       PPOT1189
091000        MOVE SPACES                    TO XCHG-OCCURENCE-KEY      PPOT1189
091100        MOVE +2                        TO XCHG-OLD-VAL-LNGTH      PPOT1189
091200                                          XCHG-NEW-VAL1-LNGTH     PPOT1189
091300                                          XCHG-NEW-VAL2-LNGTH     PPOT1189
091500        MOVE HLTH-PLAN OF BEN-ROW      TO XCHG-OLD-VALUE          PPOT1189
091600        MOVE HLTH-PLAN OF BEN-ROW-FOR-UPDATE                      PPOT1189
091700                                       TO XCHG-NEW-VALUE1         PPOT1189
091800        MOVE HLTH-PLAN OF BEN-ROW-FOR-UPDATE                      PPOT1189
091900                                       TO XCHG-NEW-VALUE2         PPOT1189
092000        WRITE OCHG-EDB-CHANGE-RECORD FROM EDB-CHANGE-RECORD       PPOT1189
092100     END-IF.                                                      PPOT1189
092200                                                                  PPOT1189
092300     IF VIS-PLAN OF BEN-ROW NOT =                                 PPOT1189
092400        VIS-PLAN OF BEN-ROW-FOR-UPDATE                            PPOT1189
092500        MOVE '0347'                    TO XCHG-DATA-ELEM-NO       PPOT1189
092600        MOVE SPACES                    TO XCHG-OCCURENCE-KEY      PPOT1189
092700        MOVE +2                        TO XCHG-OLD-VAL-LNGTH      PPOT1189
092800                                          XCHG-NEW-VAL1-LNGTH     PPOT1189
092900                                          XCHG-NEW-VAL2-LNGTH     PPOT1189
092920        MOVE VIS-PLAN OF BEN-ROW       TO XCHG-OLD-VALUE          PPOT1189
092930        MOVE VIS-PLAN OF BEN-ROW-FOR-UPDATE                       PPOT1189
092940                                       TO XCHG-NEW-VALUE1         PPOT1189
092950        MOVE VIS-PLAN OF BEN-ROW-FOR-UPDATE                       PPOT1189
092960                                       TO XCHG-NEW-VALUE2         PPOT1189
092970        WRITE OCHG-EDB-CHANGE-RECORD FROM EDB-CHANGE-RECORD       PPOT1189
092980     END-IF.                                                      PPOT1189
093000                                                                  PPOT1189
093100 2800-EXIT. EXIT.                                                 PPOT1189
093200                                                                  PPOT1189
093300 3000-PRINT-REPORTS        SECTION.                               PPOT1189
093400***********************************************************       PPOT1189
093500*      PRINT REPORTS SELECTED ON THE SPEC CARD            *       PPOT1189
093600***********************************************************       PPOT1189
093700     OPEN OUTPUT POT11891-REPORT.                                 PPOT1189
093900                                                                  PPOT1189
094000     CLOSE POSRTB1.                                               PPOT1189
094100     SET NOT-EOF-SORT TO TRUE.                                    PPOT1189
094300     SORT SORT-WORK-FILE                                          PPOT1189
094400          ASCENDING KEY SORT-WORK-KEY                             PPOT1189
094500          USING POSRTB1                                           PPOT1189
094600          OUTPUT PROCEDURE 3100-SORTOUT-POT11891.                 PPOT1189
095700                                                                  PPOT1189
095800     CLOSE POT11891-REPORT.                                       PPOT1189
096000                                                                  PPOT1189
096100 3100-SORTOUT-POT11891     SECTION.                               PPOT1189
096200***********************************************************       PPOT1189
096300*    PERFORM SORT RETURN AND PRINT UNTIL END OF SORT.     *       PPOT1189
096400***********************************************************       PPOT1189
096500                                                                  PPOT1189
096600     PERFORM 3110-PRINT-POT11891 UNTIL EOF-SORT.                  PPOT1189
096700                                                                  PPOT1189
096800 3110-PRINT-POT11891       SECTION.                               PPOT1189
096900***********************************************************       PPOT1189
097000*    PRINT POT11891 REPORT FROM SORTED POSRTB1 FILE       *       PPOT1189
097100***********************************************************       PPOT1189
097200     RETURN SORT-WORK-FILE INTO SORT-REPORT-REC                   PPOT1189
097300       AT END SET EOF-SORT TO TRUE                                PPOT1189
097400              GO TO 3110-EXIT.                                    PPOT1189
097700                                                                  PPOT1189
097800     MOVE SORT-KEY-ID TO RPT1-EMPLOYEE-ID.                        PPOT1189
097900     MOVE SORT-EMP-NAME TO RPT1-EMP-NAME.                         PPOT1189
098200     MOVE SORT-HLTH-PLAN-OLD TO RPT1-HLTH-PLAN-OLD.               PPOT1189
098210     MOVE SORT-HLTH-PLAN-NEW TO RPT1-HLTH-PLAN-NEW.               PPOT1189
098400     MOVE SORT-DENTAL-PLAN-OLD TO RPT1-DENTAL-PLAN-OLD.           PPOT1189
098410     MOVE SORT-DENTAL-PLAN-NEW TO RPT1-DENTAL-PLAN-NEW.           PPOT1189
098600     MOVE SORT-VIS-PLAN-OLD TO RPT1-VIS-PLAN-OLD.                 PPOT1189
098610     MOVE SORT-VIS-PLAN-NEW TO RPT1-VIS-PLAN-NEW.                 PPOT1189
098800     MOVE SORT-EMP-STATUS TO RPT1-EMP-STATUS.                     PPOT1189
098900     MOVE SORT-HIRE-DATE TO RPT1-HIRE-DATE.                       PPOT1189
098910     MOVE SORT-PIE-END-DATE TO RPT1-PIE-END-DATE.                 PPOT1189
098911     PERFORM 3120-WRITE-REPORT1.                                  PPOT1189
099000                                                                  PPOT1189
099010     MOVE SORT-KEY-ID TO WS-EMPLOYEE-ID.                          PPOT1189
099100     PERFORM 3200-WRITE-PPA-DATA.                                 PPOT1189
099102     IF UPDATE-REQUESTED                                          PPOT1189
099110        PERFORM 3300-DELETE-PPA-DATA                              PPOT1189
099120     END-IF.                                                      PPOT1189
099200                                                                  PPOT1189
099300 3110-EXIT.  EXIT.                                                PPOT1189
099400     EJECT                                                        PPOT1189
099500                                                                  PPOT1189
099600 3120-WRITE-REPORT1        SECTION.                               PPOT1189
099700***********************************************************       PPOT1189
099800*    WRITE DETAIL REPORTS                                 *       PPOT1189
099900***********************************************************       PPOT1189
100000                                                                  PPOT1189
100100     IF (RPT1-LINES-PPA-PAGE > MAX-LINES-PPA-PAGE)                PPOT1189
100200         PERFORM 3130-WRITE-RPT1-NEWPAGE                          PPOT1189
100300     END-IF.                                                      PPOT1189
100400                                                                  PPOT1189
100500     WRITE PPOT11891-LINE FROM POT11891-DETAIL-LINE1 AFTER 2.     PPOT1189
100700     ADD +2 TO RPT1-LINES-PPA-PAGE.                               PPOT1189
100800                                                                  PPOT1189
100900 3130-WRITE-RPT1-NEWPAGE   SECTION.                               PPOT1189
100910***********************************************************       PPOT1189
100920*    WRITE REPORT NEW PAGE                                *       PPOT1189
100930***********************************************************       PPOT1189
101000                                                                  PPOT1189
101900     MOVE 'OT11891' TO STND-RPT-ID.                               PPOT1189
102000     ADD +1 TO STND-PAGE-NO.                                      PPOT1189
102100     INSPECT STND-PAGE-NO REPLACING LEADING ZEROS BY SPACE.       PPOT1189
102200     WRITE PPOT11891-LINE FROM STND-RPT-HD1                       PPOT1189
102300                                        AFTER ADVANCING NEW-PAGE. PPOT1189
102400     WRITE PPOT11891-LINE FROM STND-RPT-HD2 AFTER 1.              PPOT1189
102500     WRITE PPOT11891-LINE FROM POT11891-HDR1 AFTER 1.             PPOT1189
103000     WRITE PPOT11891-LINE FROM POT11891-HDR2 AFTER 2.             PPOT1189
103100     WRITE PPOT11891-LINE FROM POT11891-HDR3 AFTER 1.             PPOT1189
103200                                                                  PPOT1189
103300     MOVE +6 TO RPT1-LINES-PPA-PAGE.                              PPOT1189
103400                                                                  PPOT1189
103500 3200-WRITE-PPA-DATA       SECTION.                               PPOT1189
103600***********************************************************       PPOT1189
103700*      OPEN AND FETCH PPA CURSOR.                         *       PPOT1189
103710*      WRITE PPA DATA TO REPORT UNTIL END OF CURSOR       *       PPOT1189
103720*      CLOSE PPA CURSOR.                                  *       PPOT1189
103800***********************************************************       PPOT1189
103900                                                                  PPOT1189
104000     SET NOT-EOF-PPA-CURSOR TO TRUE.                              PPOT1189
104010     PERFORM 8400-OPEN-PPA-CURSOR.                                PPOT1189
104100     PERFORM 8410-FETCH-PPA-CURSOR.                               PPOT1189
104200                                                                  PPOT1189
104300     IF NOT EOF-PPA-CURSOR                                        PPOT1189
104301        WRITE PPOT11891-LINE FROM POT11891-HDR4 AFTER 2           PPOT1189
104310     END-IF.                                                      PPOT1189
104510                                                                  PPOT1189
104600     PERFORM 3210-PROCESS-PPA-CURSOR                              PPOT1189
104700             UNTIL EOF-PPA-CURSOR                                 PPOT1189
104800                OR FATAL-ERROR.                                   PPOT1189
104900                                                                  PPOT1189
105000     PERFORM 8420-CLOSE-PPA-CURSOR.                               PPOT1189
105001                                                                  PPOT1189
105010 3210-PROCESS-PPA-CURSOR   SECTION.                               PPOT1189
105020***********************************************************       PPOT1189
105030*      MOVE PPA ROW DATA TO REPORT LINE AND PRINT.        *       PPOT1189
105040*      FETCH NEXT PPA CURSOR.                             *       PPOT1189
105050***********************************************************       PPOT1189
105100                                                                  PPOT1189
106310     MOVE PPA-BENEFIT-TYPE TO RPT1-PPA-BENEFIT-TYPE.              PPOT1189
106320     MOVE PPA-PAY-CYCLE    TO RPT1-PPA-PAY-CYCLE.                 PPOT1189
106330     MOVE PPA-PAY-END-DATE TO RPT1-PPA-PAY-END-DATE.              PPOT1189
106340     MOVE PPA-PLAN-CODE    TO RPT1-PPA-PLAN-CODE.                 PPOT1189
106350     MOVE PPA-COVERAGE     TO RPT1-PPA-COVERAGE.                  PPOT1189
106360     MOVE PPA-FLAG         TO RPT1-PPA-FLAG.                      PPOT1189
106370     IF  (SORT-HLTH-PLAN-NEW NOT = 'DM'                           PPOT1189
106380          AND PPA-PLAN-CODE = 'DM')                               PPOT1189
106390     OR  (SORT-DENTAL-PLAN-NEW NOT = 'DD'                         PPOT1189
106391          AND PPA-PLAN-CODE = 'DD')                               PPOT1189
106392     OR  (SORT-VIS-PLAN-NEW NOT = 'DV'                            PPOT1189
106393          AND PPA-PLAN-CODE = 'DV')                               PPOT1189
106394         MOVE 'PPA ROW DELETED' TO RPT1-PPA-DELETED               PPOT1189
106395     ELSE                                                         PPOT1189
106396         MOVE SPACES TO RPT1-PPA-DELETED                          PPOT1189
106397     END-IF.                                                      PPOT1189
106400                                                                  PPOT1189
106500     IF (RPT1-LINES-PPA-PAGE > MAX-LINES-PPA-PAGE)                PPOT1189
106600         PERFORM 3130-WRITE-RPT1-NEWPAGE                          PPOT1189
106700     END-IF.                                                      PPOT1189
106800     WRITE PPOT11891-LINE FROM POT11891-DETAIL-LINE2 AFTER 1      PPOT1189
106900     ADD +1 TO RPT1-LINES-PPA-PAGE                                PPOT1189
107010                                                                  PPOT1189
107100     PERFORM 8410-FETCH-PPA-CURSOR.                               PPOT1189
107200                                                                  PPOT1189
107300                                                                  PPOT1189
107400 3300-DELETE-PPA-DATA      SECTION.                               PPOT1189
107500***********************************************************       PPOT1189
107600*      DELETE PPA ROWS WITH PENDING DEFAULT PLAN CODES    *       PPOT1189
107900***********************************************************       PPOT1189
107910                                                                  PPOT1189
107911     IF HLTH-PLAN OF BEN-ROW-FOR-UPDATE NOT = 'DM'                PPOT1189
107920        EXEC SQL                                                  PPOT1189
107930          DELETE FROM PPPVPPA1_PPA                                PPOT1189
107991            WHERE EMPLOYEE_ID = :WS-EMPLOYEE-ID                   PPOT1189
107992              AND PPA_PLAN_CODE = :WS-DEFAULT-DM                  PPOT1189
107994        END-EXEC                                                  PPOT1189
107995                                                                  PPOT1189
107996        IF  SQLCODE NOT = 0                                       PPOT1189
107997        AND SQLCODE NOT = 100                                     PPOT1189
107998           SET FATAL-ERROR TO TRUE                                PPOT1189
107999           MOVE 'NON ZERO SQLCODE IN DM PPA DELETE'               PPOT1189
108000                 TO WS-MESSAGE-TEXT                               PPOT1189
108001           PERFORM 7000-BUILD-MESSAGE                             PPOT1189
108010        END-IF                                                    PPOT1189
108020     END-IF.                                                      PPOT1189
108100                                                                  PPOT1189
108300     IF DENTAL-PLAN OF BEN-ROW-FOR-UPDATE NOT = 'DD'              PPOT1189
108400        EXEC SQL                                                  PPOT1189
108500          DELETE FROM PPPVPPA1_PPA                                PPOT1189
108600            WHERE EMPLOYEE_ID = :WS-EMPLOYEE-ID                   PPOT1189
108700              AND PPA_PLAN_CODE = :WS-DEFAULT-DD                  PPOT1189
108800        END-EXEC                                                  PPOT1189
108900                                                                  PPOT1189
109000        IF  SQLCODE NOT = 0                                       PPOT1189
109100        AND SQLCODE NOT = 100                                     PPOT1189
109200           SET FATAL-ERROR TO TRUE                                PPOT1189
109300           MOVE 'NON ZERO SQLCODE IN DD PPA DELETE'               PPOT1189
109400                 TO WS-MESSAGE-TEXT                               PPOT1189
109500           PERFORM 7000-BUILD-MESSAGE                             PPOT1189
109600        END-IF                                                    PPOT1189
109700     END-IF.                                                      PPOT1189
109800                                                                  PPOT1189
109900     IF VIS-PLAN OF BEN-ROW-FOR-UPDATE NOT = 'DV'                 PPOT1189
110000        EXEC SQL                                                  PPOT1189
110100          DELETE FROM PPPVPPA1_PPA                                PPOT1189
110200            WHERE EMPLOYEE_ID = :WS-EMPLOYEE-ID                   PPOT1189
110300              AND PPA_PLAN_CODE = :WS-DEFAULT-DV                  PPOT1189
110400        END-EXEC                                                  PPOT1189
110500                                                                  PPOT1189
110600        IF  SQLCODE NOT = 0                                       PPOT1189
110700        AND SQLCODE NOT = 100                                     PPOT1189
110800           SET FATAL-ERROR TO TRUE                                PPOT1189
110900           MOVE 'NON ZERO SQLCODE IN DV PPA DELETE'               PPOT1189
111000                 TO WS-MESSAGE-TEXT                               PPOT1189
111100           PERFORM 7000-BUILD-MESSAGE                             PPOT1189
111200        END-IF                                                    PPOT1189
111300     END-IF.                                                      PPOT1189
114930     EJECT                                                        PPOT1189
115000 7000-BUILD-MESSAGE        SECTION.                               PPOT1189
115100***********************************************************       PPOT1189
115200*      PRINT MESSAGES                                     *       PPOT1189
115300***********************************************************       PPOT1189
115400                                                                  PPOT1189
115500     IF   WS-PRINT-LINES-RPT > MAX-LINES-PPA-PAGE                 PPOT1189
115600          PERFORM 7050-BUILD-MESSAGE-HDR                          PPOT1189
115700          MOVE WS-MESSAGE TO PRINT-REC                            PPOT1189
115800          WRITE PRINT-REC AFTER ADVANCING +1                      PPOT1189
115900          ADD +1 TO WS-PRINT-LINES-RPT                            PPOT1189
116000     ELSE                                                         PPOT1189
116100          MOVE WS-MESSAGE TO PRINT-REC                            PPOT1189
116200          WRITE PRINT-REC AFTER ADVANCING +1                      PPOT1189
116300          ADD +1 TO WS-PRINT-LINES-RPT                            PPOT1189
116400     END-IF.                                                      PPOT1189
116401                                                                  PPOT1189
116402     IF FATAL-ERROR                                               PPOT1189
116410        MOVE +9 TO RETURN-CODE                                    PPOT1189
116420     END-IF.                                                      PPOT1189
116500                                                                  PPOT1189
116600 7000-EXIT.  EXIT.                                                PPOT1189
116700                                                                  PPOT1189
116800 7050-BUILD-MESSAGE-HDR    SECTION.                               PPOT1189
116900                                                                  PPOT1189
117000     MOVE 'OT11892' TO STND-RPT-ID.                               PPOT1189
117100     MOVE '            WARNINGS AND MESSAGES' TO STND-RPT-TTL.    PPOT1189
117200     MOVE SPACES TO STND-RPT-COMMENT                              PPOT1189
117300                    STND-DATE2                                    PPOT1189
117400                    STND-DATE2-TTL.                               PPOT1189
117500     MOVE STND-PAGE-NO TO  WS-SAVE-PAGE-NO.                       PPOT1189
117600     ADD +1 TO WS-ERROR-PAGE-NO.                                  PPOT1189
117700     MOVE WS-ERROR-PAGE-NO TO STND-PAGE-NO.                       PPOT1189
117800     INSPECT STND-PAGE-NO REPLACING LEADING ZEROS BY SPACE.       PPOT1189
117900     MOVE STND-RPT-HD1 TO PRINT-REC.                              PPOT1189
118000     WRITE PRINT-REC AFTER ADVANCING NEW-PAGE.                    PPOT1189
118100     MOVE WS-SAVE-PAGE-NO TO STND-PAGE-NO.                        PPOT1189
118200                                                                  PPOT1189
118300     MOVE STND-RPT-HD2 TO PRINT-REC.                              PPOT1189
118400     WRITE PRINT-REC AFTER ADVANCING +1.                          PPOT1189
118500                                                                  PPOT1189
118600     MOVE STND-RPT-HD3 TO PRINT-REC.                              PPOT1189
118700     WRITE PRINT-REC AFTER ADVANCING +1.                          PPOT1189
118800                                                                  PPOT1189
118900     MOVE SPACES TO PRINT-REC.                                    PPOT1189
119000     WRITE PRINT-REC AFTER ADVANCING +1.                          PPOT1189
119100     MOVE +4 TO WS-PRINT-LINES-RPT.                               PPOT1189
119200                                                                  PPOT1189
119300 7050-EXIT. EXIT.                                                 PPOT1189
119400     EJECT                                                        PPOT1189
119500                                                                  PPOT1189
121600 8100-UPDATE-BEN-ROW            SECTION.                          PPOT1189
121700***********************************************************       PPOT1189
121800*    UPDATE THREE PLAN CODES                              *       PPOT1189
121900***********************************************************       PPOT1189
122000     MOVE 'UPDATE BEN ROW'      TO DB2MSG-TAG.                    PPOT1189
122100                                                                  PPOT1189
122200     EXEC SQL                                                     PPOT1189
122300       UPDATE PPPVBEN2_BEN                                        PPOT1189
122400         SET DENTAL_PLAN =                                        PPOT1189
122401                     :BEN-ROW-FOR-UPDATE.DENTAL-PLAN              PPOT1189
122410            ,HLTH_PLAN   =                                        PPOT1189
122411                     :BEN-ROW-FOR-UPDATE.HLTH-PLAN                PPOT1189
122420            ,VIS_PLAN      =                                      PPOT1189
122430                     :BEN-ROW-FOR-UPDATE.VIS-PLAN                 PPOT1189
122500         WHERE EMPLOYEE_ID = :WS-EMPLOYEE-ID                      PPOT1189
122600     END-EXEC.                                                    PPOT1189
122700                                                                  PPOT1189
122800     IF SQLCODE NOT = 0                                           PPOT1189
122900        SET FATAL-ERROR TO TRUE                                   PPOT1189
123000        MOVE 'NON ZERO SQLCODE IN UPDATE ROW BEN '                PPOT1189
123100              TO WS-MESSAGE-TEXT                                  PPOT1189
123200        PERFORM 7000-BUILD-MESSAGE                                PPOT1189
123300     END-IF.                                                      PPOT1189
123400                                                                  PPOT1189
123450 8200-UPDATE-PER-ROW       SECTION.                               PPO1183A
123460***********************************************************       PPO1183A
123470*    UPDATE CHANGED AT AND CHANGED BY ON EDB              *       PPO1183A
123480***********************************************************       PPO1183A
123490     MOVE 'UPDATE PER ROW'      TO DB2MSG-TAG.                    PPO1183A
123491                                                                  PPO1183A
123492     EXEC SQL                                                     PPO1183A
123493       UPDATE PPPVPER1_PER                                        PPO1183A
123494         SET EMP_CHANGED_AT = :LUW-TIMESTAMP-X26                  PPO1183A
123495            ,EMP_CHANGED_BY = :WS-CHANGED-BY                      PPO1183A
123496         WHERE EMPLOYEE_ID  = :WS-EMPLOYEE-ID                     PPO1183A
123497     END-EXEC.                                                    PPO1183A
123498                                                                  PPO1183A
123499     IF SQLCODE NOT = 0                                           PPO1183A
123500        SET FATAL-ERROR TO TRUE                                   PPO1183A
123510        MOVE 'NON ZERO SQLCODE IN UPDATE ROW PER '                PPO1183A
123520              TO WS-MESSAGE-TEXT                                  PPO1183A
123530        PERFORM 7000-BUILD-MESSAGE                                PPO1183A
123540     END-IF.                                                      PPO1183A
123550     EJECT                                                        PPO1183A
126600                                                                  PPOT1189
126620 8300-OPEN-DEF-CURSOR      SECTION.                               PPOT1189
126621***********************************************************       PPOT1189
126622*    OPEN MAIN DEF_CURSOR                                 *       PPOT1189
126623***********************************************************       PPOT1189
126630                                                                  PPOT1189
126640     MOVE 'OPEN MAIN CURSOR' TO DB2MSG-TAG                        PPOT1189
126650     EXEC SQL                                                     PPOT1189
126660       OPEN DEF_CURSOR                                            PPOT1189
126670     END-EXEC.                                                    PPOT1189
126680                                                                  PPOT1189
126700 8310-FETCH-DEF-CURSOR     SECTION.                               PPOT1189
126710***********************************************************       PPOT1189
126720*    FETCH MAIN DEF_CURSOR                                *       PPOT1189
126730***********************************************************       PPOT1189
126800                                                                  PPOT1189
126900     MOVE 'FETCH MAIN CURSOR' TO DB2MSG-TAG.                      PPOT1189
127000     EXEC SQL                                                     PPOT1189
127100       FETCH DEF_CURSOR                                           PPOT1189
127200       INTO :WS-EMPLOYEE-ID                                       PPOT1189
127300     END-EXEC                                                     PPOT1189
127400                                                                  PPOT1189
127500     IF SQLCODE = +100                                            PPOT1189
127600        SET EOF-DEF-CURSOR TO TRUE                                PPOT1189
127700     END-IF.                                                      PPOT1189
127800                                                                  PPOT1189
127900 8320-CLOSE-DEF-CURSOR     SECTION.                               PPOT1189
127910***********************************************************       PPOT1189
127920*    CLOSE MAIN DEF_CURSOR                                *       PPOT1189
127930***********************************************************       PPOT1189
128000                                                                  PPOT1189
128100     MOVE 'CLOSE MAIN CURSOR' TO DB2MSG-TAG                       PPOT1189
128200     EXEC SQL                                                     PPOT1189
128300       CLOSE DEF_CURSOR                                           PPOT1189
128400     END-EXEC.                                                    PPOT1189
128410     EJECT                                                        PPO1183A
128500                                                                  PPOT1189
128510 8400-OPEN-PPA-CURSOR      SECTION.                               PPOT1189
128520***********************************************************       PPOT1189
128530*    OPEN PPA_CURSOR                                      *       PPOT1189
128540***********************************************************       PPOT1189
128550                                                                  PPOT1189
128560     MOVE 'OPEN PPA CURSOR' TO DB2MSG-TAG                         PPOT1189
128570     EXEC SQL                                                     PPOT1189
128580       OPEN PPA_CURSOR                                            PPOT1189
128590     END-EXEC.                                                    PPOT1189
128591                                                                  PPOT1189
128592 8410-FETCH-PPA-CURSOR     SECTION.                               PPOT1189
128593***********************************************************       PPOT1189
128594*    FETCH PPA_CURSO                                      *       PPOT1189
128595***********************************************************       PPOT1189
128596                                                                  PPOT1189
128597     MOVE 'FETCH PPA CURSOR' TO DB2MSG-TAG.                       PPOT1189
128598     EXEC SQL                                                     PPOT1189
128599       FETCH PPA_CURSOR                                           PPOT1189
128606       INTO                                                       PPOT1189
128607         :PPA-BENEFIT-TYPE                                        PPOT1189
128608        ,:PPA-PAY-CYCLE                                           PPOT1189
128609        ,:PPA-PAY-END-DATE                                        PPOT1189
128610        ,:PPA-PLAN-CODE                                           PPOT1189
128611        ,:PPA-COVERAGE                                            PPOT1189
128612        ,:PPA-FLAG                                                PPOT1189
128613     END-EXEC                                                     PPOT1189
128620                                                                  PPOT1189
128630     IF SQLCODE = +100                                            PPOT1189
128640        SET EOF-PPA-CURSOR TO TRUE                                PPOT1189
128650     END-IF.                                                      PPOT1189
128660                                                                  PPOT1189
128670 8420-CLOSE-PPA-CURSOR     SECTION.                               PPOT1189
128680***********************************************************       PPOT1189
128690*    CLOSE PPA_CURSOR                                     *       PPOT1189
128691***********************************************************       PPOT1189
128692                                                                  PPOT1189
128693     MOVE 'CLOSE PPA CURSOR' TO DB2MSG-TAG                        PPOT1189
128694     EXEC SQL                                                     PPOT1189
128695       CLOSE PPA_CURSOR                                           PPOT1189
128696     END-EXEC.                                                    PPOT1189
128697     EJECT                                                        PPOT1189
128700                                                                  PPOT1189
130500 8500-SELECT-BEN-ROW       SECTION.                               PPOT1189
130600***********************************************************       PPOT1189
130700*    SELECT BEN-ROW DATA                                  *       PPOT1189
130800***********************************************************       PPOT1189
130900                                                                  PPOT1189
131000     MOVE 'SELECT BEN DATA' TO DB2MSG-TAG.                        PPOT1189
131100     EXEC SQL                                                     PPOT1189
131200       SELECT                                                     PPOT1189
131210          DENTAL_PLAN                                             PPOT1189
131220         ,HLTH_PLAN                                               PPOT1189
131230         ,VIS_PLAN                                                PPOT1189
131240         ,PIE_END_DATE                                            PPOT1189
131300       INTO                                                       PPOT1189
131310         :BEN-ROW.DENTAL-PLAN                                     PPOT1189
131330        ,:BEN-ROW.HLTH-PLAN                                       PPOT1189
131350        ,:BEN-ROW.VIS-PLAN                                        PPOT1189
131360        ,:BEN-ROW.PIE-END-DATE                                    PPOT1189
131400       FROM PPPVBEN1_BEN                                          PPOT1189
131500       WHERE EMPLOYEE_ID = :WS-EMPLOYEE-ID                        PPOT1189
131600     END-EXEC.                                                    PPOT1189
131700                                                                  PPOT1189
131710     IF SQLCODE = ZERO                                            PPOT1189
131800        SET BEN-ROW-OK TO TRUE                                    PPOT1189
131810        MOVE DENTAL-PLAN OF BEN-ROW TO                            PPOT1189
131811             DENTAL-PLAN OF BEN-ROW-FOR-UPDATE                    PPOT1189
131812        MOVE HLTH-PLAN OF BEN-ROW TO                              PPOT1189
131813             HLTH-PLAN OF BEN-ROW-FOR-UPDATE                      PPOT1189
131814        MOVE VIS-PLAN OF BEN-ROW TO                               PPOT1189
131815             VIS-PLAN OF BEN-ROW-FOR-UPDATE                       PPOT1189
131900     ELSE                                                         PPOT1189
132000        SET BEN-ROW-MISSING TO TRUE                               PPOT1189
132100     END-IF.                                                      PPOT1189
132200                                                                  PPOT1189
132300 8600-SELECT-PER-ROW       SECTION.                               PPOT1189
132400***********************************************************       PPOT1189
132500*    SELECT PER-ROW DATA                                  *       PPOT1189
132600***********************************************************       PPOT1189
132700                                                                  PPOT1189
132800     MOVE 'SELECT PER DATA' TO DB2MSG-TAG.                        PPOT1189
132900     EXEC SQL                                                     PPOT1189
133000       SELECT EMP_NAME                                            PPOT1189
133010             ,EMP_STATUS                                          PPOT1189
133020             ,HIRE_DATE                                           PPOT1189
133100       INTO :EMP-NAME                                             PPOT1189
133110           ,:EMP-STATUS                                           PPOT1189
133120           ,:HIRE-DATE                                            PPOT1189
133200       FROM PPPVPER1_PER                                          PPOT1189
133300       WHERE EMPLOYEE_ID = :WS-EMPLOYEE-ID                        PPOT1189
133600     END-EXEC.                                                    PPOT1189
133700                                                                  PPOT1189
133800     IF SQLCODE NOT = ZERO                                        PPOT1189
133900        MOVE SPACES TO EMP-NAME, EMP-STATUS                       PPOT1189
133910        MOVE XDC3-LOW-ISO-DATE TO HIRE-DATE                       PPOT1189
134000     END-IF.                                                      PPOT1189
137500     EJECT                                                        PPOT1189
137600 9000-FINALIZATION         SECTION.                               PPOT1189
137700***********************************************************       PPOT1189
137800*                    F I N A L I Z E                      *       PPOT1189
137900***********************************************************       PPOT1189
138000                                                                  PPOT1189
138100     IF UPDATE-REQUESTED                                          PPOT1189
138200        CLOSE EDBCHG                                              PPOT1189
138300     END-IF.                                                      PPOT1189
138400                                                                  PPOT1189
138500     CLOSE PRINT-FILE.                                            PPOT1189
138600     CLOSE CARDFILE.                                              PPOT1189
138700                                                                  PPOT1189
138800 DATE-CONVERSION           SECTION.         COPY CPPDXDC3.        PPOT1189
138900                                                                  PPOT1189
139000*999999-SQL-ERROR.                                                PPOT1189
139100     EXEC SQL                                                     PPOT1189
139200          INCLUDE CPPDXP99                                        PPOT1189
139300     END-EXEC.                                                    PPOT1189
139400     IF NOT HERE-BEFORE                                           PPOT1189
139500         SET HERE-BEFORE TO TRUE                                  PPOT1189
139600         MOVE 'UPDATE ROLLBACK' TO DB2MSG-TAG                     PPOT1189
139700         EXEC SQL                                                 PPOT1189
139800             ROLLBACK WORK                                        PPOT1189
139900         END-EXEC                                                 PPOT1189
140000     END-IF.                                                      PPOT1189
140100     MOVE +9               TO RETURN-CODE.                        PPOT1189
140200     STOP RUN.                                                    PPOT1189
140300********  END OF PROGRAM PPOT1189 ********                        PPOT1189
