000010*===========================================================%     UCSD9999
000020*=  UCSD LOCAL CHANGES HAVE BEEN IMPLEMENTED.              =%     UCSD9999
000030*=  COLUMN 73 THRU 80 DENOTES CHANGE NUMBER - UCSD9999     =%     UCSD9999
000040*=                                                         =%     UCSD9999
000050*===========================================================%     UCSD9999
000060*==========================================================%      UCSDXXXX
000070*=    PROGRAM: PPOT1122                                   =%      UCSDXXXX
000080*=    CHANGE #              PROJ. REQUEST:                =%      UCSDXXXX
000090*=    NAME:G. CHIU          MODIFICATION DATE:05/14/97    =%      UCSDXXXX
000091*=                                                        =%      UCSDXXXX
000092*=    DESCRIPTION                                         =%      UCSDXXXX
000093*=    CHANGE UPTE GTN TO LOCAL GTN NUMBER - 164           =%      UCSDXXXX
000094*=                                                        =%      UCSDXXXX
000095*=                                                        =%      UCSDXXXX
000096*===========================================================%     UCSDXXXX
000100**************************************************************/   34271122
000200*  PROGRAM: PPOT1122                                         */   34271122
000300*  RELEASE: ___1122______ SERVICE REQUEST(S): ____13427____  */   34271122
000400*  NAME:______M SANO_____ CREATION DATE:      ___04/29/97__  */   34271122
000500*  DESCRIPTION:                                              */   34271122
000600*    ONE-TIME PROGRAM TO CREATE NEW UPTE DEDUCTIONS.         */   34271122
000700* !!! NOTE !!! -  CAMPUSES MUST ESTABLISH THE OLD FLAT RATE  */   34271122
000800* !!! UPTE GTN NUMBER IN WORKING STORAGE BEFORE              */   34271122
000900* !!! COMPILING THIS PROGRAM.                                */   34271122
001000* !!! OLD UPTE GTN NUMBER  IN THIS PROGRAM IS *FOR TESTING   */   34271122
001100* !!! ONLY*                                                  */   34271122
001200**************************************************************/   34271122
001300***************************************************************   PPOT1122
001400 IDENTIFICATION DIVISION.                                         PPOT1122
001500 PROGRAM-ID. PPOT1122.                                            PPOT1122
001600 AUTHOR.  M SANO                                                  PPOT1122
001700 DATE-WRITTEN.    APRIL, 1997.                                    PPOT1122
001800                                                                  PPOT1122
001900 DATE-COMPILED.                                                   PPOT1122
002000                                                                  PPOT1122
002100*REMARKS.                                                         PPOT1122
002200******************************************************************PPOT1122
002300*                                                                 PPOT1122
002400* THE PURPOSE OF THIS ONE-TIME PROGRAM IS TO SELECT EACH EMPLOYEE PPOT1122
002500* CURRENTLY ENROLLED IN UPTE DUES.  IF THE EMPLOYEE'S EMPLOYEE    PPOT1122
002600* UNIT CODE (EDB0255) IS NOT 'TX', A NEW DEDUCTION WILL           PPOT1122
002700* BE ESTABLISHED WITH A 'G' BALANCE OF 1.00.  THE 'G' BALANCE FOR PPOT1122
002800* THE OLD DEDUCTION WILL BE DELETED.                              PPOT1122
002900*                                                                 PPOT1122
003000* AN  ECF RECORD WILL BE WRITTEN FOR EACH DATA CHANGE.            PPOT1122
003100******************************************************************PPOT1122
003200                                                                  PPOT1122
003300 ENVIRONMENT DIVISION.                                            PPOT1122
003400                                                                  PPOT1122
003500 CONFIGURATION SECTION.                                           PPOT1122
003600 SPECIAL-NAMES.                                                   PPOT1122
003700                                                                  PPOT1122
003800     C01 IS NEW-PAGE.                                             PPOT1122
003900     EJECT                                                        PPOT1122
004000 INPUT-OUTPUT SECTION.                                            PPOT1122
004100 FILE-CONTROL.                                                    PPOT1122
004200                                                                  PPOT1122
004300     SELECT EDBCHG               COPY CPSLXCHG.                   PPOT1122
004400     EJECT                                                        PPOT1122
004500******************************************************************PPOT1122
004600*                                                                *PPOT1122
004700*                         DATA DIVISION                          *PPOT1122
004800*                                                                *PPOT1122
004900******************************************************************PPOT1122
005000 DATA DIVISION.                                                   PPOT1122
005100 FILE SECTION.                                                    PPOT1122
005200                                                                  PPOT1122
005300 FD  EDBCHG                    COPY  CPFDXCHG                     PPOT1122
005400         REPLACING EDB-CHANGE-RECORD BY OCHG-EDB-CHANGE-RECORD.   PPOT1122
005500 01  OCHG-EDB-CHANGE-RECORD.   COPY CPWSXCHG                      PPOT1122
005600         REPLACING XCHG-FIXED-AREA     BY OCHG-FIXED-AREA         PPOT1122
005700                   XCHG-EMPLOYEE-ID    BY OCHG-EMPLOYEE-ID        PPOT1122
005800                   XCHG-DATA-ELEM-NO   BY OCHG-DATA-ELEM-NO       PPOT1122
005900                   XCHG-OCCURENCE-KEY  BY OCHG-OCCURENCE-KEY      PPOT1122
006000                   XCHG-PROCESS-ID     BY OCHG-PROCESS-ID         PPOT1122
006100                   XCHG-CHANGE-SOURCE  BY OCHG-CHANGE-SOURCE      PPOT1122
006200                   XCHG-TIMESTAMP      BY OCHG-TIMESTAMP          PPOT1122
006300                   XCHG-ODO-LENGTHS    BY OCHG-ODO-LENGTHS        PPOT1122
006400                   XCHG-OLD-VAL-LNGTH  BY OCHG-OLD-VAL-LNGTH      PPOT1122
006500                   XCHG-NEW-VAL1-LNGTH BY OCHG-NEW-VAL1-LNGTH     PPOT1122
006600                   XCHG-NEW-VAL2-LNGTH BY OCHG-NEW-VAL2-LNGTH     PPOT1122
006700                   XCHG-OLD-VALUE      BY OCHG-OLD-VALUE          PPOT1122
006800                   XCHG-OLD-VAL        BY OCHG-OLD-VAL            PPOT1122
006900                   XCHG-NEW-VALUE1     BY OCHG-NEW-VALUE1         PPOT1122
007000                   XCHG-NEW-VAL1       BY OCHG-NEW-VAL1           PPOT1122
007100                   XCHG-NEW-VALUE2     BY OCHG-NEW-VALUE2         PPOT1122
007200                   XCHG-NEW-VAL2       BY OCHG-NEW-VAL2.          PPOT1122
007300                                                                  PPOT1122
007400                                                                  PPOT1122
007500     EJECT                                                        PPOT1122
007600******************************************************************PPOT1122
007700*                                                                *PPOT1122
007800*                     WORKING-STORAGE SECTION                    *PPOT1122
007900*                                                                *PPOT1122
008000******************************************************************PPOT1122
008100 WORKING-STORAGE SECTION.                                         PPOT1122
008200                                                                  PPOT1122
008300 01  WS-GTN-NUMBERS.                                              PPOT1122
008400****** THE OLD UPTE GTN MUST BE ESTABLISHED BY THE CAMPUS*********PPOT1122
008500****** THIS VALUE IS FOR TEST PURPOSES ONLY              *********PPOT1122
008600     05  WS-GTN-UPTE-OLD         PIC  X(03) VALUE '164'.          UCSDXXXX
008610*****05  WS-GTN-UPTE-OLD         PIC  X(03) VALUE '149'.          PPOT1122
008700****** ALL CAMPUSES SHOULD USE THIS NEW UPTE GTN       ***********PPOT1122
008800     05  WS-GTN-UPTE-NEW         PIC  X(03) VALUE '370'.          PPOT1122
008900                                                                  PPOT1122
009000 01  WS-OCC-KEY.                                                  PPOT1122
009100     05  WS-GTN-NUM              PIC X(03).                       PPOT1122
009200     05  WS-GTN-IND              PIC X(01) VALUE 'G'.             PPOT1122
009300                                                                  PPOT1122
009400 01  WS-FLAGS.                                                    PPOT1122
009500     05  WS-ABEND-FLAG           PIC S9(01) VALUE +0.             PPOT1122
009600         88  WS-ABEND                       VALUE +1.             PPOT1122
009700                                                                  PPOT1122
009800 01  WS-MISC.                                                     PPOT1122
009900     05  WS-PGM-ID.                                               PPOT1122
010000         10  FILLER              PIC X(07)  VALUE 'POT1122'.      PPOT1122
010100         10  DATE-CMPLD          PIC X(08)  VALUE '04/10/97'.     PPOT1122
010200     05  STD-SCR-PROCESS-DATE    PIC X(06)  VALUE ZEROS.          PPOT1122
010300     05  WS-EMPLOYEE-ID          PIC X(09)  VALUE SPACES.         PPOT1122
010400     05  WS-LAST-EMPLOYEE-ID     PIC X(09)  VALUE SPACES.         PPOT1122
010500     05  EMP-CURSOR-OPEN-SW      PIC X(01)  VALUE SPACE.          PPOT1122
010600         88  EMP-CURSOR-OPEN                VALUE '1'.            PPOT1122
010700     05  EOF-EMP-DATA-SW         PIC X(01)  VALUE SPACE.          PPOT1122
010800         88  EOF-EMP-DATA                   VALUE '1'.            PPOT1122
010900     05  HERE-BEFORE-SW          PIC X(01)  VALUE SPACE.          PPOT1122
011000         88 HERE-BEFORE                     VALUE 'Y'.            PPOT1122
011100     05  WS-NUMBER-EDITED        PIC S9(09)V9(09) USAGE COMP-3    PPOT1122
011200                                                  VALUE ZERO.     PPOT1122
011300     05  WS-LINES                PIC 9(03)  VALUE 002.            PPOT1122
011400     05  WS-SEE-OPERATIONS       PIC 9(01)  VALUE 8.              PPOT1122
011500                                                                  PPOT1122
011600 01  WS-CRS-ROW-DATA.                                             PPOT1122
011700     10 WS-CSR-EMPLOYEE-ID   PIC X(9).                            PPOT1122
011800     10 WS-CSR-EMP-REL-UNIT  PIC X(2).                            PPOT1122
011900     10 WS-CSR-GTN-NUMBER    PIC X(3).                            PPOT1122
012000     10 WS-CSR-GTN-IND       PIC X(1).                            PPOT1122
012100     10 WS-CSR-GTN-AMT       PIC S9999999V99 USAGE COMP-3.        PPOT1122
012200                                                                  PPOT1122
012300 01  WS-DATE-AND-TIME.                                            PPOT1122
012400     COPY CPWSTIME.                                               PPOT1122
012500     05  WS-TIMESTAMP.                                            PPOT1122
012600         10 WS-CC           PIC X(02).                            PPOT1122
012700         10 WS-YY           PIC X(02).                            PPOT1122
012800         10 WS-MM           PIC X(02).                            PPOT1122
012900         10 WS-DD           PIC X(02).                            PPOT1122
013000         10 WS-HH           PIC X(02).                            PPOT1122
013100         10 WS-MN           PIC X(02).                            PPOT1122
013200         10 WS-SS           PIC X(02).                            PPOT1122
013300                                                                  PPOT1122
013400 01  WS-ACCUMULATORS             COMP-3.                          PPOT1122
013500     05  WS-EMP-TOTAL            PIC S9(06) VALUE +0.             PPOT1122
013600     05  WS-TOTAL-ECF-WRITES     PIC S9(06) VALUE +0.             PPOT1122
013700     05  WS-PAGE-NUMBER-RPT      PIC S9(06) VALUE +0.             PPOT1122
013800     05  RPT1-PAGE-NO            PIC S9(06) VALUE +0.             PPOT1122
013900     05  RPT1-LINES-PER-PAGE     PIC S9(04) VALUE +60.            PPOT1122
014000     05  WS-PRINT-LINES-RPT      PIC S9(06) VALUE +56.            PPOT1122
014100                                                                  PPOT1122
014200                                                                  PPOT1122
014300     EJECT                                                        PPOT1122
014400***********************************************************       PPOT1122
014500*        H E A D E R   L I N E S                          *       PPOT1122
014600***********************************************************       PPOT1122
014700                                                                  PPOT1122
014800 01  WA-REPORT-HEADER.                                            PPOT1122
014900     03  WA-HEADER-1.                                             PPOT1122
015000         05 WA-T1-CC             PIC X(01).                       PPOT1122
015100         05 FILLER               PIC X(09)                        PPOT1122
015200                VALUE 'EMP. I.D.'.                                PPOT1122
015300         05 FILLER               PIC X(05)  VALUE SPACES.         PPOT1122
015400         05 FILLER               PIC X(17)                        PPOT1122
015500                VALUE 'EMPLOYEE NAME'.                            PPOT1122
015600         05 FILLER               PIC X(14)  VALUE SPACES.         PPOT1122
015700         05 FILLER               PIC X(10)                        PPOT1122
015800                VALUE 'COVERAGE  '.                               PPOT1122
015900         05 FILLER               PIC X(09)                        PPOT1122
016000                VALUE 'HOME DEPT'.                                PPOT1122
016100         05 FILLER               PIC X(02)  VALUE SPACES.         PPOT1122
016200         05 FILLER               PIC X(14)                        PPOT1122
016300                VALUE 'HOME DEPT NAME'.                           PPOT1122
016400         05 FILLER               PIC X(21)  VALUE SPACES.         PPOT1122
016500         05 FILLER               PIC X(31).                       PPOT1122
016600***********************************************************       PPOT1122
016700*        D E T A I L   L I N E S                          *       PPOT1122
016800***********************************************************       PPOT1122
016900                                                                  PPOT1122
017000 01  WA-DETAIL-LINE.                                              PPOT1122
017100     05  WA-CC1                   PIC X(01).                      PPOT1122
017200     05  WA-EMP-ID                PIC X(09).                      PPOT1122
017300     05  FILLER                   PIC X(05).                      PPOT1122
017400     05  WA-EMP-NAME              PIC X(26).                      PPOT1122
017500     05  FILLER                   PIC X(05).                      PPOT1122
017600     05  WA-COVERAGE              PIC X(03).                      PPOT1122
017700     05  FILLER                   PIC X(07).                      PPOT1122
017800     05  WA-HOME-DEPT-NUMBER      PIC X(06).                      PPOT1122
017900     05  FILLER                   PIC X(05).                      PPOT1122
018000     05  WA-HOME-DEPT-NAME        PIC X(30).                      PPOT1122
018100     05  FILLER                   PIC X(40).                      PPOT1122
018200                                                                  PPOT1122
018300 01  WA-TOTAL-LINE.                                               PPOT1122
018400     05  WA-CC2                   PIC X(01).                      PPOT1122
018500     05  FILLER                   PIC X(16)                       PPOT1122
018600                VALUE 'EMPLOYEE COUNT'.                           PPOT1122
018700     05  FILLER                   PIC X(02) VALUE SPACES.         PPOT1122
018800     05  WA-EMP-COUNT             PIC ZZZ,ZZ9.                    PPOT1122
018900     05  FILLER                   PIC X(107) VALUE SPACES.        PPOT1122
019000     EJECT                                                        PPOT1122
019100***********************************************************       PPOT1122
019200*        C O N T R O L   T O T A L S   L I N E S          *       PPOT1122
019300***********************************************************       PPOT1122
019400                                                                  PPOT1122
019500 01  WA-REPORT-TOTAL.                                             PPOT1122
019600     05  WA-T1-CC                PIC X(01).                       PPOT1122
019700     05  FILLER                  PIC X(15)                        PPOT1122
019800            VALUE '*** TOTALS *** '.                              PPOT1122
019900     05  FILLER                  PIC X(117)                       PPOT1122
020000            VALUE  SPACES.                                        PPOT1122
020100 01  WA-REPORT-TOTAL-1.                                           PPOT1122
020200     05  WA-T1-CC                PIC X(01).                       PPOT1122
020300     05  FILLER                  PIC X(41)                        PPOT1122
020400            VALUE 'EMPLS READ FROM EDB PPPPER: '.                 PPOT1122
020500     05  WA-PER-TOTAL            PIC ZZZ,ZZ9.                     PPOT1122
020600     05  FILLER                  PIC X(84)                        PPOT1122
020700            VALUE  SPACES.                                        PPOT1122
020800 01  WA-REPORT-TOTAL-5.                                           PPOT1122
020900     05  WA-T1-CC                PIC X(01).                       PPOT1122
021000     05  FILLER                  PIC X(41)                        PPOT1122
021100            VALUE 'TOTAL RECS ON ECF FILE:      '.                PPOT1122
021200     05  WA-TOTAL-ECF-WRITES     PIC ZZZ,ZZZ.                     PPOT1122
021300     05  FILLER                  PIC X(84)                        PPOT1122
021400            VALUE  SPACES.                                        PPOT1122
021500                                                                  PPOT1122
021600     EJECT                                                        PPOT1122
021700***********************************************************       PPOT1122
021800*        S T A N D A R D    C O P Y   M E M B E R S       *       PPOT1122
021900***********************************************************       PPOT1122
022000                                                                  PPOT1122
022100                                                                  PPOT1122
022200 01  XWHC-COMPILE-WORK-AREA.          COPY CPWSXWHC.              PPOT1122
022300                                                                  PPOT1122
022400 01  XSCR-SYSTEM-CONTROL-RECORD.      COPY  CPWSXSCR.             PPOT1122
022500                                                                  PPOT1122
022600 01  DATE-CONVERSION-WORK-AREAS.      COPY  CPWSXDC2.             PPOT1122
022700                                                                  PPOT1122
022800 01  EDB-CHANGE-RECORD.               COPY CPWSXCHG.              PPOT1122
022900                                                                  PPOT1122
023000 01  DATE-FORMAT.                     COPY CPWSDATE.              PPOT1122
023100                                                                  PPOT1122
023200 01  STND-RPT-HD.                     COPY CPWSPSHR.              PPOT1122
023300                                                                  PPOT1122
023400 01  PPDB2MSG-INTERFACE.              COPY CPLNKDB2.              PPOT1122
023500     EJECT                                                        PPOT1122
023600******************************************************************PPOT1122
023700*                      SQL WORKING-STORAGE.                      *PPOT1122
023800******************************************************************PPOT1122
023900                                                                  PPOT1122
024000 01  PER-ROW.                                                     PPOT1122
024100     EXEC SQL                                                     PPOT1122
024200         INCLUDE PPPVPER1                                         PPOT1122
024300     END-EXEC.                                                    PPOT1122
024400                                                                  PPOT1122
024500 01  DBL-ROW.                                                     PPOT1122
024600     EXEC SQL                                                     PPOT1122
024700         INCLUDE PPPVDBL1                                         PPOT1122
024800     END-EXEC.                                                    PPOT1122
024900                                                                  PPOT1122
025000 01  DBL-ROW-OUT.                                                 PPOT1122
025100     EXEC SQL                                                     PPOT1122
025200         INCLUDE PPPVDBL2                                         PPOT1122
025300     END-EXEC.                                                    PPOT1122
025400                                                                  PPOT1122
025500 01  HME-ROW-DATA.                                                PPOT1122
025600     EXEC SQL                                                     PPOT1122
025700         INCLUDE PPPVZHME                                         PPOT1122
025800     END-EXEC.                                                    PPOT1122
025900                                                                  PPOT1122
026000 01  SCR-ROW-DATA.                                                PPOT1122
026100     EXEC SQL                                                     PPOT1122
026200         INCLUDE PPPVZSCR                                         PPOT1122
026300     END-EXEC.                                                    PPOT1122
026400                                                                  PPOT1122
026500     EXEC SQL                                                     PPOT1122
026600         INCLUDE SQLCA                                            PPOT1122
026700     END-EXEC.                                                    PPOT1122
026800                                                                  PPOT1122
026900                                                                  PPOT1122
027000     EXEC SQL                                                     PPOT1122
027100          DECLARE CSR_ROW CURSOR FOR                              PPOT1122
027200              SELECT PPPVPER1_PER.EMPLOYEE_ID                     PPOT1122
027300                    ,EMP_REL_UNIT                                 PPOT1122
027400                    ,GTN_NUMBER                                   PPOT1122
027500                    ,GTN_IND                                      PPOT1122
027600                    ,GTN_AMT                                      PPOT1122
027700              FROM PPPVPER1_PER                                   PPOT1122
027800                  ,PPPVDBL1_DBL                                   PPOT1122
027900              WHERE GTN_NUMBER = :WS-GTN-UPTE-OLD                 PPOT1122
028000                AND GTN_IND   = 'G'                               PPOT1122
028100                AND EMP_REL_UNIT  ^= 'TX'                         PPOT1122
028200                AND PPPVPER1_PER.EMPLOYEE_ID =                    PPOT1122
028300                    PPPVDBL1_DBL.EMPLOYEE_ID                      PPOT1122
028400            ORDER BY EMPLOYEE_ID                                  PPOT1122
028500     END-EXEC.                                                    PPOT1122
028600                                                                  PPOT1122
028700                                                                  PPOT1122
028800                                                                  PPOT1122
028900******************************************************************PPOT1122
029000*                      PROCEDURE DIVISION.                       *PPOT1122
029100*                                                                *PPOT1122
029200******************************************************************PPOT1122
029300 PROCEDURE DIVISION.                                              PPOT1122
029400                                                                  PPOT1122
029500     EXEC SQL                                                     PPOT1122
029600         INCLUDE CPPDXE99                                         PPOT1122
029700     END-EXEC.                                                    PPOT1122
029800                                                                  PPOT1122
029900     EJECT                                                        PPOT1122
030000******************************************************************PPOT1122
030100*                       MAIN-ROUTINE                             *PPOT1122
030200******************************************************************PPOT1122
030300                                                                  PPOT1122
030400 0001-MAIN-ROUTINE.                                               PPOT1122
030500                                                                  PPOT1122
030600     PERFORM 1000-INITIALIZATION.                                 PPOT1122
030700                                                                  PPOT1122
030800     IF NOT WS-ABEND                                              PPOT1122
030900        PERFORM 2000-PROCESS-EMPLOYEE                             PPOT1122
031000     END-IF.                                                      PPOT1122
031100                                                                  PPOT1122
031200                                                                  PPOT1122
031300     PERFORM 9000-TERMINATION.                                    PPOT1122
031400                                                                  PPOT1122
031500     IF WS-ABEND                                                  PPOT1122
031600        MOVE WS-SEE-OPERATIONS TO RETURN-CODE                     PPOT1122
031700     END-IF.                                                      PPOT1122
031800     STOP RUN.                                                    PPOT1122
031900                                                                  PPOT1122
032000                                                                  PPOT1122
032100 0001-MAIN-EXIT. EXIT.                                            PPOT1122
032200                                                                  PPOT1122
032300     EJECT                                                        PPOT1122
032400******************************************************************PPOT1122
032500*                       1000-INITIALIZATION                      *PPOT1122
032600******************************************************************PPOT1122
032700                                                                  PPOT1122
032800 1000-INITIALIZATION  SECTION.                                    PPOT1122
032900                                                                  PPOT1122
033000     MOVE 'PPOT1122' TO XWHC-DISPLAY-MODULE                       PPOT1122
033100     COPY CPPDXWHC.                                               PPOT1122
033200                                                                  PPOT1122
033300     INITIALIZE   SCR-ROW-DATA.                                   PPOT1122
033400     MOVE 'PPOT1122' TO DB2MSG-PGM-ID.                            PPOT1122
033500     MOVE WS-PGM-ID        TO STND-PROG-ID.                       PPOT1122
033600     PERFORM CREATE-TIME-STAMP.                                   PPOT1122
033700*-----------------------------------------------------------------PPOT1122
033800*    GET SCR DATA FOR ECF HEADER RECORD.                          PPOT1122
033900*-----------------------------------------------------------------PPOT1122
034000     MOVE 'SELECT SCR ROW' TO DB2MSG-TAG.                         PPOT1122
034100     EXEC SQL                                                     PPOT1122
034200         SELECT                                                   PPOT1122
034300          CHAR(SCR_PROCESS_DATE, ISO)                             PPOT1122
034400         ,CHAR(SCR_PURGE_DATE, ISO)                               PPOT1122
034500         ,CHAR(SCR_CURRENT_DATE, ISO)                             PPOT1122
034600         ,SCR_NEXTCYCLE_MO                                        PPOT1122
034700         ,SCR_NEXTCYCLE_QTR                                       PPOT1122
034800         ,SCR_NEXTCYCLE_YR                                        PPOT1122
034900         ,SCR_NEXTCYCLE_FYR                                       PPOT1122
035000         ,SCR_EDB_GENNUM                                          PPOT1122
035100         INTO                                                     PPOT1122
035200         :SCR-PROCESS-DATE                                        PPOT1122
035300        ,:SCR-PURGE-DATE                                          PPOT1122
035400        ,:SCR-CURRENT-DATE                                        PPOT1122
035500        ,:SCR-NEXTCYCLE-MO                                        PPOT1122
035600        ,:SCR-NEXTCYCLE-QTR                                       PPOT1122
035700        ,:SCR-NEXTCYCLE-YR                                        PPOT1122
035800        ,:SCR-NEXTCYCLE-FYR                                       PPOT1122
035900        ,:SCR-EDB-GENNUM                                          PPOT1122
036000                  FROM PPPVZSCR_SCR                               PPOT1122
036100     END-EXEC.                                                    PPOT1122
036200     IF SQLCODE NOT = ZERO                                        PPOT1122
036300          SET WS-ABEND TO TRUE                                    PPOT1122
036400          DISPLAY  'ERROR IN SCR ROW SELECT'                      PPOT1122
036500          GO TO 1000-INITIALIZATION-EXIT                          PPOT1122
036600     END-IF.                                                      PPOT1122
036700                                                                  PPOT1122
036800     OPEN OUTPUT EDBCHG.                                          PPOT1122
036900                                                                  PPOT1122
037000     INITIALIZE XSCR-SYSTEM-CONTROL-RECORD.                       PPOT1122
037100     MOVE '          SCR' TO XSCR-KEY-AREA.                       PPOT1122
037200     MOVE SCR-PROCESS-DATE OF SCR-ROW-DATA TO DB2-DATE.           PPOT1122
037300     PERFORM CONVERT-DB2-DATE                                     PPOT1122
037400     MOVE WSX-STD-DATE TO STD-SCR-PROCESS-DATE.                   PPOT1122
037500     MOVE STD-SCR-PROCESS-DATE TO XSCR-PROCESS-DATE.              PPOT1122
037600     MOVE SCR-NEXTCYCLE-MO OF SCR-ROW-DATA TO XSCR-NEXT-MONTH.    PPOT1122
037700     MOVE SCR-NEXTCYCLE-QTR OF SCR-ROW-DATA TO XSCR-NEXT-QTR.     PPOT1122
037800     MOVE SCR-NEXTCYCLE-YR OF SCR-ROW-DATA TO XSCR-NEXT-YEAR.     PPOT1122
037900     MOVE SCR-NEXTCYCLE-FYR OF SCR-ROW-DATA TO XSCR-NEXT-FY.      PPOT1122
038000     MOVE 'OT' TO XSCR-LAST-PGM-RUN.                              PPOT1122
038100     MOVE SCR-EDB-GENNUM OF SCR-ROW-DATA TO XSCR-EDB-GEN-NO.      PPOT1122
038200     MOVE SCR-PURGE-DATE OF SCR-ROW-DATA TO DB2-DATE.             PPOT1122
038300     PERFORM CONVERT-DB2-DATE                                     PPOT1122
038400     MOVE WSX-STD-DATE TO XSCR-PURGE-DATE.                        PPOT1122
038500     MOVE SCR-CURRENT-DATE OF SCR-ROW-DATA TO DB2-DATE.           PPOT1122
038600     PERFORM CONVERT-DB2-DATE                                     PPOT1122
038700     MOVE WSX-STD-DATE         TO XSCR-CURRENT-DATE.              PPOT1122
038800                                                                  PPOT1122
038900*-----------------------------------------------------------------PPOT1122
039000*    WRITE THE HEADER CONTROL RECORD TO THE ECF FILE              PPOT1122
039100*-----------------------------------------------------------------PPOT1122
039200     MOVE LOW-VALUES           TO XCHG-ODO-LENGTHS.               PPOT1122
039300     MOVE XSCR-SYSTEM-CONTROL-RECORD  TO EDB-CHANGE-RECORD.       PPOT1122
039400     MOVE LOW-VALUES           TO XCHG-ODO-LENGTHS.               PPOT1122
039500     PERFORM WRITE-OUT-OCHG.                                      PPOT1122
039600                                                                  PPOT1122
039700                                                                  PPOT1122
039800 1000-INITIALIZATION-EXIT. EXIT.                                  PPOT1122
039900                                                                  PPOT1122
040000     EJECT                                                        PPOT1122
040100***********************************************************       PPOT1122
040200*               PROCESS EMPLOYEE LEVEL DATA               *       PPOT1122
040300***********************************************************       PPOT1122
040400 2000-PROCESS-EMPLOYEE  SECTION.                                  PPOT1122
040500                                                                  PPOT1122
040600     PERFORM SQL-OPEN-EMP-CURSOR.                                 PPOT1122
040700     PERFORM SQL-FETCH-EMP-DATA.                                  PPOT1122
040800                                                                  PPOT1122
040900     PERFORM 2100-PROCESS-EMPLOYEES                               PPOT1122
041000                  UNTIL EOF-EMP-DATA.                             PPOT1122
041100     MOVE WS-EMP-TOTAL TO WA-EMP-COUNT.                           PPOT1122
041200                                                                  PPOT1122
041300 2000-EXIT. EXIT.                                                 PPOT1122
041400     EJECT                                                        PPOT1122
041500 2100-PROCESS-EMPLOYEES  SECTION.                                 PPOT1122
041600                                                                  PPOT1122
041700     PERFORM SQL-INSERT-PPPVDBL2.                                 PPOT1122
041800     PERFORM SQL-DELETE-PPPVDBL2.                                 PPOT1122
041900     PERFORM 4000-CREATE-ECF.                                     PPOT1122
042000                                                                  PPOT1122
042100     PERFORM SQL-FETCH-EMP-DATA.                                  PPOT1122
042200                                                                  PPOT1122
042300 2100-EXIT. EXIT.                                                 PPOT1122
042400                                                                  PPOT1122
042500     EJECT                                                        PPOT1122
042600     EJECT                                                        PPOT1122
042700 4000-CREATE-ECF    SECTION.                                      PPOT1122
042800***********************************************************       PPOT1122
042900*      P R O D U C E     C H A N G E       F I L E        *       PPOT1122
043000***********************************************************       PPOT1122
043100                                                                  PPOT1122
043200******************************************************************PPOT1122
043300*    THE NEXT FOUR MOVES ARE NEEDED ONCE IN RECORD               *PPOT1122
043400******************************************************************PPOT1122
043500     INITIALIZE                XCHG-FIXED-AREA.                   PPOT1122
043600     MOVE 'PPOT1122'        TO XCHG-PROCESS-ID.                   PPOT1122
043700     MOVE WS-TIMESTAMP      TO XCHG-TIMESTAMP.                    PPOT1122
043800     MOVE WS-EMPLOYEE-ID    TO XCHG-EMPLOYEE-ID.                  PPOT1122
043900                                                                  PPOT1122
044000     MOVE SPACE TO XCHG-OCCURENCE-KEY.                            PPOT1122
044100     MOVE +10               TO XCHG-OLD-VAL-LNGTH,                PPOT1122
044200                               XCHG-NEW-VAL2-LNGTH.               PPOT1122
044300     MOVE WS-CSR-GTN-AMT    TO WS-NUMBER-EDITED                   PPOT1122
044400     MOVE WS-NUMBER-EDITED  TO XCHG-OLD-VALUE.                    PPOT1122
044500     MOVE ZERO              TO WS-NUMBER-EDITED                   PPOT1122
044600     MOVE WS-NUMBER-EDITED  TO XCHG-NEW-VALUE2.                   PPOT1122
044700     MOVE '6000'            TO XCHG-DATA-ELEM-NO.                 PPOT1122
044800     MOVE WS-GTN-UPTE-OLD   TO WS-GTN-NUM.                        PPOT1122
044900     MOVE WS-OCC-KEY        TO XCHG-OCCURENCE-KEY.                PPOT1122
045000     PERFORM WRITE-OUT-OCHG.                                      PPOT1122
045100                                                                  PPOT1122
045200     MOVE SPACE TO XCHG-OCCURENCE-KEY.                            PPOT1122
045300     MOVE +10               TO XCHG-OLD-VAL-LNGTH,                PPOT1122
045400                               XCHG-NEW-VAL2-LNGTH.               PPOT1122
045500     MOVE ZERO              TO WS-NUMBER-EDITED                   PPOT1122
045600     MOVE WS-NUMBER-EDITED  TO XCHG-OLD-VALUE.                    PPOT1122
045700     MOVE 1                 TO WS-NUMBER-EDITED                   PPOT1122
045800     MOVE WS-NUMBER-EDITED  TO XCHG-NEW-VALUE2.                   PPOT1122
045900     MOVE '6000'            TO XCHG-DATA-ELEM-NO.                 PPOT1122
046000     MOVE WS-GTN-UPTE-NEW   TO WS-GTN-NUM.                        PPOT1122
046100     MOVE WS-OCC-KEY        TO XCHG-OCCURENCE-KEY.                PPOT1122
046200     PERFORM WRITE-OUT-OCHG.                                      PPOT1122
046300     ADD  +1 TO WS-EMP-TOTAL.                                     PPOT1122
046400     EJECT                                                        PPOT1122
046500                                                                  PPOT1122
046600                                                                  PPOT1122
046700 9000-TERMINATION  SECTION.                                       PPOT1122
046800                                                                  PPOT1122
046900******************************************************************PPOT1122
047000*    WRITE TOTALS FOR CONTROL REPORT                             *PPOT1122
047100******************************************************************PPOT1122
047200                                                                  PPOT1122
047300     CLOSE EDBCHG.                                                PPOT1122
047400                                                                  PPOT1122
047500     IF  EMP-CURSOR-OPEN                                          PPOT1122
047600         PERFORM SQL-CLOSE-EMP-CURSOR                             PPOT1122
047700     END-IF.                                                      PPOT1122
047800                                                                  PPOT1122
047900     EJECT                                                        PPOT1122
048000 CREATE-TIME-STAMP      SECTION.                                  PPOT1122
048100     COPY CPPDTIME.                                               PPOT1122
048200     COPY CPPDDATE.                                               PPOT1122
048300     IF PRE-YY < '94'                                             PPOT1122
048400         MOVE '20' TO WS-CC                                       PPOT1122
048500     ELSE                                                         PPOT1122
048600         MOVE '19' TO WS-CC                                       PPOT1122
048700     END-IF.                                                      PPOT1122
048800     MOVE PRE-YY  TO WS-YY.                                       PPOT1122
048900     MOVE PRE-MM  TO WS-MM.                                       PPOT1122
049000     MOVE PRE-DD  TO WS-DD.                                       PPOT1122
049100     MOVE TIME-HH TO WS-HH.                                       PPOT1122
049200     MOVE TIME-MM TO WS-MN.                                       PPOT1122
049300     MOVE TIME-SS TO WS-SS.                                       PPOT1122
049400     EJECT                                                        PPOT1122
049500 DATE-CONVERSION-DB2 SECTION.                                     PPOT1122
049600                                            COPY CPPDXDC2.        PPOT1122
049700     EJECT                                                        PPOT1122
049800**************************************************************/  *PPOT1122
049900*  PROCEDURE DIVISION SQL                                    */  *PPOT1122
050000**************************************************************/  *PPOT1122
050100                                                                  PPOT1122
050200 SQL-OPEN-EMP-CURSOR SECTION.                                     PPOT1122
050300     IF NOT EMP-CURSOR-OPEN                                       PPOT1122
050400     MOVE 'OPEN EMP CURSOR' TO DB2MSG-TAG                         PPOT1122
050500     EXEC SQL                                                     PPOT1122
050600         OPEN CSR_ROW                                             PPOT1122
050700     END-EXEC                                                     PPOT1122
050800     SET EMP-CURSOR-OPEN TO TRUE.                                 PPOT1122
050900                                                                  PPOT1122
051000 SQL-FETCH-EMP-DATA SECTION.                                      PPOT1122
051100                                                                  PPOT1122
051200     MOVE 'FETCH CSR ROW' TO DB2MSG-TAG.                          PPOT1122
051300     EXEC SQL                                                     PPOT1122
051400         FETCH CSR_ROW INTO                                       PPOT1122
051500           :WS-CSR-EMPLOYEE-ID                                    PPOT1122
051600          ,:WS-CSR-EMP-REL-UNIT                                   PPOT1122
051700          ,:WS-CSR-GTN-NUMBER                                     PPOT1122
051800          ,:WS-CSR-GTN-IND                                        PPOT1122
051900          ,:WS-CSR-GTN-AMT                                        PPOT1122
052000     END-EXEC.                                                    PPOT1122
052100                                                                  PPOT1122
052200     IF SQLCODE = +100                                            PPOT1122
052300        SET EOF-EMP-DATA TO TRUE                                  PPOT1122
052400     ELSE                                                         PPOT1122
052500        IF SQLCODE = 0                                            PPOT1122
052600           INITIALIZE DBL-ROW-OUT                                 PPOT1122
052700           MOVE WS-CSR-EMPLOYEE-ID TO WS-EMPLOYEE-ID              PPOT1122
052800                                   EMPLOYEE-ID OF DBL-ROW-OUT     PPOT1122
052900           MOVE WS-GTN-UPTE-NEW TO GTN-NUMBER OF DBL-ROW-OUT      PPOT1122
053000           MOVE 'G'             TO GTN-IND OF DBL-ROW-OUT         PPOT1122
053100           MOVE 1               TO GTN-AMT OF DBL-ROW-OUT         PPOT1122
053200        ELSE                                                      PPOT1122
053300           SET WS-ABEND TO TRUE                                   PPOT1122
053400           SET EOF-EMP-DATA TO TRUE                               PPOT1122
053500        END-IF                                                    PPOT1122
053600     END-IF.                                                      PPOT1122
053700                                                                  PPOT1122
053800 SQL-CLOSE-EMP-CURSOR SECTION.                                    PPOT1122
053900                                                                  PPOT1122
054000     MOVE 'CLOSE EMP CURSOR' TO DB2MSG-TAG.                       PPOT1122
054100     EXEC SQL                                                     PPOT1122
054200         CLOSE CSR_ROW                                            PPOT1122
054300     END-EXEC.                                                    PPOT1122
054400                                                                  PPOT1122
054500 SQL-INSERT-PPPVDBL2   SECTION.                                   PPOT1122
054600                                                                  PPOT1122
054700     MOVE ' INSERT PPPVDBL2 ' TO DB2MSG-TAG.                      PPOT1122
054800     EXEC SQL                                                     PPOT1122
054900         INSERT INTO PPPVDBL2_DBL                                 PPOT1122
055000                 VALUES (:DBL-ROW-OUT)                            PPOT1122
055100     END-EXEC.                                                    PPOT1122
055200                                                                  PPOT1122
055300     IF  SQLCODE    NOT = 0                                       PPOT1122
055400         SET EOF-EMP-DATA TO TRUE                                 PPOT1122
055500         SET WS-ABEND     TO TRUE                                 PPOT1122
055600         DISPLAY 'SQL ERROR IN INSERTING DBL,  SQLCODE = '        PPOT1122
055700                                               SQLCODE            PPOT1122
055800     END-IF.                                                      PPOT1122
055900                                                                  PPOT1122
056000 SQL-DELETE-PPPVDBL2 SECTION.                                     PPOT1122
056100                                                                  PPOT1122
056200     MOVE ' DELETE PPPVDBL2  '   TO DB2MSG-TAG.                   PPOT1122
056300         SKIP1                                                    PPOT1122
056400     EXEC SQL                                                     PPOT1122
056500          DELETE FROM PPPVDBL2_DBL                                PPOT1122
056600              WHERE EMPLOYEE_ID = :WS-EMPLOYEE-ID                 PPOT1122
056700                AND GTN_NUMBER  = :WS-GTN-UPTE-OLD                PPOT1122
056800                AND GTN_IND     = 'G'                             PPOT1122
056900     END-EXEC.                                                    PPOT1122
057000     SKIP1                                                        PPOT1122
057100     IF  SQLCODE  NOT = 0                                         PPOT1122
057200         SET EOF-EMP-DATA TO TRUE                                 PPOT1122
057300         SET WS-ABEND     TO TRUE                                 PPOT1122
057400         DISPLAY 'SQL ERROR IN DELETING DBL,  SQLCODE = '         PPOT1122
057500                                              SQLCODE             PPOT1122
057600     END-IF.                                                      PPOT1122
057700     EJECT                                                        PPOT1122
057800                                                                  PPOT1122
057900     EJECT                                                        PPOT1122
058000                                                                  PPOT1122
058100     EJECT                                                        PPOT1122
058200 WRITE-OUT-OCHG       SECTION.                                    PPOT1122
058300     WRITE OCHG-EDB-CHANGE-RECORD  FROM EDB-CHANGE-RECORD.        PPOT1122
058400     MOVE SPACE TO XCHG-OCCURENCE-KEY.                            PPOT1122
058500     ADD 1 TO WS-TOTAL-ECF-WRITES.                                PPOT1122
058600                                                                  PPOT1122
058700*999999-SQL-ERROR.                                               *PPOT1122
058800******************************************************************PPOT1122
058900*    THIS CODE IS EXECUTED IF A NEGATIVE SQLCODE IS RETURNED     *PPOT1122
059000*    TO THIS PROGRAM. ALL WORK IS ROLLED BACK, RETURN CODE IS    *PPOT1122
059100*    SET TO 9, AND PROCESSING IS HALTED.                         *PPOT1122
059200*                                                                *PPOT1122
059300******************************************************************PPOT1122
059400     EXEC SQL                                                     PPOT1122
059500          INCLUDE CPPDXP99                                        PPOT1122
059600     END-EXEC.                                                    PPOT1122
059700                                                                  PPOT1122
059800     IF NOT HERE-BEFORE                                           PPOT1122
059900         SET HERE-BEFORE TO TRUE                                  PPOT1122
060000         MOVE 'UPDATE ROLLBACK' TO DB2MSG-TAG                     PPOT1122
060100         EXEC SQL                                                 PPOT1122
060200             ROLLBACK WORK                                        PPOT1122
060300         END-EXEC                                                 PPOT1122
060400     END-IF.                                                      PPOT1122
060500     MOVE +9               TO RETURN-CODE.                        PPOT1122
060600                                                                  PPOT1122
060700********  END OF PROGRAM PPOT1122********                         PPOT1122
