000100**************************************************************/   28040987
000200*  PROGRAM: PPOT987B                                         */   28040987
000300*  RELEASE: ___0987______ SERVICE REQUEST(S): ____12804____  */   28040987
000400*  NAME:_____M. SANO_____ MODIFICATION DATE:  ___05/05/95__  */   28040987
000500*  DESCRIPTION: ONE TIME PROGRAM TO CHANGE THE               */   28040987
000600*  DCP PLAN CODE (D.E.# 0129) TO 'S' IF THE                  */   28040987
000700*  RETIREMENT ELIGIBILITY CODE (D.E. # 0122) IS 'H'          */   28040987
000800*  AND THE CURRRENT DCP PLAN CODE IS BLANK.                  */   28040987
000900*                                                            */   28040987
001000**************************************************************/   28040987
001100*****                                                             PPOT987B
001200 IDENTIFICATION DIVISION.                                         PPOT987B
001300 PROGRAM-ID. PPOT987B.                                            PPOT987B
001400 AUTHOR. UCOP                                                     PPOT987B
001500     SKIP1                                                        PPOT987B
001600*REMARKS.                                                         PPOT987B
001700     SKIP1                                                        PPOT987B
001800     EJECT                                                        PPOT987B
001900***********************************************************       PPOT987B
002000*        E N V I R O N M E N T     D I V I S I O N        *       PPOT987B
002100***********************************************************       PPOT987B
002200     SKIP1                                                        PPOT987B
002300 ENVIRONMENT DIVISION.                                            PPOT987B
002400 CONFIGURATION SECTION.                                           PPOT987B
002500     SKIP1                                                        PPOT987B
002600 SPECIAL-NAMES.                                                   PPOT987B
002700     C01 IS NEW-PAGE.                                             PPOT987B
002800     SKIP1                                                        PPOT987B
002900 INPUT-OUTPUT SECTION.                                            PPOT987B
003000 FILE-CONTROL.                                                    PPOT987B
003100     SKIP1                                                        PPOT987B
003200     SELECT PRINT-FILE           ASSIGN TO UT-S-POT987B1.         PPOT987B
003300     SELECT EDBCHG                                                PPOT987B
003400         COPY CPSLXCHG.                                           PPOT987B
003500     EJECT                                                        PPOT987B
003600***********************************************************       PPOT987B
003700*                D A T A     D I V I S I O N              *       PPOT987B
003800***********************************************************       PPOT987B
003900     SKIP1                                                        PPOT987B
004000 DATA DIVISION.                                                   PPOT987B
004100 FILE SECTION.                                                    PPOT987B
004200*                                                                *PPOT987B
004300 FD  EDBCHG                    COPY  CPFDXCHG                     PPOT987B
004400         REPLACING EDB-CHANGE-RECORD BY OCHG-EDB-CHANGE-RECORD.   PPOT987B
004500 01  OCHG-EDB-CHANGE-RECORD.   COPY CPWSXCHG                      PPOT987B
004600         REPLACING XCHG-FIXED-AREA     BY OCHG-FIXED-AREA         PPOT987B
004700                   XCHG-EMPLOYEE-ID    BY OCHG-EMPLOYEE-ID        PPOT987B
004800                   XCHG-DATA-ELEM-NO   BY OCHG-DATA-ELEM-NO       PPOT987B
004900                   XCHG-OCCURENCE-KEY  BY OCHG-OCCURENCE-KEY      PPOT987B
005000                   XCHG-PROCESS-ID     BY OCHG-PROCESS-ID         PPOT987B
005100                   XCHG-CHANGE-SOURCE  BY OCHG-CHANGE-SOURCE      PPOT987B
005200                   XCHG-TIMESTAMP      BY OCHG-TIMESTAMP          PPOT987B
005300                   XCHG-ODO-LENGTHS    BY OCHG-ODO-LENGTHS        PPOT987B
005400                   XCHG-OLD-VAL-LNGTH  BY OCHG-OLD-VAL-LNGTH      PPOT987B
005500                   XCHG-NEW-VAL1-LNGTH BY OCHG-NEW-VAL1-LNGTH     PPOT987B
005600                   XCHG-NEW-VAL2-LNGTH BY OCHG-NEW-VAL2-LNGTH     PPOT987B
005700                   XCHG-OLD-VALUE      BY OCHG-OLD-VALUE          PPOT987B
005800                   XCHG-OLD-VAL        BY OCHG-OLD-VAL            PPOT987B
005900                   XCHG-NEW-VALUE1     BY OCHG-NEW-VALUE1         PPOT987B
006000                   XCHG-NEW-VAL1       BY OCHG-NEW-VAL1           PPOT987B
006100                   XCHG-NEW-VALUE2     BY OCHG-NEW-VALUE2         PPOT987B
006200                   XCHG-NEW-VAL2       BY OCHG-NEW-VAL2.          PPOT987B
006300     SKIP1                                                        PPOT987B
006400 FD  PRINT-FILE                  COPY CPFDXPRT.                   PPOT987B
006500     SKIP1                                                        PPOT987B
006600 WORKING-STORAGE SECTION.                                         PPOT987B
006700     SKIP1                                                        PPOT987B
006800***********************************************************       PPOT987B
006900*        M I S C    W O R K I N G     S T O R A G E       *       PPOT987B
007000***********************************************************       PPOT987B
007100     SKIP1                                                        PPOT987B
007200 01  WX-BEGIN-FLAG               PIC X(32) VALUE                  PPOT987B
007300     'PPOT987B WORK STORAGE HERE'.                                PPOT987B
007400 01  WA-COMPILE-WORK-AREA.       COPY CPWSXWHC.                   PPOT987B
007500 01  WS-WORK-MISC.                                                PPOT987B
007600     05  WS-PGM-ID.                                               PPOT987B
007700         10  FILLER              PIC X(08) VALUE 'PPOT987B'.      PPOT987B
007800         10  DATE-CMPLD          PIC X(07) VALUE '/052395'.       PPOT987B
007900     05  STD-SCR-PROCESS-DATE   PIC X(6) VALUE ZEROS.             PPOT987B
008000     05  WS-CURRENT-DATE.                                         PPOT987B
008100         10  WS-CURR-YRMO.                                        PPOT987B
008200             15  WS-CURR-YY         PIC 99.                       PPOT987B
008300             15  WS-CURR-MM         PIC 99.                       PPOT987B
008400         10  WS-CURR-DD         PIC 99.                           PPOT987B
008500     05  WS-EMPLOYEE-ID         PIC X(09).                        PPOT987B
008600     05  WS-TOTAL-CHANGE        PIC S9(5) COMP VALUE 0.           PPOT987B
008700     05 HERE-BEFORE-SW PIC X(01) VALUE SPACE.                     PPOT987B
008800         88 HERE-BEFORE VALUE 'Y'.                                PPOT987B
008900     05 SCR-ROW-OPEN-SW PIC X(01) VALUE SPACE.                    PPOT987B
009000         88 SCR-ROW-OPEN VALUE 'Y'.                               PPOT987B
009100     05 BEN-ROW-OPEN-SW PIC X(01) VALUE SPACE.                    PPOT987B
009200         88 BEN-ROW-OPEN VALUE 'Y'.                               PPOT987B
009300     05  FIRST-TIME-SW           PIC X(01) VALUE 'Y'.             PPOT987B
009400         88  FIRST-TIME                    VALUE 'Y'.             PPOT987B
009500         88  NOT-FIRST-TIME                VALUE 'N'.             PPOT987B
009600     05  WS-BEN-SQLCODE        PIC S9(09)    COMP.                PPOT987B
009700     05  WS-SCR-SQLCODE        PIC S9(09)    COMP.                PPOT987B
009800     05  MAX-LINES-PER-PAGE       PIC S9(04) VALUE +50.           PPOT987B
009900     05  RPT1-LINES-PER-PAGE      PIC S9(04) VALUE +60.           PPOT987B
010000     05  RPT2-LINES-PER-PAGE      PIC S9(04) VALUE +60.           PPOT987B
010100     05  RPT3-LINES-PER-PAGE      PIC S9(04) VALUE +60.           PPOT987B
010200     05  RPT-EMP-LINES          PIC S9(4) COMP VALUE 0.           PPOT987B
010300     05  RPT-ADVANCE            PIC S9(4) COMP VALUE 0.           PPOT987B
010400     05  WS-ERROR-PAGE-NO         PIC S9(04) VALUE 0.             PPOT987B
010500     05  WS-SAVE-PAGE-NO          PIC S9(04) VALUE 0.             PPOT987B
010600 01  WS-RUN-DATE.                                                 PPOT987B
010700     05  WS-RUN-MM               PIC 99.                          PPOT987B
010800     05  FILLER                  PIC X.                           PPOT987B
010900     05  WS-RUN-DD               PIC 99.                          PPOT987B
011000     05  FILLER                  PIC X.                           PPOT987B
011100     05  WS-RUN-YY               PIC 99.                          PPOT987B
011200 01  WS-DATE-AND-TIME.                                            PPOT987B
011300     COPY CPWSTIME.                                               PPOT987B
011400     05  WS-TIMESTAMP.                                            PPOT987B
011500         10 WS-CC           PIC X(02).                            PPOT987B
011600         10 WS-YY           PIC X(02).                            PPOT987B
011700         10 WS-MM           PIC X(02).                            PPOT987B
011800         10 WS-DD           PIC X(02).                            PPOT987B
011900         10 WS-HH           PIC X(02).                            PPOT987B
012000         10 WS-MN           PIC X(02).                            PPOT987B
012100         10 WS-SS           PIC X(02).                            PPOT987B
012200     SKIP1                                                        PPOT987B
012300 01  DATE-FORMAT.                COPY CPWSDATE.                   PPOT987B
012400     SKIP1                                                        PPOT987B
012500 01  WX-ACCUMULATORS             COMP-3.                          PPOT987B
012600     05  WX-PRINT-LINES-RPT      PIC S9(06) VALUE +65.            PPOT987B
012700     05  WX-REPORT-LINE-ADVANCE  PIC S9(06) VALUE +0.             PPOT987B
012800 01  WX-FLAGS.                                                    PPOT987B
012900     05  WX-ABEND-FLAG           PIC S9(01) VALUE +0.             PPOT987B
013000         88  WX-ABEND                       VALUE +1.             PPOT987B
013100     EJECT                                                        PPOT987B
013200***********************************************************       PPOT987B
013300*        C O N V E R S I O N     R E P O R T              *       PPOT987B
013400***********************************************************       PPOT987B
013500     SKIP1                                                        PPOT987B
013600 01  WA-ABEND-DETAIL-1.                                           PPOT987B
013700     05  WA-DET1-CC              PIC X(01).                       PPOT987B
013800     05  FILLER                  PIC X(30)                        PPOT987B
013900            VALUE '****** SEE SYSTEMS ******     '.               PPOT987B
014000     05  WA-ABEND-MESSAGE-1.                                      PPOT987B
014100         10  WA-ABEND-TEXT       PIC X(43)  VALUE SPACES.         PPOT987B
014200         10  FILLER              PIC X(37)  VALUE SPACES.         PPOT987B
014300     05  WA-ABEND-MESSAGE-2.                                      PPOT987B
014400         10  WA-ABEND-TEXT2      PIC X(15)  VALUE SPACES.         PPOT987B
014500         10  FILLER              PIC X(31)  VALUE SPACES.         PPOT987B
014600     SKIP1                                                        PPOT987B
014700 01  WA-TOTAL-DETAIL-2.                                           PPOT987B
014800     05  WA-DET2-CC              PIC X(01).                       PPOT987B
014900     05  FILLER                  PIC X(42)                        PPOT987B
015000            VALUE 'TOTAL NUMBER OF EMPLOYEE RECORDS CHANGED: '.   PPOT987B
015100     05  WA-TOTAL-RECORDS        PIC ZZZZ9  VALUE ZERO.           PPOT987B
015200     05  FILLER                  PIC X(85)  VALUE SPACES.         PPOT987B
015300     SKIP1                                                        PPOT987B
015400 01  WA-TOTAL-DETAIL-3.                                           PPOT987B
015500     05  WA-DET3-CC              PIC X(01).                       PPOT987B
015600     05  FILLER                  PIC X(44)  VALUE SPACES.         PPOT987B
015700     05  FILLER                  PIC X(42)                        PPOT987B
015800            VALUE '********** NORMAL END OF JOB *************'.   PPOT987B
015900     05  FILLER                  PIC X(90)  VALUE SPACES.         PPOT987B
016000     SKIP1                                                        PPOT987B
016100     EJECT                                                        PPOT987B
016200***********************************************************       PPOT987B
016300*        S T A N D A R D    C O P Y   M E M B E R S       *       PPOT987B
016400***********************************************************       PPOT987B
016500     SKIP1                                                        PPOT987B
016600 01  XSCR-SYSTEM-CONTROL-RECORD.                                  PPOT987B
016700                 COPY  CPWSXSCR.                                  PPOT987B
016800 01  DATE-CONVERSION-WORK-AREAS.                                  PPOT987B
016900                                            COPY CPWSXDC2.        PPOT987B
017000 01  EDB-CHANGE-RECORD.                                           PPOT987B
017100                                 COPY CPWSXCHG.                   PPOT987B
017200     EJECT                                                        PPOT987B
017300 01  BEN-ROW-HOLD.                                                PPOT987B
017400                                    COPY CPWSRBEN.                PPOT987B
017500 01  CONTROL-FILE-KEYS.          COPY CPWSXCFK.                   PPOT987B
017600     EJECT                                                        PPOT987B
017700 01  STND-RPT-HD.                COPY CPWSPSHR.                   PPOT987B
017800     EJECT                                                        PPOT987B
017900 01  PPDB2MSG-INTERFACE. COPY CPLNKDB2.                           PPOT987B
018000     EJECT                                                        PPOT987B
018100     EJECT                                                        PPOT987B
018200******************************************************************PPOT987B
018300*          SQL - WORKING STORAGE                                 *PPOT987B
018400******************************************************************PPOT987B
018500 01  BEN-ROW    EXTERNAL.                                         PPOT987B
018600     EXEC SQL                                                     PPOT987B
018700          INCLUDE PPPVBEN1                                        PPOT987B
018800     END-EXEC.                                                    PPOT987B
018900     SKIP3                                                        PPOT987B
019000 01  BEN-ROW-FOR-UPDATE.                                          PPOT987B
019100     EXEC SQL                                                     PPOT987B
019200          INCLUDE PPPVBEN2                                        PPOT987B
019300     END-EXEC.                                                    PPOT987B
019400     SKIP3                                                        PPOT987B
019500 01  SCR-ROW-DATA.                                                PPOT987B
019600     EXEC SQL                                                     PPOT987B
019700          INCLUDE PPPVSCR1                                        PPOT987B
019800     END-EXEC.                                                    PPOT987B
019900     SKIP3                                                        PPOT987B
020000     EXEC SQL                                                     PPOT987B
020100          INCLUDE SQLCA                                           PPOT987B
020200     END-EXEC.                                                    PPOT987B
020300     SKIP3                                                        PPOT987B
020400 01  WX-END-FLAG                 PIC X(36) VALUE                  PPOT987B
020500     'PPOT987B WORKING STORAGE ENDS HERE'.                        PPOT987B
020600     EJECT                                                        PPOT987B
020700     EXEC SQL                                                     PPOT987B
020800          DECLARE BEN_ROW CURSOR FOR                              PPOT987B
020900       SELECT * FROM PPPVBEN1_BEN                                 PPOT987B
021000           WHERE RET_ELIG_CODE = 'H' AND                          PPOT987B
021100                 DCP_PLAN_CODE = ' '                              PPOT987B
021200           ORDER BY EMPLOYEE_ID                                   PPOT987B
021300     END-EXEC.                                                    PPOT987B
021400     SKIP3                                                        PPOT987B
021500     EJECT                                                        PPOT987B
021600 PROCEDURE DIVISION.                                              PPOT987B
021700     EXEC SQL                                                     PPOT987B
021800          INCLUDE CPPDXE99                                        PPOT987B
021900     END-EXEC.                                                    PPOT987B
022000     SKIP2                                                        PPOT987B
022100***********************************************************       PPOT987B
022200*                    M A I N L I N E                      *       PPOT987B
022300***********************************************************       PPOT987B
022400     SKIP1                                                        PPOT987B
022500 0001-MAINLINE.                                                   PPOT987B
022600     SKIP1                                                        PPOT987B
022700     PERFORM 1000-INITIALIZATION.                                 PPOT987B
022800     IF NOT WX-ABEND                                              PPOT987B
022900         PERFORM 2000-PROCESS-EMPS                                PPOT987B
023000     END-IF.                                                      PPOT987B
023100     PERFORM 9000-FINALIZATION.                                   PPOT987B
023200     STOP RUN.                                                    PPOT987B
023300     SKIP1                                                        PPOT987B
023400 0001-EXIT. EXIT.                                                 PPOT987B
023500     EJECT                                                        PPOT987B
023600***********************************************************       PPOT987B
023700*                   I N I T I A L I Z E                   *       PPOT987B
023800***********************************************************       PPOT987B
023900     SKIP1                                                        PPOT987B
024000 1000-INITIALIZATION SECTION.                                     PPOT987B
024100     SKIP1                                                        PPOT987B
024200     COPY CPPDDATE.                                               PPOT987B
024300     MOVE WS-PGM-ID        TO STND-PROG-ID.                       PPOT987B
024400     MOVE STND-PROG-ID TO DB2MSG-PGM-ID.                          PPOT987B
024500     MOVE GREGORIAN-DATE TO STND-RPT-DATE.                        PPOT987B
024600     MOVE SPACES TO STND-RPT-COMMENT                              PPOT987B
024700                    STND-DATE2                                    PPOT987B
024800                    STND-DATE2-TTL.                               PPOT987B
024900     PERFORM 8800-CREATE-TIME-STAMP.                              PPOT987B
025000     MOVE 'SELECT SCR ROW' TO DB2MSG-TAG.                         PPOT987B
025100     EXEC SQL                                                     PPOT987B
025200         SELECT                                                   PPOT987B
025300          SCR_PROCESS_DATE                                        PPOT987B
025400         ,SCR_PURGE_DATE                                          PPOT987B
025500         ,SCR_CURRENT_DATE                                        PPOT987B
025600         ,SCR_NEXTCYCLE_MO                                        PPOT987B
025700         ,SCR_NEXTCYCLE_QTR                                       PPOT987B
025800         ,SCR_NEXTCYCLE_YR                                        PPOT987B
025900         ,SCR_NEXTCYCLE_FYR                                       PPOT987B
026000         ,SCR_EDB_GENNUM                                          PPOT987B
026100         INTO                                                     PPOT987B
026200         :SCR-PROCESS-DATE                                        PPOT987B
026300        ,:SCR-PURGE-DATE                                          PPOT987B
026400        ,:SCR-CURRENT-DATE                                        PPOT987B
026500        ,:SCR-NEXTCYCLE-MO                                        PPOT987B
026600        ,:SCR-NEXTCYCLE-QTR                                       PPOT987B
026700        ,:SCR-NEXTCYCLE-YR                                        PPOT987B
026800        ,:SCR-NEXTCYCLE-FYR                                       PPOT987B
026900        ,:SCR-EDB-GENNUM                                          PPOT987B
027000                  FROM PPPVSCR1_SCR                               PPOT987B
027100     END-EXEC.                                                    PPOT987B
027200     IF SQLCODE NOT = ZERO                                        PPOT987B
027300          SET WX-ABEND TO TRUE                                    PPOT987B
027400          MOVE 'ERROR IN SCR ROW SELECT'                          PPOT987B
027500            TO WA-ABEND-TEXT                                      PPOT987B
027600          MOVE SPACES TO WA-ABEND-MESSAGE-2                       PPOT987B
027700          PERFORM 3000-BUILD-ABEND-DETAIL                         PPOT987B
027800     END-IF.                                                      PPOT987B
027900                                                                  PPOT987B
028000                                                                  PPOT987B
028100                                                                  PPOT987B
028200     IF   WX-ABEND                                                PPOT987B
028300          GO TO 1000-EXIT.                                        PPOT987B
028400     MOVE ZERO TO WS-BEN-SQLCODE.                                 PPOT987B
028500     OPEN OUTPUT EDBCHG.                                          PPOT987B
028600     OPEN  OUTPUT PRINT-FILE.                                     PPOT987B
028700     INITIALIZE    XSCR-SYSTEM-CONTROL-RECORD.                    PPOT987B
028800     MOVE XCFK-SCR             TO XSCR-KEY-AREA.                  PPOT987B
028900     MOVE SCR-PROCESS-DATE OF SCR-ROW-DATA TO DB2-DATE.           PPOT987B
029000     PERFORM CONVERT-DB2-DATE                                     PPOT987B
029100     MOVE WSX-STD-DATE     TO STD-SCR-PROCESS-DATE.               PPOT987B
029200     MOVE STD-SCR-PROCESS-DATE TO XSCR-PROCESS-DATE.              PPOT987B
029300     MOVE SCR-NEXTCYCLE-MO OF SCR-ROW-DATA  TO XSCR-NEXT-MONTH.   PPOT987B
029400     MOVE SCR-NEXTCYCLE-QTR OF SCR-ROW-DATA  TO XSCR-NEXT-QTR.    PPOT987B
029500     MOVE SCR-NEXTCYCLE-YR OF SCR-ROW-DATA  TO XSCR-NEXT-YEAR.    PPOT987B
029600     MOVE SCR-NEXTCYCLE-FYR OF SCR-ROW-DATA  TO XSCR-NEXT-FY.     PPOT987B
029700     MOVE 'OT'                 TO XSCR-LAST-PGM-RUN.              PPOT987B
029800     MOVE SCR-EDB-GENNUM OF SCR-ROW-DATA  TO XSCR-EDB-GEN-NO.     PPOT987B
029900     MOVE SCR-PURGE-DATE OF SCR-ROW-DATA  TO DB2-DATE.            PPOT987B
030000     PERFORM CONVERT-DB2-DATE                                     PPOT987B
030100     MOVE WSX-STD-DATE         TO XSCR-PURGE-DATE.                PPOT987B
030200     MOVE SCR-CURRENT-DATE OF SCR-ROW-DATA  TO DB2-DATE.          PPOT987B
030300     PERFORM CONVERT-DB2-DATE                                     PPOT987B
030400     MOVE WSX-STD-DATE         TO XSCR-CURRENT-DATE.              PPOT987B
030500     MOVE WSX-STD-DATE-YY      TO WS-CURR-YY                      PPOT987B
030600     MOVE WSX-STD-DATE-MM      TO WS-CURR-MM.                     PPOT987B
030700*                                                                *PPOT987B
030800     MOVE LOW-VALUES           TO XCHG-ODO-LENGTHS.               PPOT987B
030900     MOVE XSCR-SYSTEM-CONTROL-RECORD  TO EDB-CHANGE-RECORD.       PPOT987B
031000     MOVE LOW-VALUES           TO XCHG-ODO-LENGTHS.               PPOT987B
031100     PERFORM 8900-WRITE-OUT-OCHG.                                 PPOT987B
031200 1000-EXIT. EXIT.                                                 PPOT987B
031300 2000-PROCESS-EMPS SECTION.                                       PPOT987B
031400     SKIP1                                                        PPOT987B
031500     PERFORM 8500-SQL-OPEN-BEN                                    PPOT987B
031600     IF BEN-ROW-OPEN                                              PPOT987B
031700        PERFORM 8510-FETCH-BEN                                    PPOT987B
031800        PERFORM 2100-ALTER-EDB-FIELDS                             PPOT987B
031900                   THRU  2100-EXIT                                PPOT987B
032000        UNTIL WS-BEN-SQLCODE NOT = ZERO                           PPOT987B
032100             OR WX-ABEND                                          PPOT987B
032200        PERFORM 8520-CLOSE-BEN                                    PPOT987B
032300     END-IF.                                                      PPOT987B
032400 2000-EXIT. EXIT.                                                 PPOT987B
032500     EJECT                                                        PPOT987B
032600***********************************************************       PPOT987B
032700*           A L T E R    E D B    F I E L D S             *       PPOT987B
032800***********************************************************       PPOT987B
032900     SKIP1                                                        PPOT987B
033000 2100-ALTER-EDB-FIELDS SECTION.                                   PPOT987B
033100     SKIP1                                                        PPOT987B
033200     MOVE BEN-ROW TO BEN-ROW-HOLD.                                PPOT987B
033300     PERFORM 2151-DATA-CHANGE.                                    PPOT987B
033400     PERFORM 8510-FETCH-BEN.                                      PPOT987B
033500 2100-EXIT. EXIT.                                                 PPOT987B
033600     SKIP1                                                        PPOT987B
033700***********************************************************       PPOT987B
033800*   CHANGE PER PAY  AND BEN ROWS OF SELECTED EMPLOYEES     *      PPOT987B
033900***********************************************************       PPOT987B
034000 2150-DATA-CHANGES SECTION.                                       PPOT987B
034100 2151-DATA-CHANGE.                                                PPOT987B
034200     SKIP1                                                        PPOT987B
034300     MOVE EMPLOYEE-ID OF BEN-ROW TO WS-EMPLOYEE-ID.               PPOT987B
034400     MOVE 'S' TO DCP-PLAN-CODE   OF BEN-ROW.                      PPOT987B
034500     ADD 1 TO WS-TOTAL-CHANGE.                                    PPOT987B
034600     PERFORM 2170-UPDATE-EDB.                                     PPOT987B
034700     SKIP1                                                        PPOT987B
034800*----------------------------------------------------------------*PPOT987B
034900*----------------------------------------------------------------*PPOT987B
035000 2170-UPDATE-EDB.                                                 PPOT987B
035100     IF BEN-ROW NOT = BEN-ROW-HOLD                                PPOT987B
035200        PERFORM 8060-BEN-UPDATE-ROW                               PPOT987B
035300        PERFORM 2600-CREATE-BEN-ECF                               PPOT987B
035400     END-IF.                                                      PPOT987B
035500     EJECT                                                        PPOT987B
035600***********************************************************       PPOT987B
035700*      P R O D U C E     C H A N G E       F I L E        *       PPOT987B
035800***********************************************************       PPOT987B
035900     SKIP1                                                        PPOT987B
036000 2600-CREATE-BEN-ECF SECTION.                                     PPOT987B
036100     INITIALIZE                XCHG-FIXED-AREA.                   PPOT987B
036200     MOVE 'PPOT987B'        TO XCHG-PROCESS-ID.                   PPOT987B
036300     MOVE WS-TIMESTAMP      TO XCHG-TIMESTAMP.                    PPOT987B
036400     MOVE WS-EMPLOYEE-ID TO XCHG-EMPLOYEE-ID.                     PPOT987B
036500     MOVE SPACE TO XCHG-OCCURENCE-KEY.                            PPOT987B
036600     MOVE +10                   TO XCHG-OLD-VAL-LNGTH,            PPOT987B
036700                                       XCHG-NEW-VAL1-LNGTH,       PPOT987B
036800                                       XCHG-NEW-VAL2-LNGTH.       PPOT987B
036900     IF DCP-PLAN-CODE OF BEN-ROW-HOLD NOT =                       PPOT987B
037000        DCP-PLAN-CODE OF BEN-ROW                                  PPOT987B
037100         MOVE DCP-PLAN-CODE   OF BEN-ROW-HOLD                     PPOT987B
037200                                        TO XCHG-OLD-VALUE         PPOT987B
037300         MOVE DCP-PLAN-CODE   OF BEN-ROW                          PPOT987B
037400                                        TO XCHG-NEW-VALUE2        PPOT987B
037500         MOVE '0129'                                              PPOT987B
037600                                         TO XCHG-DATA-ELEM-NO     PPOT987B
037700         PERFORM 8900-WRITE-OUT-OCHG                              PPOT987B
037800     END-IF.                                                      PPOT987B
037900 2200-EXIT. EXIT.                                                 PPOT987B
038000 3000-BUILD-ABEND-DETAIL SECTION.                                 PPOT987B
038100     SKIP1                                                        PPOT987B
038200     IF   WX-PRINT-LINES-RPT > +55                                PPOT987B
038300          PERFORM 3500-BUILD-REPORT-HEADER                        PPOT987B
038400          MOVE WA-ABEND-DETAIL-1 TO PRINT-REC                     PPOT987B
038500          MOVE +1 TO WX-REPORT-LINE-ADVANCE                       PPOT987B
038600          PERFORM 7000-WRITE-REPORT                               PPOT987B
038700     ELSE                                                         PPOT987B
038800          MOVE WA-ABEND-DETAIL-1 TO PRINT-REC                     PPOT987B
038900          MOVE +1 TO WX-REPORT-LINE-ADVANCE                       PPOT987B
039000          PERFORM 7000-WRITE-REPORT.                              PPOT987B
039100     SKIP1                                                        PPOT987B
039200     MOVE +05 TO RETURN-CODE.                                     PPOT987B
039300     SKIP1                                                        PPOT987B
039400     SKIP1                                                        PPOT987B
039500 3000-EXIT.  EXIT.                                                PPOT987B
039600     SKIP3                                                        PPOT987B
039700     EJECT                                                        PPOT987B
039800***********************************************************       PPOT987B
039900*           PRINT ERROR REPORT                            *       PPOT987B
040000***********************************************************       PPOT987B
040100     SKIP1                                                        PPOT987B
040200 3500-BUILD-REPORT-HEADER SECTION.                                PPOT987B
040300     SKIP1                                                        PPOT987B
040400     MOVE 'OT987B1'    TO STND-RPT-ID.                            PPOT987B
040500     MOVE '        ONE-TIME, DEFAULT DCP CODE           '         PPOT987B
040600                         TO STND-RPT-TTL.                         PPOT987B
040700     MOVE STND-PAGE-NO TO  WS-SAVE-PAGE-NO.                       PPOT987B
040800     ADD 1                 TO WS-ERROR-PAGE-NO.                   PPOT987B
040900     MOVE WS-ERROR-PAGE-NO TO STND-PAGE-NO.                       PPOT987B
041000     INSPECT STND-PAGE-NO REPLACING LEADING ZEROS BY SPACE.       PPOT987B
041100     SKIP1                                                        PPOT987B
041200     MOVE STND-RPT-HD1   TO PRINT-REC.                            PPOT987B
041300     PERFORM 7000-WRITE-REPORT-HEADER.                            PPOT987B
041400     MOVE WS-SAVE-PAGE-NO TO STND-PAGE-NO.                        PPOT987B
041500     SKIP1                                                        PPOT987B
041600     MOVE STND-RPT-HD2   TO PRINT-REC.                            PPOT987B
041700     MOVE +1 TO WX-REPORT-LINE-ADVANCE.                           PPOT987B
041800     PERFORM 7000-WRITE-REPORT.                                   PPOT987B
041900     SKIP1                                                        PPOT987B
042000     MOVE STND-RPT-HD3   TO PRINT-REC.                            PPOT987B
042100     MOVE +1 TO WX-REPORT-LINE-ADVANCE.                           PPOT987B
042200     PERFORM 7000-WRITE-REPORT.                                   PPOT987B
042300     SKIP1                                                        PPOT987B
042400     MOVE SPACES         TO PRINT-REC.                            PPOT987B
042500     MOVE +1 TO WX-REPORT-LINE-ADVANCE.                           PPOT987B
042600     PERFORM 7000-WRITE-REPORT.                                   PPOT987B
042700     SKIP1                                                        PPOT987B
042800 3500-EXIT. EXIT.                                                 PPOT987B
042900     EJECT                                                        PPOT987B
043000***********************************************************       PPOT987B
043100*         W R I T E    C O N T R O L    R E P O R T       *       PPOT987B
043200***********************************************************       PPOT987B
043300     SKIP1                                                        PPOT987B
043400 7000-WRITE-REPORT SECTION.                                       PPOT987B
043500     SKIP1                                                        PPOT987B
043600     WRITE PRINT-REC                                              PPOT987B
043700           AFTER ADVANCING WX-REPORT-LINE-ADVANCE.                PPOT987B
043800     ADD WX-REPORT-LINE-ADVANCE TO WX-PRINT-LINES-RPT.            PPOT987B
043900     SKIP1                                                        PPOT987B
044000 7000-EXIT.  EXIT.                                                PPOT987B
044100     SKIP1                                                        PPOT987B
044200 7000-WRITE-REPORT-HEADER SECTION.                                PPOT987B
044300     SKIP1                                                        PPOT987B
044400     WRITE PRINT-REC                                              PPOT987B
044500           AFTER ADVANCING NEW-PAGE.                              PPOT987B
044600     MOVE 1 TO WX-PRINT-LINES-RPT.                                PPOT987B
044700     SKIP1                                                        PPOT987B
044800 7000-EXIT.  EXIT.                                                PPOT987B
044900     SKIP2                                                        PPOT987B
045000     EJECT                                                        PPOT987B
045100***********************************************************       PPOT987B
045200*         EDB UPDATE AND SELECTION                        *       PPOT987B
045300***********************************************************       PPOT987B
045400 8060-BEN-UPDATE-ROW SECTION.                                     PPOT987B
045500     MOVE 'UPDATE BEN ROW'      TO DB2MSG-TAG.                    PPOT987B
045600     SKIP1                                                        PPOT987B
045700     EXEC SQL                                                     PPOT987B
045800     UPDATE PPPVBEN2_BEN                                          PPOT987B
045900      SET  DCP_PLAN_CODE      = :BEN-ROW.DCP-PLAN-CODE            PPOT987B
046000         WHERE EMPLOYEE_ID = :WS-EMPLOYEE-ID                      PPOT987B
046100     END-EXEC.                                                    PPOT987B
046200     SKIP1                                                        PPOT987B
046300     IF  SQLCODE    NOT = 0                                       PPOT987B
046400          SET WX-ABEND TO TRUE                                    PPOT987B
046500          MOVE 'ERROR IN UPDATE ROW BEN '                         PPOT987B
046600            TO WA-ABEND-TEXT                                      PPOT987B
046700          MOVE SPACES TO WA-ABEND-MESSAGE-2                       PPOT987B
046800          PERFORM 3000-BUILD-ABEND-DETAIL                         PPOT987B
046900          MOVE 0 TO SQLCODE                                       PPOT987B
047000     END-IF.                                                      PPOT987B
047100 8500-SQL-OPEN-BEN SECTION.                                       PPOT987B
047200     IF NOT BEN-ROW-OPEN                                          PPOT987B
047300         MOVE 'OPEN BEN CURSOR' TO DB2MSG-TAG                     PPOT987B
047400            EXEC SQL                                              PPOT987B
047500                OPEN BEN_ROW                                      PPOT987B
047600            END-EXEC                                              PPOT987B
047700         IF  SQLCODE = 0                                          PPOT987B
047800             SET BEN-ROW-OPEN TO TRUE                             PPOT987B
047900         ELSE                                                     PPOT987B
048000             SET WX-ABEND TO TRUE                                 PPOT987B
048100             MOVE 'ERROR IN OPEN CURSOR '                         PPOT987B
048200                    TO WA-ABEND-TEXT                              PPOT987B
048300             MOVE SPACES TO WA-ABEND-MESSAGE-2                    PPOT987B
048400             PERFORM 3000-BUILD-ABEND-DETAIL                      PPOT987B
048500             MOVE 0 TO SQLCODE                                    PPOT987B
048600         END-IF                                                   PPOT987B
048700     END-IF.                                                      PPOT987B
048800 8510-FETCH-BEN SECTION.                                          PPOT987B
048900     MOVE 'FETCH BEN ROW' TO DB2MSG-TAG.                          PPOT987B
049000     EXEC SQL                                                     PPOT987B
049100             FETCH BEN_ROW   INTO :BEN-ROW                        PPOT987B
049200     END-EXEC.                                                    PPOT987B
049300     MOVE SQLCODE TO WS-BEN-SQLCODE.                              PPOT987B
049400 8510-FETCH-BEN-EXIT.                                             PPOT987B
049500     EXIT.                                                        PPOT987B
049600 8520-CLOSE-BEN SECTION.                                          PPOT987B
049700     IF BEN-ROW-OPEN                                              PPOT987B
049800         MOVE 'CLOSE BEN CURSOR' TO DB2MSG-TAG                    PPOT987B
049900            EXEC SQL                                              PPOT987B
050000               CLOSE BEN_ROW                                      PPOT987B
050100            END-EXEC                                              PPOT987B
050200         MOVE SPACE TO BEN-ROW-OPEN-SW                            PPOT987B
050300     END-IF.                                                      PPOT987B
050400    SKIP1                                                         PPOT987B
050500                                                                  PPOT987B
050600    SKIP1                                                         PPOT987B
050700***********************************************************       PPOT987B
050800*           COMMON ROUTINES                               *       PPOT987B
050900***********************************************************       PPOT987B
051000 8800-CREATE-TIME-STAMP SECTION.                                  PPOT987B
051100     COPY CPPDTIME.                                               PPOT987B
051200     COPY CPPDDATE.                                               PPOT987B
051300     IF PRE-YY < '89'                                             PPOT987B
051400         MOVE '20' TO WS-CC                                       PPOT987B
051500     ELSE                                                         PPOT987B
051600         MOVE '19' TO WS-CC                                       PPOT987B
051700     END-IF                                                       PPOT987B
051800     MOVE PRE-YY TO WS-YY                                         PPOT987B
051900     MOVE PRE-MM TO WS-MM                                         PPOT987B
052000     MOVE PRE-DD TO WS-DD                                         PPOT987B
052100     MOVE TIME-HH TO WS-HH                                        PPOT987B
052200     MOVE TIME-MM TO WS-MN                                        PPOT987B
052300     MOVE TIME-SS TO WS-SS.                                       PPOT987B
052400 DATE-CONVERSION-DB2 SECTION.                                     PPOT987B
052500                                            COPY CPPDXDC2.        PPOT987B
052600 8900-WRITE-OUT-OCHG  SECTION.                                    PPOT987B
052700     WRITE OCHG-EDB-CHANGE-RECORD  FROM EDB-CHANGE-RECORD.        PPOT987B
052800***********************************************************       PPOT987B
052900*                    F I N A L I Z E                      *       PPOT987B
053000***********************************************************       PPOT987B
053100     SKIP1                                                        PPOT987B
053200 9000-FINALIZATION SECTION.                                       PPOT987B
053300     SKIP1                                                        PPOT987B
053400     IF   WX-PRINT-LINES-RPT > +55                                PPOT987B
053500          PERFORM 3500-BUILD-REPORT-HEADER                        PPOT987B
053600          MOVE WS-TOTAL-CHANGE TO WA-TOTAL-RECORDS                PPOT987B
053700          MOVE WA-TOTAL-DETAIL-2 TO PRINT-REC                     PPOT987B
053800          MOVE +1 TO WX-REPORT-LINE-ADVANCE                       PPOT987B
053900          PERFORM 7000-WRITE-REPORT                               PPOT987B
054000          MOVE WA-TOTAL-DETAIL-3 TO PRINT-REC                     PPOT987B
054100          PERFORM 7000-WRITE-REPORT                               PPOT987B
054200     ELSE                                                         PPOT987B
054300          MOVE WA-TOTAL-DETAIL-2 TO PRINT-REC                     PPOT987B
054400          MOVE +1 TO WX-REPORT-LINE-ADVANCE                       PPOT987B
054500          PERFORM 7000-WRITE-REPORT                               PPOT987B
054600          MOVE WA-TOTAL-DETAIL-3 TO PRINT-REC                     PPOT987B
054700          PERFORM 7000-WRITE-REPORT                               PPOT987B
054800     END-IF.                                                      PPOT987B
054900     CLOSE   PRINT-FILE.                                          PPOT987B
055000     CLOSE EDBCHG.                                                PPOT987B
055100     SKIP1                                                        PPOT987B
055200*999999-SQL-ERROR.                                               *PPOT987B
055300     EXEC SQL                                                     PPOT987B
055400          INCLUDE CPPDXP99                                        PPOT987B
055500     END-EXEC.                                                    PPOT987B
055600     IF NOT HERE-BEFORE                                           PPOT987B
055700         SET HERE-BEFORE TO TRUE                                  PPOT987B
055800         MOVE 'UPDATE ROLLBACK' TO DB2MSG-TAG                     PPOT987B
055900         EXEC SQL                                                 PPOT987B
056000             ROLLBACK WORK                                        PPOT987B
056100         END-EXEC                                                 PPOT987B
056200     END-IF.                                                      PPOT987B
056300     PERFORM 9000-FINALIZATION.                                   PPOT987B
056400     MOVE +5               TO RETURN-CODE.                        PPOT987B
056500     STOP RUN.                                                    PPOT987B
056600********  END OF PROGRAM PPOT987B ********                        PPOT987B
