000000**************************************************************/   04611523
000001*  PROGRAM: PPOT1523                                         */   04611523
000002*  RELEASE: ___1523______ SERVICE REQUEST(S): ____80461____  */   04611523
000003*  NAME:____J Kennedy____ CREATION DATE:      ___07/15/03__  */   04611523
000004*  DESCRIPTION:                                              */   04611523
000005*  - Generate and insert row into DBL for DepCare Annual     */   04611523
000006*  Amount if it does not already exist. GTN 335 U.  Use the  */   04611523
000007*  effective date in determining the number of months used   */   04611523
000008*  in the calculation of the annual amount. (BRS 7000).      */   04611523
000009*  Apply max and min rules to the annual amount.             */   04611523
000010**************************************************************/   04611523
000900 IDENTIFICATION DIVISION.                                         PPOT1523
001000 PROGRAM-ID. PPOT1523.                                            PPOT1523
001100 AUTHOR. UCOP.                                                    PPOT1523
001200                                                                  PPOT1523
001300*REMARKS.                                                         PPOT1523
001400                                                                  PPOT1523
001500***********************************************************       PPOT1523
001600*                                                         *       PPOT1523
001700*   THE MAIN CURSOR FOR THIS PROGRAM FETCHES PPPDBL ROWS  *       PPOT1523
001800*   FOR A GTN BALANCE FOR DEPCARE MONTHLY - GTN 335G      *       PPOT1523
001900*                                                         *       PPOT1523
002000*   THIS PROGRAM CAN BE RUN IN NON-UPDATE AND UPDATE      *       PPOT1523
002100*   MODE. IT SHOULD BE RUN IN NON-UPDATE MODE FIRST AND   *       PPOT1523
002200*   THE RESULTS CHECKED VIA THE EDB CHANGE FILE RUN       *       PPOT1523
002300*   THROUGH PPP180.                                       *       PPOT1523
002310*                                                         *       PPOT1523
002400*   AN EDB CHANGE RECORD IS WRITTEN FOR EACH DATA ELEMENT *       PPOT1523
002500*   THAT IS CHANGED. THE EBD CHANGE RECORD IS WRITTEN IN  *       PPOT1523
002600*   BOTH UPDATE AND NON-UPDATE MODE.                      *       PPOT1523
002700***********************************************************       PPOT1523
002800*        E N V I R O N M E N T     D I V I S I O N        *       PPOT1523
002900***********************************************************       PPOT1523
003000                                                                  PPOT1523
003100 ENVIRONMENT DIVISION.                                            PPOT1523
003200 CONFIGURATION SECTION.                                           PPOT1523
003300                                                                  PPOT1523
003400 SPECIAL-NAMES.                                                   PPOT1523
003500     C01 IS NEW-PAGE.                                             PPOT1523
003600                                                                  PPOT1523
003700 INPUT-OUTPUT SECTION.                                            PPOT1523
003800 FILE-CONTROL.                                                    PPOT1523
003900                                                                  PPOT1523
004000***********************************************************       PPOT1523
004100*    SPEC CARD                                            *       PPOT1523
004200***********************************************************       PPOT1523
004300     SELECT CARD-FILE       ASSIGN TO UT-S-CARDFIL.               PPOT1523
004400***********************************************************       PPOT1523
004500*    WARNINGS AND MESSAGES REPORT                         *       PPOT1523
004800                                                                  PPOT1523
004810***********************************************************       PPOT1523
004820*    REPORT PRINT FILES                                   *       PPOT1523
004830***********************************************************       PPOT1523
004840     SELECT POT15231-REPORT ASSIGN TO UT-S-OT15231.               PPOT1523
004841                                                                  PPOT1523
004850     SELECT PRINT-FILE      ASSIGN TO UT-S-WRNPRT.                PPOT1523
004852                                                                  PPOT1523
004853***********************************************************       PPOT1523
004854*    TEMP UNSORTED EDB CHANGE FILE                        *       PPOT1523
004855***********************************************************       PPOT1523
004856     SELECT TEMP-EDBCHG    ASSIGN TO UT-S-TPEDBCHG.               PPOT1523
004857                                                                  PPOT1523
004860***********************************************************       PPOT1523
004900*    EDB CHANGE FILE                                      *       PPOT1523
005000***********************************************************       PPOT1523
005100     SELECT EDBCHG               COPY CPSLXCHG.                   PPOT1523
005201                                                                  PPOT1523
005202***********************************************************       PPOT1523
005203*    SORT WORK FILES                                      *       PPOT1523
005204***********************************************************       PPOT1523
005206     SELECT SORT-WORK-FILE-ECF     COPY CPSLXSRT.                 PPOT1523
005207                                                                  PPOT1523
005210     EJECT                                                        PPOT1523
005300***********************************************************       PPOT1523
005400*                D A T A     D I V I S I O N              *       PPOT1523
005500***********************************************************       PPOT1523
005600                                                                  PPOT1523
005700 DATA DIVISION.                                                   PPOT1523
005800 FILE SECTION.                                                    PPOT1523
005900                                                                  PPOT1523
006000***********************************************************       PPOT1523
006100*    RUN SPECIFICATION RECORD                             *       PPOT1523
006200***********************************************************       PPOT1523
006300 FD  CARD-FILE                                                    PPOT1523
006400     LABEL RECORDS ARE OMITTED                                    PPOT1523
006500     BLOCK CONTAINS 0 RECORDS                                     PPOT1523
006600     RECORDING MODE IS F                                          PPOT1523
006700     RECORD CONTAINS 80 CHARACTERS.                               PPOT1523
006800                                                                  PPOT1523
006900 01  SPEC-CARD.                                                   PPOT1523
007000     05  SPEC-PGM-ID             PIC X(13).                       PPOT1523
007100         88  VALID-SPEC-PGM-ID            VALUE 'PPOT1523-SPEC'.  PPOT1523
007200     05  SPEC-PGM-UPDATE         PIC X(06).                       PPOT1523
007300         88  VALID-SPEC-UPDATE            VALUES 'REPORT'         PPOT1523
007400                                                 'UPDATE'.        PPOT1523
007500         88  EDB-UPDATE-REQUESTED         VALUES 'UPDATE'.        PPOT1523
007600     05  FILLER                  PIC X(61).                       PPOT1523
007610                                                                  PPOT1523
007720***********************************************************       PPOT1523
007730*    REPORT PRINT FILES                                   *       PPOT1523
007740***********************************************************       PPOT1523
007750 FD  POT15231-REPORT                                              PPOT1523
007760     LABEL RECORDS ARE OMITTED                                    PPOT1523
007770     BLOCK CONTAINS 0 RECORDS                                     PPOT1523
007780     RECORDING MODE IS F                                          PPOT1523
007790     RECORD CONTAINS 133 CHARACTERS.                              PPOT1523
007791                                                                  PPOT1523
007792 01  POT15231-LINE.                                               PPOT1523
007793     05  FILLER                   PIC X.                          PPOT1523
007794     05  POT15231-DATA            PIC X(132).                     PPOT1523
007795                                                                  PPOT1523
007796 FD  PRINT-FILE                  COPY CPFDXPRT.                   PPOT1523
007797                                                                  PPOT1523
007798                                                                  PPOT1523
007799***********************************************************       PPOT1523
007800*    TEMP EDB CHANGE FILE                                 *       PPOT1523
007900***********************************************************       PPOT1523
008000 FD  TEMP-EDBCHG                 COPY  CPFDXCHG                   PPOT1523
008100         REPLACING EDB-CHANGE-RECORD BY OCHG-EDB-CHANGE-RECORD.   PPOT1523
008110 01  OCHG-EDB-CHANGE-RECORD.   COPY CPWSXCHG                      PPOT1523
008120         REPLACING XCHG-FIXED-AREA     BY OCHG-FIXED-AREA         PPOT1523
008130                   XCHG-EMPLOYEE-ID    BY OCHG-EMPLOYEE-ID        PPOT1523
008140                   XCHG-DATA-ELEM-NO   BY OCHG-DATA-ELEM-NO       PPOT1523
008150                   XCHG-OCCURENCE-KEY  BY OCHG-OCCURENCE-KEY      PPOT1523
008160                   XCHG-PROCESS-ID     BY OCHG-PROCESS-ID         PPOT1523
008170                   XCHG-CHANGE-SOURCE  BY OCHG-CHANGE-SOURCE      PPOT1523
008180                   XCHG-TIMESTAMP      BY OCHG-TIMESTAMP          PPOT1523
008190                   XCHG-ODO-LENGTHS    BY OCHG-ODO-LENGTHS        PPOT1523
008191                   XCHG-OLD-VAL-LNGTH  BY OCHG-OLD-VAL-LNGTH      PPOT1523
008192                   XCHG-NEW-VAL1-LNGTH BY OCHG-NEW-VAL1-LNGTH     PPOT1523
008193                   XCHG-NEW-VAL2-LNGTH BY OCHG-NEW-VAL2-LNGTH     PPOT1523
008194                   XCHG-OLD-VALUE      BY OCHG-OLD-VALUE          PPOT1523
008195                   XCHG-OLD-VAL        BY OCHG-OLD-VAL            PPOT1523
008196                   XCHG-NEW-VALUE1     BY OCHG-NEW-VALUE1         PPOT1523
008197                   XCHG-NEW-VAL1       BY OCHG-NEW-VAL1           PPOT1523
008198                   XCHG-NEW-VALUE2     BY OCHG-NEW-VALUE2         PPOT1523
008199                   XCHG-NEW-VAL2       BY OCHG-NEW-VAL2.          PPOT1523
008200                                                                  PPOT1523
008201***********************************************************       PPOT1523
008202*    SORTED EDB CHANGE FILE                               *       PPOT1523
008203***********************************************************       PPOT1523
008204 FD  EDBCHG                      COPY  CPFDXCHG                   PPOT1523
008205         REPLACING EDB-CHANGE-RECORD BY PCHG-EDB-CHANGE-RECORD.   PPOT1523
008206 01  PCHG-EDB-CHANGE-RECORD.   COPY CPWSXCHG                      PPOT1523
008207         REPLACING XCHG-FIXED-AREA     BY PCHG-FIXED-AREA         PPOT1523
008208                   XCHG-EMPLOYEE-ID    BY PCHG-EMPLOYEE-ID        PPOT1523
008209                   XCHG-DATA-ELEM-NO   BY PCHG-DATA-ELEM-NO       PPOT1523
008210                   XCHG-OCCURENCE-KEY  BY PCHG-OCCURENCE-KEY      PPOT1523
008211                   XCHG-PROCESS-ID     BY PCHG-PROCESS-ID         PPOT1523
008212                   XCHG-CHANGE-SOURCE  BY PCHG-CHANGE-SOURCE      PPOT1523
008213                   XCHG-TIMESTAMP      BY PCHG-TIMESTAMP          PPOT1523
008214                   XCHG-ODO-LENGTHS    BY PCHG-ODO-LENGTHS        PPOT1523
008215                   XCHG-OLD-VAL-LNGTH  BY PCHG-OLD-VAL-LNGTH      PPOT1523
008216                   XCHG-NEW-VAL1-LNGTH BY PCHG-NEW-VAL1-LNGTH     PPOT1523
008217                   XCHG-NEW-VAL2-LNGTH BY PCHG-NEW-VAL2-LNGTH     PPOT1523
008218                   XCHG-OLD-VALUE      BY PCHG-OLD-VALUE          PPOT1523
008219                   XCHG-OLD-VAL        BY PCHG-OLD-VAL            PPOT1523
008220                   XCHG-NEW-VALUE1     BY PCHG-NEW-VALUE1         PPOT1523
008221                   XCHG-NEW-VAL1       BY PCHG-NEW-VAL1           PPOT1523
008222                   XCHG-NEW-VALUE2     BY PCHG-NEW-VALUE2         PPOT1523
008223                   XCHG-NEW-VAL2       BY PCHG-NEW-VAL2.          PPOT1523
008224                                                                  PPOT1523
008225***********************************************************       PPOT1523
008226*    SORT EDB CHANGE FILE                                 *       PPOT1523
008227***********************************************************       PPOT1523
008228 SD  SORT-WORK-FILE-ECF        COPY CPFDXCHG                      PPOT1523
008229         REPLACING EDB-CHANGE-RECORD BY SCHG-EDB-CHANGE-RECORD.   PPOT1523
008230 01  SCHG-EDB-CHANGE-RECORD.   COPY CPWSXCHG                      PPOT1523
008240         REPLACING XCHG-FIXED-AREA     BY SCHG-FIXED-AREA         PPOT1523
008250                   XCHG-EMPLOYEE-ID    BY SCHG-EMPLOYEE-ID        PPOT1523
008260                   XCHG-DATA-ELEM-NO   BY SCHG-DATA-ELEM-NO       PPOT1523
008270                   XCHG-OCCURENCE-KEY  BY SCHG-OCCURENCE-KEY      PPOT1523
008280                   XCHG-PROCESS-ID     BY SCHG-PROCESS-ID         PPOT1523
008290                   XCHG-CHANGE-SOURCE  BY SCHG-CHANGE-SOURCE      PPOT1523
008300                   XCHG-TIMESTAMP      BY SCHG-TIMESTAMP          PPOT1523
008400                   XCHG-ODO-LENGTHS    BY SCHG-ODO-LENGTHS        PPOT1523
008500                   XCHG-OLD-VAL-LNGTH  BY SCHG-OLD-VAL-LNGTH      PPOT1523
008600                   XCHG-NEW-VAL1-LNGTH BY SCHG-NEW-VAL1-LNGTH     PPOT1523
008700                   XCHG-NEW-VAL2-LNGTH BY SCHG-NEW-VAL2-LNGTH     PPOT1523
008800                   XCHG-OLD-VALUE      BY SCHG-OLD-VALUE          PPOT1523
008900                   XCHG-OLD-VAL        BY SCHG-OLD-VAL            PPOT1523
009000                   XCHG-NEW-VALUE1     BY SCHG-NEW-VALUE1         PPOT1523
009100                   XCHG-NEW-VAL1       BY SCHG-NEW-VAL1           PPOT1523
009200                   XCHG-NEW-VALUE2     BY SCHG-NEW-VALUE2         PPOT1523
009300                   XCHG-NEW-VAL2       BY SCHG-NEW-VAL2.          PPOT1523
010600     EJECT                                                        PPOT1523
010700 WORKING-STORAGE SECTION.                                         PPOT1523
010800***********************************************************       PPOT1523
010900*    WORKING STORAGE                                      *       PPOT1523
011000***********************************************************       PPOT1523
011100 01  WS-WORK-MISC.                                                PPOT1523
011101     05  WS-USED-LINES            PIC S9(02) COMP SYNC VALUE 0.   PPOT1523
011102     05  WS-ADVANCE-LINE          PIC S9(02) COMP SYNC VALUE 0.   PPOT1523
011110     05  WS-ECF-WRITES            PIC S9(06) VALUE +0.            PPOT1523
011200     05  STD-SCR-PROCESS-DATE     PIC X(06) VALUE ZEROS.          PPOT1523
011400     05  WS-DEPCARE-GTN-ICED      PIC X(01).                      PPOT1523
011600     05  WS-DEPCARE-GTN           PIC X(03)  VALUE '335'.         PPOT1523
012100     05  WS-XDC3-FMT-DATE         PIC X(8) VALUE SPACES.          PPOT1523
012110     05  WS-EMP-EMPLOYEE-ID       PIC X(9) VALUE SPACES.          PPOT1523
012200     05  WS-EMP-GTN-NUMBER        PIC X(3).                       PPOT1523
012300     05  WS-EMP-GTN-IND           PIC X.                          PPOT1523
012400     05  WS-EMP-GTN-AMT-G         PIC S9999999V99 USAGE COMP-3.   PPOT1523
012410     05  WS-EMP-GTN-AMT-U         PIC S9999999V99 USAGE COMP-3.   PPOT1523
012500     05  WS-EMP-NAME              PIC X(26) VALUE SPACE.          PPOT1523
012600     05  WS-HOLD-EMP-NAME         PIC X(26) VALUE SPACE.          PPOT1523
012610     05  WS-DED-EFF-DATE          PIC X(10).                      PPOT1523
012611     05  WS-EFF-DATE-WORK  REDEFINES WS-DED-EFF-DATE.             PPOT1523
012620         10  WS-DED-EFF-CCYY      PIC 9(04).                      PPOT1523
012621         10  WS-DED-EFF-DASH1     PIC X.                          PPOT1523
012630         10  WS-DED-EFF-MM        PIC 99.                         PPOT1523
012631         10  WS-DED-EFF-DASH2     PIC X.                          PPOT1523
012640         10  WS-DED-EFF-DD        PIC 99.                         PPOT1523
012700     05  WS-NUMBER-EDITED        PIC S9(09)V9(09) USAGE COMP-3    PPOT1523
012800                                                  VALUE ZERO.     PPOT1523
012801     05  WS-NUMBER-OF-MONTHS      PIC 99.                         PPOT1523
012810     05  WS-SQLCODE               PIC -Z99.                       PPOT1523
012900                                                                  PPOT1523
012910 01  WS-RUN-TIME-FORMAT.                                          PPOT1523
012920     05  XH3-RPT-RUN-HR   PIC X(02) VALUE SPACES.                 PPOT1523
012930     05  FILLER           PIC X     VALUE ':'.                    PPOT1523
012940     05  XH3-RPT-RUN-MIN  PIC X(02) VALUE SPACES.                 PPOT1523
012950     05  FILLER           PIC X     VALUE ':'.                    PPOT1523
012960     05  XH3-RPT-RUN-SEC  PIC X(02) VALUE SPACES.                 PPOT1523
012961                                                                  PPOT1523
012962 01  WS-DATE-AND-TIME.                                            PPOT1523
012964     05  WS-TIMESTAMP.                                            PPOT1523
012965         10 WS-CC           PIC X(02).                            PPOT1523
012966         10 WS-YY           PIC X(02).                            PPOT1523
012967         10 WS-MM           PIC X(02).                            PPOT1523
012968         10 WS-DD           PIC X(02).                            PPOT1523
012969         10 WS-HH           PIC X(02).                            PPOT1523
012970         10 WS-MN           PIC X(02).                            PPOT1523
012971         10 WS-SS           PIC X(02).                            PPOT1523
012972 01  TIME-FORMAT.         COPY CPWSTIME.                          PPOT1523
012973 01  WS-RUN-TIME.                                                 PPOT1523
012974     05  WC1-RUN-TIME.                                            PPOT1523
012975         10  WC1-RUN-HOUR         PIC X(02).                      PPOT1523
012976         10  WC1-RUN-MIN          PIC X(02).                      PPOT1523
012977         10  WC1-RUN-SEC          PIC X(02).                      PPOT1523
012978                                                                  PPOT1523
012980                                                                  PPOT1523
013000 01  WS-ACCUMULATORS             COMP-3.                          PPOT1523
013010     05  WRN-LINE-COUNT          PIC S9(04) VALUE +60.            PPOT1523
013020     05  WS-PRINT-LINE           PIC S9(04) VALUE ZERO.           PPOT1523
013100     05  WS-PRINT-LINES-RPT       PIC S9(06) VALUE +99.           PPOT1523
013200     05  MAX-LINES-PAGE           PIC S9(06) VALUE +55.           PPOT1523
013210     05  MAX-LINES-PER-PAGE       PIC S9(04) VALUE +55.           PPOT1523
013220     05  RPT1-LINES-PER-PAGE      PIC S9(04) VALUE +99.           PPOT1523
013230     05  RPT2-LINES-PER-PAGE      PIC S9(04) VALUE +99.           PPOT1523
013300     05  WS-ONET-PAGE-NO-1        PIC S9(06) VALUE ZERO.          PPOT1523
013310     05  WS-ONET-PAGE-NO-2        PIC S9(06) VALUE ZERO.          PPOT1523
013501     05  WS-DBL-ROWS-U-INSERTED   PIC S9(06) VALUE ZERO.          PPOT1523
013600     05  WS-EMP-TOTAL             PIC S9(06) VALUE +0.            PPOT1523
013700                                                                  PPOT1523
013800 01  WS-OCC-KEY-G.                                                PPOT1523
013900     05  WS-GTN-NUM-G             PIC X(03).                      PPOT1523
014000     05  WS-GTN-IND-G             PIC X(01) VALUE 'G'.            PPOT1523
014010 01  WS-OCC-KEY-U.                                                PPOT1523
014020     05  WS-GTN-NUM-U             PIC X(03).                      PPOT1523
014030     05  WS-GTN-IND-U             PIC X(01) VALUE 'U'.            PPOT1523
014140                                                                  PPOT1523
014200***********************************************************       PPOT1523
014300*    SWITCHES                                             *       PPOT1523
014400***********************************************************       PPOT1523
014500 01  WS-SWITCHES.                                                 PPOT1523
014600     05  WS-MESSAGE-SW           PIC X(01)  VALUE 'N'.            PPOT1523
014700         88  FATAL-ERROR                    VALUE 'Y'.            PPOT1523
014720     05  WS-EMPL-SELECT-SW       PIC X(01)  VALUE 'Y'.            PPOT1523
014740         88  NO-EMPL-SELECTED               VALUE 'N'.            PPOT1523
014750     05  WS-CALC-ANNUAL-AMT-SW   PIC X(01)  VALUE 'Y'.            PPOT1523
014760         88  ANNUAL-AMT-ALREADY-EXISTS      VALUE 'N'.            PPOT1523
014800     05  HERE-BEFORE-SW          PIC X(01)  VALUE 'N'.            PPOT1523
014900         88 HERE-BEFORE                     VALUE 'Y'.            PPOT1523
015000     05  FIRST-TIME-SW           PIC X(01)  VALUE 'Y'.            PPOT1523
015100         88  FIRST-TIME                     VALUE 'Y'.            PPOT1523
015200         88  NOT-FIRST-TIME                 VALUE 'N'.            PPOT1523
015500     05  WS-ABEND-FLAG           PIC S9(01) VALUE +0.             PPOT1523
015600         88  WS-ABEND                       VALUE +1.             PPOT1523
015700     05  EOF-EMP-DATA-SW         PIC X(01)  VALUE SPACE.          PPOT1523
015800         88  EOF-EMP-DATA                   VALUE '1'.            PPOT1523
015810     05  BRS-ROW-SW              PIC X(01)  VALUE 'N'.            PPOT1523
015820         88  NO-BRS-DATE-FOUND              VALUE 'N'.            PPOT1523
015830         88  BRS-DATE-FOUND                 VALUE 'Y'.            PPOT1523
015840     05  WS-BELOW-MIN-SW         PIC X(01)  VALUE 'N'.            PPOT1523
015850         88  BELOW-MIN                      VALUE 'Y'.            PPOT1523
015860     05  WS-ABOVE-MAX-SW         PIC X(01)  VALUE 'N'.            PPOT1523
015870         88  ABOVE-MAX                      VALUE 'Y'.            PPOT1523
015900     EJECT                                                        PPOT1523
015901 01  WS-PGM-ID                PIC X(15)  VALUE 'PPOT1523'.        PPOT1523
015915                                                                  PPOT1523
015916***********************************************************       PPOT1523
015917*    COLUMN HEADINGS                                      *       PPOT1523
015918***********************************************************       PPOT1523
015920                                                                  PPOT1523
015930 01  PPOT1523-COL-HDR1.                                           PPOT1523
015940     05  FILLER                  PIC X(01).                       PPOT1523
015941     05  FILLER                  PIC X(36) VALUE SPACES.          PPOT1523
015970     05  FILLER                  PIC X(07)                        PPOT1523
015980                           VALUE 'MONTHLY'.                       PPOT1523
015981     05  FILLER                  PIC X(18) VALUE SPACES.          PPOT1523
015982     05  FILLER                  PIC X(06)                        PPOT1523
015983                           VALUE 'ANNUAL'.                        PPOT1523
015984     05  FILLER                  PIC X(14) VALUE SPACES.          PPOT1523
015985     05  FILLER                  PIC X(09)                        PPOT1523
015986                           VALUE 'EFFECTIVE'.                     PPOT1523
015987     05  FILLER                  PIC X(13) VALUE SPACES.          PPOT1523
015988     05  FILLER                  PIC X(08)                        PPOT1523
015989                           VALUE 'COMMENTS'.                      PPOT1523
015990     05  FILLER                  PIC X(21) VALUE SPACES.          PPOT1523
015991 01  PPOT1523-COL-HDR2.                                           PPOT1523
015992     05  FILLER                  PIC X(01).                       PPOT1523
015993     05  FILLER                  PIC X(36) VALUE SPACES.          PPOT1523
015994     05  FILLER                  PIC X(06)                        PPOT1523
015995                           VALUE 'AMOUNT'.                        PPOT1523
015996     05  FILLER                  PIC X(19) VALUE SPACES.          PPOT1523
015997     05  FILLER                  PIC X(06)                        PPOT1523
015998                           VALUE 'AMOUNT'.                        PPOT1523
015999     05  FILLER                  PIC X(16) VALUE SPACES.          PPOT1523
016000     05  FILLER                  PIC X(04)                        PPOT1523
016001                           VALUE 'DATE'.                          PPOT1523
016002     05  FILLER                  PIC X(56) VALUE SPACES.          PPOT1523
016003 01  PPOT1523-COL-HDR3.                                           PPOT1523
016004     05  FILLER                  PIC X(01).                       PPOT1523
016005     05  FILLER                  PIC X(30) VALUE SPACES.          PPOT1523
016006     05  FILLER                  PIC X(18)                        PPOT1523
016007                           VALUE ALL '-'.                         PPOT1523
016008     05  FILLER                  PIC X(06) VALUE SPACES.          PPOT1523
016009     05  FILLER                  PIC X(18)                        PPOT1523
016010                           VALUE ALL '-'.                         PPOT1523
016011     05  FILLER                  PIC X(09) VALUE SPACES.          PPOT1523
016012     05  FILLER                  PIC X(09)                        PPOT1523
016013                           VALUE ALL '-'.                         PPOT1523
016014     05  FILLER                  PIC X(13) VALUE SPACES.          PPOT1523
016015     05  FILLER                  PIC X(08)                        PPOT1523
016016                           VALUE ALL '-'.                         PPOT1523
016017     05  FILLER                  PIC X(42) VALUE SPACES.          PPOT1523
016018 01  PPOT1523-COL-HDR4.                                           PPOT1523
016019     05  FILLER                  PIC X(01).                       PPOT1523
016020     05  FILLER                  PIC X(20)                        PPOT1523
016021                           VALUE 'EMPLOYEE NAME/EMP ID'.          PPOT1523
016022     05  FILLER                  PIC X(10) VALUE SPACES.          PPOT1523
016023     05  FILLER                  PIC X(18)                        PPOT1523
016024                           VALUE 'GTN           DATA'.            PPOT1523
016025     05  FILLER                  PIC X(06) VALUE SPACES.          PPOT1523
016026     05  FILLER                  PIC X(18)                        PPOT1523
016027                           VALUE 'GTN           DATA'.            PPOT1523
016028     05  FILLER                  PIC X(60) VALUE SPACES.          PPOT1523
016029                                                                  PPOT1523
016030***********************************************************       PPOT1523
016031*    REPORT DETAIL RECORD                                 *       PPOT1523
016032***********************************************************       PPOT1523
016033 01  RPT-DETAIL-REC.                                              PPOT1523
016034     05  RPT-LINE.                                                PPOT1523
016035         10  FILLER                  PIC X(01).                   PPOT1523
016036         10  RPT-NAME-LN             PIC X(26).                   PPOT1523
016037         10  RPT-EMP-ID     REDEFINES                             PPOT1523
016038             RPT-NAME-LN.                                         PPOT1523
016039             12  RPT-ID              PIC X(09).                   PPOT1523
016040             12  FILLER              PIC X(17).                   PPOT1523
016041         10  FILLER                  PIC X(04).                   PPOT1523
016042         10  RPT-GTN-1               PIC X(05).                   PPOT1523
016043         10  FILLER                  PIC X(04).                   PPOT1523
016044         10  RPT-GTN-DATA-1          PIC ZZ,ZZ9.99-.              PPOT1523
016047         10  FILLER                  PIC X(05).                   PPOT1523
016048         10  RPT-GTN-2               PIC X(05).                   PPOT1523
016049         10  FILLER                  PIC X(04).                   PPOT1523
016050         10  RPT-GTN-DATA-2          PIC ZZ,ZZ9.99-.              PPOT1523
016060         10  FILLER                  PIC X(09).                   PPOT1523
016070         10  RPT-GTN-EFFECT          PIC X(08).                   PPOT1523
016080         10  FILLER                  PIC X(08).                   PPOT1523
016081         10  RPT-COMMENT             PIC X(30).                   PPOT1523
016090         10  FILLER                  PIC X(04).                   PPOT1523
016117 01  RPT-DETAIL-ENTRIES.                                          PPOT1523
016121     05  RPT-DETAIL-LINE-ITEMS        OCCURS 6 TIMES.             PPOT1523
016122         10  RPT-DETAIL-LINE          PIC X(133).                 PPOT1523
016123                                                                  PPOT1523
016124***********************************************************       PPOT1523
016125*    REPORT RECORD FOR ONE-TIME REPORTING                 *       PPOT1523
016126***********************************************************       PPOT1523
016128 01  RPT-RECORD.                                                  PPOT1523
016129     05  REPORT-DATA.                                             PPOT1523
016133         10  DBL-DATA     OCCURS 2 TIMES.                         PPOT1523
016134             15  DBL-GTN             PIC X(03).                   PPOT1523
016135             15  DBL-GTN-IND         PIC X(01).                   PPOT1523
016136             15  DBL-AMT             PIC S9(07)V99 COMP-3.        PPOT1523
016137         10  BRS-DATA.                                            PPOT1523
016138              15  BRS-GTN            PIC X(03).                   PPOT1523
016139              15  BRS-EFFECT         PIC X(10).                   PPOT1523
016150                                                                  PPOT1523
016161***********************************************************       PPOT1523
016170*    REPORT TOTAL LINE                                    *       PPOT1523
016200***********************************************************       PPOT1523
016300                                                                  PPOT1523
016400 01  OT15232-TOTAL-LINE.                                          PPOT1523
016500     05  FILLER                  PIC X(01).                       PPOT1523
016600     05  RPT2-RECORD-DESC        PIC X(40) VALUE                  PPOT1523
016700                                'NUMBER OF DBL ROWS INSERTED'.    PPOT1523
016800     05  RPT2-RECORD-TOTAL-Z     PIC ZZZZZZ9.                     PPOT1523
016900     05  FILLER                  PIC X(84) VALUE SPACES.          PPOT1523
017000***********************************************************       PPOT1523
017100*    MESSAGE PRINT LINE                                   *       PPOT1523
017200***********************************************************       PPOT1523
017300 01  WS-MESSAGE.                                                  PPOT1523
017400     05  WS-DET1-CC              PIC X(01) VALUE SPACES.          PPOT1523
017500     05  WS-MESSAGE-1.                                            PPOT1523
017600         10  WS-MESSAGE-TEXT     PIC X(43)  VALUE SPACES.         PPOT1523
017700     05  WS-MESSAGE-2            PIC X(89)  VALUE SPACES.         PPOT1523
018300                                                                  PPOT1523
018610     EJECT                                                        PPOT1523
018620***********************************************************       PPOT1523
018630*        S T A N D A R D    C O P Y   M E M B E R S       *       PPOT1523
018640***********************************************************       PPOT1523
018660 01  XWHC-COMPILE-WORK-AREA.          COPY CPWSXWHC.              PPOT1523
018670     EJECT                                                        PPOT1523
018680 01  XSCR-SYSTEM-CONTROL-RECORD.      COPY CPWSXSCR.              PPOT1523
018690     EJECT                                                        PPOT1523
018691 01  DATE-CONVERSION-WORK-AREAS.      COPY CPWSXDC3.              PPOT1523
018692     EJECT                                                        PPOT1523
018693 01  EDB-CHANGE-RECORD.               COPY CPWSXCHG.              PPOT1523
018694     EJECT                                                        PPOT1523
018695 01  STND-RPT-HD.                     COPY CPWSPSHR.              PPOT1523
018696     EJECT                                                        PPOT1523
018697 01  XCSS-COMMON-SYSTEM-SWITCHES.     COPY CPWSSWCH.              PPOT1523
018698     EJECT                                                        PPOT1523
018699 01  PPDB2MSG-INTERFACE.              COPY CPLNKDB2.              PPOT1523
018700     EJECT                                                        PPOT1523
018710 01  HOLD-DBL-ROW.                          COPY  CPWSRDBL        PPOT1523
018800         REPLACING EMPLOYEE-ID      BY HOLD-EMPLOYEE-ID           PPOT1523
018900                   GTN-NUMBER       BY HOLD-GTN-NUMBER            PPOT1523
019000                   GTN-IND          BY HOLD-GTN-IND               PPOT1523
019100                   GTN-AMT          BY HOLD-GTN-AMT.              PPOT1523
019200     EJECT                                                        PPOT1523
019300***********************************************************       PPOT1523
019400*    SQL WORKING STORAGE                                  *       PPOT1523
019500***********************************************************       PPOT1523
019600                                                                  PPOT1523
019700 01  SCR-ROW.                                                     PPOT1523
019800     EXEC SQL                                                     PPOT1523
019900          INCLUDE PPPVZSCR                                        PPOT1523
020000     END-EXEC.                                                    PPOT1523
020100                                                                  PPOT1523
020200 01  GTN-ROW.                                                     PPOT1523
020300     EXEC SQL                                                     PPOT1523
020400          INCLUDE PPPVZGTN                                        PPOT1523
020500     END-EXEC.                                                    PPOT1523
020600                                                                  PPOT1523
020700 01  DBL-ROW.                                                     PPOT1523
020800     EXEC SQL                                                     PPOT1523
020900         INCLUDE PPPVDBL1                                         PPOT1523
021000     END-EXEC.                                                    PPOT1523
021100                                                                  PPOT1523
021200 01  DBL-ROW-OUT.                                                 PPOT1523
021300     EXEC SQL                                                     PPOT1523
021400         INCLUDE PPPVDBL2                                         PPOT1523
021500     END-EXEC.                                                    PPOT1523
021600                                                                  PPOT1523
021700 01  PER-ROW.                                                     PPOT1523
021800     EXEC SQL                                                     PPOT1523
021900          INCLUDE PPPVZPER                                        PPOT1523
022000     END-EXEC.                                                    PPOT1523
022100                                                                  PPOT1523
022700 01  BRS-ROW.                                                     PPOT1523
022800     EXEC SQL                                                     PPOT1523
022900         INCLUDE PPPVBRS1                                         PPOT1523
023000     END-EXEC.                                                    PPOT1523
023100                                                                  PPOT1523
023700     EXEC SQL                                                     PPOT1523
023800          INCLUDE SQLCA                                           PPOT1523
023900     END-EXEC.                                                    PPOT1523
023910                                                                  PPOT1523
023920     EJECT                                                        PPOT1523
024000******************************************************************PPOT1523
024100*          SQL - CURSORS                                         *PPOT1523
024200******************************************************************PPOT1523
024300*    MAIN CURSOR TO SELECT PPPDBL ROWS                           *PPOT1523
024400******************************************************************PPOT1523
024500                                                                  PPOT1523
024600     EXEC SQL                                                     PPOT1523
024700       DECLARE EMP_CURSOR CURSOR FOR                              PPOT1523
024800       SELECT DBL.EMPLOYEE_ID                                     PPOT1523
024900             ,GTN_NUMBER                                          PPOT1523
025000             ,GTN_IND                                             PPOT1523
025100             ,GTN_AMT                                             PPOT1523
025200             ,PER.EMP_NAME                                        PPOT1523
025300       FROM  PPPVDBL1_DBL DBL                                     PPOT1523
025400            ,PPPVZPER_PER PER                                     PPOT1523
025500       WHERE DBL.EMPLOYEE_ID = PER.EMPLOYEE_ID                    PPOT1523
025600         AND GTN_NUMBER = '335'                                   PPOT1523
025700         AND GTN_IND    = 'G'                                     PPOT1523
026410       ORDER BY PER.EMP_NAME                                      PPOT1523
026500     END-EXEC.                                                    PPOT1523
026510                                                                  PPOT1523
026600     EJECT                                                        PPOT1523
026700                                                                  PPOT1523
026800 PROCEDURE DIVISION.                                              PPOT1523
026900     EXEC SQL                                                     PPOT1523
027000          INCLUDE CPPDXE99                                        PPOT1523
027100     END-EXEC.                                                    PPOT1523
027200                                                                  PPOT1523
027210     EJECT                                                        PPOT1523
027300***********************************************************       PPOT1523
027400*                    M A I N L I N E                      *       PPOT1523
027500***********************************************************       PPOT1523
027600 0000-MAINLINE.                                                   PPOT1523
027700                                                                  PPOT1523
027800     PERFORM 1000-INITIALIZATION.                                 PPOT1523
027900                                                                  PPOT1523
028000     IF NOT FATAL-ERROR                                           PPOT1523
028100        PERFORM 2000-EMP-CURSOR                                   PPOT1523
028200     END-IF.                                                      PPOT1523
028300                                                                  PPOT1523
028400     PERFORM 9000-FINALIZATION.                                   PPOT1523
028401                                                                  PPOT1523
028402     IF NOT FATAL-ERROR                                           PPOT1523
028403*----> AFTER CLOSING THE ECF (EMPLOYEE CHANGE FILE), THE FILE     PPOT1523
028404*----> IS SORTED IN THE PROPER SEQUENCE.                          PPOT1523
028405        SORT SORT-WORK-FILE-ECF                                   PPOT1523
028406           ASCENDING KEY SCHG-EMPLOYEE-ID                         PPOT1523
028407                         SCHG-DATA-ELEM-NO                        PPOT1523
028408                         SCHG-OCCURENCE-KEY                       PPOT1523
028409           USING   TEMP-EDBCHG                                    PPOT1523
028410           GIVING  EDBCHG                                         PPOT1523
028411     END-IF.                                                      PPOT1523
028412                                                                  PPOT1523
028413 0099-EOJ.                                                        PPOT1523
028414     IF FATAL-ERROR                                               PPOT1523
028420        MOVE +9 TO RETURN-CODE                                    PPOT1523
028430     ELSE                                                         PPOT1523
028440        IF NO-EMPL-SELECTED                                       PPOT1523
028450           MOVE +3 TO RETURN-CODE                                 PPOT1523
028460        END-IF                                                    PPOT1523
028470     END-IF.                                                      PPOT1523
028500                                                                  PPOT1523
028800     STOP RUN.                                                    PPOT1523
028900                                                                  PPOT1523
029000 0001-EXIT. EXIT.                                                 PPOT1523
029100     EJECT                                                        PPOT1523
029200                                                                  PPOT1523
029310 1000-INITIALIZATION       SECTION.                               PPOT1523
029400***********************************************************       PPOT1523
029500*     INITIALIZATION                                      *       PPOT1523
029600***********************************************************       PPOT1523
029701                                                                  PPOT1523
029702     OPEN INPUT  CARD-FILE                                        PPOT1523
029703     OPEN OUTPUT PRINT-FILE                                       PPOT1523
029705          OUTPUT POT15231-REPORT.                                 PPOT1523
029706                                                                  PPOT1523
029707     OPEN OUTPUT TEMP-EDBCHG                                      PPOT1523
029708          OUTPUT      EDBCHG.                                     PPOT1523
029709                                                                  PPOT1523
029710*** Display Program Id and Date/Time Compiled                     PPOT1523
029711     MOVE 'PPOT1523'                    TO XWHC-DISPLAY-MODULE    PPOT1523
029712                                           DB2MSG-PGM-ID.         PPOT1523
029713     COPY CPPDXWHC.                                               PPOT1523
029714                                                                  PPOT1523
029715     COPY CPPDTIME.                                               PPOT1523
029716     MOVE TIME-HHMMSS                   TO WC1-RUN-TIME           PPOT1523
029717     MOVE WC1-RUN-HOUR                  TO XH3-RPT-RUN-HR         PPOT1523
029718     MOVE WC1-RUN-MIN                   TO XH3-RPT-RUN-MIN        PPOT1523
029719     MOVE WC1-RUN-SEC                   TO XH3-RPT-RUN-SEC.       PPOT1523
029720                                                                  PPOT1523
029721     MOVE SPACES                        TO RPT-DETAIL-ENTRIES.    PPOT1523
029722     MOVE SPACES                        TO STND-RPT-COMMENT       PPOT1523
029723                                           STND-DATE2             PPOT1523
029724                                           STND-DATE2-TTL.        PPOT1523
029725*                                                                 PPOT1523
029726     MOVE 'OT15232'                     TO STND-RPT-ID.           PPOT1523
029727     MOVE WS-PGM-ID                     TO STND-PROG-ID.          PPOT1523
029728                                                                  PPOT1523
029730                                                                  PPOT1523
029731*** Create Timestamp for ECF in XDC3-GREGORIAN-CHAR               PPOT1523
029732     PERFORM 1400-CREATE-TIME-STAMP                               PPOT1523
029738     PERFORM 7050-BUILD-MESSAGE-HDR.                              PPOT1523
029739                                                                  PPOT1523
029740     INITIALIZE SCR-ROW.                                          PPOT1523
029741     PERFORM 1500-GET-SCR-DATA-DO-ECF-HDR.                        PPOT1523
029743*                                                                 PPOT1523
032201                                                                  PPOT1523
032202     PERFORM 8200-OPEN-EMP-CURSOR.                                PPOT1523
032210     PERFORM 1400-GET-GTN-DATA.                                   PPOT1523
038800                                                                  PPOT1523
039000     PERFORM 1100-VALIDATE-SPEC-CARD THRU 1100-EXIT.              PPOT1523
039010     INITIALIZE RPT-RECORD.                                       PPOT1523
039100                                                                  PPOT1523
039200 1000-EXIT.  EXIT.                                                PPOT1523
039300                                                                  PPOT1523
039310   EJECT                                                          PPOT1523
039400 1100-VALIDATE-SPEC-CARD   SECTION.                               PPOT1523
039500***********************************************************       PPOT1523
039600*    READ AND EDIT THE RUN SPECIFICATION RECORD           *       PPOT1523
039700***********************************************************       PPOT1523
039800     READ CARD-FILE                                               PPOT1523
039900        AT END                                                    PPOT1523
040000***********************************************************       PPOT1523
040100*       A MISSING SPEC CARD IS A FATAL ERROR.             *       PPOT1523
040200***********************************************************       PPOT1523
040300        SET FATAL-ERROR TO TRUE                                   PPOT1523
040400        MOVE 'No Specification Card' TO WS-MESSAGE-TEXT           PPOT1523
040500        PERFORM 7000-BUILD-MESSAGE                                PPOT1523
040600        GO TO 1100-EXIT.                                          PPOT1523
040610*                                                                 PPOT1523
040620     MOVE 'SPEC Card:'                  TO WS-MESSAGE-TEXT        PPOT1523
040630     MOVE SPEC-CARD                     TO WS-MESSAGE-2           PPOT1523
040640     PERFORM 7000-BUILD-MESSAGE                                   PPOT1523
040650     MOVE SPACES                        TO WS-MESSAGE-2.          PPOT1523
040700                                                                  PPOT1523
040800     IF NOT VALID-SPEC-PGM-ID                                     PPOT1523
040900***********************************************************       PPOT1523
041000*       AN INVALID PROGRAM ID IS A FATAL ERROR.           *       PPOT1523
041100***********************************************************       PPOT1523
041200        SET FATAL-ERROR TO TRUE                                   PPOT1523
041300        MOVE 'Spec Program ID Invalid' TO WS-MESSAGE-TEXT         PPOT1523
041400        PERFORM 7000-BUILD-MESSAGE                                PPOT1523
041500        GO TO 1100-EXIT                                           PPOT1523
041600     END-IF.                                                      PPOT1523
041700                                                                  PPOT1523
041800     IF NOT VALID-SPEC-UPDATE                                     PPOT1523
041900***********************************************************       PPOT1523
042000*       AN INVALID UPDATE SELECTION IS A FATAL ERROR.     *       PPOT1523
042100***********************************************************       PPOT1523
042200        SET FATAL-ERROR TO TRUE                                   PPOT1523
042300        MOVE 'Program mode is invalid' TO WS-MESSAGE-TEXT         PPOT1523
042400        PERFORM 7000-BUILD-MESSAGE                                PPOT1523
042500        GO TO 1100-EXIT                                           PPOT1523
042600     ELSE                                                         PPOT1523
042700     IF EDB-UPDATE-REQUESTED                                      PPOT1523
042800        MOVE 'EDB Update selected' TO WS-MESSAGE-TEXT             PPOT1523
042900        PERFORM 7000-BUILD-MESSAGE                                PPOT1523
043000     ELSE                                                         PPOT1523
043100        MOVE 'EDB Report selected' TO WS-MESSAGE-TEXT             PPOT1523
043200        PERFORM 7000-BUILD-MESSAGE                                PPOT1523
043300     END-IF                                                       PPOT1523
043400     END-IF.                                                      PPOT1523
043500                                                                  PPOT1523
043600 1100-EXIT.                                                       PPOT1523
043700     EXIT.                                                        PPOT1523
043800     EJECT                                                        PPOT1523
043900                                                                  PPOT1523
044000 1400-GET-GTN-DATA SECTION.                                       PPOT1523
044100***********************************************                   PPOT1523
044200*  SELECT GTN TABLE ROW                                           PPOT1523
044300***********************************************                   PPOT1523
044400                                                                  PPOT1523
044500     MOVE 'SELECT GTN 335' TO DB2MSG-TAG.                         PPOT1523
044600                                                                  PPOT1523
044700     EXEC SQL                                                     PPOT1523
044800       SELECT                                                     PPOT1523
045000           PPPVZGTN_GTN.GTN_ICED_INDICATOR                        PPOT1523
045200       INTO                                                       PPOT1523
045400           :GTN-ICED-INDICATOR                                    PPOT1523
045600       FROM PPPVZGTN_GTN                                          PPOT1523
045700       WHERE PPPVZGTN_GTN.GTN_NUMBER = :WS-DEPCARE-GTN            PPOT1523
045800     END-EXEC.                                                    PPOT1523
045810     IF  SQLCODE =  ZERO                                          PPOT1523
045820         MOVE GTN-ICED-INDICATOR TO WS-DEPCARE-GTN-ICED           PPOT1523
045830     END-IF.                                                      PPOT1523
045900                                                                  PPOT1523
046000 1400-EXIT.                                                       PPOT1523
046100     EXIT.                                                        PPOT1523
046101*                                                                 PPOT1523
046102     EJECT                                                        PPOT1523
046103 1400-CREATE-TIME-STAMP               SECTION.                    PPOT1523
046104                                                                  PPOT1523
046105     PERFORM XDC3-GET-CURRENT-DATE                                PPOT1523
046106     MOVE XDC3-GREG-CC                  TO WS-CC                  PPOT1523
046107     MOVE XDC3-GREG-YY                  TO WS-YY                  PPOT1523
046108     MOVE XDC3-GREG-MM                  TO WS-MM                  PPOT1523
046109     MOVE XDC3-GREG-DD                  TO WS-DD                  PPOT1523
046110     MOVE XDC3-GREG-HH                  TO WS-HH                  PPOT1523
046111     MOVE XDC3-GREG-MM                  TO WS-MN                  PPOT1523
046112     MOVE XDC3-GREG-SS                  TO WS-SS.                 PPOT1523
046113                                                                  PPOT1523
046114     PERFORM XDC3-CONVERT-LILIAN-TO-ISO                           PPOT1523
046115                                                                  PPOT1523
046116     PERFORM XDC3-CONVERT-ISO-TO-FMT.                             PPOT1523
046117     MOVE XDC3-FMT-DATE TO WS-XDC3-FMT-DATE.                      PPOT1523
046118                                                                  PPOT1523
046119 1500-GET-SCR-DATA-DO-ECF-HDR         SECTION.                    PPOT1523
046120                                                                  PPOT1523
046121     MOVE 'SELECT SCR ROW'              TO DB2MSG-TAG.            PPOT1523
046122*** Get SCR Data for ECF Header Record                            PPOT1523
046123     EXEC SQL                                                     PPOT1523
046124         SELECT  CHAR(SCR_PROCESS_DATE, ISO),                     PPOT1523
046125                 CHAR(SCR_PURGE_DATE, ISO)  ,                     PPOT1523
046126                 CHAR(SCR_CURRENT_DATE, ISO),                     PPOT1523
046127                 SCR_NEXTCYCLE_MO           ,                     PPOT1523
046128                 SCR_NEXTCYCLE_QTR          ,                     PPOT1523
046129                 SCR_NEXTCYCLE_YR           ,                     PPOT1523
046130                 SCR_NEXTCYCLE_FYR          ,                     PPOT1523
046131                 SCR_EDB_GENNUM                                   PPOT1523
046132           INTO :SCR-PROCESS-DATE           ,                     PPOT1523
046133                :SCR-PURGE-DATE             ,                     PPOT1523
046134                :SCR-CURRENT-DATE           ,                     PPOT1523
046135                :SCR-NEXTCYCLE-MO           ,                     PPOT1523
046136                :SCR-NEXTCYCLE-QTR          ,                     PPOT1523
046137                :SCR-NEXTCYCLE-YR           ,                     PPOT1523
046138                :SCR-NEXTCYCLE-FYR          ,                     PPOT1523
046139                :SCR-EDB-GENNUM                                   PPOT1523
046140           FROM PPPVZSCR_SCR                                      PPOT1523
046141     END-EXEC.                                                    PPOT1523
046142     IF SQLCODE NOT = ZERO                                        PPOT1523
046143        SET FATAL-ERROR TO TRUE                                   PPOT1523
046144        MOVE 'Error in SCR Selection'   TO WS-MESSAGE-TEXT        PPOT1523
046145        PERFORM 7000-BUILD-MESSAGE                                PPOT1523
046146     ELSE                                                         PPOT1523
046147        PERFORM 1600-MOVE-AND-WRITE-SCR-HDR                       PPOT1523
046148     END-IF.                                                      PPOT1523
046149                                                                  PPOT1523
046150 1600-MOVE-AND-WRITE-SCR-HDR          SECTION.                    PPOT1523
046151                                                                  PPOT1523
046152     INITIALIZE XSCR-SYSTEM-CONTROL-RECORD.                       PPOT1523
046153     MOVE '          SCR'               TO XSCR-KEY-AREA          PPOT1523
046160     MOVE SCR-PROCESS-DATE OF SCR-ROW   TO XDC3-ISO-DATE          PPOT1523
046170     PERFORM XDC3-CONVERT-ISO-TO-STD                              PPOT1523
046180     MOVE XDC3-STD-DATE                 TO STD-SCR-PROCESS-DATE   PPOT1523
046190     MOVE STD-SCR-PROCESS-DATE          TO XSCR-PROCESS-DATE      PPOT1523
046191     MOVE SCR-NEXTCYCLE-MO OF SCR-ROW   TO XSCR-NEXT-MONTH        PPOT1523
046192     MOVE SCR-NEXTCYCLE-QTR OF SCR-ROW  TO XSCR-NEXT-QTR          PPOT1523
046193     MOVE SCR-NEXTCYCLE-YR OF SCR-ROW   TO XSCR-NEXT-YEAR         PPOT1523
046194     MOVE SCR-NEXTCYCLE-FYR OF SCR-ROW  TO XSCR-NEXT-FY           PPOT1523
046195     MOVE 'OT'                          TO XSCR-LAST-PGM-RUN      PPOT1523
046196     MOVE SCR-EDB-GENNUM OF SCR-ROW     TO XSCR-EDB-GEN-NO        PPOT1523
046197     MOVE SCR-PURGE-DATE OF SCR-ROW     TO XDC3-ISO-DATE          PPOT1523
046198     PERFORM XDC3-CONVERT-ISO-TO-STD                              PPOT1523
046199     MOVE XDC3-STD-DATE                 TO XSCR-PURGE-DATE        PPOT1523
046200     MOVE SCR-CURRENT-DATE OF SCR-ROW   TO XDC3-ISO-DATE          PPOT1523
046201     PERFORM XDC3-CONVERT-ISO-TO-STD                              PPOT1523
046202     MOVE XDC3-STD-DATE                 TO XSCR-CURRENT-DATE      PPOT1523
046203*** Now write Header Control Record to ECF File                   PPOT1523
046204     MOVE LOW-VALUES                    TO XCHG-ODO-LENGTHS       PPOT1523
046205     MOVE XSCR-SYSTEM-CONTROL-RECORD    TO EDB-CHANGE-RECORD      PPOT1523
046206     MOVE LOW-VALUES                    TO XCHG-ODO-LENGTHS       PPOT1523
046207     PERFORM 6000-WRITE-OUT-OCHG.                                 PPOT1523
046208                                                                  PPOT1523
046210     EJECT                                                        PPOT1523
046300 2000-EMP-CURSOR           SECTION.                               PPOT1523
046400***********************************************************       PPOT1523
046500*     PROCESS THE MAIN EMPLOYEE CURSOR LOOP.              *       PPOT1523
046600***********************************************************       PPOT1523
046700                                                                  PPOT1523
047200     PERFORM 8300-FETCH-EMP-CURSOR.                               PPOT1523
047300                                                                  PPOT1523
047400     IF EOF-EMP-DATA                                              PPOT1523
047500***********************************************************       PPOT1523
047600*       There were no employees with GTN 335 on DBL table.*       PPOT1523
047700*       Issue message and initialize DBL data for EOJ.    *       PPOT1523
047900***********************************************************       PPOT1523
048000        SET NO-EMPL-SELECTED TO TRUE                              PPOT1523
048010        MOVE 'No empls selected for DepCare annual amount update' PPOT1523
048020                                    TO WS-MESSAGE-TEXT            PPOT1523
048200        PERFORM 7000-BUILD-MESSAGE                                PPOT1523
048300        INITIALIZE DBL-ROW                                        PPOT1523
048400        INITIALIZE DBL-ROW-OUT                                    PPOT1523
048500        INITIALIZE BRS-ROW                                        PPOT1523
048700     ELSE                                                         PPOT1523
048800***********************************************************       PPOT1523
048900*       SET UP DATA FOR FIRST EMPLOYEE FETCHED.           *       PPOT1523
049000***********************************************************       PPOT1523
049100        PERFORM 2100-PROCESS-EMP-CURSOR                           PPOT1523
049200     END-IF.                                                      PPOT1523
049300                                                                  PPOT1523
049400***********************************************************       PPOT1523
049500*    PERFORM THE FETCH LOOP UNTIL THERE ARE NO MORE ROWS  *       PPOT1523
049600***********************************************************       PPOT1523
049700     PERFORM 2100-PROCESS-EMP-CURSOR                              PPOT1523
049800             UNTIL EOF-EMP-DATA                                   PPOT1523
049900                OR FATAL-ERROR.                                   PPOT1523
050000                                                                  PPOT1523
050100***********************************************************       PPOT1523
050200*    CLOSE THE CURSOR.                                    *       PPOT1523
050300***********************************************************       PPOT1523
050400     PERFORM 8320-CLOSE-EMP-CURSOR.                               PPOT1523
050500                                                                  PPOT1523
050600 2000-EXIT. EXIT.                                                 PPOT1523
050610                                                                  PPOT1523
050700     EJECT                                                        PPOT1523
050900 2100-PROCESS-EMP-CURSOR   SECTION.                               PPOT1523
051000***********************************************************       PPOT1523
051100*    PROCESS EACH RETURNED PPPDBL ROW AND RELATED DATA.   *       PPOT1523
051200***********************************************************       PPOT1523
051301                                                                  PPOT1523
051302     PERFORM 8000-SELECT-BRS-ROW.                                 PPOT1523
051427     IF WS-CALC-ANNUAL-AMT-SW = 'Y'                               PPOT1523
051430        PERFORM 2200-CALCULATE-ANNUAL-AMT                         PPOT1523
051431        PERFORM 8100-INSERT-DBL-DEPCARE-U                         PPOT1523
051438     END-IF                                                       PPOT1523
051470                                                                  PPOT1523
053100     PERFORM 3000-BUILD-DETAIL.                                   PPOT1523
053110     PERFORM 3100-WRITE-DETAIL.                                   PPOT1523
053200     INITIALIZE RPT-RECORD.                                       PPOT1523
053300     PERFORM 8300-FETCH-EMP-CURSOR.                               PPOT1523
053400                                                                  PPOT1523
053500 2100-EXIT. EXIT.                                                 PPOT1523
053501                                                                  PPOT1523
053502     EJECT                                                        PPOT1523
053503 2200-CALCULATE-ANNUAL-AMT    SECTION.                            PPOT1523
053504***********************************************************       PPOT1523
053505*    CALCULATE THE ANNUAL AMOUNT (UBAL) TO BE ADDED TO DBL*       PPOT1523
053506***********************************************************       PPOT1523
053507                                                                  PPOT1523
053509     IF BRS-DATE-FOUND                                            PPOT1523
053512         IF WS-DED-EFF-MM = 12                                    PPOT1523
053513             MOVE  12  TO WS-NUMBER-OF-MONTHS                     PPOT1523
053514         ELSE                                                     PPOT1523
053515             COMPUTE WS-NUMBER-OF-MONTHS = 12 - WS-DED-EFF-MM     PPOT1523
053516         END-IF                                                   PPOT1523
053517         COMPUTE WS-EMP-GTN-AMT-U  =  WS-EMP-GTN-AMT-G   *        PPOT1523
053518                                           WS-NUMBER-OF-MONTHS    PPOT1523
053519         IF WS-EMP-GTN-AMT-U < 180                                PPOT1523
053520             MOVE 180 TO WS-EMP-GTN-AMT-U                         PPOT1523
053521             MOVE 'Y' TO WS-BELOW-MIN-SW                          PPOT1523
053522         END-IF                                                   PPOT1523
053523         IF WS-EMP-GTN-AMT-U > 5000                               PPOT1523
053524             MOVE 5000 TO WS-EMP-GTN-AMT-U                        PPOT1523
053525             MOVE 'Y' TO WS-ABOVE-MAX-SW                          PPOT1523
053526         END-IF                                                   PPOT1523
053527         MOVE '335'  TO DBL-GTN  (2)                              PPOT1523
053528         MOVE 'U'    TO DBL-GTN-IND (2)                           PPOT1523
053529         MOVE WS-EMP-GTN-AMT-U  TO DBL-AMT (2)                    PPOT1523
053530     END-IF.                                                      PPOT1523
053531                                                                  PPOT1523
053532 2100-EXIT. EXIT.                                                 PPOT1523
053533                                                                  PPOT1523
053534     EJECT                                                        PPOT1523
053535 3000-BUILD-DETAIL        SECTION.                                PPOT1523
053536                                                                  PPOT1523
053537     MOVE 1  TO WS-USED-LINES.                                    PPOT1523
053538                                                                  PPOT1523
053539     MOVE SPACES TO RPT-DETAIL-REC.                               PPOT1523
053540     MOVE WS-EMP-NAME  TO RPT-NAME-LN.                            PPOT1523
053541     MOVE DBL-GTN (1)     TO RPT-GTN-1 (1:3).                     PPOT1523
053542     MOVE '-'                 TO RPT-GTN-1 (4:1).                 PPOT1523
053543     MOVE DBL-GTN-IND (1) TO RPT-GTN-1 (5:1).                     PPOT1523
053544     MOVE DBL-AMT (1)     TO RPT-GTN-DATA-1.                      PPOT1523
053545                                                                  PPOT1523
053548     IF DBL-GTN (2) NOT EQUAL SPACES                              PPOT1523
053549         MOVE DBL-GTN (2) TO RPT-GTN-2 (1:3)                      PPOT1523
053550         MOVE '-'             TO RPT-GTN-2 (4:1)                  PPOT1523
053551         MOVE DBL-GTN-IND (2) TO RPT-GTN-2 (5:1)                  PPOT1523
053552         MOVE DBL-AMT (2) TO RPT-GTN-DATA-2                       PPOT1523
053553     END-IF.                                                      PPOT1523
053580                                                                  PPOT1523
053590     IF BRS-DATE-FOUND                                            PPOT1523
053606         MOVE BRS-EFFECT     TO XDC3-ISO-DATE                     PPOT1523
053607         PERFORM XDC3-CONVERT-ISO-TO-FMT                          PPOT1523
053608         MOVE XDC3-FMT-DATE TO RPT-GTN-EFFECT                     PPOT1523
053609     ELSE                                                         PPOT1523
053610         MOVE SPACES        TO RPT-GTN-EFFECT                     PPOT1523
053611         MOVE 'EFFECTIVE DATE NOT FOUND' TO RPT-COMMENT           PPOT1523
053612     END-IF.                                                      PPOT1523
053706                                                                  PPOT1523
053707     IF WS-CALC-ANNUAL-AMT-SW = 'Y'                               PPOT1523
053708                 AND  BRS-DATE-FOUND                              PPOT1523
053709         MOVE '  ANNUAL AMOUNT CALCULATED  ' TO RPT-COMMENT       PPOT1523
053710     END-IF.                                                      PPOT1523
053711     MOVE RPT-DETAIL-REC TO RPT-DETAIL-LINE (WS-USED-LINES).      PPOT1523
053712                                                                  PPOT1523
053713     ADD 1     TO WS-USED-LINES.                                  PPOT1523
053720     MOVE SPACES TO RPT-DETAIL-REC.                               PPOT1523
053725     MOVE WS-EMP-EMPLOYEE-ID     TO RPT-ID.                       PPOT1523
053726     IF BELOW-MIN                                                 PPOT1523
053727         MOVE '**** DEFAULT TO MIN 180 *****'                     PPOT1523
053728                                   TO RPT-COMMENT                 PPOT1523
053729         MOVE 'N' TO WS-BELOW-MIN-SW                              PPOT1523
053730     END-IF.                                                      PPOT1523
053731     IF ABOVE-MAX                                                 PPOT1523
053732         MOVE '**** DEFAULT TO MAX 5000 ****'                     PPOT1523
053733                                   TO RPT-COMMENT                 PPOT1523
053734         MOVE 'N' TO WS-ABOVE-MAX-SW                              PPOT1523
053735     END-IF.                                                      PPOT1523
053740     MOVE RPT-DETAIL-REC TO RPT-DETAIL-LINE (WS-USED-LINES).      PPOT1523
053752                                                                  PPOT1523
053753     EJECT                                                        PPOT1523
053754 3100-WRITE-DETAIL        SECTION.                                PPOT1523
053755***********************************************************       PPOT1523
053756*    WRITE DETAIL REPORTS                                 *       PPOT1523
053757***********************************************************       PPOT1523
053758                                                                  PPOT1523
053760     MOVE 2 TO WS-ADVANCE-LINE.                                   PPOT1523
053761     PERFORM VARYING WS-PRINT-LINE FROM 1 BY 1                    PPOT1523
053762        UNTIL WS-PRINT-LINE > 6                                   PPOT1523
053763*****   OR WS-PRINT-LINE > WS-USED-LINES                          PPOT1523
053764        OR RPT-DETAIL-LINE (WS-PRINT-LINE) = SPACES               PPOT1523
053765           IF (RPT1-LINES-PER-PAGE > MAX-LINES-PER-PAGE)          PPOT1523
053766              PERFORM 3200-WRITE-RPT1-NEWPAGE                     PPOT1523
053767           END-IF                                                 PPOT1523
053768           WRITE POT15231-LINE FROM                               PPOT1523
053769                 RPT-DETAIL-LINE (WS-PRINT-LINE)                  PPOT1523
053770                    AFTER ADVANCING WS-ADVANCE-LINE               PPOT1523
053771           ADD WS-ADVANCE-LINE TO RPT1-LINES-PER-PAGE             PPOT1523
053772           MOVE 1 TO WS-ADVANCE-LINE                              PPOT1523
053773     END-PERFORM.                                                 PPOT1523
053774     MOVE SPACES TO RPT-DETAIL-ENTRIES.                           PPOT1523
053775                                                                  PPOT1523
053776     EJECT                                                        PPOT1523
053777 3200-WRITE-RPT1-NEWPAGE   SECTION.                               PPOT1523
053778                                                                  PPOT1523
053779     MOVE SPACES                        TO STND-RPT-COMMENT.      PPOT1523
053780     MOVE 'RUN TIME'                    TO STND-DATE2-TTL         PPOT1523
053781     MOVE WS-RUN-TIME-FORMAT            TO STND-DATE2             PPOT1523
053782     MOVE '        ONE-TIME PROGRAM   ' TO STND-FUNC-AREA         PPOT1523
053783     MOVE '         ADD DEPCARE ANNUAL AMOUNT  ' TO STND-RPT-TTL. PPOT1523
053784     MOVE 'OT15231'                     TO STND-RPT-ID.           PPOT1523
053785     MOVE WS-PGM-ID                     TO STND-PROG-ID           PPOT1523
053786     MOVE WS-XDC3-FMT-DATE              TO STND-RPT-DATE.         PPOT1523
053787     ADD +1 TO WS-ONET-PAGE-NO-1.                                 PPOT1523
053788     MOVE WS-ONET-PAGE-NO-1 TO STND-PAGE-NO.                      PPOT1523
053789     INSPECT STND-PAGE-NO REPLACING LEADING ZEROS BY SPACE.       PPOT1523
053790                                                                  PPOT1523
053791     WRITE POT15231-LINE FROM STND-RPT-HD1                        PPOT1523
053792                     AFTER ADVANCING NEW-PAGE.                    PPOT1523
053793                                                                  PPOT1523
053794     WRITE POT15231-LINE FROM STND-RPT-HD2                        PPOT1523
053795                     AFTER ADVANCING +1.                          PPOT1523
053796                                                                  PPOT1523
053797     WRITE POT15231-LINE FROM STND-RPT-HD3                        PPOT1523
053798                     AFTER ADVANCING +1.                          PPOT1523
053799                                                                  PPOT1523
053800     WRITE POT15231-LINE FROM PPOT1523-COL-HDR1                   PPOT1523
053801                     AFTER ADVANCING +2.                          PPOT1523
053802                                                                  PPOT1523
053803     WRITE POT15231-LINE FROM PPOT1523-COL-HDR2                   PPOT1523
053804                     AFTER ADVANCING +1.                          PPOT1523
053805                                                                  PPOT1523
053806     WRITE POT15231-LINE FROM PPOT1523-COL-HDR3                   PPOT1523
053807                     AFTER ADVANCING +1.                          PPOT1523
053808                                                                  PPOT1523
053809     WRITE POT15231-LINE FROM PPOT1523-COL-HDR4                   PPOT1523
053810                     AFTER ADVANCING +1.                          PPOT1523
053811                                                                  PPOT1523
053812     MOVE SPACES TO  PRINT-REC.                                   PPOT1523
053813     WRITE POT15231-LINE FROM PRINT-REC                           PPOT1523
053814                     AFTER ADVANCING +1.                          PPOT1523
053815                                                                  PPOT1523
053816     MOVE +10 TO RPT1-LINES-PER-PAGE.                             PPOT1523
053817     MOVE 1 TO WS-ADVANCE-LINE.                                   PPOT1523
053818                                                                  PPOT1523
059251     EJECT                                                        PPOT1523
059252 4000-CREATE-ECF-U         SECTION.                               PPOT1523
059253******************************************************************PPOT1523
059254*     WRITE EDB CHANGE FILE                                      *PPOT1523
059255******************************************************************PPOT1523
059256                                                                  PPOT1523
059257     INITIALIZE XCHG-FIXED-AREA.                                  PPOT1523
059258     MOVE 'PPOT1523' TO XCHG-PROCESS-ID.                          PPOT1523
059259     MOVE XDC3-GREGORIAN-CHAR TO XCHG-TIMESTAMP.                  PPOT1523
059260                                                                  PPOT1523
059261     MOVE WS-EMP-EMPLOYEE-ID TO XCHG-EMPLOYEE-ID.                 PPOT1523
059262     MOVE '6000' TO XCHG-DATA-ELEM-NO.                            PPOT1523
059263     MOVE SPACES TO XCHG-OCCURENCE-KEY.                           PPOT1523
059264                                                                  PPOT1523
059265     MOVE SPACE             TO XCHG-OCCURENCE-KEY.                PPOT1523
059266     MOVE +10               TO XCHG-OLD-VAL-LNGTH,                PPOT1523
059268                               XCHG-NEW-VAL2-LNGTH.               PPOT1523
059269                                                                  PPOT1523
059270     MOVE ZERO              TO WS-NUMBER-EDITED.                  PPOT1523
059271     MOVE WS-NUMBER-EDITED  TO XCHG-OLD-VALUE.                    PPOT1523
059272     MOVE GTN-AMT OF DBL-ROW-OUT TO WS-NUMBER-EDITED.             PPOT1523
059273     MOVE WS-NUMBER-EDITED  TO XCHG-NEW-VALUE2.                   PPOT1523
059274     MOVE '6000'            TO XCHG-DATA-ELEM-NO.                 PPOT1523
059275     MOVE '335'             TO WS-GTN-NUM-U.                      PPOT1523
059276     MOVE WS-OCC-KEY-U      TO XCHG-OCCURENCE-KEY.                PPOT1523
059277     PERFORM 6000-WRITE-OUT-OCHG.                                 PPOT1523
059290                                                                  PPOT1523
059291     EJECT                                                        PPOT1523
059739                                                                  PPOT1523
059740 6000-WRITE-OUT-OCHG                  SECTION.                    PPOT1523
059741******************************************************************PPOT1523
059742*     WRITE THE CHANGE RECORD                                    *PPOT1523
059743******************************************************************PPOT1523
059744                                                                  PPOT1523
059745     WRITE OCHG-EDB-CHANGE-RECORD  FROM EDB-CHANGE-RECORD         PPOT1523
059746     ADD 1                              TO WS-ECF-WRITES.         PPOT1523
059747     MOVE SPACE                         TO XCHG-OCCURENCE-KEY.    PPOT1523
059750                                                                  PPOT1523
059800     EJECT                                                        PPOT1523
060000 7000-BUILD-MESSAGE        SECTION.                               PPOT1523
060100***********************************************************       PPOT1523
060200*     PRINT MESSAGES                                      *       PPOT1523
060300***********************************************************       PPOT1523
060400                                                                  PPOT1523
060500     IF   WRN-LINE-COUNT  > MAX-LINES-PAGE                        PPOT1523
060600          PERFORM 7050-BUILD-MESSAGE-HDR                          PPOT1523
061210     END-IF.                                                      PPOT1523
061220     MOVE WS-MESSAGE                    TO PRINT-REC.             PPOT1523
061230     WRITE PRINT-REC AFTER ADVANCING 1                            PPOT1523
061240     MOVE SPACES                        TO PRINT-REC.             PPOT1523
061250     WRITE PRINT-REC AFTER ADVANCING 1                            PPOT1523
061260     ADD +2                             TO WRN-LINE-COUNT.        PPOT1523
061500                                                                  PPOT1523
061900                                                                  PPOT1523
062000 7000-EXIT.  EXIT.                                                PPOT1523
062100                                                                  PPOT1523
062200 7050-BUILD-MESSAGE-HDR    SECTION.                               PPOT1523
062300***********************************************************       PPOT1523
062400*     PRINT MESSAGE REPORT HEADERS                        *       PPOT1523
062500***********************************************************       PPOT1523
062600                                                                  PPOT1523
062620     MOVE SPACES                        TO STND-RPT-COMMENT.      PPOT1523
062621     MOVE 'RUN TIME'                    TO STND-DATE2-TTL         PPOT1523
062630     MOVE WS-RUN-TIME-FORMAT            TO STND-DATE2             PPOT1523
062640     MOVE '        ONE-TIME PROGRAM   ' TO STND-FUNC-AREA         PPOT1523
062650     MOVE '          WARNINGS AND MESSAGES' TO STND-RPT-TTL.      PPOT1523
062660     MOVE 'OT15232'                     TO STND-RPT-ID.           PPOT1523
062800     MOVE WS-PGM-ID                     TO STND-PROG-ID           PPOT1523
062900     MOVE WS-XDC3-FMT-DATE              TO STND-RPT-DATE.         PPOT1523
063300     ADD +1 TO WS-ONET-PAGE-NO-2.                                 PPOT1523
063400     MOVE WS-ONET-PAGE-NO-2 TO STND-PAGE-NO.                      PPOT1523
063500     INSPECT STND-PAGE-NO REPLACING LEADING ZEROS BY SPACE.       PPOT1523
063510                                                                  PPOT1523
063600     MOVE STND-RPT-HD1 TO PRINT-REC.                              PPOT1523
063700     WRITE PRINT-REC AFTER ADVANCING NEW-PAGE.                    PPOT1523
063800                                                                  PPOT1523
063900     MOVE STND-RPT-HD2 TO PRINT-REC.                              PPOT1523
064000     WRITE PRINT-REC AFTER ADVANCING +1.                          PPOT1523
064100                                                                  PPOT1523
064200     MOVE STND-RPT-HD3 TO PRINT-REC.                              PPOT1523
064300     WRITE PRINT-REC AFTER ADVANCING +1.                          PPOT1523
064400                                                                  PPOT1523
064500     MOVE SPACES TO PRINT-REC.                                    PPOT1523
064600     WRITE PRINT-REC AFTER ADVANCING +1.                          PPOT1523
064700     MOVE +4 TO WRN-LINE-COUNT.                                   PPOT1523
064800                                                                  PPOT1523
064900 7050-EXIT. EXIT.                                                 PPOT1523
064910                                                                  PPOT1523
064911     EJECT                                                        PPOT1523
065069 8000-SELECT-BRS-ROW           SECTION.                           PPOT1523
065070***********************************************************       PPOT1523
065071*     SELECT THE PPPBRS ROW                               *       PPOT1523
065072***********************************************************       PPOT1523
065073     MOVE 'Y'   TO BRS-ROW-SW.                                    PPOT1523
065074     MOVE 'SELECT PPPBRS ROW '      TO DB2MSG-TAG.                PPOT1523
065075                                                                  PPOT1523
065076     EXEC SQL                                                     PPOT1523
065077       SELECT DED_EFF_DATE                                        PPOT1523
065078       INTO                                                       PPOT1523
065079       :WS-DED-EFF-DATE                                           PPOT1523
065080       FROM PPPVBRS1_BRS                                          PPOT1523
065081       WHERE EMPLOYEE_ID  = :WS-EMP-EMPLOYEE-ID                   PPOT1523
065082         AND BENRATE_GTN  = '335'                                 PPOT1523
065083     END-EXEC.                                                    PPOT1523
065084                                                                  PPOT1523
065085     IF SQLCODE = ZERO                                            PPOT1523
065086        MOVE '335' TO BRS-GTN                                     PPOT1523
065087        MOVE WS-DED-EFF-DATE  TO BRS-EFFECT                       PPOT1523
065097     ELSE                                                         PPOT1523
065098        MOVE 'N'   TO BRS-ROW-SW                                  PPOT1523
065100     END-IF.                                                      PPOT1523
065101                                                                  PPOT1523
065102     EJECT                                                        PPOT1523
066223 8100-INSERT-DBL-DEPCARE-U   SECTION.                             PPOT1523
066224***********************************************************       PPOT1523
066225*     INSERT THE PPPDBL DATA - DEPCARE ANNUAL U BALNCE    *       PPOT1523
066226***********************************************************       PPOT1523
066227                                                                  PPOT1523
066228     INITIALIZE DBL-ROW-OUT.                                      PPOT1523
066232     MOVE WS-EMP-EMPLOYEE-ID   TO EMPLOYEE-ID OF DBL-ROW-OUT.     PPOT1523
066233     MOVE WS-EMP-GTN-AMT-U     TO GTN-AMT     OF DBL-ROW-OUT.     PPOT1523
066235     MOVE WS-DEPCARE-GTN       TO GTN-NUMBER  OF DBL-ROW-OUT.     PPOT1523
066237     MOVE WS-GTN-IND-U         TO GTN-IND     OF DBL-ROW-OUT.     PPOT1523
066240                                                                  PPOT1523
066241     IF EDB-UPDATE-REQUESTED  AND                                 PPOT1523
066242             BRS-DATE-FOUND                                       PPOT1523
066243        MOVE ' INSERT PPPVDBL2 COV' TO DB2MSG-TAG                 PPOT1523
066244        EXEC SQL                                                  PPOT1523
066245            INSERT INTO PPPVDBL2_DBL                              PPOT1523
066246                   VALUES (:DBL-ROW-OUT)                          PPOT1523
066247        END-EXEC                                                  PPOT1523
066300                                                                  PPOT1523
066400        IF SQLCODE = ZERO                                         PPOT1523
067000           ADD +1 TO  WS-DBL-ROWS-U-INSERTED                      PPOT1523
067100        END-IF                                                    PPOT1523
067101     END-IF.                                                      PPOT1523
067103                                                                  PPOT1523
067120     PERFORM 4000-CREATE-ECF-U.                                   PPOT1523
069400                                                                  PPOT1523
076000 8200-OPEN-EMP-CURSOR      SECTION.                               PPOT1523
076100***********************************************************       PPOT1523
076200*     OPEN MAIN EMP_CURSOR                                *       PPOT1523
076300***********************************************************       PPOT1523
076400                                                                  PPOT1523
076500     MOVE 'OPEN MAIN CURSOR' TO DB2MSG-TAG                        PPOT1523
076600     EXEC SQL                                                     PPOT1523
076700       OPEN EMP_CURSOR                                            PPOT1523
076800     END-EXEC.                                                    PPOT1523
076900                                                                  PPOT1523
077000 8300-FETCH-EMP-CURSOR     SECTION.                               PPOT1523
077100***********************************************************       PPOT1523
077200*     FETCH MAIN EMP_CURSOR                               *       PPOT1523
077300***********************************************************       PPOT1523
077400                                                                  PPOT1523
077500      MOVE 'FETCH EMP ROW' TO DB2MSG-TAG.                         PPOT1523
077600      EXEC SQL                                                    PPOT1523
077700          FETCH EMP_CURSOR INTO                                   PPOT1523
077800            :WS-EMP-EMPLOYEE-ID                                   PPOT1523
077900           ,:WS-EMP-GTN-NUMBER                                    PPOT1523
078000           ,:WS-EMP-GTN-IND                                       PPOT1523
078100           ,:WS-EMP-GTN-AMT-G                                     PPOT1523
078200           ,:WS-EMP-NAME                                          PPOT1523
078300      END-EXEC.                                                   PPOT1523
078400                                                                  PPOT1523
078410      MOVE ZERO TO WS-EMP-GTN-AMT-U.                              PPOT1523
078420      MOVE 'Y'  TO WS-CALC-ANNUAL-AMT-SW.                         PPOT1523
078500      IF SQLCODE = +100                                           PPOT1523
078600         SET EOF-EMP-DATA TO TRUE                                 PPOT1523
078700      ELSE                                                        PPOT1523
078800         IF SQLCODE = 0                                           PPOT1523
078900            MOVE WS-EMP-GTN-NUMBER TO DBL-GTN (1)                 PPOT1523
078910            MOVE WS-EMP-GTN-IND    TO DBL-GTN-IND (1)             PPOT1523
078920            MOVE WS-EMP-GTN-AMT-G  TO DBL-AMT (1)                 PPOT1523
079000            ADD  +1 TO WS-EMP-TOTAL                               PPOT1523
079410                                                                  PPOT1523
079500            MOVE 'SELECT PPPDBL ROW ' TO DB2MSG-TAG               PPOT1523
079700            EXEC SQL                                              PPOT1523
079800            SELECT                                                PPOT1523
079810               PPPVDBL1_DBL.GTN_AMT                               PPOT1523
079820            INTO                                                  PPOT1523
079830               :DBL-ROW.GTN-AMT                                   PPOT1523
079840            FROM PPPVDBL1_DBL                                     PPOT1523
079850            WHERE EMPLOYEE_ID    = :WS-EMP-EMPLOYEE-ID            PPOT1523
079860                 AND GTN_NUMBER  = '335'                          PPOT1523
079870                 AND GTN_IND     = 'U'                            PPOT1523
079880            END-EXEC                                              PPOT1523
079890            IF SQLCODE = ZERO                                     PPOT1523
079910               MOVE '335'  TO DBL-GTN  (2)                        PPOT1523
079911               MOVE 'U'    TO DBL-GTN-IND (2)                     PPOT1523
079913               MOVE GTN-AMT OF DBL-ROW TO DBL-AMT (2)             PPOT1523
079915               MOVE 'N' TO WS-CALC-ANNUAL-AMT-SW                  PPOT1523
079916          END-IF                                                  PPOT1523
079920      END-IF.                                                     PPOT1523
079930**   IF ANNUAL AMOUNT IS NOT FOUND THEN ONE WILL BE CALCULATED**  PPOT1523
079940**   WS-CALC-ANNUAL-AMT-SW WILL STILL BE SET TO 'Y'           **  PPOT1523
080000                                                                  PPOT1523
080100 8320-CLOSE-EMP-CURSOR     SECTION.                               PPOT1523
080200***********************************************************       PPOT1523
080300*     CLOSE MAIN DBL_CURSOR                               *       PPOT1523
080400***********************************************************       PPOT1523
080500                                                                  PPOT1523
080600     MOVE 'CLOSE MAIN CURSOR' TO DB2MSG-TAG                       PPOT1523
080700     EXEC SQL                                                     PPOT1523
080800       CLOSE EMP_CURSOR                                           PPOT1523
080900     END-EXEC.                                                    PPOT1523
081000     EJECT                                                        PPOT1523
081100                                                                  PPOT1523
081200                                                                  PPOT1523
081300 9000-FINALIZATION         SECTION.                               PPOT1523
081400***********************************************************       PPOT1523
081500*     FINALIZATION                                        *       PPOT1523
081600***********************************************************       PPOT1523
081700                                                                  PPOT1523
081701     PERFORM 7050-BUILD-MESSAGE-HDR.                              PPOT1523
081720                                                                  PPOT1523
081800     MOVE 'TOTAL NUMBER OF EMPLOYEES SELECTED'                    PPOT1523
081810                                TO RPT2-RECORD-DESC.              PPOT1523
081900     MOVE WS-EMP-TOTAL          TO RPT2-RECORD-TOTAL-Z.           PPOT1523
082000     MOVE OT15232-TOTAL-LINE TO PRINT-REC.                        PPOT1523
082100     WRITE PRINT-REC AFTER ADVANCING +1.                          PPOT1523
082101                                                                  PPOT1523
082102     MOVE 'TOTAL NUMBER OF EMPLOYEE CHANGE RECORDS'               PPOT1523
082103                                TO RPT2-RECORD-DESC.              PPOT1523
082104     MOVE WS-ECF-WRITES         TO RPT2-RECORD-TOTAL-Z.           PPOT1523
082105     MOVE OT15232-TOTAL-LINE TO PRINT-REC.                        PPOT1523
082106     WRITE PRINT-REC AFTER ADVANCING +2.                          PPOT1523
082200                                                                  PPOT1523
082620     MOVE 'TOTAL NUMBER OF U-BAL ROWS INSERTED'                   PPOT1523
082630                                 TO RPT2-RECORD-DESC.             PPOT1523
082640     MOVE WS-DBL-ROWS-U-INSERTED TO RPT2-RECORD-TOTAL-Z.          PPOT1523
082650     MOVE OT15232-TOTAL-LINE TO PRINT-REC.                        PPOT1523
082660     WRITE PRINT-REC AFTER ADVANCING +2.                          PPOT1523
082661                                                                  PPOT1523
082800     CLOSE PRINT-FILE                                             PPOT1523
082810           POT15231-REPORT                                        PPOT1523
082900           CARD-FILE                                              PPOT1523
083000           TEMP-EDBCHG                                            PPOT1523
083010                EDBCHG.                                           PPOT1523
083100                                                                  PPOT1523
083110     EJECT                                                        PPOT1523
083200 XDC3-DATE-CONVERSION      SECTION.                               PPOT1523
083300***********************************************************       PPOT1523
083400*     XDC3 DATE ROUTINES                                  *       PPOT1523
083500***********************************************************       PPOT1523
083600                                            COPY CPPDXDC3.        PPOT1523
084500                                                                  PPOT1523
084510     EJECT                                                        PPOT1523
084600***********************************************************       PPOT1523
084700*     NEGATIVE SQL ERROR                                  *       PPOT1523
084800***********************************************************       PPOT1523
084900*999999-SQL-ERROR.                                                PPOT1523
085000     EXEC SQL                                                     PPOT1523
085100          INCLUDE CPPDXP99                                        PPOT1523
085200     END-EXEC.                                                    PPOT1523
085300     IF NOT HERE-BEFORE                                           PPOT1523
085400         SET HERE-BEFORE TO TRUE                                  PPOT1523
085500         MOVE 'UPDATE ROLLBACK' TO DB2MSG-TAG                     PPOT1523
085600         EXEC SQL                                                 PPOT1523
085700             ROLLBACK WORK                                        PPOT1523
085800         END-EXEC                                                 PPOT1523
085900     END-IF.                                                      PPOT1523
086000     SET FATAL-ERROR TO TRUE                                      PPOT1523
086010     MOVE 'Negative SQL-See PPDB2MSG Diagnostics'                 PPOT1523
086100                    TO WS-MESSAGE-TEXT                            PPOT1523
086200     PERFORM 7000-BUILD-MESSAGE.                                  PPOT1523
086310     PERFORM 9000-FINALIZATION.                                   PPOT1523
086320     MOVE +9               TO RETURN-CODE.                        PPOT1523
086400     STOP RUN.                                                    PPOT1523
086410                                                                  PPOT1523
086500********  END OF PROGRAM PPOT1523 ********                        PPOT1523
