000000**************************************************************/   54181255
000001*  PROGRAM: PPOT1255                                         */   54181255
000002*  RELEASE: ___1255______ SERVICE REQUEST(S): _15418, 15419  */   54181255
000003*  NAME:_______WJG_______ CREATION DATE:      ___07/01/99__  */   54181255
000004*                                                            */   54181255
000005*  DESCRIPTION:                                              */   54181255
000070*                                                            */   54181255
000080*    ONE-TIME PROGRAM TO READ PPPPER TABLE AND POPULATE NEW  */   54181255
000090*    COLUMNS WITH APPROPRIATE VALUES FOR SEPARATED EMPLOYEES */   54181255
000092*                                                            */   54181255
000093**************************************************************/   54181255
000200 IDENTIFICATION DIVISION.                                         PPOT1255
000300 PROGRAM-ID.    PPOT1255.                                         PPOT1255
000400 AUTHOR.        WJG.                                              PPOT1255
000500 INSTALLATION.  UCOP.                                             PPOT1255
000600 DATE-WRITTEN.  OCTOBER 1999.                                     PPOT1255
000700 DATE-COMPILED. OCTOBER 1999.                                     PPOT1255
000800******************************************************************PPOT1255
000900*    PPOT1255 OVERVIEW                                            PPOT1255
001000*                                                                 PPOT1255
001100* INPUT:                                                          PPOT1255
001200*                                                                 PPOT1255
001300*   - PPPPER TABLE VIA A CURSOR                                   PPOT1255
001400*                                                                 PPOT1255
001500* OUTPUT:                                                         PPOT1255
001600*                                                                 PPOT1255
001700*  - AN EMPLOYEE CHANGE FILE                                      PPOT1255
001900*  - A CONTROL REPORT                                             PPOT1255
001910*  - AN ERROR REPORT                                              PPOT1255
001920*  - UPDATES APPLIED TO PPPPER TABLE                              PPOT1255
002000*                                                                 PPOT1255
002100* DESCRIPTION:                                                    PPOT1255
002200*                                                                 PPOT1255
002300*    THE PROGRAM ACCESSES THE PPPPER TABLE USING A CURSOR AND     PPOT1255
002400*    DETERMINES APPROPRIATE VALUES FOR THE FOLLOWING NEW FIELDS:  PPOT1255
002500*                                                                 PPOT1255
002600*        HOME-ADDR-RLSE     (EDB 0244)                            PPOT1255
002700*        HOME-PHONE-RLSE    (EDB 0245)                            PPOT1255
002710*        SPOUSE-NAME-RLSE   (EDB 0246)                            PPOT1255
002730*        EMP-ORG-ADDR-RLSE  (EDB 0247)                            PPOT1255
002731*        EMP-ORG-PHONE-RLSE (EDB 0248)                            PPOT1255
002740*        NET-ID             (EDB 0249)                            PPOT1255
002750*        FIRST-NAME         (EDB 0250)                            PPOT1255
002760*        MIDDLE-NAME        (EDB 0251)                            PPOT1255
002770*        LAST-NAME          (EDB 0252)                            PPOT1255
002808*                                                                 PPOT1255
002809*    THE FOLLOWING COLUMNS WILL BE INITIALIZED TO SPACES          PPOT1255
002810*                                                                 PPOT1255
002900******************************************************************PPOT1255
003000 ENVIRONMENT DIVISION.                                            PPOT1255
003100 CONFIGURATION SECTION.                                           PPOT1255
003200 SOURCE-COMPUTER.     IBM-370.                                    PPOT1255
003300 OBJECT-COMPUTER.     IBM-370.                                    PPOT1255
003400                                                                  PPOT1255
003500 SPECIAL-NAMES.                                                   PPOT1255
003600         C01 IS NEW-PAGE.                                         PPOT1255
003700                                                                  PPOT1255
003800 INPUT-OUTPUT SECTION.                                            PPOT1255
003900                                                                  PPOT1255
004000 FILE-CONTROL.                                                    PPOT1255
004100                                                                  PPOT1255
004200     SELECT SPEC-CARD-FILE   ASSIGN TO UT-S-CARDFIL.              PPOT1255
004500                                                                  PPOT1255
004600     SELECT TOTAL-RPT        ASSIGN TO UT-S-TOTALRPT.             PPOT1255
004700                                                                  PPOT1255
004800     SELECT ERROR-RPT        ASSIGN TO UT-S-ERRORRPT.             PPOT1255
004830                                                                  PPOT1255
004840     SELECT EDBCHG           COPY CPSLXCHG.                       PPOT1255
004900                                                                  PPOT1255
005000 DATA DIVISION.                                                   PPOT1255
005100 FILE SECTION.                                                    PPOT1255
005200     SKIP2                                                        PPOT1255
005300 FD  SPEC-CARD-FILE                                               PPOT1255
005400     BLOCK CONTAINS 0 RECORDS                                     PPOT1255
005500     RECORDING MODE IS F                                          PPOT1255
005600     RECORD CONTAINS 80  CHARACTERS                               PPOT1255
005700     LABEL RECORDS ARE STANDARD                                   PPOT1255
005800     DATA RECORD IS SPEC-CARD.                                    PPOT1255
005900     SKIP1                                                        PPOT1255
006000 01  SPEC-CARD.                                                   PPOT1255
006100     SKIP1                                                        PPOT1255
006200     05  PROG-IDENTIFICATION              PIC X(11).              PPOT1255
006201         88  VALID-PROG-ID                VALUE 'OT1255-SPEC'.    PPOT1255
006202     05  NEW-COLUMN-SETTING-FLAGS.                                PPOT1255
006210         10  HOME-ADDR-RLSE-FLAG          PIC X(01).              PPOT1255
006300             88  HOME-ADDR-RLSE-DEFAULT   VALUE SPACE.            PPOT1255
006310             88  HOME-ADDR-RLSE-COPY      VALUE 'C'.              PPOT1255
006320             88  HOME-ADDR-RLSE-BLANK     VALUE 'B'.              PPOT1255
006330         10  HOME-PHONE-RLSE-FLAG         PIC X(01).              PPOT1255
006340             88  HOME-PHONE-RLSE-DEFAULT  VALUE SPACE.            PPOT1255
006350             88  HOME-PHONE-RLSE-COPY     VALUE 'C'.              PPOT1255
006360             88  HOME-PHONE-RLSE-BLANK    VALUE 'B'.              PPOT1255
006370         10  SPOUSE-NAME-RLSE-FLAG        PIC X(01).              PPOT1255
006380             88  SPOUSE-NAME-RLSE-DEFAULT VALUE SPACE.            PPOT1255
006390             88  SPOUSE-NAME-RLSE-COPY    VALUE 'C'.              PPOT1255
006400             88  SPOUSE-NAME-RLSE-BLANK   VALUE 'B'.              PPOT1255
006500         10  EMP-ORG-PHONE-RLSE-FLAG      PIC X(01).              PPOT1255
006600             88  EMP-ORG-PHONE-RLSE-DEFAULT VALUE SPACE.          PPOT1255
006700             88  EMP-ORG-PHONE-RLSE-COPY  VALUE 'C'.              PPOT1255
006800             88  EMP-ORG-PHONE-RLSE-BLANK VALUE 'B'.              PPOT1255
006900     05  FILLER                           PIC X(65).              PPOT1255
007200     SKIP2                                                        PPOT1255
008600 FD  TOTAL-RPT                                                    PPOT1255
008700     BLOCK CONTAINS 0 RECORDS                                     PPOT1255
008800     RECORDING MODE IS F                                          PPOT1255
008900     RECORD CONTAINS 133 CHARACTERS                               PPOT1255
009000     LABEL RECORDS ARE STANDARD                                   PPOT1255
009100     DATA RECORD IS TOTAL-RPT-PRINT-LINE.                         PPOT1255
009200     SKIP1                                                        PPOT1255
009300 01  TOTAL-RPT-PRINT-LINE           PIC X(133).                   PPOT1255
009400     SKIP2                                                        PPOT1255
009500 FD  ERROR-RPT                                                    PPOT1255
009600     BLOCK CONTAINS 0 RECORDS                                     PPOT1255
009700     RECORDING MODE IS F                                          PPOT1255
009800     RECORD CONTAINS 133 CHARACTERS                               PPOT1255
009900     LABEL RECORDS ARE STANDARD                                   PPOT1255
010000     DATA RECORD IS ERROR-RPT-PRINT-LINE.                         PPOT1255
010100     SKIP1                                                        PPOT1255
010200 01  ERROR-RPT-PRINT-LINE            PIC X(133).                  PPOT1255
010300     SKIP2                                                        PPOT1255
010391 FD  EDBCHG                    COPY  CPFDXCHG                     PPOT1255
010392         REPLACING EDB-CHANGE-RECORD BY OCHG-EDB-CHANGE-RECORD.   PPOT1255
010393 01  OCHG-EDB-CHANGE-RECORD.   COPY CPWSXCHG                      PPOT1255
010394         REPLACING XCHG-FIXED-AREA     BY OCHG-FIXED-AREA         PPOT1255
010395                   XCHG-EMPLOYEE-ID    BY OCHG-EMPLOYEE-ID        PPOT1255
010396                   XCHG-DATA-ELEM-NO   BY OCHG-DATA-ELEM-NO       PPOT1255
010397                   XCHG-OCCURENCE-KEY  BY OCHG-OCCURENCE-KEY      PPOT1255
010398                   XCHG-PROCESS-ID     BY OCHG-PROCESS-ID         PPOT1255
010399                   XCHG-CHANGE-SOURCE  BY OCHG-CHANGE-SOURCE      PPOT1255
010400                   XCHG-TIMESTAMP      BY OCHG-TIMESTAMP          PPOT1255
010401                   XCHG-ODO-LENGTHS    BY OCHG-ODO-LENGTHS        PPOT1255
010402                   XCHG-OLD-VAL-LNGTH  BY OCHG-OLD-VAL-LNGTH      PPOT1255
010403                   XCHG-NEW-VAL1-LNGTH BY OCHG-NEW-VAL1-LNGTH     PPOT1255
010404                   XCHG-NEW-VAL2-LNGTH BY OCHG-NEW-VAL2-LNGTH     PPOT1255
010405                   XCHG-OLD-VALUE      BY OCHG-OLD-VALUE          PPOT1255
010406                   XCHG-OLD-VAL        BY OCHG-OLD-VAL            PPOT1255
010407                   XCHG-NEW-VALUE1     BY OCHG-NEW-VALUE1         PPOT1255
010408                   XCHG-NEW-VAL1       BY OCHG-NEW-VAL1           PPOT1255
010409                   XCHG-NEW-VALUE2     BY OCHG-NEW-VALUE2         PPOT1255
010410                   XCHG-NEW-VAL2       BY OCHG-NEW-VAL2.          PPOT1255
010411     EJECT                                                        PPOT1255
010420 WORKING-STORAGE SECTION.                                         PPOT1255
010500     SKIP2                                                        PPOT1255
010600 01  ALPHA-CONSTANTS.                                             PPOT1255
010700     05  THIS-PROGRAM                PIC X(08)  VALUE 'PPOT1255'. PPOT1255
011000 01  NUMERIC-CONSTANTS.                                           PPOT1255
011100     05  MAX-LINES-PER-PAGE          PIC S9(4) COMP  VALUE +55.   PPOT1255
011200     05  AUTO-ID-GEN-PARM-NO         PIC S9(4) COMP  VALUE +64.   PPOT1255
011300 01  ACCUMULATORS.                                                PPOT1255
011400     05  PER-ROWS-FETCHED            PIC S9(7) COMP  VALUE ZERO.  PPOT1255
011500     05  PER-ROWS-UPDATED            PIC S9(7) COMP  VALUE ZERO.  PPOT1255
011600     05  ERROR-LINE-COUNT            PIC S9(4) COMP  VALUE ZERO.  PPOT1255
011700     05  ERROR-PAGE-COUNT            PIC S9(4) COMP  VALUE ZERO.  PPOT1255
011800     05  TOTAL-LINE-COUNT            PIC S9(4) COMP  VALUE ZERO.  PPOT1255
011900     05  TOTAL-PAGE-COUNT            PIC S9(4) COMP  VALUE ZERO.  PPOT1255
012000     05  ADV-LINES                   PIC 9(01).                   PPOT1255
012100 01  SWITCHES.                                                    PPOT1255
012200     05  AUTO-ID-GEN-SW              PIC X(01)  VALUE SPACE.      PPOT1255
012300         88  AUTO-ID-GEN-ON                     VALUE 'Y'.        PPOT1255
012400         88  AUTO-ID-GEN-OFF                    VALUE 'N'.        PPOT1255
012401     05  IDB-SELECT-SW               PIC X(01)  VALUE SPACE.      PPOT1255
012402         88  IDB-SELECT-SUCCESSFUL              VALUE 'Y'.        PPOT1255
012403         88  IDB-SELECT-UNSUCCESSFUL            VALUE 'N'.        PPOT1255
012410     05  MORE-PER-ROWS-SW            PIC X(01)  VALUE SPACE.      PPOT1255
012420         88  MORE-PER-ROWS                      VALUE 'Y'.        PPOT1255
012430         88  NO-MORE-PER-ROWS                   VALUE 'N'.        PPOT1255
012500     SKIP2                                                        PPOT1255
012600 01  INDICATORS.                                                  PPOT1255
012700     05  TEMP-IND                    PIC S9(4) COMP.              PPOT1255
012800 01  INDICES.                                                     PPOT1255
012900     05  MISC-INDEX                  PIC S9(4) COMP.              PPOT1255
013000     05  ERROR-INDEX                 PIC S9(4) COMP.              PPOT1255
013100     05  SEVERITY-INDEX              PIC S9(4) COMP.              PPOT1255
013200     05  MOST-SEVERE                 PIC S9(4) COMP.              PPOT1255
013300 01  WS-TEMP-FIELDS.                                              PPOT1255
013400     05  WS-OLD-TIMESTAMP   PIC X(26).                            PPOT1255
013410     05  WS-TIMESTAMP       PIC X(26).                            PPOT1255
013500     05  WS-CEELOCT-TIMESTAMP.                                    PPOT1255
013600         10  WS-CC          PIC X(02).                            PPOT1255
013700         10  WS-YY          PIC X(02).                            PPOT1255
013800         10  FILLER         PIC X(01) VALUE '-'.                  PPOT1255
013900         10  WS-MM          PIC X(02).                            PPOT1255
014000         10  FILLER         PIC X(01) VALUE '-'.                  PPOT1255
014100         10  WS-DD          PIC X(02).                            PPOT1255
014200         10  FILLER         PIC X(01) VALUE '-'.                  PPOT1255
014300         10  WS-HH          PIC X(02).                            PPOT1255
014400         10  FILLER         PIC X(01) VALUE '.'.                  PPOT1255
014500         10  WS-MN          PIC X(02).                            PPOT1255
014600         10  FILLER         PIC X(01) VALUE '.'.                  PPOT1255
014700         10  WS-SS          PIC X(02).                            PPOT1255
014800         10  FILLER         PIC X(01) VALUE '.'.                  PPOT1255
014900         10  WS-MS          PIC X(06).                            PPOT1255
015000     05  WS-RUN-DATE-ISO.                                         PPOT1255
015100         10  WS-RUN-CC      PIC X(02).                            PPOT1255
015200         10  WS-RUN-YY      PIC X(02).                            PPOT1255
015300         10  WS-RUN-DASH-1  PIC X(01) VALUE '-'.                  PPOT1255
015400         10  WS-RUN-MM      PIC X(02).                            PPOT1255
015500         10  WS-RUN-DASH-2  PIC X(01) VALUE '-'.                  PPOT1255
015600         10  WS-RUN-DD      PIC X(02).                            PPOT1255
015700     05  WS-OLD-ADDR-DISCLOSURE1  PIC X(01).                      PPOT1255
015701     05  WS-OLD-ADDR-DISCLOSURE2  PIC X(01).                      PPOT1255
015702     05  WS-OLD-SPOUSE-DISC-IND   PIC X(01).                      PPOT1255
015703     05  WS-OLD-EMP-ORGAN-DISCLO  PIC X(01).                      PPOT1255
015710 01  ERROR-DISPLAY-SPLIT.                                         PPOT1255
015800     05  ERROR-DISP1              PIC X(30).                      PPOT1255
015900     05  FILLER                   PIC X(3)  VALUE SPACES.         PPOT1255
016000     05  ERROR-DISP2              PIC X(30).                      PPOT1255
016100     05  FILLER                   PIC X(3)  VALUE SPACES.         PPOT1255
016200     05  ERROR-DISP3              PIC X(30).                      PPOT1255
016300     05  FILLER                   PIC X(4)  VALUE SPACES.         PPOT1255
016400     SKIP3                                                        PPOT1255
016500 01  ERROR-MESSAGE-SEVERITY-DATA.                                 PPOT1255
016600     03 ERROR-SEVERITY-LITERALS.                                  PPOT1255
016700         05 FILLER                  PIC X(11)                     PPOT1255
016800         VALUE 'SEE SYSTEMS'.                                     PPOT1255
016900         05 FILLER                  PIC X(11)                     PPOT1255
017000         VALUE 'SERIOUS    '.                                     PPOT1255
017100         05 FILLER                  PIC X(11)                     PPOT1255
017200         VALUE 'INFORMATION'.                                     PPOT1255
017300     03 ERROR-SEVERITY-TABLE REDEFINES ERROR-SEVERITY-LITERALS.   PPOT1255
017400         05 ERROR-SEVERITY-NAME     PIC X(11) OCCURS 3 TIMES.     PPOT1255
017500     SKIP2                                                        PPOT1255
017600 01  ERROR-MESSAGE-DATA.                                          PPOT1255
017700     03  ERROR-MESSAGES.                                          PPOT1255
017800         05 FILLER                  PIC X(51)                     PPOT1255
017900         VALUE '1NEGATIVE SQLCODE ENCOUNTERED     '.              PPOT1255
018200         05 FILLER                  PIC X(51)                     PPOT1255
018300         VALUE '1CAMPUS CONTROL RECORD IS MISSING '.              PPOT1255
018301         05 FILLER                  PIC X(51)                     PPOT1255
018302         VALUE '1SYSTEM CONTROL RECORD IS MISSING '.              PPOT1255
018310         05 FILLER                  PIC X(51)                     PPOT1255
018320         VALUE '1SPEC CARD IS MISSING'.                           PPOT1255
018330         05 FILLER                  PIC X(51)                     PPOT1255
018340         VALUE '1SYSTEM PARAMETER 64 NOT ESTABLISHED'.            PPOT1255
018350         05 FILLER                  PIC X(51)                     PPOT1255
018360         VALUE '3EMPLOYEE ID NOT FOUND ON IDB TABLE'.             PPOT1255
018400     03  ERROR-MESSAGE-TABLE REDEFINES ERROR-MESSAGES             PPOT1255
018500                                          OCCURS  4 TIMES.        PPOT1255
018600         05 ERROR-SEVERITY          PIC 9(01).                    PPOT1255
018700         05 ERROR-MESSAGE           PIC X(50).                    PPOT1255
018800     SKIP2                                                        PPOT1255
018900 01  ERROR-MESSAGE-DISPLAY-AREA.                                  PPOT1255
019000     03 FILLER                      PIC X(02)   VALUE SPACES.     PPOT1255
019100     03 ERROR-MESSAGE-NO            PIC 9(03).                    PPOT1255
019200     03 FILLER                      PIC X(02)   VALUE SPACES.     PPOT1255
019300     03 DISPLAY-SEVERITY-NAME       PIC X(11).                    PPOT1255
019400     03 FILLER                      PIC X(02)   VALUE SPACES.     PPOT1255
019500     03 ERROR-RECORD-ID             PIC X(09).                    PPOT1255
019600     03 FILLER                      PIC X(02)   VALUE SPACES.     PPOT1255
019700     03 ERROR-EMP-NAME              PIC X(26).                    PPOT1255
019800     03 ERROR-DATA OCCURS 2 TIMES.                                PPOT1255
019900         05 FILLER                  PIC X(02)   VALUE SPACES.     PPOT1255
020000         05 ERROR-DATA-FIELD        PIC X(09).                    PPOT1255
020100     03 FILLER                      PIC X(02)   VALUE SPACES.     PPOT1255
020200     03 ERROR-MESSAGE-TEXT          PIC X(50).                    PPOT1255
020300     03 FILLER                      PIC X(01)   VALUE SPACE.      PPOT1255
020400     SKIP2                                                        PPOT1255
020500 01  WORK-AREAS.                                                  PPOT1255
021400     05  WS-EMPLOYEE-ID              PIC X(09).                   PPOT1255
021410     05  WS-SQL-ACTION               PIC X(10).                   PPOT1255
021500     05  WS-SQLCODE                  PIC -999.                    PPOT1255
021600     SKIP2                                                        PPOT1255
021800 01  ONET-REPORTS.                                                PPOT1255
021900     SKIP2                                                        PPOT1255
022000     03  ERROR-HEADER-RECORD-1.                                   PPOT1255
022100         05  FILLER                  PIC X(01).                   PPOT1255
022200         05  FILLER                  PIC X(08)  VALUE 'PPOT1255'. PPOT1255
022300         05  FILLER                  PIC X(36)  VALUE SPACES.     PPOT1255
022400         05  FILLER                  PIC X(24)                    PPOT1255
022500             VALUE 'UNIVERSITY OF CALIFORNIA'.                    PPOT1255
022510         05  FILLER                  PIC X(01)  VALUE '-'.        PPOT1255
022600         05  ERROR-RPT-CAMPUS-NAME   PIC X(20).                   PPOT1255
022700         05  FILLER                  PIC X(35)  VALUE SPACES.     PPOT1255
022800         05  FILLER                  PIC X(05)  VALUE 'PAGE '.    PPOT1255
022900         05  ERROR-REPORT-PAGE-NO    PIC ZZ9.                     PPOT1255
023000     SKIP2                                                        PPOT1255
023100     03  ERROR-HEADER-RECORD-2.                                   PPOT1255
023200         05  FILLER                  PIC X(01).                   PPOT1255
023300         05  FILLER                  PIC X(54) VALUE SPACES.      PPOT1255
023400         05  FILLER                  PIC X(25)                    PPOT1255
023500             VALUE ' PPPTOE TABLE CONVERSION '.                   PPOT1255
023600         05  FILLER                  PIC X(36)  VALUE SPACES.     PPOT1255
023700         05  FILLER                  PIC X(09) VALUE 'RUN DATE '. PPOT1255
023800         05  ERROR-REPORT-RUN-DATE   PIC X(08).                   PPOT1255
023900     SKIP2                                                        PPOT1255
024000     03  ERROR-HEADER-RECORD-3.                                   PPOT1255
024100         05  FILLER                  PIC X(01).                   PPOT1255
024200         05  FILLER                  PIC X(44)                    PPOT1255
024300             VALUE '                                            '.PPOT1255
024400         05  FILLER                  PIC X(44)                    PPOT1255
024500             VALUE '               ERROR REPORT                 '.PPOT1255
024600         05  FILLER                  PIC X(44)                    PPOT1255
024700             VALUE '                                            '.PPOT1255
024800     SKIP2                                                        PPOT1255
024900     03  ERROR-HEADER-RECORD-4.                                   PPOT1255
025000         05  FILLER                  PIC X(01).                   PPOT1255
025100         05  FILLER                  PIC X(44)                    PPOT1255
025200             VALUE '--------------------------------------------'.PPOT1255
025300         05  FILLER                  PIC X(44)                    PPOT1255
025400             VALUE '--------------------------------------------'.PPOT1255
025500         05  FILLER                  PIC X(44)                    PPOT1255
025600             VALUE '--------------------------------------------'.PPOT1255
025700     SKIP2                                                        PPOT1255
025830     03  TOTAL-HEADER-RECORD-1.                                   PPOT1255
025900         05  FILLER                  PIC X(01).                   PPOT1255
026000         05  FILLER                  PIC X(08)  VALUE 'PPOT1255'. PPOT1255
026100         05  FILLER                  PIC X(36)  VALUE SPACES.     PPOT1255
026200         05  FILLER                  PIC X(24)                    PPOT1255
026300             VALUE 'UNIVERSITY OF CALIFORNIA'.                    PPOT1255
026310         05  FILLER                  PIC X(01)  VALUE '-'.        PPOT1255
026400         05  TOTAL-RPT-CAMPUS-NAME   PIC X(20).                   PPOT1255
026500         05  FILLER                  PIC X(35)  VALUE SPACES.     PPOT1255
026600         05  FILLER                  PIC X(05)  VALUE 'PAGE '.    PPOT1255
026700         05  TOTAL-REPORT-PAGE-NO    PIC ZZ9.                     PPOT1255
026800     SKIP2                                                        PPOT1255
026900     03  TOTAL-HEADER-RECORD-2.                                   PPOT1255
027000         05  FILLER                  PIC X(01).                   PPOT1255
027100         05  FILLER                  PIC X(54)  VALUE SPACES.     PPOT1255
027200         05  FILLER                  PIC X(25)                    PPOT1255
027300             VALUE ' PPPPER TABLE CONVERSION '.                   PPOT1255
027400         05  FILLER                  PIC X(36)  VALUE SPACES.     PPOT1255
027500         05  FILLER                  PIC X(09) VALUE 'RUN DATE '. PPOT1255
027600         05  TOTAL-REPORT-RUN-DATE   PIC X(08).                   PPOT1255
027700     SKIP2                                                        PPOT1255
027800     03  TOTAL-HEADER-RECORD-3.                                   PPOT1255
027900         05  FILLER                  PIC X(01).                   PPOT1255
028000         05  FILLER                  PIC X(52) VALUE SPACES.      PPOT1255
028100         05  FILLER                  PIC X(30)                    PPOT1255
028200         VALUE '       CONTROL REPORT        '.                   PPOT1255
028300         05  FILLER                  PIC X(50) VALUE SPACES.      PPOT1255
028400     SKIP2                                                        PPOT1255
028500     03  TOTAL-HEADER-RECORD-4.                                   PPOT1255
028600         05  FILLER                  PIC X(01).                   PPOT1255
028700         05  FILLER                  PIC X(44)                    PPOT1255
028800             VALUE '                                            '.PPOT1255
028900         05  FILLER                  PIC X(44)                    PPOT1255
029000             VALUE '                                            '.PPOT1255
029100         05  FILLER                  PIC X(44)                    PPOT1255
029200             VALUE '                                            '.PPOT1255
029300     SKIP2                                                        PPOT1255
029400     03  TOTAL-HEADER-RECORD-5.                                   PPOT1255
029500         05  FILLER                  PIC X(44)                    PPOT1255
029600             VALUE '--------------------------------------------'.PPOT1255
029700         05  FILLER                  PIC X(44)                    PPOT1255
029800             VALUE '--------------------------------------------'.PPOT1255
029900         05  FILLER                  PIC X(44)                    PPOT1255
030000             VALUE '--------------------------------------------'.PPOT1255
030100     SKIP2                                                        PPOT1255
030200     03  TOTAL-DETAIL.                                            PPOT1255
030300         05  FILLER                  PIC X(01).                   PPOT1255
030400         05  FILLER                  PIC X(49) VALUE SPACES.      PPOT1255
030500         05  TOTAL-DETAIL-LABEL      PIC X(27).                   PPOT1255
030600         05  TOTAL-DETAIL-COUNT      PIC -,---,--9.               PPOT1255
030700         05  FILLER                  PIC X(47) VALUE SPACES.      PPOT1255
030800     EJECT                                                        PPOT1255
030900***************************************************************** PPOT1255
031000***            SQL-RELATED DATA DEFINITIONS                   *** PPOT1255
031100***************************************************************** PPOT1255
031200     EXEC SQL                                                     PPOT1255
031300        INCLUDE SQLCA                                             PPOT1255
031400     END-EXEC.                                                    PPOT1255
031500     SKIP2                                                        PPOT1255
031600 01  CCR-ROW-DATA.                                                PPOT1255
031700     EXEC SQL                                                     PPOT1255
031800        INCLUDE PPPVZCCR                                          PPOT1255
031900     END-EXEC.                                                    PPOT1255
032000     SKIP2                                                        PPOT1255
032001     SKIP2                                                        PPOT1255
032002 01  SCR-ROW-DATA.                                                PPOT1255
032003     EXEC SQL                                                     PPOT1255
032004        INCLUDE PPPVZSCR                                          PPOT1255
032005     END-EXEC.                                                    PPOT1255
032006     SKIP2                                                        PPOT1255
032010 01  PER-ROW.                                                     PPOT1255
032020     EXEC SQL                                                     PPOT1255
032030        INCLUDE PPPVPER2                                          PPOT1255
032040     END-EXEC.                                                    PPOT1255
032041 01  PRM-ROW.                                                     PPOT1255
032042     EXEC SQL                                                     PPOT1255
032043        INCLUDE PPPVZPRM                                          PPOT1255
032044     END-EXEC.                                                    PPOT1255
032050 01  IDB-ROW.                                                     PPOT1255
032060     EXEC SQL                                                     PPOT1255
032070        INCLUDE UC0VZIDB                                          PPOT1255
032080     END-EXEC.                                                    PPOT1255
032100***************************************************************   PPOT1255
032200*       CURSOR DECLARATIONS                                       PPOT1255
032300***************************************************************   PPOT1255
032400     EXEC SQL                                                     PPOT1255
032401          DECLARE PER_ROW_CURSOR CURSOR FOR                       PPOT1255
032402          SELECT                                                  PPOT1255
032403                 EMPLOYEE_ID                                      PPOT1255
032404                ,EMP_NAME                                         PPOT1255
032405                ,EMP_CHANGED_AT                                   PPOT1255
032406                ,ADDR_DISCLOSURE1                                 PPOT1255
032407                ,ADDR_DISCLOSURE2                                 PPOT1255
032408                ,SPOUSE_DISC_IND                                  PPOT1255
032409                ,EMP_ORGAN_DISCLO                                 PPOT1255
032410            FROM PPPVPER2_PER                                     PPOT1255
032411           WHERE EMP_STATUS = 'S'                                 PPOT1255
032412           ORDER BY EMP_NAME                                      PPOT1255
032420     END-EXEC.                                                    PPOT1255
032500***************************************************************   PPOT1255
032600*     SQL ERROR MESSAGES                                          PPOT1255
032700***************************************************************   PPOT1255
032800 01  PPDB2MSG-INTERFACE.                                          PPOT1255
032900                         COPY CPLNKDB2.                           PPOT1255
033000     SKIP2                                                        PPOT1255
033100 01  WS-DB2ERROR-FIELDS.                                          PPOT1255
033200     05  WS-DB2ERR-TAG-INFO.                                      PPOT1255
033300       10  WS-DB2ERR-KEY      PIC X(15).                          PPOT1255
033400       10  WS-DB2ERR-TBL-NAME PIC X(03).                          PPOT1255
033500       10  WS-DB2ERR-FUNCTION PIC X(10).                          PPOT1255
033600       10  WS-DB2ERR-MSG      PIC X(03).                          PPOT1255
033700     SKIP2                                                        PPOT1255
033800 01  WS-DB2-ERR-MSG-INFO.                                         PPOT1255
033900     05  WS-OPEN-FN         PIC X(10) VALUE 'OPEN    '.           PPOT1255
034000     05  WS-CLOSE-FN        PIC X(10) VALUE 'CLOSE   '.           PPOT1255
034100     05  WS-FETCH-FN        PIC X(10) VALUE 'FETCH   '.           PPOT1255
034200     05  WS-SELECT-FN       PIC X(10) VALUE 'SELECT  '.           PPOT1255
034300     05  WS-DECLARE-FN      PIC X(10) VALUE 'DECLARE '.           PPOT1255
034400     05  WS-UPDATE-FN       PIC X(10) VALUE 'UPDATE  '.           PPOT1255
034500     05  WS-ADD-FN          PIC X(10) VALUE 'ADD     '.           PPOT1255
034600     05  WS-DELETE-FN       PIC X(10) VALUE 'DELETE  '.           PPOT1255
035100     EJECT                                                        PPOT1255
035200 01  PPNAMGEN-INTERFACE.              COPY CPWSNAME.              PPOT1255
035201 01  XSCR-SYSTEM-CONTROL-RECORD.      COPY CPWSXSCR.              PPOT1255
035203 01  DATE-CONVERSION-WORK-AREAS.      COPY CPWSXDC3.              PPOT1255
035205 01  EDB-CHANGE-RECORD.               COPY CPWSXCHG.              PPOT1255
035210 01  DATE-FORMAT.                     COPY CPWSDATE.              PPOT1255
035300 01  TIME-FORMAT.                     COPY CPWSTIME.              PPOT1255
035400     EJECT                                                        PPOT1255
035500 PROCEDURE DIVISION.                                              PPOT1255
035600***************************************************************   PPOT1255
035700**                  PROCEDURE DIVISION                            PPOT1255
035800***************************************************************   PPOT1255
035900                                                                  PPOT1255
036000     EXEC SQL                                                     PPOT1255
036100          WHENEVER NOT FOUND                                      PPOT1255
036200          CONTINUE                                                PPOT1255
036300     END-EXEC.                                                    PPOT1255
036400                                                                  PPOT1255
036500 00001-MAINLINE    SECTION.                                       PPOT1255
036600                                                                  PPOT1255
036700     PERFORM 10000-INITIALIZATION.                                PPOT1255
036800                                                                  PPOT1255
036900     PERFORM 20000-PROCESS-ALL.                                   PPOT1255
037000                                                                  PPOT1255
037100     PERFORM 90000-END-OF-JOB.                                    PPOT1255
037200                                                                  PPOT1255
037300 00009-EXIT.                                                      PPOT1255
037400     STOP RUN.                                                    PPOT1255
037500     EJECT                                                        PPOT1255
037600 10000-INITIALIZATION    SECTION.                                 PPOT1255
037700                                                                  PPOT1255
037800     PERFORM XDC3-GET-CURRENT-DATE.                               PPOT1255
038000     MOVE XDC3-GREG-CC TO WS-CC.                                  PPOT1255
038100     MOVE XDC3-GREG-YY TO WS-YY.                                  PPOT1255
038110     MOVE XDC3-GREG-MM TO WS-MM.                                  PPOT1255
038120     MOVE XDC3-GREG-DD TO WS-DD.                                  PPOT1255
038130     MOVE XDC3-GREG-HH TO WS-HH.                                  PPOT1255
038140     MOVE XDC3-GREG-MI TO WS-MN.                                  PPOT1255
038150     MOVE XDC3-GREG-SS TO WS-SS.                                  PPOT1255
038151     MOVE XDC3-GREG-MS TO WS-MS.                                  PPOT1255
038160     PERFORM XDC3-CONVERT-LILIAN-TO-ISO.                          PPOT1255
038170     MOVE WS-CEELOCT-TIMESTAMP TO WS-TIMESTAMP.                   PPOT1255
038900                                                                  PPOT1255
039000     INITIALIZE INDICES.                                          PPOT1255
039100     MOVE +4 TO MOST-SEVERE.                                      PPOT1255
039200     INITIALIZE ACCUMULATORS.                                     PPOT1255
039300     MOVE  +58 TO TOTAL-LINE-COUNT                                PPOT1255
039410                  ERROR-LINE-COUNT.                               PPOT1255
039500     MOVE ZERO TO TOTAL-PAGE-COUNT                                PPOT1255
039610                  ERROR-PAGE-COUNT.                               PPOT1255
039700                                                                  PPOT1255
039800     MOVE XDC3-FMT-DATE  TO TOTAL-REPORT-RUN-DATE,                PPOT1255
039910                            ERROR-REPORT-RUN-DATE.                PPOT1255
040000                                                                  PPOT1255
040100     OPEN  INPUT                                                  PPOT1255
040200           SPEC-CARD-FILE.                                        PPOT1255
040300                                                                  PPOT1255
040400     OPEN OUTPUT                                                  PPOT1255
040500           TOTAL-RPT,                                             PPOT1255
040600           ERROR-RPT,                                             PPOT1255
040700           EDBCHG.                                                PPOT1255
040800                                                                  PPOT1255
040900     READ SPEC-CARD-FILE                                          PPOT1255
040902          AT END MOVE +4 TO ERROR-INDEX                           PPOT1255
040903                 PERFORM 44000-ERROR-WRITE                        PPOT1255
040904     END-READ.                                                    PPOT1255
040910                                                                  PPOT1255
040920     MOVE 'SELECTCCR' TO WS-SQL-ACTION.                           PPOT1255
041000                                                                  PPOT1255
041100     EXEC SQL                                                     PPOT1255
041200          SELECT CCR_CAMPUS_NAME                                  PPOT1255
041300            INTO :CCR-CAMPUS-NAME:TEMP-IND                        PPOT1255
041400            FROM PPPVZCCR_CCR                                     PPOT1255
041500     END-EXEC.                                                    PPOT1255
041600                                                                  PPOT1255
041700     EVALUATE SQLCODE                                             PPOT1255
041800         WHEN ZERO                                                PPOT1255
041900              MOVE CCR-CAMPUS-NAME TO ERROR-RPT-CAMPUS-NAME       PPOT1255
042000                                      TOTAL-RPT-CAMPUS-NAME       PPOT1255
042100         WHEN +100                                                PPOT1255
042200              MOVE +2 TO ERROR-INDEX                              PPOT1255
042300              PERFORM 44000-ERROR-WRITE                           PPOT1255
042400         WHEN OTHER                                               PPOT1255
042500              PERFORM 999998-SQL-ERROR-PREP                       PPOT1255
042600              PERFORM 999999-SQL-ERROR                            PPOT1255
042700              PERFORM 44000-ERROR-WRITE                           PPOT1255
042800     END-EVALUATE.                                                PPOT1255
042801                                                                  PPOT1255
042802     MOVE 'SELECTPRM' TO WS-SQL-ACTION.                           PPOT1255
042803     MOVE ZERO        TO TEMP-IND.                                PPOT1255
042804                                                                  PPOT1255
042805     EXEC SQL                                                     PPOT1255
042806          SELECT PRM_DATA                                         PPOT1255
042807            INTO :PRM-DATA:TEMP-IND                               PPOT1255
042808            FROM PPPVZPRM_PRM                                     PPOT1255
042809           WHERE PRM_NUMBER = :AUTO-ID-GEN-PARM-NO                PPOT1255
042810     END-EXEC.                                                    PPOT1255
042811                                                                  PPOT1255
042812     EVALUATE SQLCODE                                             PPOT1255
042813         WHEN ZERO                                                PPOT1255
042814              IF  PRM-DATA GREATER THAN ZERO                      PPOT1255
042815                  SET AUTO-ID-GEN-ON  TO TRUE                     PPOT1255
042816              ELSE                                                PPOT1255
042817                  SET AUTO-ID-GEN-OFF TO TRUE                     PPOT1255
042818              END-IF                                              PPOT1255
042819         WHEN +100                                                PPOT1255
042820              MOVE +5 TO ERROR-INDEX                              PPOT1255
042821              PERFORM 44000-ERROR-WRITE                           PPOT1255
042822         WHEN OTHER                                               PPOT1255
042823              PERFORM 999998-SQL-ERROR-PREP                       PPOT1255
042824              PERFORM 999999-SQL-ERROR                            PPOT1255
042825              PERFORM 44000-ERROR-WRITE                           PPOT1255
042826     END-EVALUATE.                                                PPOT1255
042827                                                                  PPOT1255
042828     MOVE 'SELECTSCR' TO WS-SQL-ACTION.                           PPOT1255
042829                                                                  PPOT1255
042830     EXEC SQL                                                     PPOT1255
042831         SELECT                                                   PPOT1255
042832          CHAR(SCR_PROCESS_DATE, ISO)                             PPOT1255
042833         ,CHAR(SCR_PURGE_DATE, ISO)                               PPOT1255
042834         ,CHAR(SCR_CURRENT_DATE, ISO)                             PPOT1255
042835         ,SCR_NEXTCYCLE_MO                                        PPOT1255
042836         ,SCR_NEXTCYCLE_QTR                                       PPOT1255
042837         ,SCR_NEXTCYCLE_YR                                        PPOT1255
042838         ,SCR_NEXTCYCLE_FYR                                       PPOT1255
042839         ,SCR_EDB_GENNUM                                          PPOT1255
042840         INTO                                                     PPOT1255
042841         :SCR-PROCESS-DATE                                        PPOT1255
042842        ,:SCR-PURGE-DATE                                          PPOT1255
042843        ,:SCR-CURRENT-DATE                                        PPOT1255
042844        ,:SCR-NEXTCYCLE-MO                                        PPOT1255
042845        ,:SCR-NEXTCYCLE-QTR                                       PPOT1255
042846        ,:SCR-NEXTCYCLE-YR                                        PPOT1255
042847        ,:SCR-NEXTCYCLE-FYR                                       PPOT1255
042848        ,:SCR-EDB-GENNUM                                          PPOT1255
042849                  FROM PPPVZSCR_SCR                               PPOT1255
042850     END-EXEC.                                                    PPOT1255
042851                                                                  PPOT1255
042852     EVALUATE SQLCODE                                             PPOT1255
042853         WHEN ZERO                                                PPOT1255
042854              INITIALIZE XSCR-SYSTEM-CONTROL-RECORD               PPOT1255
042855              MOVE '          SCR' TO XSCR-KEY-AREA               PPOT1255
042856              MOVE SCR-PROCESS-DATE OF SCR-ROW-DATA               PPOT1255
042857                                               TO XDC3-ISO-DATE   PPOT1255
042858              PERFORM XDC3-CONVERT-ISO-TO-STD                     PPOT1255
042859              MOVE XDC3-STD-DATE TO XSCR-PROCESS-DATE             PPOT1255
042860              MOVE SCR-NEXTCYCLE-MO OF SCR-ROW-DATA               PPOT1255
042861                                               TO XSCR-NEXT-MONTH PPOT1255
042862              MOVE SCR-NEXTCYCLE-QTR OF SCR-ROW-DATA              PPOT1255
042863                                                TO XSCR-NEXT-QTR  PPOT1255
042864              MOVE SCR-NEXTCYCLE-YR OF SCR-ROW-DATA               PPOT1255
042865                                               TO XSCR-NEXT-YEAR  PPOT1255
042866              MOVE SCR-NEXTCYCLE-FYR OF SCR-ROW-DATA              PPOT1255
042867                                                TO XSCR-NEXT-FY   PPOT1255
042868              MOVE 'OT' TO XSCR-LAST-PGM-RUN                      PPOT1255
042869              MOVE SCR-EDB-GENNUM OF SCR-ROW-DATA                 PPOT1255
042870                                             TO XSCR-EDB-GEN-NO   PPOT1255
042871              MOVE SCR-PURGE-DATE OF SCR-ROW-DATA                 PPOT1255
042872                                             TO XDC3-ISO-DATE     PPOT1255
042873              PERFORM XDC3-CONVERT-ISO-TO-STD                     PPOT1255
042874              MOVE XDC3-STD-DATE TO XSCR-PURGE-DATE               PPOT1255
042875              MOVE SCR-CURRENT-DATE OF SCR-ROW-DATA               PPOT1255
042876                                               TO XDC3-ISO-DATE   PPOT1255
042877              PERFORM XDC3-CONVERT-ISO-TO-STD                     PPOT1255
042878              MOVE XDC3-STD-DATE TO XSCR-CURRENT-DATE             PPOT1255
042879         WHEN +100                                                PPOT1255
042880              MOVE +3 TO ERROR-INDEX                              PPOT1255
042881              PERFORM 44000-ERROR-WRITE                           PPOT1255
042882         WHEN OTHER                                               PPOT1255
042883              PERFORM 999998-SQL-ERROR-PREP                       PPOT1255
042884              PERFORM 999999-SQL-ERROR                            PPOT1255
042885              PERFORM 44000-ERROR-WRITE                           PPOT1255
042886     END-EVALUATE.                                                PPOT1255
042887                                                                  PPOT1255
042888     MOVE LOW-VALUES           TO XCHG-ODO-LENGTHS.               PPOT1255
042889     MOVE XSCR-SYSTEM-CONTROL-RECORD  TO EDB-CHANGE-RECORD.       PPOT1255
042890     MOVE LOW-VALUES           TO XCHG-ODO-LENGTHS.               PPOT1255
042891     WRITE OCHG-EDB-CHANGE-RECORD  FROM EDB-CHANGE-RECORD.        PPOT1255
042892                                                                  PPOT1255
042893     MOVE 'OPEN PER ' TO WS-SQL-ACTION.                           PPOT1255
042894                                                                  PPOT1255
042895     EXEC SQL                                                     PPOT1255
042896          OPEN PER_ROW_CURSOR                                     PPOT1255
042897     END-EXEC.                                                    PPOT1255
042898                                                                  PPOT1255
042899     EVALUATE SQLCODE                                             PPOT1255
042900         WHEN ZERO                                                PPOT1255
042901              PERFORM 21000-FETCH-PER-ROW                         PPOT1255
042902         WHEN OTHER                                               PPOT1255
042903              PERFORM 999998-SQL-ERROR-PREP                       PPOT1255
042904              PERFORM 999999-SQL-ERROR                            PPOT1255
042910              PERFORM 44000-ERROR-WRITE                           PPOT1255
043000     END-EVALUATE.                                                PPOT1255
043100                                                                  PPOT1255
043200 10009-EXIT.                                                      PPOT1255
043300      EXIT.                                                       PPOT1255
043400      EJECT                                                       PPOT1255
043500 20000-PROCESS-ALL  SECTION.                                      PPOT1255
043600                                                                  PPOT1255
043700     IF  NO-MORE-PER-ROWS                                         PPOT1255
044200         GO TO 20009-EXIT                                         PPOT1255
044400     END-IF.                                                      PPOT1255
044500                                                                  PPOT1255
044630     MOVE EMP-CHANGED-AT   TO WS-OLD-TIMESTAMP.                   PPOT1255
044700                                                                  PPOT1255
044810     MOVE WS-TIMESTAMP     TO EMP-CHANGED-AT.                     PPOT1255
044820     MOVE EMP-ORGAN-DISCLO TO EMP-ORG-ADDR-RLSE.                  PPOT1255
044821     MOVE SPACES           TO NET-ID.                             PPOT1255
044830                                                                  PPOT1255
044900     EVALUATE TRUE                                                PPOT1255
044901         WHEN HOME-ADDR-RLSE-DEFAULT                              PPOT1255
044902              MOVE 'N'                                            PPOT1255
044903                TO HOME-ADDR-RLSE                                 PPOT1255
044904         WHEN HOME-ADDR-RLSE-COPY                                 PPOT1255
044905              MOVE ADDR-DISCLOSURE1                               PPOT1255
044906                TO HOME-ADDR-RLSE                                 PPOT1255
044907         WHEN OTHER                                               PPOT1255
044908              MOVE SPACE                                          PPOT1255
044909                TO HOME-ADDR-RLSE                                 PPOT1255
044910     END-EVALUATE.                                                PPOT1255
044911                                                                  PPOT1255
044912     EVALUATE TRUE                                                PPOT1255
044913         WHEN HOME-PHONE-RLSE-DEFAULT                             PPOT1255
044914              MOVE 'N'                                            PPOT1255
044915                TO HOME-PHONE-RLSE                                PPOT1255
044916         WHEN HOME-PHONE-RLSE-COPY                                PPOT1255
044917              MOVE ADDR-DISCLOSURE2                               PPOT1255
044918                TO HOME-PHONE-RLSE                                PPOT1255
044919         WHEN OTHER                                               PPOT1255
044920              MOVE SPACE                                          PPOT1255
044921                TO HOME-PHONE-RLSE                                PPOT1255
044922     END-EVALUATE.                                                PPOT1255
044930                                                                  PPOT1255
044940     EVALUATE TRUE                                                PPOT1255
044950         WHEN SPOUSE-NAME-RLSE-DEFAULT                            PPOT1255
044960              MOVE 'N'                                            PPOT1255
044970                TO SPOUSE-NAME-RLSE                               PPOT1255
044981         WHEN SPOUSE-NAME-RLSE-COPY                               EFIX1255
044990              MOVE SPOUSE-DISC-IND                                PPOT1255
044991                TO SPOUSE-NAME-RLSE                               PPOT1255
045100         WHEN OTHER                                               PPOT1255
045200              MOVE SPACE                                          PPOT1255
045201                TO SPOUSE-NAME-RLSE                               PPOT1255
045220     END-EVALUATE.                                                PPOT1255
045221                                                                  PPOT1255
045222     EVALUATE TRUE                                                PPOT1255
045223         WHEN EMP-ORG-PHONE-RLSE-DEFAULT                          PPOT1255
045224              MOVE 'Y'                                            PPOT1255
045225                TO EMP-ORG-PHONE-RLSE                             PPOT1255
045227         WHEN EMP-ORG-PHONE-RLSE-COPY                             EFIX1255
045229              MOVE EMP-ORGAN-DISCLO                               PPOT1255
045230                TO EMP-ORG-PHONE-RLSE                             PPOT1255
045231         WHEN OTHER                                               PPOT1255
045232              MOVE SPACE                                          PPOT1255
045233                TO EMP-ORG-PHONE-RLSE                             PPOT1255
045234     END-EVALUATE.                                                PPOT1255
045622                                                                  PPOT1255
045623     IF  AUTO-ID-GEN-ON                                           PPOT1255
045624         PERFORM 24000-SELECT-FROM-IDB                            PPOT1255
045625         IF  IDB-SELECT-UNSUCCESSFUL                              PPOT1255
045626             PERFORM 25000-DECOMPRESS-NAME                        PPOT1255
045627         END-IF                                                   PPOT1255
045628     ELSE                                                         PPOT1255
045629         PERFORM 25000-DECOMPRESS-NAME                            PPOT1255
045630     END-IF.                                                      PPOT1255
045720                                                                  PPOT1255
045730     PERFORM 22000-UPDATE-PER-ROW.                                PPOT1255
045731     PERFORM 23000-BUILD-WRITE-ECF.                               PPOT1255
045740     PERFORM 21000-FETCH-PER-ROW.                                 PPOT1255
045760                                                                  PPOT1255
046000     GO TO 20000-PROCESS-ALL.                                     PPOT1255
046010                                                                  PPOT1255
046100 20009-EXIT.                                                      PPOT1255
046200     EXIT.                                                        PPOT1255
046300     EJECT                                                        PPOT1255
047300 21000-FETCH-PER-ROW  SECTION.                                    PPOT1255
047400                                                                  PPOT1255
047401     MOVE 'FETCH PER' TO WS-SQL-ACTION.                           PPOT1255
047402                                                                  PPOT1255
047403     EXEC SQL                                                     PPOT1255
047404          FETCH PER_ROW_CURSOR                                    PPOT1255
047405           INTO                                                   PPOT1255
047406                :EMPLOYEE-ID                                      PPOT1255
047407               ,:EMP-NAME                                         PPOT1255
047408               ,:EMP-CHANGED-AT                                   PPOT1255
047409               ,:ADDR-DISCLOSURE1                                 PPOT1255
047410               ,:ADDR-DISCLOSURE2                                 PPOT1255
047411               ,:SPOUSE-DISC-IND                                  PPOT1255
047412               ,:EMP-ORGAN-DISCLO                                 PPOT1255
047413     END-EXEC.                                                    PPOT1255
047414                                                                  PPOT1255
047415     EVALUATE SQLCODE                                             PPOT1255
047416         WHEN ZERO                                                PPOT1255
047417              MOVE EMPLOYEE-ID OF PER-ROW TO WS-EMPLOYEE-ID       PPOT1255
047418              ADD +1 TO PER-ROWS-FETCHED                          PPOT1255
047419         WHEN +100                                                PPOT1255
047420              SET NO-MORE-PER-ROWS TO TRUE                        PPOT1255
047421         WHEN OTHER                                               PPOT1255
047422              PERFORM 999998-SQL-ERROR-PREP                       PPOT1255
047423              PERFORM 999999-SQL-ERROR                            PPOT1255
047424              PERFORM 44000-ERROR-WRITE                           PPOT1255
047425     END-EVALUATE.                                                PPOT1255
047426                                                                  PPOT1255
047427 21009-EXIT.                                                      PPOT1255
047430     EXIT.                                                        PPOT1255
047440     EJECT                                                        PPOT1255
047441 22000-UPDATE-PER-ROW SECTION.                                    PPOT1255
047442                                                                  PPOT1255
047443     MOVE 'UPDATE PER' TO WS-SQL-ACTION.                          PPOT1255
047444                                                                  PPOT1255
047445     EXEC SQL                                                     PPOT1255
047446          UPDATE PPPVPER2_PER                                     PPOT1255
047447             SET                                                  PPOT1255
047452                EMP_CHANGED_AT      = :EMP-CHANGED-AT             PPOT1255
047453               ,HOME_ADDR_RLSE      = :HOME-ADDR-RLSE             PPOT1255
047454               ,HOME_PHONE_RLSE     = :HOME-PHONE-RLSE            PPOT1255
047455               ,SPOUSE_NAME_RLSE    = :SPOUSE-NAME-RLSE           PPOT1255
047456               ,EMP_ORG_ADDR_RLSE   = :EMP-ORG-ADDR-RLSE          PPOT1255
047457               ,EMP_ORG_PHONE_RLSE  = :EMP-ORG-PHONE-RLSE         PPOT1255
047458               ,NET_ID              = :NET-ID                     PPOT1255
047459               ,FIRST_NAME          = :FIRST-NAME                 PPOT1255
047460               ,MIDDLE_NAME         = :MIDDLE-NAME                PPOT1255
047461               ,LAST_NAME           = :LAST-NAME                  PPOT1255
047462         WHERE EMPLOYEE_ID = :WS-EMPLOYEE-ID                      PPOT1255
047463     END-EXEC.                                                    PPOT1255
047464                                                                  PPOT1255
047465     EVALUATE SQLCODE                                             PPOT1255
047466         WHEN ZERO                                                PPOT1255
047467              ADD +1 TO PER-ROWS-UPDATED                          PPOT1255
047468         WHEN +100                                                PPOT1255
047469              SET NO-MORE-PER-ROWS TO TRUE                        PPOT1255
047470         WHEN OTHER                                               PPOT1255
047471              PERFORM 999998-SQL-ERROR-PREP                       PPOT1255
047472              PERFORM 999999-SQL-ERROR                            PPOT1255
047473              PERFORM 44000-ERROR-WRITE                           PPOT1255
047474     END-EVALUATE.                                                PPOT1255
047475                                                                  PPOT1255
047476 22009-EXIT.                                                      PPOT1255
047477     EXIT.                                                        PPOT1255
047478     EJECT                                                        PPOT1255
047479 23000-BUILD-WRITE-ECF  SECTION.                                  PPOT1255
047480                                                                  PPOT1255
047481     INITIALIZE                XCHG-FIXED-AREA.                   PPOT1255
047482     MOVE 'PPOT1255'        TO XCHG-PROCESS-ID.                   PPOT1255
047483     MOVE WS-TIMESTAMP      TO XCHG-TIMESTAMP.                    PPOT1255
047484     MOVE WS-EMPLOYEE-ID    TO XCHG-EMPLOYEE-ID.                  PPOT1255
047490     MOVE SPACE TO XCHG-OCCURENCE-KEY.                            PPOT1255
047500                                                                  PPOT1255
047536     MOVE +26                     TO XCHG-OLD-VAL-LNGTH,          PPOT1255
047537                                     XCHG-NEW-VAL2-LNGTH.         PPOT1255
047538     MOVE WS-OLD-TIMESTAMP        TO XCHG-OLD-VALUE.              PPOT1255
047539     MOVE EMP-CHANGED-AT          TO XCHG-NEW-VALUE2.             PPOT1255
047540     MOVE '0134'                  TO XCHG-DATA-ELEM-NO.           PPOT1255
047541     WRITE OCHG-EDB-CHANGE-RECORD  FROM EDB-CHANGE-RECORD.        PPOT1255
047542                                                                  PPOT1255
047543     MOVE +01                     TO XCHG-OLD-VAL-LNGTH,          PPOT1255
047544                                     XCHG-NEW-VAL2-LNGTH.         PPOT1255
047545     MOVE SPACE                   TO XCHG-OLD-VALUE.              PPOT1255
047546     MOVE HOME-ADDR-RLSE          TO XCHG-NEW-VALUE2.             PPOT1255
047547     MOVE '0244'                  TO XCHG-DATA-ELEM-NO.           PPOT1255
047548     WRITE OCHG-EDB-CHANGE-RECORD  FROM EDB-CHANGE-RECORD.        PPOT1255
047549                                                                  PPOT1255
047550     MOVE +01                     TO XCHG-OLD-VAL-LNGTH,          PPOT1255
047551                                     XCHG-NEW-VAL2-LNGTH.         PPOT1255
047552     MOVE SPACE                   TO XCHG-OLD-VALUE.              PPOT1255
047553     MOVE HOME-PHONE-RLSE         TO XCHG-NEW-VALUE2.             PPOT1255
047554     MOVE '0245'                  TO XCHG-DATA-ELEM-NO.           PPOT1255
047555     WRITE OCHG-EDB-CHANGE-RECORD  FROM EDB-CHANGE-RECORD.        PPOT1255
047556                                                                  PPOT1255
047557     MOVE +01                     TO XCHG-OLD-VAL-LNGTH,          PPOT1255
047558                                     XCHG-NEW-VAL2-LNGTH.         PPOT1255
047559     MOVE SPACE                   TO XCHG-OLD-VALUE.              PPOT1255
047560     MOVE SPOUSE-NAME-RLSE        TO XCHG-NEW-VALUE2.             PPOT1255
047561     MOVE '0246'                  TO XCHG-DATA-ELEM-NO.           PPOT1255
047562     WRITE OCHG-EDB-CHANGE-RECORD  FROM EDB-CHANGE-RECORD.        PPOT1255
047563                                                                  PPOT1255
047564     MOVE +01                     TO XCHG-OLD-VAL-LNGTH,          PPOT1255
047565                                     XCHG-NEW-VAL2-LNGTH.         PPOT1255
047566     MOVE SPACE                   TO XCHG-OLD-VALUE.              PPOT1255
047567     MOVE EMP-ORG-ADDR-RLSE       TO XCHG-NEW-VALUE2.             PPOT1255
047568     MOVE '0247'                  TO XCHG-DATA-ELEM-NO.           PPOT1255
047569     WRITE OCHG-EDB-CHANGE-RECORD  FROM EDB-CHANGE-RECORD.        PPOT1255
047570                                                                  PPOT1255
047571     MOVE +01                     TO XCHG-OLD-VAL-LNGTH,          PPOT1255
047572                                     XCHG-NEW-VAL2-LNGTH.         PPOT1255
047573     MOVE SPACE                   TO XCHG-OLD-VALUE.              PPOT1255
047574     MOVE EMP-ORG-PHONE-RLSE      TO XCHG-NEW-VALUE2.             PPOT1255
047575     MOVE '0248'                  TO XCHG-DATA-ELEM-NO.           PPOT1255
047576     WRITE OCHG-EDB-CHANGE-RECORD  FROM EDB-CHANGE-RECORD.        PPOT1255
047577                                                                  PPOT1255
047578     MOVE +30                     TO XCHG-OLD-VAL-LNGTH,          PPOT1255
047579                                     XCHG-NEW-VAL2-LNGTH.         PPOT1255
047580     MOVE SPACE                   TO XCHG-OLD-VALUE.              PPOT1255
047581     MOVE FIRST-NAME              TO XCHG-NEW-VALUE2.             PPOT1255
047582     MOVE '0250'                  TO XCHG-DATA-ELEM-NO.           PPOT1255
047583     WRITE OCHG-EDB-CHANGE-RECORD  FROM EDB-CHANGE-RECORD.        PPOT1255
047584                                                                  PPOT1255
047585     MOVE +30                     TO XCHG-OLD-VAL-LNGTH,          PPOT1255
047586                                     XCHG-NEW-VAL2-LNGTH.         PPOT1255
047587     MOVE SPACE                   TO XCHG-OLD-VALUE.              PPOT1255
047588     MOVE MIDDLE-NAME             TO XCHG-NEW-VALUE2.             PPOT1255
047589     MOVE '0251'                  TO XCHG-DATA-ELEM-NO.           PPOT1255
047590     WRITE OCHG-EDB-CHANGE-RECORD  FROM EDB-CHANGE-RECORD.        PPOT1255
047591                                                                  PPOT1255
047592     MOVE +30                     TO XCHG-OLD-VAL-LNGTH,          PPOT1255
047593                                     XCHG-NEW-VAL2-LNGTH.         PPOT1255
047594     MOVE SPACE                   TO XCHG-OLD-VALUE.              PPOT1255
047595     MOVE LAST-NAME               TO XCHG-NEW-VALUE2.             PPOT1255
047596     MOVE '0252'                  TO XCHG-DATA-ELEM-NO.           PPOT1255
047597     WRITE OCHG-EDB-CHANGE-RECORD  FROM EDB-CHANGE-RECORD.        PPOT1255
047598                                                                  PPOT1255
047599 23009-EXIT.                                                      PPOT1255
047600     EXIT.                                                        PPOT1255
047601     EJECT                                                        PPOT1255
047602 24000-SELECT-FROM-IDB  SECTION.                                  PPOT1255
047603                                                                  PPOT1255
047605     INITIALIZE IDB-ROW.                                          EFIX1255
047606     MOVE 'SELECTIDB' TO WS-SQL-ACTION.                           PPOT1255
047607                                                                  PPOT1255
047608     EXEC SQL                                                     PPOT1255
047609          SELECT                                                  PPOT1255
047610                 IDB_NAME_LAST                                    PPOT1255
047611                ,IDB_NAME_FIRST                                   PPOT1255
047612                ,IDB_NAME_MIDDLE                                  PPOT1255
047616            INTO                                                  PPOT1255
047617                :IDB-NAME-LAST                                    PPOT1255
047625               ,:IDB-NAME-FIRST                                   PPOT1255
047628               ,:IDB-NAME-MIDDLE                                  PPOT1255
047629            FROM UC0VZIDB_IDB                                     PPOT1255
047630           WHERE IDB_INDIVIDUAL_ID = :WS-EMPLOYEE-ID              PPOT1255
047631     END-EXEC.                                                    PPOT1255
047632                                                                  PPOT1255
047633     EVALUATE SQLCODE                                             PPOT1255
047634         WHEN ZERO                                                PPOT1255
047635              MOVE IDB-NAME-LAST-TEXT   TO LAST-NAME              PPOT1255
047636              MOVE IDB-NAME-FIRST-TEXT  TO FIRST-NAME             PPOT1255
047637              MOVE IDB-NAME-MIDDLE-TEXT TO MIDDLE-NAME            PPOT1255
047638              SET IDB-SELECT-SUCCESSFUL TO TRUE                   PPOT1255
047660         WHEN +100                                                PPOT1255
047661              MOVE +6 TO ERROR-INDEX                              PPOT1255
047662              SET IDB-SELECT-UNSUCCESSFUL TO TRUE                 PPOT1255
047663         WHEN OTHER                                               PPOT1255
047664              PERFORM 999998-SQL-ERROR-PREP                       PPOT1255
047665              PERFORM 999999-SQL-ERROR                            PPOT1255
047666              PERFORM 44000-ERROR-WRITE                           PPOT1255
047667     END-EVALUATE.                                                PPOT1255
047668                                                                  PPOT1255
047669 24009-EXIT.                                                      PPOT1255
047670     EXIT.                                                        PPOT1255
047671     EJECT                                                        PPOT1255
047672 25000-DECOMPRESS-NAME  SECTION.                                  PPOT1255
047673                                                                  EFIX1255
047674     MOVE SPACES TO PPNAMGEN-INTERFACE.                           EFIX1255
047675                                                                  PPOT1255
047676     MOVE EMP-NAME TO CPWSNAME-NAME-RESULT.                       PPOT1255
047677     SET CPWSNAME-1-TO-3 TO TRUE.                                 PPOT1255
047678     CALL 'PPNAMGEN' USING PPNAMGEN-INTERFACE.                    PPOT1255
047679                                                                  PPOT1255
047680     MOVE CPWSNAME-FIRST-NAME TO FIRST-NAME.                      PPOT1255
047681     MOVE CPWSNAME-MIDDLE-NAME TO MIDDLE-NAME.                    PPOT1255
047682     MOVE CPWSNAME-LAST-NAME TO LAST-NAME.                        PPOT1255
047683                                                                  PPOT1255
047684 25009-EXIT.                                                      PPOT1255
047685     EXIT.                                                        PPOT1255
047686     EJECT                                                        PPOT1255
047687 44000-ERROR-WRITE    SECTION.                                    PPOT1255
047688                                                                  PPOT1255
047689     IF  ERROR-LINE-COUNT > MAX-LINES-PER-PAGE OR                 PPOT1255
047690         ERROR-PAGE-COUNT = ZERO                                  PPOT1255
047700         PERFORM 44010-WRITE-ERROR-HEADER                         PPOT1255
047800     END-IF.                                                      PPOT1255
047900                                                                  PPOT1255
048000     MOVE ERROR-INDEX                  TO ERROR-MESSAGE-NO.       PPOT1255
048100     MOVE ERROR-MESSAGE (ERROR-INDEX)  TO ERROR-MESSAGE-TEXT.     PPOT1255
048200     MOVE ERROR-SEVERITY (ERROR-INDEX) TO SEVERITY-INDEX.         PPOT1255
048300     MOVE ERROR-SEVERITY-NAME (SEVERITY-INDEX)                    PPOT1255
048400                                       TO DISPLAY-SEVERITY-NAME.  PPOT1255
048500                                                                  PPOT1255
048600     WRITE ERROR-RPT-PRINT-LINE FROM ERROR-MESSAGE-DISPLAY-AREA   PPOT1255
048700                              AFTER ADVANCING 2 LINES.            PPOT1255
048800     COMPUTE ERROR-LINE-COUNT = ERROR-LINE-COUNT + 2.             PPOT1255
048900                                                                  PPOT1255
049000     INITIALIZE ERROR-MESSAGE-DISPLAY-AREA.                       PPOT1255
049100                                                                  PPOT1255
049200     IF  ERROR-SEVERITY (ERROR-INDEX) < MOST-SEVERE               PPOT1255
049300         MOVE ERROR-SEVERITY (ERROR-INDEX) TO MOST-SEVERE         PPOT1255
049400     END-IF.                                                      PPOT1255
049500                                                                  PPOT1255
049600     IF  MOST-SEVERE = 1                                          PPOT1255
049700         PERFORM 90000-END-OF-JOB                                 PPOT1255
049800         GO TO 00009-EXIT                                         PPOT1255
049900     END-IF.                                                      PPOT1255
050000                                                                  PPOT1255
050100 44009-EXIT.                                                      PPOT1255
050200     EXIT.                                                        PPOT1255
050300     EJECT                                                        PPOT1255
050400 44010-WRITE-ERROR-HEADER    SECTION.                             PPOT1255
050500                                                                  PPOT1255
050600     COMPUTE ERROR-PAGE-COUNT = ERROR-PAGE-COUNT + 1.             PPOT1255
050700     MOVE  ERROR-PAGE-COUNT   TO ERROR-REPORT-PAGE-NO.            PPOT1255
050800     WRITE ERROR-RPT-PRINT-LINE FROM ERROR-HEADER-RECORD-1        PPOT1255
050900                              AFTER ADVANCING PAGE.               PPOT1255
051000     WRITE ERROR-RPT-PRINT-LINE FROM ERROR-HEADER-RECORD-2.       PPOT1255
051100     WRITE ERROR-RPT-PRINT-LINE FROM ERROR-HEADER-RECORD-3        PPOT1255
051200                              AFTER ADVANCING 2 LINES.            PPOT1255
051300     WRITE ERROR-RPT-PRINT-LINE FROM ERROR-HEADER-RECORD-4.       PPOT1255
051400     MOVE +5                  TO ERROR-LINE-COUNT.                PPOT1255
051500                                                                  PPOT1255
051600 44019-EXIT.                                                      PPOT1255
051700     EXIT.                                                        PPOT1255
051800     EJECT                                                        PPOT1255
051900 90000-END-OF-JOB    SECTION.                                     PPOT1255
052000                                                                  PPOT1255
052100     INITIALIZE TOTAL-DETAIL.                                     PPOT1255
052200                                                                  PPOT1255
052300     MOVE 'PER ROWS READ: '          TO TOTAL-DETAIL-LABEL.       PPOT1255
052400     MOVE PER-ROWS-FETCHED           TO TOTAL-DETAIL-COUNT.       PPOT1255
052500     MOVE 2                          TO ADV-LINES.                PPOT1255
052600     PERFORM 91100-WRITE-TOTAL.                                   PPOT1255
052700                                                                  PPOT1255
052800     MOVE 'PER ROWS CONVERTED    '   TO TOTAL-DETAIL-LABEL.       PPOT1255
052900     MOVE PER-ROWS-UPDATED           TO TOTAL-DETAIL-COUNT.       PPOT1255
053000     MOVE 2                          TO ADV-LINES.                PPOT1255
053100     PERFORM 91100-WRITE-TOTAL.                                   PPOT1255
053200                                                                  PPOT1255
053300     EVALUATE MOST-SEVERE                                         PPOT1255
053400         WHEN 1                                                   PPOT1255
053500              MOVE 5 TO RETURN-CODE                               PPOT1255
053600         WHEN 2                                                   PPOT1255
053700              MOVE 3 TO RETURN-CODE                               PPOT1255
053800         WHEN OTHER                                               PPOT1255
053900              MOVE ZERO TO RETURN-CODE                            PPOT1255
054000     END-EVALUATE.                                                PPOT1255
054100                                                                  PPOT1255
054110     MOVE 'CLOSE PER' TO WS-SQL-ACTION.                           PPOT1255
054120                                                                  PPOT1255
054130     EXEC SQL                                                     PPOT1255
054140          CLOSE PER_ROW_CURSOR                                    PPOT1255
054150     END-EXEC.                                                    PPOT1255
054160                                                                  PPOT1255
054170     EVALUATE SQLCODE                                             PPOT1255
054180         WHEN ZERO                                                PPOT1255
054190              CONTINUE                                            PPOT1255
054191         WHEN OTHER                                               PPOT1255
054192              PERFORM 999998-SQL-ERROR-PREP                       PPOT1255
054193              PERFORM 999999-SQL-ERROR                            PPOT1255
054194              PERFORM 44000-ERROR-WRITE                           PPOT1255
054195     END-EVALUATE.                                                PPOT1255
054196                                                                  PPOT1255
054200     CLOSE SPEC-CARD-FILE,                                        PPOT1255
054300           EDBCHG,                                                PPOT1255
054400           TOTAL-RPT,                                             PPOT1255
054500           ERROR-RPT.                                             PPOT1255
054600                                                                  PPOT1255
054700 90009-EXIT.                                                      PPOT1255
054800     EXIT.                                                        PPOT1255
054900     EJECT                                                        PPOT1255
055000 91100-WRITE-TOTAL   SECTION.                                     PPOT1255
055100                                                                  PPOT1255
055200     IF  TOTAL-LINE-COUNT > MAX-LINES-PER-PAGE                    PPOT1255
055300         PERFORM 91110-WRITE-TOTAL-HEADER                         PPOT1255
055400     END-IF                                                       PPOT1255
055500                                                                  PPOT1255
055600     WRITE TOTAL-RPT-PRINT-LINE FROM TOTAL-DETAIL                 PPOT1255
055700                              AFTER ADVANCING ADV-LINES.          PPOT1255
055800                                                                  PPOT1255
055900     COMPUTE TOTAL-LINE-COUNT = TOTAL-LINE-COUNT + ADV-LINES.     PPOT1255
056000                                                                  PPOT1255
056100 91109-EXIT.                                                      PPOT1255
056200     EXIT.                                                        PPOT1255
056300     EJECT                                                        PPOT1255
056400 91110-WRITE-TOTAL-HEADER    SECTION.                             PPOT1255
056500                                                                  PPOT1255
056600     ADD +1 TO TOTAL-PAGE-COUNT.                                  PPOT1255
056700     MOVE  TOTAL-PAGE-COUNT   TO TOTAL-REPORT-PAGE-NO.            PPOT1255
056800     WRITE TOTAL-RPT-PRINT-LINE FROM TOTAL-HEADER-RECORD-1        PPOT1255
056900                              AFTER ADVANCING PAGE.               PPOT1255
057000     WRITE TOTAL-RPT-PRINT-LINE FROM TOTAL-HEADER-RECORD-2.       PPOT1255
057100     WRITE TOTAL-RPT-PRINT-LINE FROM TOTAL-HEADER-RECORD-3.       PPOT1255
057200     WRITE TOTAL-RPT-PRINT-LINE FROM TOTAL-HEADER-RECORD-4        PPOT1255
057300                              AFTER ADVANCING 2 LINES.            PPOT1255
057400     WRITE TOTAL-RPT-PRINT-LINE FROM TOTAL-HEADER-RECORD-5.       PPOT1255
057500     MOVE +6                  TO TOTAL-LINE-COUNT.                PPOT1255
057600                                                                  PPOT1255
057700 91119-EXIT.                                                      PPOT1255
057800     EXIT.                                                        PPOT1255
057900     EJECT                                                        PPOT1255
057997 DATE-CONVERSION-DB2 SECTION.                                     PPOT1255
058001                                            COPY CPPDXDC3.        PPOT1255
058010 999998-SQL-ERROR-PREP  SECTION.                                  PPOT1255
058100                                                                  PPOT1255
058200     MOVE SQLCODE       TO WS-SQLCODE.                            PPOT1255
058300     MOVE WS-SQLCODE    TO ERROR-DATA-FIELD (1).                  PPOT1255
058400     MOVE WS-SQL-ACTION TO ERROR-DATA-FIELD (2).                  PPOT1255
058500     MOVE +1            TO ERROR-INDEX.                           PPOT1255
058600                                                                  PPOT1255
058700 99998-EXIT.                                                      PPOT1255
058800     EXIT.                                                        PPOT1255
058900     EJECT                                                        PPOT1255
059000*999999-SQL-ERROR       SECTION.                                  PPOT1255
059100                                     COPY CPPDXP99.               PPOT1255
