000100**************************************************************/   44321181
000200*  PROGRAM: PPOT1181                                         */   44321181
000300*  RELEASE: ___1181______ SERVICE REQUEST(S): ___14432_____  */   44321181
000400*  NAME:__R STAPLES______ CREATION DATE:      ___02/20/98__  */   44321181
000500*  DESCRIPTION:                                              */   44321181
000600*   - ONE TIME PROGRAM TO SET ANY BLANK OR NULL ETHNIC_IDS   */   44321181
000700*     TO THE NEW DEFAULT OF 'U' FOR UNKNOWN.                 */   44321181
000800**************************************************************/   44321181
000900*****                                                             PPOT1181
001000 IDENTIFICATION DIVISION.                                         PPOT1181
001100 PROGRAM-ID. PPOT1181.                                            PPOT1181
001200 AUTHOR. R STAPLES.                                               PPOT1181
001300     SKIP1                                                        PPOT1181
001400*REMARKS.                                                         PPOT1181
001500     SKIP1                                                        PPOT1181
001600     EJECT                                                        PPOT1181
001700***********************************************************       PPOT1181
001800*        E N V I R O N M E N T     D I V I S I O N        *       PPOT1181
001900***********************************************************       PPOT1181
002000     SKIP1                                                        PPOT1181
002100 ENVIRONMENT DIVISION.                                            PPOT1181
002200 CONFIGURATION SECTION.                                           PPOT1181
002300     SKIP1                                                        PPOT1181
002400 SPECIAL-NAMES.                                                   PPOT1181
002500     C01 IS NEW-PAGE.                                             PPOT1181
002600     SKIP1                                                        PPOT1181
002700 INPUT-OUTPUT SECTION.                                            PPOT1181
002800 FILE-CONTROL.                                                    PPOT1181
002900     SKIP1                                                        PPOT1181
003000     SELECT PRINT-FILE           ASSIGN TO UT-S-PO1181A1.         PPOT1181
003100     SKIP2                                                        PPOT1181
003200     SELECT EDBCHG                                                PPOT1181
003300         COPY CPSLXCHG.                                           PPOT1181
003400     EJECT                                                        PPOT1181
003500***********************************************************       PPOT1181
003600*                D A T A     D I V I S I O N              *       PPOT1181
003700***********************************************************       PPOT1181
003800     SKIP1                                                        PPOT1181
003900 DATA DIVISION.                                                   PPOT1181
004000 FILE SECTION.                                                    PPOT1181
004100*                                                                *PPOT1181
004200 FD  EDBCHG                    COPY  CPFDXCHG                     PPOT1181
004300         REPLACING EDB-CHANGE-RECORD BY OCHG-EDB-CHANGE-RECORD.   PPOT1181
004400 01  OCHG-EDB-CHANGE-RECORD.   COPY CPWSXCHG                      PPOT1181
004500         REPLACING XCHG-FIXED-AREA     BY OCHG-FIXED-AREA         PPOT1181
004600                   XCHG-EMPLOYEE-ID    BY OCHG-EMPLOYEE-ID        PPOT1181
004700                   XCHG-DATA-ELEM-NO   BY OCHG-DATA-ELEM-NO       PPOT1181
004800                   XCHG-OCCURENCE-KEY  BY OCHG-OCCURENCE-KEY      PPOT1181
004900                   XCHG-PROCESS-ID     BY OCHG-PROCESS-ID         PPOT1181
005000                   XCHG-CHANGE-SOURCE  BY OCHG-CHANGE-SOURCE      PPOT1181
005100                   XCHG-TIMESTAMP      BY OCHG-TIMESTAMP          PPOT1181
005200                   XCHG-ODO-LENGTHS    BY OCHG-ODO-LENGTHS        PPOT1181
005300                   XCHG-OLD-VAL-LNGTH  BY OCHG-OLD-VAL-LNGTH      PPOT1181
005400                   XCHG-NEW-VAL1-LNGTH BY OCHG-NEW-VAL1-LNGTH     PPOT1181
005500                   XCHG-NEW-VAL2-LNGTH BY OCHG-NEW-VAL2-LNGTH     PPOT1181
005600                   XCHG-OLD-VALUE      BY OCHG-OLD-VALUE          PPOT1181
005700                   XCHG-OLD-VAL        BY OCHG-OLD-VAL            PPOT1181
005800                   XCHG-NEW-VALUE1     BY OCHG-NEW-VALUE1         PPOT1181
005900                   XCHG-NEW-VAL1       BY OCHG-NEW-VAL1           PPOT1181
006000                   XCHG-NEW-VALUE2     BY OCHG-NEW-VALUE2         PPOT1181
006100                   XCHG-NEW-VAL2       BY OCHG-NEW-VAL2.          PPOT1181
006200     SKIP1                                                        PPOT1181
006300 FD  PRINT-FILE                  COPY CPFDXPRT.                   PPOT1181
006400     SKIP1                                                        PPOT1181
006500     EJECT                                                        PPOT1181
006600 WORKING-STORAGE SECTION.                                         PPOT1181
006700     SKIP1                                                        PPOT1181
006800***********************************************************       PPOT1181
006900*        M I S C    W O R K I N G     S T O R A G E       *       PPOT1181
007000***********************************************************       PPOT1181
007100     SKIP1                                                        PPOT1181
007200 01  WX-BEGIN-FLAG               PIC X(32) VALUE                  PPOT1181
007300     'PPOT1181 WORK STORAGE HERE'.                                PPOT1181
007400 01  WA-COMPILE-WORK-AREA.       COPY CPWSXWHC.                   PPOT1181
007500 01  WS-WORK-MISC.                                                PPOT1181
007600     05  WS-PGM-ID.                                               PPOT1181
007700         10  FILLER              PIC X(08) VALUE 'PPOT1181'.      PPOT1181
007800         10  DATE-CMPLD          PIC X(07) VALUE '/081097'.       PPOT1181
007900     05  STD-SCR-PROCESS-DATE   PIC X(6) VALUE ZEROS.             PPOT1181
008000     05  WS-CURRENT-DATE.                                         PPOT1181
008100         10  WS-CURR-YRMO.                                        PPOT1181
008200             15  WS-CURR-YY         PIC 99.                       PPOT1181
008300             15  WS-CURR-MM         PIC 99.                       PPOT1181
008400         10  WS-CURR-DD         PIC 99.                           PPOT1181
008500     05  WS-EMPLOYEE-ID         PIC X(09).                        PPOT1181
008600     05  WS-EMP-NAME            PIC X(26).                        PPOT1181
008700     05  WS-NUMBER-EDITED       PIC S9(9)V9(9) COMP-3.            PPOT1181
008800     05  WS-TOTAL-CHANGE        PIC S9(5) COMP VALUE 0.           PPOT1181
008900     05 HERE-BEFORE-SW PIC X(01) VALUE SPACE.                     PPOT1181
009000         88 HERE-BEFORE VALUE 'Y'.                                PPOT1181
009100     05 PER-ROW-OPEN-SW PIC X(01) VALUE SPACE.                    PPOT1181
009200         88 PER-ROW-OPEN VALUE 'Y'.                               PPOT1181
009300     05 SCR-ROW-OPEN-SW PIC X(01) VALUE SPACE.                    PPOT1181
009400         88 SCR-ROW-OPEN VALUE 'Y'.                               PPOT1181
009500     05  FIRST-TIME-SW           PIC X(01) VALUE 'Y'.             PPOT1181
009600         88  FIRST-TIME                    VALUE 'Y'.             PPOT1181
009700         88  NOT-FIRST-TIME                VALUE 'N'.             PPOT1181
009800     05  WS-PER-SQLCODE        PIC S9(09)    COMP.                PPOT1181
009900     05  WS-SCR-SQLCODE        PIC S9(09)    COMP.                PPOT1181
010000     05  MAX-LINES-PER-PAGE       PIC S9(04) VALUE +50.           PPOT1181
010100     05  RPT1-LINES-PER-PAGE      PIC S9(04) VALUE +60.           PPOT1181
010200     05  RPT2-LINES-PER-PAGE      PIC S9(04) VALUE +60.           PPOT1181
010300     05  RPT3-LINES-PER-PAGE      PIC S9(04) VALUE +60.           PPOT1181
010400     05  RPT-EMP-LINES          PIC S9(4) COMP VALUE 0.           PPOT1181
010500     05  RPT-ADVANCE            PIC S9(4) COMP VALUE 0.           PPOT1181
010600     05  WS-ERROR-PAGE-NO         PIC S9(04) VALUE 0.             PPOT1181
010700     05  WS-SAVE-PAGE-NO          PIC S9(04) VALUE 0.             PPOT1181
010800     05  WS-HOLD-SORT.                                            PPOT1181
010900         10  WS-HOLD-SORT-ID  PIC X.                              PPOT1181
011000                 88 HOLD-ID-REPORT                 VALUE 'I'.     PPOT1181
011100         10  WS-HOLD-SORT-NAME PIC X.                             PPOT1181
011200                 88 HOLD-NAME-REPORT              VALUE 'N'.      PPOT1181
011300         10  WS-HOLD-SORT-DEPT PIC X.                             PPOT1181
011400             88  HOLD-DEPT-REPORT                  VALUE 'D'.     PPOT1181
011410 01  WS-DEFAULT-DATE   PIC  X(10) VALUE '0001-01-01'.             PPOT1181
011500 01  WS-RUN-DATE.                                                 PPOT1181
011600     05  WS-RUN-MM               PIC 99.                          PPOT1181
011700     05  FILLER                  PIC X.                           PPOT1181
011800     05  WS-RUN-DD               PIC 99.                          PPOT1181
011900     05  FILLER                  PIC X.                           PPOT1181
012000     05  WS-RUN-YY               PIC 99.                          PPOT1181
012100 01  WS-SSN.                                                      PPOT1181
012200     05  WS-SSN-3                PIC X(03).                       PPOT1181
012300     05  WS-SSN-2                PIC X(02).                       PPOT1181
012400     05  WS-SSN-4                PIC X(04).                       PPOT1181
012500 01  WS-DATE-AND-TIME.                                            PPOT1181
012600     COPY CPWSTIME.                                               PPOT1181
012700     05  WS-TIMESTAMP.                                            PPOT1181
012800         10 WS-CC           PIC X(02).                            PPOT1181
012900         10 WS-YY           PIC X(02).                            PPOT1181
013000         10 WS-MM           PIC X(02).                            PPOT1181
013100         10 WS-DD           PIC X(02).                            PPOT1181
013200         10 WS-HH           PIC X(02).                            PPOT1181
013300         10 WS-MN           PIC X(02).                            PPOT1181
013400         10 WS-SS           PIC X(02).                            PPOT1181
013500     SKIP1                                                        PPOT1181
013600 01  DATE-FORMAT.                COPY CPWSDATE.                   PPOT1181
013700     SKIP1                                                        PPOT1181
013800 01  WX-ACCUMULATORS             COMP-3.                          PPOT1181
013900     05  WX-PRINT-LINES-RPT      PIC S9(06) VALUE +65.            PPOT1181
014000     05  WX-REPORT-LINE-ADVANCE  PIC S9(06) VALUE +0.             PPOT1181
014100 01  WX-FLAGS.                                                    PPOT1181
014200     05  WX-ABEND-FLAG           PIC S9(01) VALUE +0.             PPOT1181
014300         88  WX-ABEND                       VALUE +1.             PPOT1181
014400     EJECT                                                        PPOT1181
014500***********************************************************       PPOT1181
014600*        C O N V E R S I O N     R E P O R T              *       PPOT1181
014700***********************************************************       PPOT1181
014800     SKIP1                                                        PPOT1181
014900 01  WA-ABEND-DETAIL-1.                                           PPOT1181
015000     05  WA-DET1-CC              PIC X(01).                       PPOT1181
015100     05  FILLER                  PIC X(30)                        PPOT1181
015200            VALUE '****** SEE SYSTEMS ******     '.               PPOT1181
015300     05  WA-ABEND-MESSAGE-1.                                      PPOT1181
015400         10  WA-ABEND-TEXT       PIC X(43)  VALUE SPACES.         PPOT1181
015500         10  FILLER              PIC X(37)  VALUE SPACES.         PPOT1181
015600     05  WA-ABEND-MESSAGE-2.                                      PPOT1181
015700         10  WA-ABEND-TEXT2      PIC X(15)  VALUE SPACES.         PPOT1181
015800         10  FILLER              PIC X(31)  VALUE SPACES.         PPOT1181
015900     SKIP1                                                        PPOT1181
016000 01  WA-TOTAL-DETAIL-2.                                           PPOT1181
016100     05  WA-DET2-CC              PIC X(01).                       PPOT1181
016200     05  FILLER                  PIC X(42)                        PPOT1181
016300            VALUE 'TOTAL NUMBER OF EMPLOYEE RECORDS CHANGED: '.   PPOT1181
016400     05  WA-TOTAL-RECORDS        PIC ZZZZ9  VALUE ZERO.           PPOT1181
016500     05  FILLER                  PIC X(85)  VALUE SPACES.         PPOT1181
016600     SKIP1                                                        PPOT1181
016700 01  WA-TOTAL-DETAIL-3.                                           PPOT1181
016800     05  WA-DET3-CC              PIC X(01).                       PPOT1181
016900     05  FILLER                  PIC X(44)  VALUE SPACES.         PPOT1181
017000     05  FILLER                  PIC X(42)                        PPOT1181
017100            VALUE '********** NORMAL END OF JOB *************'.   PPOT1181
017200     05  FILLER                  PIC X(90)  VALUE SPACES.         PPOT1181
017300     SKIP1                                                        PPOT1181
017400     EJECT                                                        PPOT1181
017500***********************************************************       PPOT1181
017600*        S T A N D A R D    C O P Y   M E M B E R S       *       PPOT1181
017700***********************************************************       PPOT1181
017800     SKIP1                                                        PPOT1181
017900 01  XSCR-SYSTEM-CONTROL-RECORD.                                  PPOT1181
018000                 COPY  CPWSXSCR.                                  PPOT1181
018100 01  DATE-CONVERSION-WORK-AREAS.                                  PPOT1181
018200                                            COPY CPWSXDC2.        PPOT1181
018300 01  EDB-CHANGE-RECORD.                                           PPOT1181
018400                                 COPY CPWSXCHG.                   PPOT1181
018500     EJECT                                                        PPOT1181
018600 01  PER-ROW-HOLD.                                                PPOT1181
018700                                    COPY CPWSRPER.                PPOT1181
018800 01  CONTROL-FILE-KEYS.          COPY CPWSXCFK.                   PPOT1181
018900     EJECT                                                        PPOT1181
019000 01  STND-RPT-HD.                COPY CPWSPSHR.                   PPOT1181
019100     EJECT                                                        PPOT1181
019200 01  PPDB2MSG-INTERFACE. COPY CPLNKDB2.                           PPOT1181
019300     EJECT                                                        PPOT1181
019500******************************************************************PPOT1181
019600*          SQL - WORKING STORAGE                                 *PPOT1181
019700******************************************************************PPOT1181
020200 01  PER-ROW.                                                     PPOT1181
020300     EXEC SQL                                                     PPOT1181
020400          INCLUDE PPPVPER1                                        PPOT1181
020500     END-EXEC.                                                    PPOT1181
020600 01  PER-ROW-FOR-UPDATE.                                          PPOT1181
020700     EXEC SQL                                                     PPOT1181
020800          INCLUDE PPPVPER2                                        PPOT1181
020900     END-EXEC.                                                    PPOT1181
021000 01  SCR-ROW-DATA.                                                PPOT1181
021100     EXEC SQL                                                     PPOT1181
021200          INCLUDE PPPVSCR1                                        PPOT1181
021300     END-EXEC.                                                    PPOT1181
021400     EXEC SQL                                                     PPOT1181
021500          INCLUDE SQLCA                                           PPOT1181
021600     END-EXEC.                                                    PPOT1181
021700 01  WX-END-FLAG                 PIC X(36) VALUE                  PPOT1181
021800     'PPOT1181 WORKING STORAGE ENDS HERE'.                        PPOT1181
021900     EXEC SQL                                                     PPOT1181
022000          DECLARE PER_ROW CURSOR FOR                              PPOT1181
022100       SELECT * FROM PPPVPER1_PER                                 PPOT1181
022200           WHERE ETHNIC_ID IS NULL                                PPOT1181
022210              OR ETHNIC_ID = ' '                                  PPOT1181
022300           ORDER BY EMPLOYEE_ID                                   PPOT1181
022400     END-EXEC.                                                    PPOT1181
022500     SKIP3                                                        PPOT1181
022600     EJECT                                                        PPOT1181
022700 PROCEDURE DIVISION.                                              PPOT1181
022800     EXEC SQL                                                     PPOT1181
022900          INCLUDE CPPDXE99                                        PPOT1181
023000     END-EXEC.                                                    PPOT1181
023100     SKIP2                                                        PPOT1181
023200***********************************************************       PPOT1181
023300*                    M A I N L I N E                      *       PPOT1181
023400***********************************************************       PPOT1181
023500     SKIP1                                                        PPOT1181
023600 0001-MAINLINE.                                                   PPOT1181
023700     SKIP1                                                        PPOT1181
023800     PERFORM 1000-INITIALIZATION.                                 PPOT1181
023900     IF NOT WX-ABEND                                              PPOT1181
024000         PERFORM 2000-PROCESS-EMPS                                PPOT1181
024100     END-IF.                                                      PPOT1181
024200     PERFORM 9000-FINALIZATION.                                   PPOT1181
024300     STOP RUN.                                                    PPOT1181
024400     SKIP1                                                        PPOT1181
024500 0001-EXIT. EXIT.                                                 PPOT1181
024600     EJECT                                                        PPOT1181
024700***********************************************************       PPOT1181
024800*                   I N I T I A L I Z E                   *       PPOT1181
024900***********************************************************       PPOT1181
025000     SKIP1                                                        PPOT1181
025100 1000-INITIALIZATION SECTION.                                     PPOT1181
025200     SKIP1                                                        PPOT1181
025300     COPY CPPDDATE.                                               PPOT1181
025400     MOVE WS-PGM-ID        TO STND-PROG-ID.                       PPOT1181
025500     MOVE STND-PROG-ID TO DB2MSG-PGM-ID.                          PPOT1181
025600     MOVE GREGORIAN-DATE TO STND-RPT-DATE.                        PPOT1181
025700     MOVE 'ONE-TIME FIX TO EMP LEGAL COV EFF DATE       '         PPOT1181
025800                         TO STND-RPT-TTL.                         PPOT1181
025900     MOVE SPACES TO STND-RPT-COMMENT                              PPOT1181
026000                    STND-DATE2                                    PPOT1181
026100                    STND-DATE2-TTL.                               PPOT1181
026200     OPEN OUTPUT EDBCHG.                                          PPOT1181
026300     OPEN  OUTPUT PRINT-FILE.                                     PPOT1181
026400     PERFORM 8800-CREATE-TIME-STAMP.                              PPOT1181
026500     MOVE 'SELECT SCR ROW' TO DB2MSG-TAG.                         PPOT1181
026600     EXEC SQL                                                     PPOT1181
026700         SELECT                                                   PPOT1181
026800          SCR_PROCESS_DATE                                        PPOT1181
026900         ,SCR_PURGE_DATE                                          PPOT1181
027000         ,SCR_CURRENT_DATE                                        PPOT1181
027100         ,SCR_NEXTCYCLE_MO                                        PPOT1181
027200         ,SCR_NEXTCYCLE_QTR                                       PPOT1181
027300         ,SCR_NEXTCYCLE_YR                                        PPOT1181
027400         ,SCR_NEXTCYCLE_FYR                                       PPOT1181
027500         ,SCR_EDB_GENNUM                                          PPOT1181
027600         INTO                                                     PPOT1181
027700         :SCR-PROCESS-DATE                                        PPOT1181
027800        ,:SCR-PURGE-DATE                                          PPOT1181
027900        ,:SCR-CURRENT-DATE                                        PPOT1181
028000        ,:SCR-NEXTCYCLE-MO                                        PPOT1181
028100        ,:SCR-NEXTCYCLE-QTR                                       PPOT1181
028200        ,:SCR-NEXTCYCLE-YR                                        PPOT1181
028300        ,:SCR-NEXTCYCLE-FYR                                       PPOT1181
028400        ,:SCR-EDB-GENNUM                                          PPOT1181
028500                  FROM PPPVSCR1_SCR                               PPOT1181
028600     END-EXEC.                                                    PPOT1181
028700     IF SQLCODE NOT = ZERO                                        PPOT1181
028800          SET WX-ABEND TO TRUE                                    PPOT1181
028900          MOVE 'ERROR IN SCR ROW SELECT'                          PPOT1181
029000            TO WA-ABEND-TEXT                                      PPOT1181
029100          MOVE SPACES TO WA-ABEND-MESSAGE-2                       PPOT1181
029200          PERFORM 3000-BUILD-ABEND-DETAIL                         PPOT1181
029300          GO TO 1000-EXIT                                         PPOT1181
029400     END-IF.                                                      PPOT1181
029800                                                                  PPOT1181
029900     MOVE ZERO TO WS-PER-SQLCODE.                                 PPOT1181
030000     INITIALIZE    XSCR-SYSTEM-CONTROL-RECORD.                    PPOT1181
030100     MOVE XCFK-SCR             TO XSCR-KEY-AREA.                  PPOT1181
030200     MOVE SCR-PROCESS-DATE OF SCR-ROW-DATA TO DB2-DATE.           PPOT1181
030300     PERFORM CONVERT-DB2-DATE                                     PPOT1181
030400     MOVE WSX-STD-DATE     TO STD-SCR-PROCESS-DATE.               PPOT1181
030500     MOVE STD-SCR-PROCESS-DATE TO XSCR-PROCESS-DATE.              PPOT1181
030600     MOVE SCR-NEXTCYCLE-MO OF SCR-ROW-DATA  TO XSCR-NEXT-MONTH.   PPOT1181
030700     MOVE SCR-NEXTCYCLE-QTR OF SCR-ROW-DATA  TO XSCR-NEXT-QTR.    PPOT1181
030800     MOVE SCR-NEXTCYCLE-YR OF SCR-ROW-DATA  TO XSCR-NEXT-YEAR.    PPOT1181
030900     MOVE SCR-NEXTCYCLE-FYR OF SCR-ROW-DATA  TO XSCR-NEXT-FY.     PPOT1181
031000     MOVE 'OT'                 TO XSCR-LAST-PGM-RUN.              PPOT1181
031100     MOVE SCR-EDB-GENNUM OF SCR-ROW-DATA  TO XSCR-EDB-GEN-NO.     PPOT1181
031200     MOVE SCR-PURGE-DATE OF SCR-ROW-DATA  TO DB2-DATE.            PPOT1181
031300     PERFORM CONVERT-DB2-DATE                                     PPOT1181
031400     MOVE WSX-STD-DATE         TO XSCR-PURGE-DATE.                PPOT1181
031500     MOVE SCR-CURRENT-DATE OF SCR-ROW-DATA  TO DB2-DATE.          PPOT1181
031600     PERFORM CONVERT-DB2-DATE                                     PPOT1181
031700     MOVE WSX-STD-DATE         TO XSCR-CURRENT-DATE.              PPOT1181
031800     MOVE WSX-STD-DATE-YY      TO WS-CURR-YY                      PPOT1181
031900     MOVE WSX-STD-DATE-MM      TO WS-CURR-MM.                     PPOT1181
032000*                                                                *PPOT1181
032100     MOVE LOW-VALUES           TO XCHG-ODO-LENGTHS.               PPOT1181
032200     MOVE XSCR-SYSTEM-CONTROL-RECORD  TO EDB-CHANGE-RECORD.       PPOT1181
032300     MOVE LOW-VALUES           TO XCHG-ODO-LENGTHS.               PPOT1181
032400     PERFORM 8900-WRITE-OUT-OCHG.                                 PPOT1181
032500                                                                  PPOT1181
032600     SKIP1                                                        PPOT1181
032700 1000-EXIT.  EXIT.                                                PPOT1181
032800     SKIP1                                                        PPOT1181
032900 2000-PROCESS-EMPS SECTION.                                       PPOT1181
033000     SKIP1                                                        PPOT1181
033100     PERFORM 8500-SQL-OPEN-PER.                                   PPOT1181
033200     PERFORM 8510-FETCH-PER.                                      PPOT1181
033300     PERFORM 2100-ALTER-EDB-FIELDS                                PPOT1181
033400                   THRU  2100-EXIT                                PPOT1181
033500        UNTIL WS-PER-SQLCODE NOT = ZERO                           PPOT1181
033600        OR WX-ABEND.                                              PPOT1181
033700     PERFORM 8520-CLOSE-PER.                                      PPOT1181
033800 2000-EXIT. EXIT.                                                 PPOT1181
033900     EJECT                                                        PPOT1181
034000***********************************************************       PPOT1181
034100*           A L T E R    E D B    F I E L D S             *       PPOT1181
034200***********************************************************       PPOT1181
034300     SKIP1                                                        PPOT1181
034400 2100-ALTER-EDB-FIELDS SECTION.                                   PPOT1181
034500     SKIP1                                                        PPOT1181
034600     MOVE PER-ROW TO PER-ROW-HOLD.                                PPOT1181
034700     PERFORM 2151-DATA-CHANGE.                                    PPOT1181
034800     PERFORM 8510-FETCH-PER.                                      PPOT1181
034900 2100-EXIT. EXIT.                                                 PPOT1181
035000     SKIP1                                                        PPOT1181
035100***********************************************************       PPOT1181
035200*   CHANGE PER ROWS OF SELECTED EMPLOYEES                 *       PPOT1181
035300***********************************************************       PPOT1181
035400 2150-DATA-CHANGES SECTION.                                       PPOT1181
035500 2151-DATA-CHANGE.                                                PPOT1181
035600     SKIP1                                                        PPOT1181
036400     ADD 1                              TO  WS-TOTAL-CHANGE.      PPOT1181
036500     MOVE EMPLOYEE-ID OF PER-ROW        TO  WS-EMPLOYEE-ID.       PPOT1181
036510     MOVE 'U'                           TO  ETHNIC-ID OF PER-ROW. PPOT1181
036600     PERFORM 8050-PER-UPDATE-ROW.                                 PPOT1181
036700     PERFORM 2500-CREATE-PER-ECF.                                 PPOT1181
036900     SKIP1                                                        PPOT1181
037000*----------------------------------------------------------------*PPOT1181
037100*----------------------------------------------------------------*PPOT1181
037200     EJECT                                                        PPOT1181
037300***********************************************************       PPOT1181
037400*      P R O D U C E     C H A N G E       F I L E        *       PPOT1181
037500***********************************************************       PPOT1181
037600     SKIP1                                                        PPOT1181
037700     SKIP1                                                        PPOT1181
037800 2500-CREATE-PER-ECF SECTION.                                     PPOT1181
037900     INITIALIZE                XCHG-FIXED-AREA.                   PPOT1181
038000     MOVE 'PPOT1181'        TO XCHG-PROCESS-ID.                   PPOT1181
038100     MOVE WS-TIMESTAMP      TO XCHG-TIMESTAMP.                    PPOT1181
038200     MOVE WS-EMPLOYEE-ID TO XCHG-EMPLOYEE-ID.                     PPOT1181
038300     MOVE SPACE TO XCHG-OCCURENCE-KEY.                            PPOT1181
038400     MOVE ZEROS TO WS-NUMBER-EDITED.                              PPOT1181
038500     MOVE +1                    TO XCHG-OLD-VAL-LNGTH,            PPOT1181
038600                                   XCHG-NEW-VAL1-LNGTH,           PPOT1181
038700                                   XCHG-NEW-VAL2-LNGTH.           PPOT1181
038710                                                                  PPOT1181
038740     MOVE ETHNIC-ID     OF PER-ROW-HOLD TO XCHG-OLD-VALUE.        PPOT1181
039200     MOVE ETHNIC-ID     OF PER-ROW      TO XCHG-NEW-VALUE2.       PPOT1181
039500     MOVE '0112'                        TO XCHG-DATA-ELEM-NO.     PPOT1181
039600     PERFORM 8900-WRITE-OUT-OCHG.                                 PPOT1181
039700                                                                  PPOT1181
039800 2500-EXIT. EXIT.                                                 PPOT1181
039900     SKIP1                                                        PPOT1181
040000 3000-BUILD-ABEND-DETAIL SECTION.                                 PPOT1181
040100     SKIP1                                                        PPOT1181
040200     IF   WX-PRINT-LINES-RPT > +55                                PPOT1181
040300          PERFORM 3500-BUILD-REPORT-HEADER                        PPOT1181
040400          MOVE WA-ABEND-DETAIL-1 TO PRINT-REC                     PPOT1181
040500          MOVE +1 TO WX-REPORT-LINE-ADVANCE                       PPOT1181
040600          PERFORM 7000-WRITE-REPORT                               PPOT1181
040700     ELSE                                                         PPOT1181
040800          MOVE WA-ABEND-DETAIL-1 TO PRINT-REC                     PPOT1181
040900          MOVE +1 TO WX-REPORT-LINE-ADVANCE                       PPOT1181
041000          PERFORM 7000-WRITE-REPORT.                              PPOT1181
041100     SKIP1                                                        PPOT1181
041200     MOVE +05 TO RETURN-CODE.                                     PPOT1181
041300     SKIP1                                                        PPOT1181
041400     SKIP1                                                        PPOT1181
041500 3000-EXIT.  EXIT.                                                PPOT1181
041600     SKIP3                                                        PPOT1181
041700     EJECT                                                        PPOT1181
041800***********************************************************       PPOT1181
041900*           PRINT REPORTS ON SELECTED EMPLOYEES           *       PPOT1181
042000***********************************************************       PPOT1181
042100     SKIP1                                                        PPOT1181
042200 3500-BUILD-REPORT-HEADER SECTION.                                PPOT1181
042300     SKIP1                                                        PPOT1181
042400     MOVE 'O1181A1'        TO STND-RPT-ID.                        PPOT1181
042500     MOVE STND-PAGE-NO TO  WS-SAVE-PAGE-NO.                       PPOT1181
042600     ADD 1                 TO WS-ERROR-PAGE-NO.                   PPOT1181
042700     MOVE WS-ERROR-PAGE-NO TO STND-PAGE-NO.                       PPOT1181
042800     INSPECT STND-PAGE-NO REPLACING LEADING ZEROS BY SPACE.       PPOT1181
042900     SKIP1                                                        PPOT1181
043000     MOVE STND-RPT-HD1    TO PRINT-REC.                           PPOT1181
043100     PERFORM 7000-WRITE-REPORT-HEADER.                            PPOT1181
043200     MOVE WS-SAVE-PAGE-NO TO STND-PAGE-NO.                        PPOT1181
043300     SKIP1                                                        PPOT1181
043400     MOVE STND-RPT-HD2    TO PRINT-REC.                           PPOT1181
043500     MOVE +1 TO WX-REPORT-LINE-ADVANCE.                           PPOT1181
043600     PERFORM 7000-WRITE-REPORT.                                   PPOT1181
043700     SKIP1                                                        PPOT1181
043800     MOVE STND-RPT-HD3    TO PRINT-REC.                           PPOT1181
043900     MOVE +1 TO WX-REPORT-LINE-ADVANCE.                           PPOT1181
044000     PERFORM 7000-WRITE-REPORT.                                   PPOT1181
044100     SKIP1                                                        PPOT1181
044200     MOVE SPACES         TO PRINT-REC.                            PPOT1181
044300     MOVE +1 TO WX-REPORT-LINE-ADVANCE.                           PPOT1181
044400     PERFORM 7000-WRITE-REPORT.                                   PPOT1181
044500     SKIP1                                                        PPOT1181
044600 3500-EXIT. EXIT.                                                 PPOT1181
044700     EJECT                                                        PPOT1181
044800***********************************************************       PPOT1181
044900*         W R I T E    C O N T R O L    R E P O R T       *       PPOT1181
045000***********************************************************       PPOT1181
045100     SKIP1                                                        PPOT1181
045200 7000-WRITE-REPORT SECTION.                                       PPOT1181
045300     SKIP1                                                        PPOT1181
045400     WRITE PRINT-REC                                              PPOT1181
045500           AFTER ADVANCING WX-REPORT-LINE-ADVANCE.                PPOT1181
045600     ADD WX-REPORT-LINE-ADVANCE TO WX-PRINT-LINES-RPT.            PPOT1181
045700     SKIP1                                                        PPOT1181
045800 7000-EXIT.  EXIT.                                                PPOT1181
045900     SKIP1                                                        PPOT1181
046000 7000-WRITE-REPORT-HEADER SECTION.                                PPOT1181
046100     SKIP1                                                        PPOT1181
046200     WRITE PRINT-REC                                              PPOT1181
046300           AFTER ADVANCING NEW-PAGE.                              PPOT1181
046400     MOVE 1 TO WX-PRINT-LINES-RPT.                                PPOT1181
046500     SKIP1                                                        PPOT1181
046600 7000-EXIT.  EXIT.                                                PPOT1181
046700     SKIP2                                                        PPOT1181
046800     EJECT                                                        PPOT1181
046900***********************************************************       PPOT1181
047000*         EDB UPDATE AND SELECTION                        *       PPOT1181
047100***********************************************************       PPOT1181
047200 8050-PER-UPDATE-ROW SECTION.                                     PPOT1181
047300     MOVE 'UPDATE PER ROW'      TO DB2MSG-TAG.                    PPOT1181
047400     SKIP1                                                        PPOT1181
047500     EXEC SQL                                                     PPOT1181
047600     UPDATE PPPVPER2_PER                                          PPOT1181
047700      SET  ETHNIC_ID = :PER-ROW.ETHNIC-ID                         PPOT1181
047800         WHERE EMPLOYEE_ID = :WS-EMPLOYEE-ID                      PPOT1181
047900     END-EXEC.                                                    PPOT1181
048000     SKIP1                                                        PPOT1181
048100     IF  SQLCODE    NOT = 0                                       PPOT1181
048200          SET WX-ABEND TO TRUE                                    PPOT1181
048300          MOVE 'ERROR IN UPDATE ROW PER '                         PPOT1181
048400            TO WA-ABEND-TEXT                                      PPOT1181
048500          MOVE SPACES TO WA-ABEND-MESSAGE-2                       PPOT1181
048600          PERFORM 3000-BUILD-ABEND-DETAIL                         PPOT1181
048700          MOVE 0 TO SQLCODE                                       PPOT1181
048800     END-IF.                                                      PPOT1181
048900 8500-SQL-OPEN-PER SECTION.                                       PPOT1181
049000     IF NOT PER-ROW-OPEN                                          PPOT1181
049100         MOVE 'OPEN PER CURSOR' TO DB2MSG-TAG                     PPOT1181
049200            EXEC SQL                                              PPOT1181
049300                OPEN PER_ROW                                      PPOT1181
049400            END-EXEC                                              PPOT1181
049500         IF  SQLCODE = 0                                          PPOT1181
049600             SET PER-ROW-OPEN TO TRUE                             PPOT1181
049700         ELSE                                                     PPOT1181
049800             SET WX-ABEND TO TRUE                                 PPOT1181
049900             MOVE 'ERROR IN OPEN CURSOR '                         PPOT1181
050000                    TO WA-ABEND-TEXT                              PPOT1181
050100             MOVE SPACES TO WA-ABEND-MESSAGE-2                    PPOT1181
050200             PERFORM 3000-BUILD-ABEND-DETAIL                      PPOT1181
050300             MOVE 0 TO SQLCODE                                    PPOT1181
050400         END-IF                                                   PPOT1181
050500     END-IF.                                                      PPOT1181
050600 8510-FETCH-PER SECTION.                                          PPOT1181
050700     MOVE 'FETCH PER ROW' TO DB2MSG-TAG.                          PPOT1181
050800     EXEC SQL                                                     PPOT1181
050900             FETCH PER_ROW INTO :PER-ROW                          PPOT1181
051000     END-EXEC.                                                    PPOT1181
051100     MOVE SQLCODE TO WS-PER-SQLCODE.                              PPOT1181
052300 8510-FETCH-PER-EXIT.                                             PPOT1181
052400     EXIT.                                                        PPOT1181
052500 8520-CLOSE-PER SECTION.                                          PPOT1181
052600     IF PER-ROW-OPEN                                              PPOT1181
052700         MOVE 'CLOSE PER CURSOR' TO DB2MSG-TAG                    PPOT1181
052800            EXEC SQL                                              PPOT1181
052900               CLOSE PER_ROW                                      PPOT1181
053000            END-EXEC                                              PPOT1181
053100         MOVE SPACE TO PER-ROW-OPEN-SW                            PPOT1181
053200     END-IF.                                                      PPOT1181
053300    SKIP1                                                         PPOT1181
053400                                                                  PPOT1181
053500***********************************************************       PPOT1181
053600*           COMMON ROUTINES                               *       PPOT1181
053700***********************************************************       PPOT1181
053800 8800-CREATE-TIME-STAMP SECTION.                                  PPOT1181
053900     COPY CPPDTIME.                                               PPOT1181
054000     COPY CPPDDATE.                                               PPOT1181
054100     IF PRE-YY < '89'                                             PPOT1181
054200         MOVE '20' TO WS-CC                                       PPOT1181
054300     ELSE                                                         PPOT1181
054400         MOVE '19' TO WS-CC                                       PPOT1181
054500     END-IF                                                       PPOT1181
054600     MOVE PRE-YY TO WS-YY                                         PPOT1181
054700     MOVE PRE-MM TO WS-MM                                         PPOT1181
054800     MOVE PRE-DD TO WS-DD                                         PPOT1181
054900     MOVE TIME-HH TO WS-HH                                        PPOT1181
055000     MOVE TIME-MM TO WS-MN                                        PPOT1181
055100     MOVE TIME-SS TO WS-SS.                                       PPOT1181
055200 DATE-CONVERSION-DB2 SECTION.                                     PPOT1181
055300                                            COPY CPPDXDC2.        PPOT1181
055400 8900-WRITE-OUT-OCHG  SECTION.                                    PPOT1181
055500     WRITE OCHG-EDB-CHANGE-RECORD  FROM EDB-CHANGE-RECORD.        PPOT1181
055600***********************************************************       PPOT1181
055700*                    F I N A L I Z E                      *       PPOT1181
055800***********************************************************       PPOT1181
055900     SKIP1                                                        PPOT1181
056000 9000-FINALIZATION SECTION.                                       PPOT1181
056100     SKIP1                                                        PPOT1181
056200     IF   WX-PRINT-LINES-RPT > +55                                PPOT1181
056300          PERFORM 3500-BUILD-REPORT-HEADER                        PPOT1181
056400          MOVE WS-TOTAL-CHANGE TO WA-TOTAL-RECORDS                PPOT1181
056500          MOVE WA-TOTAL-DETAIL-2 TO PRINT-REC                     PPOT1181
056600          MOVE +1 TO WX-REPORT-LINE-ADVANCE                       PPOT1181
056700          PERFORM 7000-WRITE-REPORT                               PPOT1181
056800          MOVE WA-TOTAL-DETAIL-3 TO PRINT-REC                     PPOT1181
056900          PERFORM 7000-WRITE-REPORT                               PPOT1181
057000     ELSE                                                         PPOT1181
057100          MOVE WA-TOTAL-DETAIL-2 TO PRINT-REC                     PPOT1181
057200          MOVE +1 TO WX-REPORT-LINE-ADVANCE                       PPOT1181
057300          PERFORM 7000-WRITE-REPORT                               PPOT1181
057400          MOVE WA-TOTAL-DETAIL-3 TO PRINT-REC                     PPOT1181
057500          PERFORM 7000-WRITE-REPORT                               PPOT1181
057600     END-IF.                                                      PPOT1181
057700     CLOSE   PRINT-FILE.                                          PPOT1181
057800*                                                                *PPOT1181
057900     CLOSE EDBCHG.                                                PPOT1181
058000     SKIP1                                                        PPOT1181
058100*999999-SQL-ERROR.                                               *PPOT1181
058200     EXEC SQL                                                     PPOT1181
058300          INCLUDE CPPDXP99                                        PPOT1181
058400     END-EXEC.                                                    PPOT1181
058500     IF NOT HERE-BEFORE                                           PPOT1181
058600         SET HERE-BEFORE TO TRUE                                  PPOT1181
058700         MOVE 'UPDATE ROLLBACK' TO DB2MSG-TAG                     PPOT1181
058800         EXEC SQL                                                 PPOT1181
058900             ROLLBACK WORK                                        PPOT1181
059000         END-EXEC                                                 PPOT1181
059100     END-IF.                                                      PPOT1181
059200     MOVE +5               TO RETURN-CODE.                        PPOT1181
059300     STOP RUN.                                                    PPOT1181
059400********  END OF PROGRAM PPOT1181 ********                        PPOT1181
