000000**************************************************************/   48571379
000001*  PROGRAM: PPOT1402                                         */   48571379
000002*  RELEASE: ___1402______ SERVICE REQUEST(S): ____14865____  */   48571379
000003*  NAME:_______QUAN______ CREATION DATE:      ___03/21/02__  */   48571379
000004*  DESCRIPTION:                                              */   48571379
000005*  - One-time program to convert the old Taxable Life        */   48571379
000006*    Premium (TLP) File (Length 235) to the new Taxable      */   48571379
000007*    Life Premium File (Length 255).                         */   48571379
000008**************************************************************/   48571379
001000 IDENTIFICATION DIVISION.                                         PPOT1402
001100 PROGRAM-ID. PPOT1402.                                            PPOT1402
001200 AUTHOR.  UCOP.                                                   PPOT1402
001300 DATE-WRITTEN.    March, 2002.                                    PPOT1402
001400                                                                  PPOT1402
001500 DATE-COMPILED.                                                   PPOT1402
001600                                                                  PPOT1402
001700*REMARKS.                                                         PPOT1402
001800******************************************************************PPOT1402
001900*                                                                 PPOT1402
002000* The purpose of this one-time program is to convert the existing PPOT1402
002100* Taxable Life Premium File with a length of 235 to the new lengthPPOT1402
002200* of 255. The TLP record structure includes a new rate for the    PPOT1402
002300* "Under 25" age group in the first occurrence of the rate array. PPOT1402
002400*                                                                 PPOT1402
002700* A report of the new TLP File is produced which is identical to  PPOT1402
002710* the PPP5605 report produced in PPP560.                          PPOT1402
002800******************************************************************PPOT1402
002900                                                                  PPOT1402
003000 ENVIRONMENT DIVISION.                                            PPOT1402
003100                                                                  PPOT1402
003200 CONFIGURATION SECTION.                                           PPOT1402
003300 SPECIAL-NAMES.                                                   PPOT1402
003400                                                                  PPOT1402
003500     C01 IS NEW-PAGE.                                             PPOT1402
003600     EJECT                                                        PPOT1402
003700 INPUT-OUTPUT SECTION.                                            PPOT1402
003800 FILE-CONTROL.                                                    PPOT1402
003900                                                                  PPOT1402
004100     SELECT POT14021-REPORT       ASSIGN TO  UT-S-POT14021.       PPOT1402
004201                                                                  PPOT1402
004210     SELECT TAXABLE-LIFE-PREMIUM-FILE-IN                          PPOT1402
004211                                  ASSIGN TO  UT-S-TLPFILE.        PPOT1402
004212                                                                  PPOT1402
004220     SELECT TAXABLE-LIFE-PREMIUM-FILE-OT                          PPOT1402
004230                                  ASSIGN TO  UT-S-TLPFILE2.       PPOT1402
004300******************************************************************PPOT1402
004400*                                                                *PPOT1402
004500*                         DATA DIVISION                          *PPOT1402
004600*                                                                *PPOT1402
004700******************************************************************PPOT1402
004800 DATA DIVISION.                                                   PPOT1402
004900 FILE SECTION.                                                    PPOT1402
007100                                                                  PPOT1402
007200 FD  POT14021-REPORT                                              PPOT1402
007300     LABEL RECORDS ARE OMITTED                                    PPOT1402
007400     BLOCK CONTAINS 0 RECORDS                                     PPOT1402
007500     RECORDING MODE IS F                                          PPOT1402
007600     RECORD CONTAINS 133 CHARACTERS.                              PPOT1402
007700                                                                  PPOT1402
007800 01  PPOT14021-LINE.                                              PPOT1402
007900     05  FILLER                   PIC X.                          PPOT1402
008000     05  PPOT14021-DATA           PIC X(132).                     PPOT1402
008010                                                                  PPOT1402
008020 FD  TAXABLE-LIFE-PREMIUM-FILE-IN                                 PPOT1402
008030     BLOCK CONTAINS 0 RECORDS                                     PPOT1402
008040     LABEL RECORDS ARE STANDARD                                   PPOT1402
008050     RECORDING MODE IS F                                          PPOT1402
008080     DATA RECORD IS TAXABLE-LIFE-PREMIUM-RECORD-IN.               PPOT1402
008090*                                                                 PPOT1402
008100 01  TAXABLE-LIFE-PREMIUM-RECORD-IN PIC X(235).                   PPOT1402
008200                                                                  PPOT1402
008300 FD  TAXABLE-LIFE-PREMIUM-FILE-OT                                 PPOT1402
008400     BLOCK CONTAINS 0 RECORDS                                     PPOT1402
008500     LABEL RECORDS ARE STANDARD                                   PPOT1402
008600     RECORDING MODE IS F                                          PPOT1402
008610     DATA RECORD IS TAXABLE-LIFE-PREMIUM-RECORD-OT.               PPOT1402
008620*                                                                 PPOT1402
008630 01  TAXABLE-LIFE-PREMIUM-RECORD-OT PIC X(255).                   PPOT1402
008700                                                                  PPOT1402
009600     EJECT                                                        PPOT1402
009700******************************************************************PPOT1402
009800*                                                                *PPOT1402
009900*                     WORKING-STORAGE SECTION                    *PPOT1402
010000*                                                                *PPOT1402
010100******************************************************************PPOT1402
010200 WORKING-STORAGE SECTION.                                         PPOT1402
010300                                                                  PPOT1402
010400 01  WS-FLAGS.                                                    PPOT1402
010500     05  WS-ABEND-FLAG           PIC S9(01) VALUE +0.             PPOT1402
010600         88  WS-ABEND                       VALUE +1.             PPOT1402
010610     05  EOF-TLP-FILE-SW         PIC X(01)  VALUE 'N'.            PPOT1402
010620         88  EOF-TLP-FILE                   VALUE 'Y'.            PPOT1402
010630     05  EOF-TLP-FILE-OT-SW      PIC X(01)  VALUE 'N'.            PPOT1402
010640         88  EOF-TLP-FILE-OT                VALUE 'Y'.            PPOT1402
010650     05  WE-FATAL-ERROR-FLAG     PIC X           VALUE ' '.       PPOT1402
010660         88  WE-FATAL-ERROR                      VALUE '1'.       PPOT1402
010730                                                                  PPOT1402
010800 01  WS-MISC.                                                     PPOT1402
010900     05  WS-PGM-ID                PIC X(15)  VALUE                PPOT1402
011000                                            'PPOT1402/032102'.    PPOT1402
011100                                                                  PPOT1402
012210     05  MAX-LINES-PER-PAGE      PIC S9(04) VALUE +55.            PPOT1402
012300     05  RPT1-LINES-PER-PAGE     PIC S9(04) VALUE +99.            PPOT1402
012301     05  P-5605-5606-LINE-CNT    PIC S9(04) VALUE +99.            PPOT1402
012302     05  P-5605-5606-LINE-MAX    PIC S9(04) VALUE +54.            PPOT1402
012303     05  WS-TLP-REC-CT           PIC S9(04) VALUE +0.             PPOT1402
012304     05  WK-TLP-SIGNED-RATE      PIC S99V99.                      PPOT1402
012305     05  TLP-RATE-SET-INDX       PIC S9(04) VALUE +0.             PPOT1402
012306     05  TLP-RATE-INDX           PIC S9(04) VALUE +0.             PPOT1402
012307                                                                  PPOT1402
012308 01  WORK-TAXABLE-LIFE.                                           PPOT1402
012309     05  TLP-INDX                PIC S9(4)  COMP SYNC VALUE ZERO. PPOT1402
012310     05  TLP-INDX-MAX            PIC S9(4)  COMP SYNC VALUE +5.   PPOT1402
012311     05  TLP-IRS-INDX            PIC S9(4)  COMP SYNC VALUE ZERO. PPOT1402
012312     05  TLP-STND-INDX           PIC S9(4)  COMP SYNC VALUE ZERO. PPOT1402
012313     05  TLP-WORK-X              PIC S9(4)  COMP SYNC VALUE ZERO. PPOT1402
012314     05  TLP-AGE-INDX            PIC S9(4)  COMP SYNC VALUE ZERO. PPOT1402
012315     05  TLP-AGE-INDX-MAX        PIC S9(4)  COMP SYNC VALUE +11.  PPOT1402
012316     05  TLP-SAVE-DEFAULT        PIC S9(4)  COMP SYNC VALUE ZERO. PPOT1402
012317     05  TLP-UPDATE-SW           PIC 9  VALUE ZERO.               PPOT1402
012318     05  TLP-TRANS-ERROR-SW      PIC 9  VALUE ZERO.               PPOT1402
012319                                                                  PPOT1402
012320 01  TLP-MATH-RATES-ARRAY.                                        PPOT1402
012321     05  TLP-MATH-RATE-TYP-SET   OCCURS 5.                        PPOT1402
012322         10  TLP-MATH-RATES.                                      PPOT1402
012323             15  TLP-MATH-RATE-UNDR-25       PIC 99V999.          PPOT1402
012324             15  TLP-MATH-RATE-25-29         PIC 99V999.          PPOT1402
012325             15  TLP-MATH-RATE-30-34         PIC 99V999.          PPOT1402
012326             15  TLP-MATH-RATE-35-39         PIC 99V999.          PPOT1402
012327             15  TLP-MATH-RATE-40-44         PIC 99V999.          PPOT1402
012328             15  TLP-MATH-RATE-45-49         PIC 99V999.          PPOT1402
012329             15  TLP-MATH-RATE-50-54         PIC 99V999.          PPOT1402
012330             15  TLP-MATH-RATE-55-59         PIC 99V999.          PPOT1402
012331             15  TLP-MATH-RATE-60-64         PIC 99V999.          PPOT1402
012332             15  TLP-MATH-RATE-65-69         PIC 99V999.          PPOT1402
012333             15  TLP-MATH-RATE-70-OVR        PIC 99V999.          PPOT1402
012334         10  TLP-MATH-RATES-RDF   REDEFINES                       PPOT1402
012335             TLP-MATH-RATES.                                      PPOT1402
012336             15  TLP-MATH-RATE    OCCURS 11  PIC 99V999.          PPOT1402
012337*                                                                *PPOT1402
012338 01  WA-ERROR-DETAIL-1.                                           PPOT1402
012339     05  WA-DET1-CC              PIC  X(01)  VALUE SPACES.        PPOT1402
012340     05  SEVERITY-TEXT           PIC  X(30)  VALUE SPACES.        PPOT1402
012341     05  WA-ERROR-MESSAGE-1.                                      PPOT1402
012342         10  WA-ERROR-TEXT       PIC  X(50)  VALUE SPACES.        PPOT1402
012343         10  FILLER              PIC  X(52)  VALUE SPACES.        PPOT1402
012344                                                                  PPOT1402
012345*                                                                *PPOT1402
012346 01  PRINT-5605-SUB-HDNG.                                         PPOT1402
012347     05  FILLER  PIC X(26)  VALUE  ' -- RATE TYPE --'.            PPOT1402
012348     05  FILLER  PIC X(28)  VALUE 'UND 25    25-29    30-34    '. PPOT1402
012349     05  FILLER  PIC X(27)  VALUE  '35-39    40-44    45-49    '. PPOT1402
012350     05  FILLER  PIC X(27)  VALUE  '50-54    55-59    60-64    '. PPOT1402
012351     05  FILLER  PIC X(25)  VALUE  '65-69   OVER 69'.             PPOT1402
012352*                                                                *PPOT1402
012353 01  PRINT-5605-5606-REC                 PIC X(133) VALUE SPACES. PPOT1402
012354 01  PRINT-5605-5606-REC-RDF REDEFINES                            PPOT1402
012355     PRINT-5605-5606-REC.                                         PPOT1402
012356     05  FILLER                        PIC X.                     PPOT1402
012357     05  P-5605-5606-REC.                                         PPOT1402
012358         10  FILLER                    PIC X(50).                 PPOT1402
012359         10  P-5605-5606-HDNG-DESC     PIC X(32).                 PPOT1402
012360         10  FILLER                    PIC X(32).                 PPOT1402
012361         10  P-5605-5606-MO-LIT        PIC X(9).                  PPOT1402
012362         10  P-5605-5606-PROCESS-MO    PIC X(9).                  PPOT1402
012363     05  P-5605-REC  REDEFINES                                    PPOT1402
012364         P-5605-5606-REC.                                         PPOT1402
012365         10  P-5605-RATE-TYP.                                     PPOT1402
012366             15  P-5605-CBUC-DESC      PIC X(6).                  PPOT1402
012367             15  P-5605-CBUC           PIC X(2).                  PPOT1402
012368             15  P-5605-SUB-CBUC-DESC  PIC X(11).                 PPOT1402
012369             15  P-5605-SUB-CBUC       PIC X(3).                  PPOT1402
012370             15  FILLER                PIC X(3).                  PPOT1402
012371         10  FILLER                    PIC X(01).                 PPOT1402
012372         10  P-5605-RATES   OCCURS 11.                            PPOT1402
012373             15  P-5605-RATE           PIC Z.999.                 PPOT1402
012374             15  FILLER                PIC X(4).                  PPOT1402
012375         10  FILLER                    PIC X(07).                 PPOT1402
012376*                                                                 PPOT1402
012377****************************************************************  PPOT1402
012378*     OLD TAXBALE LIFE PREMIUM RECORD STRUCTURE                   PPOT1402
012379****************************************************************  PPOT1402
012380 01  TAXABLE-LIFE-PREMIUM-REC-IN.                                 PPOT1402
012381     05  TLP-RATE-TYP-SET   OCCURS 5.                             PPOT1402
012390         10  TLP-UPDATE         PIC X.                            PPOT1402
012391         10  TLP-RATE-TYP       PIC X(5).                         PPOT1402
012392             88  TLP-RATE-TYP-IRS   VALUE 'IRS  '.                PPOT1402
012393             88  TLP-RATE-TYP-STND  VALUE '00   '.                PPOT1402
012394         10  TLP-RATE-TYP-RDF  REDEFINES                          PPOT1402
012395             TLP-RATE-TYP.                                        PPOT1402
012396             15  TLP-CBUC       PIC XX.                           PPOT1402
012397             15  TLP-SUB-CBUC   PIC X(3).                         PPOT1402
012398                 88  TLP-CBUC-DEFAULT   VALUE '###'.              PPOT1402
012399         10  FILLER             PIC X.                            PPOT1402
012400         10  TLP-RATES.                                           PPOT1402
012410             15  TLP-RATE-UNDR-30       PIC 9V999.                PPOT1402
012420             15  TLP-RATE-30-34         PIC 9V999.                PPOT1402
012430             15  TLP-RATE-35-39         PIC 9V999.                PPOT1402
012440             15  TLP-RATE-40-44         PIC 9V999.                PPOT1402
012450             15  TLP-RATE-45-49         PIC 9V999.                PPOT1402
012460             15  TLP-RATE-50-54         PIC 9V999.                PPOT1402
012470             15  TLP-RATE-55-59         PIC 9V999.                PPOT1402
012480             15  TLP-RATE-60-64         PIC 9V999.                PPOT1402
012490             15  TLP-RATE-65-69         PIC 9V999.                PPOT1402
012491             15  TLP-RATE-70-OVR        PIC 9V999.                PPOT1402
012492         10  TLP-RATES-RDF   REDEFINES                            PPOT1402
012493             TLP-RATES.                                           PPOT1402
012494             15  TLP-RATE    OCCURS 10  PIC 9V999.                PPOT1402
012700                                                                  PPOT1402
012800****************************************************************  PPOT1402
012900*     NEW TAXBALE LIFE PREMIUM RECORD STRUCTURE                   PPOT1402
012910****************************************************************  PPOT1402
012920 01  TAXABLE-LIFE-PREMIUM-REC-OT.                                 PPOT1402
013030     05  TLP-O-RATE-TYP-SET   OCCURS 5.                           PPOT1402
013040         10  TLP-O-UPDATE            PIC X.                       PPOT1402
013050         10  TLP-O-RATE-TYP            PIC X(5).                  PPOT1402
013060             88  TLP-O-RATE-TYP-IRS              VALUE 'IRS  '.   PPOT1402
013070             88  TLP-O-RATE-TYP-STND             VALUE '00   '.   PPOT1402
013080         10  TLP-O-RATE-TYP-RDF  REDEFINES                        PPOT1402
013090             TLP-O-RATE-TYP.                                      PPOT1402
013091             15  TLP-O-CBUC            PIC XX.                    PPOT1402
013092             15  TLP-O-SUB-CBUC        PIC X(3).                  PPOT1402
013093                 88  TLP-O-CBUC-DEFAULT              VALUE '###'. PPOT1402
013094         10  FILLER                  PIC X.                       PPOT1402
013095         10  TLP-O-RATES.                                         PPOT1402
013097             15  TLP-O-RATE-UNDR-25    PIC 9V999.                 PPOT1402
013098             15  TLP-O-RATE-25-29      PIC 9V999.                 PPOT1402
013099             15  TLP-O-RATE-30-34      PIC 9V999.                 PPOT1402
013100             15  TLP-O-RATE-35-39      PIC 9V999.                 PPOT1402
013101             15  TLP-O-RATE-40-44      PIC 9V999.                 PPOT1402
013102             15  TLP-O-RATE-45-49      PIC 9V999.                 PPOT1402
013103             15  TLP-O-RATE-50-54      PIC 9V999.                 PPOT1402
013104             15  TLP-O-RATE-55-59      PIC 9V999.                 PPOT1402
013105             15  TLP-O-RATE-60-64      PIC 9V999.                 PPOT1402
013106             15  TLP-O-RATE-65-69      PIC 9V999.                 PPOT1402
013107             15  TLP-O-RATE-70-OVR     PIC 9V999.                 PPOT1402
013108         10  TLP-O-RATES-RDF  REDEFINES                           PPOT1402
013109             TLP-O-RATES.                                         PPOT1402
013111             15  TLP-O-RATE OCCURS 11  PIC 9V999.                 PPOT1402
013112     EJECT                                                        PPOT1402
013113                                                                  PPOT1402
013120****************************************************************  PPOT1402
013130*     CONTROL TOTAL HEADINGS                                      PPOT1402
013140****************************************************************  PPOT1402
013150 01  CNTLR-1.                                                     PPOT1402
013160     05  FILLER                   PIC X(1)   VALUE ' '.           PPOT1402
013170     05  FILLER                   PIC X(38)                       PPOT1402
013180              VALUE 'EMPLOYEE RECORDS SELECTED FOR UPDATE: '.     PPOT1402
013190     05  FILLER                   PIC X(04) VALUE SPACES.         PPOT1402
013192     05  TOT-EMPL-RECS-SELECTED   PIC ZZ,ZZZ,ZZ9 VALUE ZERO.      PPOT1402
013193     05  FILLER                   PIC X(80) VALUE SPACES.         PPOT1402
014800                                                                  PPOT1402
016300     EJECT                                                        PPOT1402
016400***********************************************************       PPOT1402
016500*        S T A N D A R D    C O P Y   M E M B E R S       *       PPOT1402
016600***********************************************************       PPOT1402
016700                                                                  PPOT1402
016800 01  XWHC-COMPILE-WORK-AREA.          COPY CPWSXWHC.              PPOT1402
017500                                                                  PPOT1402
017600 01  STND-RPT-HD.                     COPY CPWSPSHR.              PPOT1402
017610                                                                  PPOT1402
017620 01  DATE-CONVERSION-WORK-AREAS.      COPY  CPWSXDC3.             PPOT1402
017700                                                                  PPOT1402
017900     EJECT                                                        PPOT1402
021600                                                                  PPOT1402
021700******************************************************************PPOT1402
021800*                      PROCEDURE DIVISION.                       *PPOT1402
021900*                                                                *PPOT1402
022000******************************************************************PPOT1402
022100 PROCEDURE DIVISION.                                              PPOT1402
022200                                                                  PPOT1402
022700     EJECT                                                        PPOT1402
022800******************************************************************PPOT1402
022900*                       MAIN-ROUTINE                             *PPOT1402
023000******************************************************************PPOT1402
023100                                                                  PPOT1402
023200 0001-MAIN-ROUTINE.                                               PPOT1402
023300                                                                  PPOT1402
023420     PERFORM  1000-INITIALIZATION.                                PPOT1402
023430                                                                  PPOT1402
023440     PERFORM 2000-READ-TLP-FILE.                                  PPOT1402
023450                                                                  PPOT1402
023460     PERFORM 4000-PROCESS-TLP-RECORD                              PPOT1402
023470       UNTIL  EOF-TLP-FILE.                                       PPOT1402
023900                                                                  PPOT1402
023910 0001-EOJ.                                                        PPOT1402
023920                                                                  PPOT1402
024000     PERFORM 9000-TERMINATION.                                    PPOT1402
024100                                                                  PPOT1402
024420                                                                  PPOT1402
024500     STOP RUN.                                                    PPOT1402
024600                                                                  PPOT1402
024700 0001-MAIN-EXIT. EXIT.                                            PPOT1402
024870                                                                  PPOT1402
024900     EJECT                                                        PPOT1402
025000******************************************************************PPOT1402
025100*                       1000-INITIALIZATION                      *PPOT1402
025200******************************************************************PPOT1402
025300                                                                  PPOT1402
025400 1000-INITIALIZATION  SECTION.                                    PPOT1402
025500                                                                  PPOT1402
025600     MOVE 'PPOT1402' TO XWHC-DISPLAY-MODULE                       PPOT1402
025700     COPY CPPDXWHC.                                               PPOT1402
025800                                                                  PPOT1402
025900     MOVE 'OT14021' TO STND-RPT-ID.                               PPOT1402
026000     MOVE WS-PGM-ID TO STND-PROG-ID.                              PPOT1402
026200     PERFORM XDC3-GET-CURRENT-DATE.                               PPOT1402
026300     PERFORM XDC3-CONVERT-LILIAN-TO-ISO.                          PPOT1402
026400     PERFORM XDC3-CONVERT-ISO-TO-FMT.                             PPOT1402
026500     MOVE XDC3-FMT-DATE TO STND-RPT-DATE.                         PPOT1402
026510     MOVE '        ONETIME PROCESSING'  TO STND-FUNC-AREA.        PPOT1402
026600     MOVE '       CONVERT TAXABLE LIFE PREMIUM FILE   '           PPOT1402
026700                                              TO STND-RPT-TTL.    PPOT1402
026800     MOVE SPACES TO STND-RPT-COMMENT                              PPOT1402
026900                    STND-DATE2                                    PPOT1402
027000                    STND-DATE2-TTL.                               PPOT1402
027110                                                                  PPOT1402
027120     OPEN  INPUT  TAXABLE-LIFE-PREMIUM-FILE-IN                    PPOT1402
027121                                                                  PPOT1402
027122           OUTPUT TAXABLE-LIFE-PREMIUM-FILE-OT                    PPOT1402
027130                  POT14021-REPORT.                                PPOT1402
027131                                                                  PPOT1402
027132     PERFORM 3100-WRITE-RPT1-NEWPAGE.                             PPOT1402
027400                                                                  PPOT1402
034810 1000-EXIT. EXIT.                                                 PPOT1402
038010                                                                  PPOT1402
038100     EJECT                                                        PPOT1402
038112*----------------------------------------------------------------*PPOT1402
038113*    Read existing Taxable Life Premium File                     *PPOT1402
038115*----------------------------------------------------------------*PPOT1402
038120 2000-READ-TLP-FILE    SECTION.                                   PPOT1402
038130                                                                  PPOT1402
038140     READ TAXABLE-LIFE-PREMIUM-FILE-IN                            PPOT1402
038141                               INTO TAXABLE-LIFE-PREMIUM-REC-IN   PPOT1402
038150           AT END                                                 PPOT1402
038160                 SET EOF-TLP-FILE TO TRUE.                        PPOT1402
038200                                                                  PPOT1402
038230     EJECT                                                        PPOT1402
038240*----------------------------------------------------------------*PPOT1402
038250*    Write converted new Taxable Life Premium record             *PPOT1402
038260*----------------------------------------------------------------*PPOT1402
038270 3000-WRITE-TLP-RECORD    SECTION.                                PPOT1402
038280                                                                  PPOT1402
038290     WRITE TAXABLE-LIFE-PREMIUM-RECORD-OT                         PPOT1402
038291                            FROM TAXABLE-LIFE-PREMIUM-REC-OT.     PPOT1402
038292                                                                  PPOT1402
038293     ADD +1 TO  WS-TLP-REC-CT.                                    PPOT1402
038510                                                                  PPOT1402
038511     EJECT                                                        PPOT1402
038520*----------------------------------------------------------------*PPOT1402
038530*    Process old TLP record                                      *PPOT1402
038540*----------------------------------------------------------------*PPOT1402
038600 4000-PROCESS-TLP-RECORD  SECTION.                                PPOT1402
038700                                                                  PPOT1402
038800     MOVE SPACES TO TAXABLE-LIFE-PREMIUM-REC-OT.                  PPOT1402
043001     PERFORM VARYING TLP-RATE-SET-INDX FROM 1 BY 1                PPOT1402
043002        UNTIL TLP-RATE-SET-INDX > 5                               PPOT1402
043003                                                                  PPOT1402
043004        IF TLP-RATE-TYP  (TLP-RATE-SET-INDX) NOT = SPACES         PPOT1402
043005           MOVE TLP-UPDATE (TLP-RATE-SET-INDX)                    PPOT1402
043006                   TO  TLP-O-UPDATE (TLP-RATE-SET-INDX)           PPOT1402
043007           MOVE TLP-RATE-TYP (TLP-RATE-SET-INDX)                  PPOT1402
043008                   TO   TLP-O-RATE-TYP (TLP-RATE-SET-INDX)        PPOT1402
043009                                                                  PPOT1402
043010           MOVE TLP-RATE-UNDR-30 (TLP-RATE-SET-INDX)              PPOT1402
043011                   TO  TLP-O-RATE-UNDR-25 (TLP-RATE-SET-INDX)     PPOT1402
043012                       TLP-O-RATE-25-29   (TLP-RATE-SET-INDX)     PPOT1402
043013           MOVE TLP-RATE-30-34   (TLP-RATE-SET-INDX)              PPOT1402
043014                   TO  TLP-O-RATE-30-34   (TLP-RATE-SET-INDX)     PPOT1402
043015           MOVE TLP-RATE-35-39   (TLP-RATE-SET-INDX)              PPOT1402
043016                   TO  TLP-O-RATE-35-39   (TLP-RATE-SET-INDX)     PPOT1402
043017           MOVE TLP-RATE-40-44   (TLP-RATE-SET-INDX)              PPOT1402
043018                   TO  TLP-O-RATE-40-44   (TLP-RATE-SET-INDX)     PPOT1402
043019           MOVE TLP-RATE-45-49   (TLP-RATE-SET-INDX)              PPOT1402
043020                   TO  TLP-O-RATE-45-49   (TLP-RATE-SET-INDX)     PPOT1402
043021           MOVE TLP-RATE-50-54   (TLP-RATE-SET-INDX)              PPOT1402
043022                   TO  TLP-O-RATE-50-54   (TLP-RATE-SET-INDX)     PPOT1402
043023           MOVE TLP-RATE-55-59   (TLP-RATE-SET-INDX)              PPOT1402
043024                   TO  TLP-O-RATE-55-59   (TLP-RATE-SET-INDX)     PPOT1402
043025           MOVE TLP-RATE-60-64   (TLP-RATE-SET-INDX)              PPOT1402
043026                   TO  TLP-O-RATE-60-64   (TLP-RATE-SET-INDX)     PPOT1402
043027           MOVE TLP-RATE-65-69   (TLP-RATE-SET-INDX)              PPOT1402
043028                   TO  TLP-O-RATE-65-69   (TLP-RATE-SET-INDX)     PPOT1402
043029           MOVE TLP-RATE-70-OVR  (TLP-RATE-SET-INDX)              PPOT1402
043030                   TO  TLP-O-RATE-70-OVR  (TLP-RATE-SET-INDX)     PPOT1402
043031                                                                  PPOT1402
043032         END-IF                                                   PPOT1402
043033     END-PERFORM.                                                 PPOT1402
043034                                                                  PPOT1402
043035     PERFORM 3000-WRITE-TLP-RECORD.                               PPOT1402
043036     PERFORM 2000-READ-TLP-FILE.                                  PPOT1402
044800                                                                  PPOT1402
044810*----------------------------------------------------------------*PPOT1402
044900 3100-WRITE-RPT1-NEWPAGE   SECTION.                               PPOT1402
044910*----------------------------------------------------------------*PPOT1402
045000                                                                  PPOT1402
045100     ADD   1               TO STND-PAGE-NO.                       PPOT1402
045200     INSPECT STND-PAGE-NO REPLACING LEADING ZEROS BY SPACE.       PPOT1402
045300     WRITE PPOT14021-LINE FROM STND-RPT-HD1                       PPOT1402
045400                                        AFTER ADVANCING NEW-PAGE. PPOT1402
045500     WRITE PPOT14021-LINE FROM STND-RPT-HD2  AFTER 1.             PPOT1402
045600     WRITE PPOT14021-LINE FROM STND-RPT-HD3  AFTER 1.             PPOT1402
046200                                                                  PPOT1402
046301                                                                  PPOT1402
046303     WRITE PPOT14021-LINE FROM PRINT-5605-SUB-HDNG  AFTER 2.      PPOT1402
046305     MOVE +6 TO P-5605-5606-LINE-CNT.                             PPOT1402
046306*                                                                 PPOT1402
046307 6000-RETRIEVE-PRINT-TLP   SECTION.                               PPOT1402
046308*                                                                 PPOT1402
046310                                                                  PPOT1402
046311     READ TAXABLE-LIFE-PREMIUM-FILE-OT                            PPOT1402
046312                               INTO TAXABLE-LIFE-PREMIUM-REC-OT   PPOT1402
046313           AT END                                                 PPOT1402
046314                 SET EOF-TLP-FILE-OT TO TRUE.                     PPOT1402
046315                                                                  PPOT1402
046316     IF  EOF-TLP-FILE-OT                                          PPOT1402
046317        GO TO 6000-RETRIEVE-PRINT-EXIT                            PPOT1402
046318     END-IF.                                                      PPOT1402
046319                                                                  PPOT1402
046320     PERFORM 6100-ESTABL-IRS-STND-INDXS.                          PPOT1402
046321*                                                                 PPOT1402
046322     IF NOT WE-FATAL-ERROR                                        PPOT1402
046323         PERFORM 6200-CALC-MATH-PRINT-TLP                         PPOT1402
046324     END-IF.                                                      PPOT1402
046325                                                                  PPOT1402
046326 6000-RETRIEVE-PRINT-EXIT. EXIT.                                  PPOT1402
046327*                                                                 PPOT1402
046328 6100-ESTABL-IRS-STND-INDXS   SECTION.                            PPOT1402
046329*                                                                 PPOT1402
046330     MOVE ZERO TO TLP-IRS-INDX,                                   PPOT1402
046331                  TLP-STND-INDX.                                  PPOT1402
046332     MOVE 1    TO TLP-INDX.                                       PPOT1402
046333*                                                                 PPOT1402
046334 6100-ESTABL-IRS-STND-LOOP.                                       PPOT1402
046335     IF TLP-O-RATE-TYP-IRS  (TLP-INDX)                            PPOT1402
046336         MOVE TLP-INDX TO TLP-IRS-INDX                            PPOT1402
046337     ELSE                                                         PPOT1402
046338        IF TLP-O-RATE-TYP-STND (TLP-INDX)                         PPOT1402
046339           MOVE TLP-INDX TO TLP-STND-INDX                         PPOT1402
046340        END-IF                                                    PPOT1402
046341     END-IF.                                                      PPOT1402
046342*                                                                 PPOT1402
046343     ADD 1 TO TLP-INDX.                                           PPOT1402
046344     IF TLP-INDX NOT > TLP-INDX-MAX                               PPOT1402
046345         GO TO 6100-ESTABL-IRS-STND-LOOP                          PPOT1402
046346     END-IF.                                                      PPOT1402
046347*                                                                 PPOT1402
046348 EXIT-6100.                                                       PPOT1402
046349     EXIT.                                                        PPOT1402
046350*                                                                 PPOT1402
046351 6200-CALC-MATH-PRINT-TLP       SECTION.                          PPOT1402
046352*                                                                 PPOT1402
046353     MOVE TLP-IRS-INDX  TO TLP-INDX.                              PPOT1402
046354     PERFORM 6300-PRINT-TLP.                                      PPOT1402
046355     MOVE TLP-STND-INDX TO TLP-INDX.                              PPOT1402
046356     PERFORM 6300-PRINT-TLP.                                      PPOT1402
046357                                                                  PPOT1402
046358     MOVE ZERO TO TLP-INDX.                                       PPOT1402
046359                                                                  PPOT1402
046360 6210-CALC-MATH-TLP-LOOP.                                         PPOT1402
046361*                                                                 PPOT1402
046362     ADD 1 TO TLP-INDX.                                           PPOT1402
046363     IF TLP-INDX  > TLP-INDX-MAX                                  PPOT1402
046364         GO TO EXIT-6210                                          PPOT1402
046365     END-IF.                                                      PPOT1402
046366*                                                                 PPOT1402
046367     IF TLP-INDX = TLP-IRS-INDX  OR                               PPOT1402
046368        TLP-INDX = TLP-STND-INDX OR                               PPOT1402
046369        TLP-RATE-TYP (TLP-INDX) = SPACES                          PPOT1402
046370         NEXT SENTENCE                                            PPOT1402
046371     ELSE                                                         PPOT1402
046372        PERFORM 6300-PRINT-TLP                                    PPOT1402
046373     END-IF.                                                      PPOT1402
046374*                                                                 PPOT1402
046375     GO TO 6210-CALC-MATH-TLP-LOOP.                               PPOT1402
046376*                                                                 PPOT1402
046377 EXIT-6210.                                                       PPOT1402
046378     EXIT.                                                        PPOT1402
046379*                                                                 PPOT1402
046380     EJECT                                                        PPOT1402
046381*                                                                 PPOT1402
046382 6300-PRINT-TLP  SECTION.                                         PPOT1402
046383*                                                                 PPOT1402
046384     ADD 3 TO P-5605-5606-LINE-CNT.                               PPOT1402
046385     IF P-5605-5606-LINE-CNT >                                    PPOT1402
046386        P-5605-5606-LINE-MAX                                      PPOT1402
046387        PERFORM 3100-WRITE-RPT1-NEWPAGE                           PPOT1402
046388     END-IF.                                                      PPOT1402
046389*                                                                 PPOT1402
046390     IF TLP-INDX = TLP-IRS-INDX                                   PPOT1402
046391         MOVE 'IRS BASE RATE'          TO P-5605-RATE-TYP         PPOT1402
046392     ELSE                                                         PPOT1402
046393         MOVE 'EUC:  '                 TO P-5605-CBUC-DESC        PPOT1402
046394         MOVE TLP-O-CBUC      (TLP-INDX) TO P-5605-CBUC           PPOT1402
046395         MOVE SPACES                   TO P-5605-SUB-CBUC-DESC    PPOT1402
046396         IF TLP-O-CBUC-DEFAULT (TLP-INDX)                         PPOT1402
046397             MOVE SPACES               TO P-5605-SUB-CBUC         PPOT1402
046398         ELSE                                                     PPOT1402
046399             MOVE TLP-O-SUB-CBUC (TLP-INDX)                       PPOT1402
046400                                       TO P-5605-SUB-CBUC         PPOT1402
046401         END-IF                                                   PPOT1402
046402     END-IF.                                                      PPOT1402
046403*                                                                 PPOT1402
046404     PERFORM 6400-SETUP-TLP-PRT-RATES                             PPOT1402
046405         VARYING TLP-AGE-INDX FROM +1 BY +1                       PPOT1402
046406           UNTIL TLP-AGE-INDX  > TLP-AGE-INDX-MAX.                PPOT1402
046407*                                                                 PPOT1402
046408     WRITE PPOT14021-LINE FROM PRINT-5605-5606-REC                PPOT1402
046409         AFTER ADVANCING 2.                                       PPOT1402
046410     MOVE SPACES TO PRINT-5605-5606-REC.                          PPOT1402
046411*                                                                 PPOT1402
046412     IF TLP-INDX  NOT = TLP-IRS-INDX                              PPOT1402
046413         MOVE '   MATH RATE (CALCULATED)'  TO P-5605-RATE-TYP     PPOT1402
046414         PERFORM 6500-SETUP-TLP-MATH-RATES                        PPOT1402
046415             VARYING TLP-AGE-INDX FROM +1 BY +1                   PPOT1402
046416               UNTIL TLP-AGE-INDX  > TLP-AGE-INDX-MAX.            PPOT1402
046417*                                                                 PPOT1402
046418     WRITE PPOT14021-LINE FROM  PRINT-5605-5606-REC               PPOT1402
046419         AFTER ADVANCING 1.                                       PPOT1402
046420     MOVE SPACES TO PRINT-5605-5606-REC.                          PPOT1402
046421*                                                                 PPOT1402
046422 EXIT-6300.                                                       PPOT1402
046423     EXIT.                                                        PPOT1402
046424     SKIP2                                                        PPOT1402
046425*                                                                 PPOT1402
046426 6400-SETUP-TLP-PRT-RATES    SECTION.                             PPOT1402
046427*                                                                 PPOT1402
046428     MOVE TLP-O-RATE (TLP-INDX, TLP-AGE-INDX)                     PPOT1402
046429             TO P-5605-RATE  (TLP-AGE-INDX).                      PPOT1402
046431*                                                                 PPOT1402
046432 EXIT-6400.                                                       PPOT1402
046433     EXIT.                                                        PPOT1402
046434                                                                  PPOT1402
046435*                                                                 PPOT1402
046436 6500-SETUP-TLP-MATH-RATES   SECTION.                             PPOT1402
046437*                                                                 PPOT1402
046438     COMPUTE WK-TLP-SIGNED-RATE =                                 PPOT1402
046439                      TLP-O-RATE (TLP-IRS-INDX, TLP-AGE-INDX)     PPOT1402
046440                    - TLP-O-RATE (TLP-INDX,     TLP-AGE-INDX).    PPOT1402
046441     IF WK-TLP-SIGNED-RATE < ZERO                                 PPOT1402
046442         MOVE ZERO TO TLP-MATH-RATE (TLP-INDX, TLP-AGE-INDX)      PPOT1402
046443     ELSE                                                         PPOT1402
046444         MOVE WK-TLP-SIGNED-RATE                                  PPOT1402
046445                   TO TLP-MATH-RATE (TLP-INDX, TLP-AGE-INDX).     PPOT1402
046446     MOVE TLP-MATH-RATE (TLP-INDX, TLP-AGE-INDX)                  PPOT1402
046447                TO P-5605-RATE    (TLP-AGE-INDX).                 PPOT1402
046448*                                                                 PPOT1402
046449 EXIT-6500.                                                       PPOT1402
046450     EXIT.                                                        PPOT1402
046451     EJECT                                                        PPOT1402
046452*----------------------------------------------------------------*PPOT1402
046453 DATE-CONVERSION-DB2 SECTION.                                     PPOT1402
046460*----------------------------------------------------------------*PPOT1402
046500                                            COPY CPPDXDC3.        PPOT1402
050300     EJECT                                                        PPOT1402
050310*---------------------------------------------------------------- PPOT1402
050400 9000-TERMINATION  SECTION.                                       PPOT1402
050410*---------------------------------------------------------------- PPOT1402
050500                                                                  PPOT1402
050600******************************************************************PPOT1402
050700*    WRITE TOTALS FOR CONTROL REPORT                             *PPOT1402
050800******************************************************************PPOT1402
050900                                                                  PPOT1402
050940     CLOSE  TAXABLE-LIFE-PREMIUM-FILE-IN                          PPOT1402
050941            TAXABLE-LIFE-PREMIUM-FILE-OT.                         PPOT1402
050951                                                                  PPOT1402
050952     IF WS-TLP-REC-CT > ZERO                                      PPOT1402
050953        OPEN INPUT TAXABLE-LIFE-PREMIUM-FILE-OT                   PPOT1402
050954        PERFORM 6000-RETRIEVE-PRINT-TLP                           PPOT1402
050955               UNTIL EOF-TLP-FILE-OT                              PPOT1402
050956     END-IF.                                                      PPOT1402
050960                                                                  PPOT1402
050962     CLOSE  TAXABLE-LIFE-PREMIUM-FILE-OT.                         PPOT1402
050970     CLOSE  POT14021-REPORT.                                      PPOT1402
051700                                                                  PPOT1402
060700********  END OF PROGRAM PPOT1402********                         PPOT1402
