000000**************************************************************/   73151304
000001*  PROGRAM: PPP031                                           */   73151304
000002*  RELEASE: ___1304______ SERVICE REQUEST(S): ____17315____  */   73151304
000003*  NAME:_______WJG_______ MODIFICATION DATE:  ___09/06/00__  */   73151304
000004*  DESCRIPTION: REPLACE DIRECT ACCESS OF THE PPPTCI TABLE    */   73151304
000005*    WITH CALLS TO PPTCTUTL.                                 */   73151304
000007**************************************************************/   73151304
000100**************************************************************/   44321181
000200*  PROGRAM: PPP031                                           */   44321181
000300*  RELEASE: ___1181______ SERVICE REQUEST(S): ____14432____  */   44321181
000400*  NAME:_______WJG_______ CREATION DATE:      ___02/27/98__  */   44321181
000500*  DESCRIPTION:                                              */   44321181
000600*                                                            */   44321181
000700*  THIS PROGRAM REPLACES THE FOLLOWING FOCEXECS AND VARIOUS  */   44321181
000800*  SUB-ROUTINES:                                             */   44321181
000900*                                                            */   44321181
001000*                      PPFTCJ                                */   44321181
001100*                      PPFTCT                                */   44321181
001400*                                                            */   44321181
001500**************************************************************/   44321181
002900 IDENTIFICATION DIVISION.                                         PPP031
003000 PROGRAM-ID.    PPP031.                                           PPP031
003100 AUTHOR.        WJG.                                              PPP031
003200 INSTALLATION.  UCOP.                                             PPP031
003300 DATE-WRITTEN.  DECEMBER 1997.                                    PPP031
003400 DATE-COMPILED.                                                   PPP031
003500******************************************************************PPP031
003600*    PPP031 OVERVIEW                                              PPP031
003700*                                                                 PPP031
003800* INPUT:                                                          PPP031
003900*                                                                 PPP031
004000*   - INPUT SPECIFICATION (SPEC CARD)                             PPP031
004100*   - THE PPPCCR TABLE OF THE PAYROLL CONTROL DATA BASE VIA       PPP031
004200*     PPFAU021                                                    PPP031
004300*   - THE FOLLOWING TABLES OF THE CONTROL DATA BASE:              PPP031
004400*                                                                 PPP031
004500*                      PPPTCI                                     PPP031
004600*                      PPPCTT                                     PPP031
004700*                      PPPJGT                                     PPP031
004800*                                                                 PPP031
004900* OUTPUT:                                                         PPP031
005000*                                                                 PPP031
005100*    PPP0311 - LISTS TITLES BY TITLE CODE, DISPLAYING THE         PPP031
005200*              ABBREVIATED TITLE NAME, THE JOB GROUP CODE AND     PPP031
005300*              THE PERSONNEL PROGRAM (TRANSLATED) TO WHICH THE    PPP031
005400*              TITLE BELONGS.  ACCORDING TO SPEC CARD OPTION THE  PPP031
005500*              REPORT CAN CONTAIN ALL TITLES, ACADEMIC TITLES     PPP031
005600*              ONLY OR NON-ACADEMIC TITLES ONLY.                  PPP031
005700*                                                                 PPP031
005800*    PPP0312 - LISTS TITLES BY ABBREVIATED TITLE NAME DISPLAYING  PPP031
005900*              THE TITLE CODE, THE JOB GROUP CODE AND             PPP031
006000*              THE PERSONNEL PROGRAM (TRANSLATED) TO WHICH THE    PPP031
006100*              TITLE BELONGS.  ACCORDING TO SPEC CARD OPTION THE  PPP031
006200*              REPORT CAN CONTAIN ALL TITLES, ACADEMIC TITLES     PPP031
006300*              ONLY OR NON-ACADEMIC TITLES ONLY.                  PPP031
006400*                                                                 PPP031
006500*    PPP0319 - AN ERROR REPORT, IF NEEDED                         PPP031
006600*                                                                 PPP031
006700******************************************************************PPP031
006800 ENVIRONMENT DIVISION.                                            PPP031
006900 CONFIGURATION SECTION.                                           PPP031
007000 SOURCE-COMPUTER.     IBM-370.                                    PPP031
007100 OBJECT-COMPUTER.     IBM-370.                                    PPP031
007200                                                                  PPP031
007300 SPECIAL-NAMES.                                                   PPP031
007400         C01 IS NEW-PAGE.                                         PPP031
007500                                                                  PPP031
007600 INPUT-OUTPUT SECTION.                                            PPP031
007700 FILE-CONTROL.                                                    PPP031
007800                                                                  PPP031
007900     SELECT SPEC-CARD        ASSIGN TO UT-S-CARDFIL.              PPP031
008000                                                                  PPP031
008100     SELECT PPP0311          ASSIGN TO UT-S-PPP0311.              PPP031
008200                                                                  PPP031
008300     SELECT PPP0312          ASSIGN TO UT-S-PPP0312.              PPP031
008400                                                                  PPP031
008500     SELECT PPP0313          ASSIGN TO UT-S-PPP0313.              PPP031
008600                                                                  PPP031
008700     SELECT REPORT-FILE      ASSIGN TO UT-S-RPTFILE.              PPP031
008800                                                                  PPP031
008900     SELECT SORT-REPORT-FILE ASSIGN TO UT-S-SORTWK01.             PPP031
009000                                                                  PPP031
009100 DATA DIVISION.                                                   PPP031
009200 FILE SECTION.                                                    PPP031
009300     SKIP2                                                        PPP031
009400 FD  SPEC-CARD                                                    PPP031
009500     LABEL RECORD ARE STANDARD                                    PPP031
009600     RECORDING MODE IS F                                          PPP031
009700     RECORD CONTAINS 80  CHARACTERS                               PPP031
009800     BLOCK CONTAINS 0 RECORDS                                     PPP031
009900     DATA RECORD IS SPEC-CARD-RECORD.                             PPP031
010000     SKIP1                                                        PPP031
010100 01  SPEC-CARD-RECORD                PIC X(80).                   PPP031
010200     SKIP2                                                        PPP031
010300 FD  PPP0311                                                      PPP031
010400     LABEL RECORD ARE STANDARD                                    PPP031
010500     RECORDING MODE IS F                                          PPP031
010600     RECORD CONTAINS 133 CHARACTERS                               PPP031
010700     BLOCK CONTAINS 0 RECORDS                                     PPP031
010800     DATA RECORD IS PPP0311-PRINT-LINE.                           PPP031
010900     SKIP2                                                        PPP031
011000 01  PPP0311-PRINT-LINE              PIC X(133).                  PPP031
011100     SKIP2                                                        PPP031
011200 FD  PPP0312                                                      PPP031
011300     LABEL RECORD ARE STANDARD                                    PPP031
011400     RECORDING MODE IS F                                          PPP031
011500     RECORD CONTAINS 133 CHARACTERS                               PPP031
011600     BLOCK CONTAINS 0 RECORDS                                     PPP031
011700     DATA RECORD IS PPP0312-PRINT-LINE.                           PPP031
011800     SKIP1                                                        PPP031
011900 01  PPP0312-PRINT-LINE              PIC X(133).                  PPP031
012000     SKIP2                                                        PPP031
012100 FD  PPP0313                                                      PPP031
012200     LABEL RECORD ARE STANDARD                                    PPP031
012300     RECORDING MODE IS F                                          PPP031
012400     RECORD CONTAINS 133 CHARACTERS                               PPP031
012500     BLOCK CONTAINS 0 RECORDS                                     PPP031
012600     DATA RECORD IS PPP0313-PRINT-LINE.                           PPP031
012700     SKIP1                                                        PPP031
012800 01  PPP0313-PRINT-LINE              PIC X(133).                  PPP031
012900     SKIP2                                                        PPP031
013000 FD  REPORT-FILE                                                  PPP031
013100     LABEL RECORD ARE STANDARD                                    PPP031
013200     RECORDING MODE IS F                                          PPP031
013300     RECORD CONTAINS 46 CHARACTERS                                PPP031
013400     BLOCK CONTAINS 0 RECORDS                                     PPP031
013500     DATA RECORD IS REPORT-RECORD.                                PPP031
013600     SKIP1                                                        PPP031
013700 01  REPORT-RECORD                   PIC X(46).                   PPP031
013800     SKIP2                                                        PPP031
013900 SD  SORT-REPORT-FILE                                             PPP031
014000     RECORD CONTAINS 46 CHARACTERS                                PPP031
014100     DATA RECORD IS SORT-REPORT-RECORD.                           PPP031
014200     SKIP1                                                        PPP031
014300 01  SORT-REPORT-RECORD.                                          PPP031
014400     05  SORT-TITLE-CODE             PIC X(04).                   PPP031
014500     05  SORT-TITLE-NM-ABBRV         PIC X(30).                   PPP031
014600     05  SORT-JOB-GROUP-ID           PIC X(03).                   PPP031
014700     05  SORT-PERSONNEL-PGM          PIC X(09).                   PPP031
014800     EJECT                                                        PPP031
014900 WORKING-STORAGE SECTION.                                         PPP031
015000     SKIP2                                                        PPP031
015100 01  NUMERIC-CONSTANTS USAGE IS COMP.                             PPP031
015200     05  ONE                         PIC S9(04) VALUE +1.         PPP031
015300     05  TWO                         PIC S9(04) VALUE +2.         PPP031
015400     05  THREE                       PIC S9(04) VALUE +3.         PPP031
015500     05  FOUR                        PIC S9(04) VALUE +4.         PPP031
015600     05  FIVE                        PIC S9(04) VALUE +5.         PPP031
015700     05  FOOTER-LOCATION             PIC S9(04) VALUE +54.        PPP031
015800 01  ALPHA-CONSTANTS.                                             PPP031
015900     05  THIS-PROGRAM                PIC X(08)  VALUE 'PPP031  '. PPP031
015910     05  PGM-PPTCTUTL                PIC X(08)  VALUE 'PPTCTUTL'. 73151304
016000     05  EMPLOYEE-DATA-BASE          PIC X(03)  VALUE 'EDB'.      PPP031
016100     05  PERSONNEL-PGM-DEN           PIC X(06)  VALUE '2007  '.   PPP031
016200     05  PPP031-FUNCTION-TITLE       PIC X(30)                    PPP031
016300         VALUE '    SALARY ADMINISTRATION     '.                  PPP031
016400     05  PPP0311-REPORT-ID           PIC X(07)  VALUE 'PPP0311'.  PPP031
016500     05  PPP0312-REPORT-ID           PIC X(07)  VALUE 'PPP0312'.  PPP031
016600     05  PPP0313-REPORT-ID           PIC X(07)  VALUE 'PPP0313'.  PPP031
016700     05  PPP0311-REPORT-TITLE        PIC X(40)                    PPP031
016800         VALUE '       ALL TITLE NAMES BY TITLE CODE    '.        PPP031
016900     05  PPP0312-REPORT-TITLE        PIC X(40)                    PPP031
017000         VALUE '   ALL TITLE CODES BY TITLE DESCRIPTION '.        PPP031
017100     05  PPP0313-REPORT-TITLE        PIC X(40)                    PPP031
017200         VALUE '            ERROR REPORT                '.        PPP031
017300     05  MESSAGE-NUMBERS.                                         PPP031
017400         10  M03101                  PIC X(05)  VALUE '03101'.    PPP031
017500         10  M03102                  PIC X(05)  VALUE '03102'.    PPP031
017600     SKIP2                                                        PPP031
017700                                                                  PPP031
017800 01  LIMITATIONS.                                                 PPP031
017900     05  MAX-PERS-PGMS               PIC S9(4) COMP  VALUE +7.    PPP031
018000     05  MAX-LINES-PER-PAGE          PIC S9(4) COMP  VALUE +58.   PPP031
018100     05  MAX-CTT-ENTRIES             PIC S9(4) COMP  VALUE +7.    PPP031
018200     SKIP2                                                        PPP031
018300 01  ACCUMULATORS.                                                PPP031
018400     05  PPP0311-LINE-COUNT          PIC S9(4) COMP  VALUE +59.   PPP031
018500     05  PPP0311-PAGE-COUNT          PIC S9(4) COMP  VALUE ZERO.  PPP031
018600     05  PPP0312-LINE-COUNT          PIC S9(4) COMP  VALUE +59.   PPP031
018700     05  PPP0312-PAGE-COUNT          PIC S9(4) COMP  VALUE ZERO.  PPP031
018800     05  PPP0313-LINE-COUNT          PIC S9(4) COMP  VALUE +59.   PPP031
018900     05  PPP0313-PAGE-COUNT          PIC S9(4) COMP  VALUE ZERO.  PPP031
019000     05  CTT-ENTRY-COUNT             PIC S9(4) COMP  VALUE ZERO.  PPP031
019100 01  SWITCHES.                                                    PPP031
019200*****05  TCI-CURSOR-ROWS-SW          PIC X(01)  VALUE SPACE.      73151304
019300*****    88  MORE-TCI-ROWS                      VALUE 'M'.        73151304
019400*****    88  NO-MORE-TCI-ROWS                   VALUE 'N'.        73151304
019500     05  CTT-CURSOR-ROWS-SW          PIC X(01)  VALUE SPACE.      PPP031
019600         88  MORE-CTT-ROWS                      VALUE 'Y'.        PPP031
019700         88  NO-MORE-CTT-ROWS                   VALUE 'N'.        PPP031
019800     05  REPORT-RECORD-SW            PIC X(01)  VALUE SPACE.      PPP031
019900         88  MORE-REPORT-RECORDS                VALUE 'Y'.        PPP031
020000         88  NO-MORE-REPORT-RECORDS             VALUE 'N'.        PPP031
020100     05  PERS-PGM-MATCH-SW           PIC X(01)  VALUE SPACE.      PPP031
020200         88  PERS-PGM-MATCHED                   VALUE 'Y'.        PPP031
020300         88  PERS-PGM-NOT-MATCHED               VALUE 'N'.        PPP031
020400     05  ERROR-ENCOUNTERED-SW        PIC X(01)  VALUE 'N'.        PPP031
020500         88  ERROR-ENCOUNTERED                  VALUE 'Y'.        PPP031
020600         88  NO-ERRORS                          VALUE 'N'.        PPP031
020700     05  ROUTINE-INDICATOR           PIC 9(01)  VALUE ZERO.       PPP031
020800         88  END-OF-ROUTINE                     VALUE 1.          PPP031
020900     SKIP2                                                        PPP031
021000 01  INDICES.                                                     PPP031
021100     05  MISC-X                      PIC S9(4) COMP VALUE ZERO.   PPP031
021200 01  INDICATORS.                                                  PPP031
021300     05  TEMP-IND-1                  PIC S9(4) COMP VALUE ZERO.   PPP031
021400     05  TEMP-IND-2                  PIC S9(4) COMP VALUE ZERO.   PPP031
021500     05  TEMP-IND-3                  PIC S9(4) COMP VALUE ZERO.   PPP031
021600     05  TEMP-IND-4                  PIC S9(4) COMP VALUE ZERO.   PPP031
021700     05  TEMP-IND-5                  PIC S9(4) COMP VALUE ZERO.   PPP031
021800     05  TEMP-IND-6                  PIC S9(4) COMP VALUE ZERO.   PPP031
021900 01  SPEC-RECORD-DEFINITION.                                      PPP031
022000     05  SPEC-PGM-ID                 PIC X(11).                   PPP031
022100         88  VALID-SPEC-CARD         VALUE 'PPP031-SPEC'.         PPP031
022200     05  SPEC-REPORT-OPTIONS         PIC X(16).                   PPP031
022300         88  NO-REPORTS-REQUESTED    VALUE SPACES.                PPP031
022400     05  SPEC-REPORT-REQUESTS        REDEFINES                    PPP031
022500         SPEC-REPORT-OPTIONS.                                     PPP031
022600         10  PPP0311-OPTION          PIC X(08).                   PPP031
022700             88  PPP0311-REQUESTED   VALUES 'ACADEMIC',           PPP031
022800                                            'STAFF   ',           PPP031
022900                                            'ALL     '.           PPP031
023000             88  PPP0311-ACADEMIC    VALUE  'ACADEMIC'.           PPP031
023100             88  PPP0311-STAFF       VALUE  'STAFF   '.           PPP031
023200             88  PPP0311-ALL         VALUE  'ALL     '.           PPP031
023300         10  PPP0312-OPTION          PIC X(08).                   PPP031
023400             88  PPP0312-REQUESTED   VALUES 'ACADEMIC',           PPP031
023500                                            'STAFF   ',           PPP031
023600                                            'ALL     '.           PPP031
023700             88  PPP0312-ACADEMIC    VALUE  'ACADEMIC'.           PPP031
023800             88  PPP0312-STAFF       VALUE  'STAFF   '.           PPP031
023900             88  PPP0312-ALL         VALUE  'ALL     '.           PPP031
024000     05  FILLER                      PIC X(53).                   PPP031
024100 01  PPP031-REPORT-FORMATS.                                       PPP031
024200     05  PPP0311-HEADERS.                                         PPP031
024300         10  PPP0311-HEADER-1.                                    PPP031
024400             15  FILLER              PIC X(01).                   PPP031
024500             15  FILLER              PIC X(40) VALUE SPACES.      PPP031
024600             15  FILLER              PIC X(05) VALUE 'TITLE'.     PPP031
024700             15  FILLER              PIC X(02) VALUE SPACE.       PPP031
024800             15  FILLER              PIC X(30) VALUE SPACES.      PPP031
024900             15  FILLER              PIC X(02) VALUE SPACES.      PPP031
025000             15  FILLER              PIC X(03) VALUE 'JOB'.       PPP031
025100             15  FILLER              PIC X(02) VALUE SPACES.      PPP031
025200             15  FILLER              PIC X(09) VALUE SPACES.      PPP031
025300             15  FILLER              PIC X(39) VALUE SPACES.      PPP031
025400         10  PPP0311-HEADER-2.                                    PPP031
025500             15  FILLER              PIC X(01).                   PPP031
025600             15  FILLER              PIC X(40) VALUE SPACES.      PPP031
025700             15  FILLER              PIC X(05) VALUE 'CODE '.     PPP031
025800             15  FILLER              PIC X(02) VALUE SPACES.      PPP031
025900             15  FILLER              PIC X(30)                    PPP031
026000                 VALUE 'TITLE DESCRIPTION             '.          PPP031
026100             15  FILLER              PIC X(02) VALUE SPACES.      PPP031
026200             15  FILLER              PIC X(03) VALUE 'GRP'.       PPP031
026300             15  FILLER              PIC X(02) VALUE SPACES.      PPP031
026400             15  FILLER              PIC X(09) VALUE 'PROGRAM  '. PPP031
026500             15  FILLER              PIC X(39) VALUE SPACES.      PPP031
026600         10  PPP0311-HEADER-3.                                    PPP031
026700             15  FILLER              PIC X(01).                   PPP031
026800             15  FILLER              PIC X(40) VALUE SPACES.      PPP031
026900             15  FILLER              PIC X(05) VALUE '-----'.     PPP031
027000             15  FILLER              PIC X(02) VALUE SPACES.      PPP031
027100             15  FILLER              PIC X(30)                    PPP031
027200                 VALUE '------------------------------'.          PPP031
027300             15  FILLER              PIC X(02) VALUE SPACES.      PPP031
027400             15  FILLER              PIC X(03) VALUE '---'.       PPP031
027500             15  FILLER              PIC X(02) VALUE SPACES.      PPP031
027600             15  FILLER              PIC X(09) VALUE '---------'. PPP031
027700             15  FILLER              PIC X(39) VALUE SPACES.      PPP031
027800     05  PPP0311-DETAIL.                                          PPP031
027900         10  FILLER                  PIC X(01).                   PPP031
028000         10  FILLER                  PIC X(40).                   PPP031
028100         10  PPP0311-TITLE-CODE      PIC X(04).                   PPP031
028200         10  FILLER                  PIC X(03).                   PPP031
028300         10  PPP0311-TITLE-NM-ABBRV  PIC X(30).                   PPP031
028400         10  FILLER                  PIC X(02).                   PPP031
028500         10  PPP0311-JOB-GROUP-ID    PIC X(03).                   PPP031
028600         10  FILLER                  PIC X(02).                   PPP031
028700         10  PPP0311-PERSONNEL-PGM   PIC X(09).                   PPP031
028800         10  FILLER                  PIC X(39).                   PPP031
028900     05  PPP0312-HEADERS.                                         PPP031
029000         10  PPP0312-HEADER-1.                                    PPP031
029100             15  FILLER              PIC X(01).                   PPP031
029200             15  FILLER              PIC X(40) VALUE SPACES.      PPP031
029300             15  FILLER              PIC X(30) VALUE SPACES.      PPP031
029400             15  FILLER              PIC X(02) VALUE SPACES.      PPP031
029500             15  FILLER              PIC X(05) VALUE 'TITLE'.     PPP031
029600             15  FILLER              PIC X(02) VALUE SPACE.       PPP031
029700             15  FILLER              PIC X(03) VALUE 'JOB'.       PPP031
029800             15  FILLER              PIC X(02) VALUE SPACES.      PPP031
029900             15  FILLER              PIC X(09) VALUE SPACES.      PPP031
030000             15  FILLER              PIC X(39) VALUE SPACES.      PPP031
030100         10  PPP0312-HEADER-2.                                    PPP031
030200             15  FILLER              PIC X(01).                   PPP031
030300             15  FILLER              PIC X(40) VALUE SPACES.      PPP031
030400             15  FILLER              PIC X(30)                    PPP031
030500                 VALUE 'TITLE DESCRIPTION             '.          PPP031
030600             15  FILLER              PIC X(02) VALUE SPACES.      PPP031
030700             15  FILLER              PIC X(05) VALUE 'CODE '.     PPP031
030800             15  FILLER              PIC X(02) VALUE SPACES.      PPP031
030900             15  FILLER              PIC X(03) VALUE 'GRP'.       PPP031
031000             15  FILLER              PIC X(02) VALUE SPACES.      PPP031
031100             15  FILLER              PIC X(09) VALUE 'PROGRAM  '. PPP031
031200             15  FILLER              PIC X(39) VALUE SPACES.      PPP031
031300         10  PPP0312-HEADER-3.                                    PPP031
031400             15  FILLER              PIC X(01).                   PPP031
031500             15  FILLER              PIC X(40) VALUE SPACES.      PPP031
031600             15  FILLER              PIC X(30)                    PPP031
031700                 VALUE '------------------------------'.          PPP031
031800             15  FILLER              PIC X(02) VALUE SPACES.      PPP031
031900             15  FILLER              PIC X(05) VALUE '-----'.     PPP031
032000             15  FILLER              PIC X(02) VALUE SPACES.      PPP031
032100             15  FILLER              PIC X(03) VALUE '---'.       PPP031
032200             15  FILLER              PIC X(02) VALUE SPACES.      PPP031
032300             15  FILLER              PIC X(09) VALUE '---------'. PPP031
032400             15  FILLER              PIC X(39) VALUE SPACES.      PPP031
032500     05  PPP0312-DETAIL.                                          PPP031
032600         10  FILLER                  PIC X(01).                   PPP031
032700         10  FILLER                  PIC X(40).                   PPP031
032800         10  PPP0312-TITLE-NM-ABBRV  PIC X(30).                   PPP031
032900         10  FILLER                  PIC X(02).                   PPP031
033000         10  PPP0312-TITLE-CODE      PIC X(04).                   PPP031
033100         10  FILLER                  PIC X(02).                   PPP031
033200         10  PPP0312-JOB-GROUP-ID    PIC X(03).                   PPP031
033300         10  FILLER                  PIC X(02).                   PPP031
033400         10  PPP0312-PERSONNEL-PGM   PIC X(09).                   PPP031
033500         10  FILLER                  PIC X(40).                   PPP031
033600     05  PPP0313-DETAIL.                                          PPP031
033700         10  FILLER                  PIC X(01).                   PPP031
033800         10  FILLER                  PIC X(19)                    PPP031
033900                    VALUE '          MESSAGE: '.                  PPP031
034000         10  RPT-ERROR-NUMBER.                                    PPP031
034100             15  RPT-PROG-NO         PIC X(02).                   PPP031
034200             15  FILLER              PIC X(01)  VALUE '-'.        PPP031
034300             15  RPT-ERROR-NO        PIC X(03).                   PPP031
034400         10  FILLER                  PIC X(13)                    PPP031
034500                    VALUE '   SEVERITY: '.                        PPP031
034600         10  RPT-MSSG-SEV            PIC X(17).                   PPP031
034700         10  RPT-MSSG-TEXT           PIC X(65).                   PPP031
034800         10  FILLER                  PIC X(03)  VALUE SPACES.     PPP031
034900         10  RPT-MSSG-DATA           PIC X(09).                   PPP031
035000 01  WS-TEMP-FIELDS.                                              PPP031
035100     05  WS-TIMESTAMP.                                            PPP031
035200         10  WS-CC          PIC X(02).                            PPP031
035300         10  WS-YY          PIC X(02).                            PPP031
035400         10  WS-MM          PIC X(02).                            PPP031
035500         10  WS-DD          PIC X(02).                            PPP031
035600         10  WS-HH          PIC X(02).                            PPP031
035700         10  WS-MN          PIC X(02).                            PPP031
035800         10  WS-SS          PIC X(02).                            PPP031
035900     05  WS-RUN-DATE-ISO.                                         PPP031
036000         10  WS-RUN-CC      PIC X(02).                            PPP031
036100         10  WS-RUN-YY      PIC X(02).                            PPP031
036200         10  WS-RUN-DASH-1  PIC X(01) VALUE '-'.                  PPP031
036300         10  WS-RUN-MM      PIC X(02).                            PPP031
036400         10  WS-RUN-DASH-2  PIC X(01) VALUE '-'.                  PPP031
036500         10  WS-RUN-DD      PIC X(02).                            PPP031
036600 01  RPT-RECORD.                                                  PPP031
036700     05  RPT-TITLE-CODE                PIC X(04) VALUE SPACES.    PPP031
036800     05  RPT-TITLE-NM-ABBRV            PIC X(30) VALUE SPACES.    PPP031
036900     05  RPT-JOB-GROUP-ID              PIC X(03) VALUE SPACES.    PPP031
037000     05  RPT-PERSONNEL-PGM             PIC X(09) VALUE SPACES.    PPP031
037100 01  PREVIOUS-RECORD.                                             PPP031
037200     05  PREV-TITLE-CODE               PIC X(04) VALUE SPACES.    PPP031
037300     05  PREV-TITLE-NM-ABBRV           PIC X(30) VALUE SPACES.    PPP031
037400     05  PREV-JOB-GROUP-ID             PIC X(03) VALUE SPACES.    PPP031
037500     05  PREV-PERSONNEL-PGM            PIC X(09) VALUE SPACES.    PPP031
037600 01  TEST-AREAS.                                                  PPP031
037700     05  TEST-PERS-PGM               PIC X(01).                   PPP031
037800         88  ACADEMIC-TITLE          VALUE 'A'.                   PPP031
037900         88  STAFF-TITLE             VALUES '1', '2'.             PPP031
038000 01  WORK-AREAS.                                                  PPP031
038100     05  DISPLAY-INTEGER             PIC ----9.                   PPP031
038200     05  WS-TITLE-CODE               PIC X(04).                   PPP031
038300*****05  SAVE-TITLE-CODE             PIC X(04).                   SSSS1304
038400     05  WS-PERSONNEL-PGM-DATA OCCURS 7 TIMES.                    PPP031
038500         10  WS-PERSONNEL-PGM        PIC X(01).                   PPP031
038600         10  WS-PERS-PGM-NAME        PIC X(09).                   PPP031
038700     05  PERSONNEL-PGM-NAME          PIC X(09) VALUE SPACES.      PPP031
038800     05  WS-RETURN-CODE              PIC 9(01) VALUE ZERO.        PPP031
038900     05  WS-EFFECTIVE-DATE           PIC X(10).                   PPP031
039000     05  REPORT-DATE.                                             PPP031
039100         10  REPORT-MONTH            PIC X(02).                   PPP031
039200         10  FILLER                  PIC X(01)  VALUE '/'.        PPP031
039300         10  REPORT-DAY              PIC X(02).                   PPP031
039400         10  FILLER                  PIC X(01)  VALUE '/'.        PPP031
039500         10  REPORT-YEAR             PIC X(02).                   PPP031
039600 01  DATE-CONVERSION-WORK-AREAS.     COPY CPWSXDC3.               PPP031
039700***************************************************************** PPP031
039800***            SQL-RELATED DATA DEFINITIONS                   *** PPP031
039900***************************************************************** PPP031
040000     EXEC SQL                                                     PPP031
040100        INCLUDE SQLCA                                             PPP031
040200     END-EXEC.                                                    PPP031
040300     SKIP2                                                        PPP031
040400*01  TCI-ROW-DATA.                                                73151304
040500*****EXEC SQL                                                     73151304
040600*****   INCLUDE PPPVZTCI                                          73151304
040700*****END-EXEC.                                                    73151304
040800*****SKIP2                                                        73151304
040900 01  CTT-ROW-DATA.                                                PPP031
041000     EXEC SQL                                                     PPP031
041100        INCLUDE PPPVZCTT                                          PPP031
041200     END-EXEC.                                                    PPP031
041300     SKIP2                                                        PPP031
041400 01  JGT-ROW-DATA.                                                PPP031
041500     EXEC SQL                                                     PPP031
041600        INCLUDE PPPVZJGT                                          PPP031
041700     END-EXEC.                                                    PPP031
041800***************************************************************   PPP031
041900*     SQL CURSOR DECLARATIONS                                     PPP031
042000***************************************************************   PPP031
042100*****EXEC SQL                                                     73151304
042200*****     DECLARE TCI_CURSOR CURSOR FOR                           73151304
042300*****      SELECT                                                 73151304
042400*****             TCI_TITLE_CODE                                  73151304
042500*****            ,TCI_UPDT_TIMESTAMP                              73151304
042600*****            ,TCI_TITLE_NM_ABBRV                              73151304
042700*****            ,TCI_PERSONL_PGM_CD                              73151304
042800*****        FROM PPPVZTCI_TCI                                    73151304
042900*****       ORDER BY TCI_TITLE_CODE      ASC,                     73151304
043000*****                TCI_UPDT_TIMESTAMP DESC                      73151304
043100*****END-EXEC.                                                    73151304
043200*****                                                             73151304
042100     EXEC SQL                                                     PPP031
043400          DECLARE CTT_CURSOR CURSOR FOR                           PPP031
043500           SELECT                                                 PPP031
043600                  CTT_CODE_VALUE                                  PPP031
043700                 ,CTT_CODE_TRANS                                  PPP031
043800             FROM PPPVZCTT_CTT                                    PPP031
043900            WHERE CTT_DATABASE_ID   = :EMPLOYEE-DATA-BASE         PPP031
044000              AND CTT_DATA_ELEM_NO  = :PERSONNEL-PGM-DEN          PPP031
044100              AND CTT_TRANS_LEN     = 9                           PPP031
044200            ORDER BY CTT_CODE_TRANS                               PPP031
044300     END-EXEC.                                                    PPP031
044400                                                                  PPP031
044500***************************************************************   PPP031
044600*     SQL ERROR MESSAGES                                          PPP031
044700***************************************************************   PPP031
044800 01  PPTCTUTL-INTERFACE EXTERNAL. COPY CPLNKTCL.                  73151304
044800 01  PPDB2MSG-INTERFACE.         COPY CPLNKDB2.                   PPP031
044900 01  DATE-FORMAT.                COPY CPWSDATE.                   PPP031
045000 01  TIME-FORMAT.                COPY CPWSTIME.                   PPP031
045100 01  STND-RPT-HD1.               COPY CPWSXSHR.                   PPP031
045200 01  MESSAGE-TABLE.              COPY CPWSXMTI.                   PPP031
045300     EJECT                                                        PPP031
045400 PROCEDURE DIVISION.                                              PPP031
045500***************************************************************   PPP031
045600**                  PROCEDURE DIVISION                            PPP031
045700***************************************************************   PPP031
045800 00001-MAINLINE    SECTION.                                       PPP031
045900                                                                  PPP031
046000     EXEC SQL                                                     PPP031
046100         WHENEVER NOT FOUND                                       PPP031
046200         CONTINUE                                                 PPP031
046300     END-EXEC.                                                    PPP031
046400                                                                  PPP031
046500     EXEC SQL                                                     PPP031
046600         INCLUDE CPPDXE99                                         PPP031
046700     END-EXEC.                                                    PPP031
046800                                                                  PPP031
046900     PERFORM 10000-INITIALIZATION.                                PPP031
047000                                                                  PPP031
047100     IF  NO-ERRORS                                                PPP031
047200******** PERFORM 20000-PROCESS-TCI-CURSOR                         73151304
047300         PERFORM 20000-PROCESS-TITLES                             73151304
047400                                                                  PPP031
047500         IF PPP0312-REQUESTED                                     PPP031
047600             PERFORM 30000-PPP0312-REPORT                         PPP031
047610         END-IF                                                   PPP031
047700     END-IF.                                                      PPP031
047800                                                                  PPP031
047900     PERFORM 90000-END-OF-JOB.                                    PPP031
048000                                                                  PPP031
048100 00009-MAINLINE-EXIT.                                             PPP031
048200     STOP RUN.                                                    PPP031
048300     EJECT                                                        PPP031
048400 10000-INITIALIZATION    SECTION.                                 PPP031
048500                                                                  PPP031
048600     COPY CPPDDATE.                                               PPP031
048700     COPY CPPDTIME.                                               PPP031
048800                                                                  PPP031
048900     MOVE PRE-YY                 TO WS-YY, WS-RUN-YY.             PPP031
049000     MOVE PRE-MM                 TO WS-MM, WS-RUN-MM.             PPP031
049100     MOVE PRE-DD                 TO WS-DD, WS-RUN-DD.             PPP031
049200     MOVE TIME-HH                TO WS-HH.                        PPP031
049300     MOVE TIME-MM                TO WS-MN.                        PPP031
049400     MOVE TIME-SS                TO WS-SS.                        PPP031
049500                                                                  PPP031
049600     OPEN INPUT SPEC-CARD.                                        PPP031
049700                                                                  PPP031
049710     OPEN OUTPUT PPP0313.                                         PPP031
049800                                                                  PPP031
049900     READ SPEC-CARD INTO SPEC-RECORD-DEFINITION                   PPP031
050000          AT END MOVE M03101 TO MSSG-DESIRED                      PPP031
050100          PERFORM 80000-ERROR-WRITE                               PPP031
050200          GO TO 10009-EXIT                                        PPP031
050300     END-READ.                                                    PPP031
050310                                                                  PPP031
050320     IF  NOT VALID-SPEC-CARD                                      PPP031
050330         MOVE M03102 TO MSSG-DESIRED                              PPP031
050340         PERFORM 80000-ERROR-WRITE                                PPP031
050350         GO TO 10009-EXIT                                         PPP031
050360     END-IF.                                                      PPP031
050400                                                                  PPP031
050500     CLOSE SPEC-CARD.                                             PPP031
050620                                                                  PPP031
050700     IF  NO-REPORTS-REQUESTED                                     PPP031
050800         MOVE M03102 TO MSSG-DESIRED                              PPP031
050900         PERFORM 80000-ERROR-WRITE                                PPP031
051000         GO TO 10009-EXIT                                         PPP031
051100     END-IF.                                                      PPP031
051200                                                                  PPP031
051300     IF  PPP0311-REQUESTED                                        PPP031
051400         OPEN OUTPUT PPP0311                                      PPP031
051500     END-IF.                                                      PPP031
051600                                                                  PPP031
051700     IF  PPP0312-REQUESTED                                        PPP031
051800         OPEN OUTPUT REPORT-FILE                                  PPP031
051900     END-IF.                                                      PPP031
052000                                                                  PPP031
052100     MOVE 'OPEN CTT_CURSOR' TO DB2MSG-TAG                         PPP031
052200                                                                  PPP031
052300     EXEC SQL                                                     PPP031
052400          OPEN CTT_CURSOR                                         PPP031
052500     END-EXEC.                                                    PPP031
052600                                                                  PPP031
052700     EVALUATE SQLCODE                                             PPP031
052800         WHEN ZERO                                                PPP031
052900              SET MORE-CTT-ROWS TO TRUE                           PPP031
053000              MOVE MAX-CTT-ENTRIES TO CTT-ENTRY-COUNT             PPP031
053100              PERFORM 11000-LOAD-PERS-PGM-XLATIONS                PPP031
053200                UNTIL NO-MORE-CTT-ROWS                            PPP031
053300              MOVE 'CLOSE CTT_CURSOR' TO DB2MSG-TAG               PPP031
053400              EXEC SQL                                            PPP031
053500                   CLOSE CTT_CURSOR                               PPP031
053600              END-EXEC                                            PPP031
053700              EVALUATE SQLCODE                                    PPP031
053800                  WHEN ZERO                                       PPP031
053900                       CONTINUE                                   PPP031
054000                  WHEN OTHER                                      PPP031
054100                       PERFORM 999999-SQL-ERROR                   PPP031
054200              END-EVALUATE                                        PPP031
054300         WHEN OTHER                                               PPP031
054400              PERFORM 999999-SQL-ERROR                            PPP031
054500     END-EVALUATE.                                                PPP031
054600                                                                  PPP031
054700*****MOVE 'SELECT TCI-CI-EFF-DT' TO DB2MSG-TAG.                   73151304
054800*****                                                             73151304
054900*****EXEC SQL                                                     73151304
055000*****     SELECT MAX(TCI_CI_EFF_DT)                               73151304
055100*****       INTO :WS-EFFECTIVE-DATE:TEMP-IND-1                    73151304
055200*****       FROM PPPVZTCI_TCI                                     73151304
055300*****END-EXEC.                                                    73151304
055400*****                                                             73151304
055500*****EVALUATE SQLCODE                                             73151304
055600*****    WHEN ZERO                                                73151304
055700*****         MOVE WS-EFFECTIVE-DATE TO XDC3-USA-DATE             73151304
055800*****         PERFORM XDC3-CONVERT-USA-TO-FMT                     73151304
055900*****         MOVE XDC3-FMT-DATE TO STND-DATE2                    73151304
056000*****    WHEN OTHER                                               73151304
056100*****         PERFORM 999999-SQL-ERROR                            73151304
056200*****END-EVALUATE.                                                73151304
054800                                                                  PPP031
056400     MOVE PRE-YY           TO REPORT-YEAR.                        PPP031
056500     MOVE PRE-MM           TO REPORT-MONTH.                       PPP031
056600     MOVE PRE-DD           TO REPORT-DAY.                         PPP031
056700*****MOVE REPORT-DATE      TO STND-RPT-DATE.                      73151304
056710     MOVE REPORT-DATE      TO STND-RPT-DATE, STND-DATE2.          73151304
056800     MOVE THIS-PROGRAM     TO STND-PROG-ID, DB2MSG-PGM-ID.        PPP031
056900     MOVE 'EFFECTIVE DATE:        '                               PPP031
057000                           TO STND-DATE2-TTL.                     PPP031
057100     MOVE PPP031-FUNCTION-TITLE                                   PPP031
057200                           TO STND-FUNC-AREA.                     PPP031
057300                                                                  PPP031
057400 10009-EXIT.                                                      PPP031
057500      EXIT.                                                       PPP031
057600      EJECT                                                       PPP031
057700 11000-LOAD-PERS-PGM-XLATIONS   SECTION.                          PPP031
057800                                                                  PPP031
057900     MOVE 'FETCH CTT_CURSOR' TO DB2MSG-TAG.                       PPP031
058000                                                                  PPP031
058100     EXEC SQL                                                     PPP031
058200          FETCH CTT_CURSOR                                        PPP031
058300           INTO                                                   PPP031
058400               :CTT-CODE-VALUE                                    PPP031
058500              ,:CTT-CODE-TRANS                                    PPP031
058600     END-EXEC.                                                    PPP031
058700                                                                  PPP031
058800     EVALUATE SQLCODE                                             PPP031
058900         WHEN ZERO                                                PPP031
059000              ADD ONE TO MISC-X                                   PPP031
059100              MOVE CTT-CODE-VALUE TO WS-PERSONNEL-PGM (MISC-X)    PPP031
059200              MOVE CTT-CODE-TRANS TO WS-PERS-PGM-NAME (MISC-X)    PPP031
059300         WHEN +100                                                PPP031
059400              SET NO-MORE-CTT-ROWS TO TRUE                        PPP031
059500              MOVE MISC-X TO CTT-ENTRY-COUNT                      PPP031
059600         WHEN OTHER                                               PPP031
059700              PERFORM 999999-SQL-ERROR                            PPP031
059800     END-EVALUATE.                                                PPP031
059900                                                                  PPP031
060000 11009-EXIT.                                                      PPP031
060100      EXIT.                                                       PPP031
060200      EJECT                                                       PPP031
060300*20000-PROCESS-TCI-CURSOR  SECTION.                               73151304
060310 20000-PROCESS-TITLES      SECTION.                               73151304
060400 20001-ENTRY.                                                     PPP031
060500                                                                  PPP031
060600*****MOVE 'OPEN TCI_CURSOR' TO DB2MSG-TAG.                        73151304
060700*****                                                             73151304
060800*****EXEC SQL                                                     73151304
060900*****     OPEN TCI_CURSOR                                         73151304
061000*****END-EXEC.                                                    73151304
061100*****                                                             73151304
061200*****EVALUATE SQLCODE                                             73151304
061300*****    WHEN ZERO                                                73151304
061400*****         SET MORE-TCI-ROWS TO TRUE                           73151304
061500*****         GO TO 20008-FETCH-TCI-ROW                           73151304
061600*****    WHEN OTHER                                               73151304
061700*****         PERFORM 999999-SQL-ERROR                            73151304
061800*****END-EVALUATE.                                                73151304
061900*****                                                             73151304
062000*20002-PROCESS-TCI-ROW.                                           73151304
062100*****                                                             73151304
062200*****IF  NO-MORE-TCI-ROWS                                         73151304
062300*****    GO TO 20009-EXIT                                         73151304
062400*****END-IF.                                                      73151304
062500*****                                                             73151304
062600*****IF  WS-TITLE-CODE EQUAL SAVE-TITLE-CODE                      73151304
062700*****    GO TO 20008-FETCH-TCI-ROW                                73151304
062800*****END-IF.                                                      73151304
060700                                                                  PPP031
062901     SET XTCL-READ-ALL-TITLES-FIRST TO TRUE.                      73151304
062902     CALL PGM-PPTCTUTL.                                           73151304
062903     IF  XTCL-STATUS-NORMAL-END                                   73151304
062904         SET XTCL-READ-ALL-TITLES-NEXT TO TRUE                    73151304
062905     ELSE                                                         73151304
062906         GO TO 20009-EXIT                                         73151304
062907     END-IF.                                                      73151304
062908                                                                  73151304
062910 20002-PROCESS-TITLE-CODE.                                        73151304
062920                                                                  73151304
062930     MOVE XTCL-CHOSEN-TITLE-CODE TO WS-TITLE-CODE.                73151304
063000     SET PERS-PGM-NOT-MATCHED TO TRUE.                            PPP031
063100                                                                  PPP031
063200     PERFORM VARYING MISC-X FROM ONE BY ONE                       PPP031
063300               UNTIL MISC-X > MAX-PERS-PGMS                       PPP031
063400                  OR PERS-PGM-MATCHED                             PPP031
063500******** IF  TCI-PERSONL-PGM-CD EQUAL WS-PERSONNEL-PGM (MISC-X)   73151304
063510         IF  XTCL-PERSONNEL-PROGRAM-CODE                          73151304
063520                                EQUAL WS-PERSONNEL-PGM (MISC-X)   73151304
063600             SET PERS-PGM-MATCHED TO TRUE                         PPP031
063700             MOVE WS-PERS-PGM-NAME (MISC-X)                       PPP031
063800               TO PERSONNEL-PGM-NAME                              PPP031
063900         END-IF                                                   PPP031
064000     END-PERFORM.                                                 PPP031
064100                                                                  PPP031
064200     PERFORM 21000-GET-JOB-GROUP-ID.                              PPP031
064300                                                                  PPP031
064400*****MOVE TCI-PERSONL-PGM-CD TO TEST-PERS-PGM.                    73151304
064410     MOVE XTCL-PERSONNEL-PROGRAM-CODE TO TEST-PERS-PGM.           73151304
064500                                                                  PPP031
064600     IF  PPP0311-REQUESTED                                        PPP031
064700         IF (PPP0311-ACADEMIC        AND                          PPP031
064800             ACADEMIC-TITLE)          OR                          PPP031
064900            (PPP0311-STAFF           AND                          PPP031
065000             STAFF-TITLE)             OR                          PPP031
065100             PPP0311-ALL                                          PPP031
065200             MOVE WS-TITLE-CODE      TO PPP0311-TITLE-CODE        PPP031
065300***********  MOVE TCI-TITLE-NM-ABBRV TO PPP0311-TITLE-NM-ABBRV    73151304
065310             MOVE XTCL-TITLE-NAME-ABBREVIATED                     73151304
065320                                     TO PPP0311-TITLE-NM-ABBRV    73151304
065400             MOVE JGT-JOB-GROUP-ID   TO PPP0311-JOB-GROUP-ID      PPP031
065500             MOVE PERSONNEL-PGM-NAME TO PPP0311-PERSONNEL-PGM     PPP031
065600             PERFORM 22000-WRITE-PPP0311                          PPP031
065700         END-IF                                                   PPP031
065800     END-IF.                                                      PPP031
065900                                                                  PPP031
066000     IF  PPP0312-REQUESTED                                        PPP031
066100         IF (PPP0312-ACADEMIC        AND                          PPP031
066200             ACADEMIC-TITLE)          OR                          PPP031
066300            (PPP0312-STAFF           AND                          PPP031
066400             STAFF-TITLE)             OR                          PPP031
066500             PPP0312-ALL                                          PPP031
066600             MOVE WS-TITLE-CODE      TO RPT-TITLE-CODE            PPP031
066610************ MOVE TCI-TITLE-NM-ABBRV TO RPT-TITLE-NM-ABBRV        73151304
066620             MOVE XTCL-TITLE-NAME-ABBREVIATED                     73151304
066710                                     TO RPT-TITLE-NM-ABBRV        73151304
066800             MOVE JGT-JOB-GROUP-ID   TO RPT-JOB-GROUP-ID          PPP031
066900             MOVE PERSONNEL-PGM-NAME TO RPT-PERSONNEL-PGM         PPP031
067000             WRITE REPORT-RECORD FROM RPT-RECORD                  PPP031
067100         END-IF                                                   PPP031
067200     END-IF.                                                      PPP031
067300                                                                  PPP031
067400*****MOVE WS-TITLE-CODE TO SAVE-TITLE-CODE.                       73151304
067500*****                                                             73151304
067600*20008-FETCH-TCI-ROW.                                             73151304
067700*****                                                             73151304
067800*****MOVE 'FETCH TCI_CURSOR' TO DB2MSG-TAG.                       73151304
067900*****                                                             73151304
068000*****EXEC SQL                                                     73151304
068100*****     FETCH TCI_CURSOR                                        73151304
068200*****      INTO :WS-TITLE-CODE                                    73151304
068300*****          ,:TCI-UPDT-TIMESTAMP                               73151304
068400*****          ,:TCI-TITLE-NM-ABBRV                               73151304
068500*****          ,:TCI-PERSONL-PGM-CD                               73151304
068600*****END-EXEC.                                                    73151304
068700*****                                                             73151304
068800*****EVALUATE SQLCODE                                             73151304
068900*****    WHEN ZERO                                                73151304
069000*****         CONTINUE                                            73151304
069100*****    WHEN +100                                                73151304
069200*****         SET NO-MORE-TCI-ROWS TO TRUE                        73151304
069300*****         IF  PPP0311-REQUESTED                               73151304
069400*****             CLOSE PPP0311                                   73151304
069500*****         END-IF                                              73151304
069600*****         IF  PPP0312-REQUESTED                               73151304
069700*****             CLOSE REPORT-FILE                               73151304
069800*****         END-IF                                              73151304
069900*****    WHEN OTHER                                               73151304
070000*****         PERFORM 999999-SQL-ERROR                            73151304
070100*****END-EVALUATE.                                                73151304
070200*****                                                             73151304
070300*****GO TO 20002-PROCESS-TCI-ROW.                                 73151304
067500                                                                  PPP031
070410 20008-READ-NEXT-TITLE.                                           73151304
070420                                                                  73151304
070421     CALL PGM-PPTCTUTL.                                           73151304
070422     IF  XTCL-STATUS-NORMAL-END                                   73151304
070423         GO TO 20002-PROCESS-TITLE-CODE                           73151304
070425     ELSE                                                         73151304
070426         IF  PPP0311-REQUESTED                                    73151304
070427             CLOSE PPP0311                                        73151304
070428         END-IF                                                   73151304
070429         IF  PPP0312-REQUESTED                                    73151304
070430             CLOSE REPORT-FILE                                    73151304
070431         END-IF                                                   73151304
070432     END-IF.                                                      73151304
070440                                                                  73151304
070500 20009-EXIT.                                                      PPP031
070600     EXIT.                                                        PPP031
070700     EJECT                                                        PPP031
070800 21000-GET-JOB-GROUP-ID   SECTION.                                PPP031
070900                                                                  PPP031
071000     MOVE 'SELECT FROM PPPVZJGT' TO DB2MSG-TAG.                   PPP031
071100     MOVE ZERO TO INDICATORS.                                     PPP031
071200                                                                  PPP031
071300     EXEC SQL                                                     PPP031
071400          SELECT JGT_JOB_GROUP_ID                                 PPP031
071500           INTO :JGT-JOB-GROUP-ID:TEMP-IND-1                      PPP031
071600           FROM PPPVZJGT_JGT                                      PPP031
071700          WHERE JGT_TITLE_CODE = :WS-TITLE-CODE                   PPP031
071800     END-EXEC.                                                    PPP031
071900                                                                  PPP031
072000     EVALUATE SQLCODE                                             PPP031
072100         WHEN ZERO                                                PPP031
072200              CONTINUE                                            PPP031
072300         WHEN +100                                                PPP031
072400              MOVE SPACES TO JGT-JOB-GROUP-ID                     PPP031
072500         WHEN OTHER                                               PPP031
072600              PERFORM 999999-SQL-ERROR                            PPP031
072700     END-EVALUATE.                                                PPP031
072800                                                                  PPP031
072900 21009-EXIT.                                                      PPP031
073000     EXIT.                                                        PPP031
073100     EJECT                                                        PPP031
073200 22000-WRITE-PPP0311  SECTION.                                    PPP031
073300                                                                  PPP031
073400     IF  PPP0311-LINE-COUNT > MAX-LINES-PER-PAGE                  PPP031
073500         PERFORM 22100-WRITE-PPP0311-HEADER                       PPP031
073600     END-IF.                                                      PPP031
073700                                                                  PPP031
073800     WRITE PPP0311-PRINT-LINE FROM PPP0311-DETAIL.                PPP031
073900     MOVE SPACES TO PPP0311-DETAIL.                               PPP031
074000     ADD ONE TO PPP0311-LINE-COUNT.                               PPP031
074100                                                                  PPP031
074200 22009-EXIT.                                                      PPP031
074300     EXIT.                                                        PPP031
074400     EJECT                                                        PPP031
074500 22100-WRITE-PPP0311-HEADER   SECTION.                            PPP031
074600                                                                  PPP031
074700     ADD ONE TO PPP0311-PAGE-COUNT.                               PPP031
074800     MOVE  PPP0311-PAGE-COUNT   TO STND-PAGE-NO.                  PPP031
074900     MOVE  PPP0311-REPORT-ID    TO STND-RPT-ID.                   PPP031
075000     MOVE  PPP0311-REPORT-TITLE TO STND-RPT-TTL.                  PPP031
075100     WRITE PPP0311-PRINT-LINE FROM STND-RPT-HD1                   PPP031
075200                              AFTER ADVANCING PAGE.               PPP031
075300     WRITE PPP0311-PRINT-LINE FROM STND-RPT-HD2.                  PPP031
075400     WRITE PPP0311-PRINT-LINE FROM STND-RPT-HD3.                  PPP031
075500     WRITE PPP0311-PRINT-LINE FROM PPP0311-HEADER-1               PPP031
075600                              AFTER ADVANCING 2 LINES.            PPP031
075700     WRITE PPP0311-PRINT-LINE FROM PPP0311-HEADER-2.              PPP031
075800     WRITE PPP0311-PRINT-LINE FROM PPP0311-HEADER-3.              PPP031
075900     MOVE +7 TO PPP0311-LINE-COUNT.                               PPP031
076000                                                                  PPP031
076100 22109-EXIT.                                                      PPP031
076200     EXIT.                                                        PPP031
076300     EJECT                                                        PPP031
076400 30000-PPP0312-REPORT  SECTION.                                   PPP031
076500 30001-ENTRY.                                                     PPP031
076600                                                                  PPP031
076700     SORT SORT-REPORT-FILE                                        PPP031
076800          ASCENDING SORT-TITLE-NM-ABBRV                           PPP031
076900              USING REPORT-FILE                                   PPP031
077000             GIVING REPORT-FILE.                                  PPP031
077100     OPEN INPUT REPORT-FILE.                                      PPP031
077200     OPEN OUTPUT PPP0312.                                         PPP031
077300     GO TO 30008-READ-REPORT-FILE.                                PPP031
077400                                                                  PPP031
077500 30002-PROCESS.                                                   PPP031
077600                                                                  PPP031
077700     IF  NO-MORE-REPORT-RECORDS                                   PPP031
077800         GO TO 30009-EXIT                                         PPP031
077900     END-IF.                                                      PPP031
078000                                                                  PPP031
078100     MOVE RPT-TITLE-CODE          TO PPP0312-TITLE-CODE.          PPP031
078200     MOVE RPT-TITLE-NM-ABBRV      TO PPP0312-TITLE-NM-ABBRV.      PPP031
078300     MOVE RPT-JOB-GROUP-ID        TO PPP0312-JOB-GROUP-ID.        PPP031
078400     MOVE RPT-PERSONNEL-PGM       TO PPP0312-PERSONNEL-PGM.       PPP031
078500     PERFORM 31000-WRITE-PPP0312.                                 PPP031
078600                                                                  PPP031
078700 30008-READ-REPORT-FILE.                                          PPP031
078800                                                                  PPP031
078900     READ REPORT-FILE INTO RPT-RECORD                             PPP031
079000          AT END SET NO-MORE-REPORT-RECORDS TO TRUE               PPP031
079100     END-READ.                                                    PPP031
079200                                                                  PPP031
079300     GO TO 30002-PROCESS.                                         PPP031
079400                                                                  PPP031
079500 30009-EXIT.                                                      PPP031
079600     EXIT.                                                        PPP031
079700     EJECT                                                        PPP031
079800 31000-WRITE-PPP0312  SECTION.                                    PPP031
079900                                                                  PPP031
080000     IF  PPP0312-LINE-COUNT > MAX-LINES-PER-PAGE                  PPP031
080100         PERFORM 31100-WRITE-PPP0312-HEADER                       PPP031
080200     END-IF.                                                      PPP031
080300                                                                  PPP031
080400     WRITE PPP0312-PRINT-LINE FROM PPP0312-DETAIL.                PPP031
080500     MOVE SPACES TO PPP0312-DETAIL.                               PPP031
080600     ADD ONE TO PPP0312-LINE-COUNT.                               PPP031
080700                                                                  PPP031
080800 31009-EXIT.                                                      PPP031
080900     EXIT.                                                        PPP031
081000     EJECT                                                        PPP031
081100 31100-WRITE-PPP0312-HEADER   SECTION.                            PPP031
081200                                                                  PPP031
081300     ADD ONE TO PPP0312-PAGE-COUNT.                               PPP031
081400     MOVE  PPP0312-PAGE-COUNT   TO STND-PAGE-NO.                  PPP031
081500     MOVE  PPP0312-REPORT-ID    TO STND-RPT-ID.                   PPP031
081600     MOVE  PPP0312-REPORT-TITLE TO STND-RPT-TTL.                  PPP031
081700     WRITE PPP0312-PRINT-LINE FROM STND-RPT-HD1                   PPP031
081800                              AFTER ADVANCING PAGE.               PPP031
081900     WRITE PPP0312-PRINT-LINE FROM STND-RPT-HD2.                  PPP031
082000     WRITE PPP0312-PRINT-LINE FROM STND-RPT-HD3.                  PPP031
082100     WRITE PPP0312-PRINT-LINE FROM PPP0312-HEADER-1               PPP031
082200                              AFTER ADVANCING 2 LINES.            PPP031
082300     WRITE PPP0312-PRINT-LINE FROM PPP0312-HEADER-2.              PPP031
082400     WRITE PPP0312-PRINT-LINE FROM PPP0312-HEADER-3.              PPP031
082500     MOVE +7 TO PPP0312-LINE-COUNT.                               PPP031
082600                                                                  PPP031
082700 31109-EXIT.                                                      PPP031
082800     EXIT.                                                        PPP031
082900     EJECT                                                        PPP031
083000 80000-ERROR-WRITE    SECTION.                                    PPP031
083100                                                                  PPP031
083200     CALL 'PPMSSG2'  USING MESSAGE-TABLE.                         PPP031
083300                                                                  PPP031
083400     IF  PPP0313-LINE-COUNT > MAX-LINES-PER-PAGE                  PPP031
083500         PERFORM 80010-WRITE-ERROR-HEADER                         PPP031
083600     END-IF.                                                      PPP031
083700                                                                  PPP031
083800     MOVE MSSG-PGM-NO  TO RPT-PROG-NO.                            PPP031
083900     MOVE MSSG-DESIRED-NO TO RPT-ERROR-NO.                        PPP031
084000     MOVE MSSG-TEXT TO RPT-MSSG-TEXT.                             PPP031
084100     MOVE MSSG-SEVERITY TO RPT-MSSG-SEV.                          PPP031
084200     MOVE MSSG-HIGHEST-SEVERITY TO WS-RETURN-CODE.                PPP031
084300                                                                  PPP031
084400     WRITE PPP0313-PRINT-LINE FROM PPP0313-DETAIL                 PPP031
084500                              AFTER ADVANCING 2 LINES.            PPP031
084600     ADD +2 TO PPP0313-LINE-COUNT.                                PPP031
084700                                                                  PPP031
084800     SET ERROR-ENCOUNTERED TO TRUE.                               PPP031
084900                                                                  PPP031
085000 80009-EXIT.                                                      PPP031
085100     EXIT.                                                        PPP031
085200     EJECT                                                        PPP031
085300 80010-WRITE-ERROR-HEADER    SECTION.                             PPP031
085400                                                                  PPP031
085500     ADD +1 TO PPP0313-PAGE-COUNT.                                PPP031
085600     MOVE  PPP0313-PAGE-COUNT   TO STND-PAGE-NO.                  PPP031
085700     MOVE  PPP0313-REPORT-ID    TO STND-RPT-ID.                   PPP031
085800     MOVE  PPP0313-REPORT-TITLE TO STND-RPT-TTL.                  PPP031
085900     WRITE PPP0313-PRINT-LINE FROM STND-RPT-HD1                   PPP031
086000                              AFTER ADVANCING PAGE.               PPP031
086100     WRITE PPP0313-PRINT-LINE FROM STND-RPT-HD2.                  PPP031
086200     WRITE PPP0313-PRINT-LINE FROM STND-RPT-HD3.                  PPP031
086300     MOVE +3                TO PPP0313-LINE-COUNT.                PPP031
086400                                                                  PPP031
086500 80019-EXIT.                                                      PPP031
086600     EXIT.                                                        PPP031
086700     EJECT                                                        PPP031
086800 90000-END-OF-JOB    SECTION.                                     PPP031
086900                                                                  PPP031
087000     CLOSE PPP0313.                                               PPP031
087100     MOVE WS-RETURN-CODE TO RETURN-CODE.                          PPP031
087200                                                                  PPP031
087300 90009-EXIT.                                                      PPP031
087400     EXIT.                                                        PPP031
087500     EJECT                                                        PPP031
087600 DATE-CONVERSION-DB2 SECTION.                                     PPP031
087700                                     COPY CPPDXDC3.               PPP031
087800*999999-SQL-ERROR       SECTION.                                  PPP031
087900                                     COPY CPPDXP99.               PPP031
