000100*==========================================================%      UCSD9999
000200*= UCSD LOCAL CHANGES HAVE BEEN IMPLEMENTED.              =%      UCSD9999
000300*= COLUMN 73 THRU 80 DENOTES CHANGE NUMBER - UCSD9999     =%      UCSD9999
000400*==========================================================%      UCSD9999
000500*==========================================================%      UCSD0069
000600*=    PROGRAM: PPP020                                     =%      UCSD0069
000700*=    CHANGE # __0069__     PROJ. REQUEST: DT-069         =%      UCSD0069
000800*=    NAME:JIM PIERCE       MODIFICATION DATE: 5/10/95    =%      UCSD0069
000900*=                                                        =%      UCSD0069
001000*=    DESCRIPTION: CREATE LOCAL SPECIAL MAINTENANCE       =%      UCSD0069
001100*=    PROCESS FOR RE-EVALUATING STAFF CASUAL NDC STATUS   =%      UCSD0069
001200*==========================================================%      UCSD0069
000500*==========================================================%      UCSD0052
000600*=   PROGRAM: PPP020                                      =%      UCSD0052
000700*=   CHANGE: ___0052____  SERVICE REQUEST(S): ___DT-052___=%      UCSD0052
000800*=   NAME:   JIM PIERCE   MODIFICATION DATE:  __01/06/93__=%      UCSD0052
000900*=   DESCRIPTION:                                         =%      UCSD0052
001000*=   CHANGE VALUE OF CPWSSEVX-SEE-SYSTEM-SEV SEVERITY     =%      UCSD0052
001100*=   COMPARAND FROM 8 TO 9 TO AVOID ZEKE'S INTERPRETATION =%      UCSD0052
001200*=   OF PROGRAM RETURN-CODE = 8 AS 'OKAY' WHEN PRODUCTION =%      UCSD0052
001300*=   BATCH MAINTENANCE IS RUN (RE: RELEASE 825)           =%      UCSD0052
001400*==========================================================%      UCSD0052
000100*==========================================================%      UCSD0006
000600*=    COPY MEMBER: PPP020                                 =%      UCSD0006
000700*=    CHANGE # 0006         PROJ. REQUEST: LE/370         =%      UCSD0006
000800*=                                         CONVERSION     =%      UCSD0006
000900*=    NAME: JIM PIERCE      MODIFICATION DATE: 11/05/93   =%      UCSD0006
000400*=                                                        =%      UCSD0006
001100*=    DESCRIPTION:                                        =%      UCSD0006
001200*=     COPY MEMBER CPWSTIME ADDED TO SUPPORT              =%      UCSD0006
001300*=     LE/370 VERSION OF CPPDTIME (USED WITHIN CLPDP020)  =%      UCSD0006
000500*==========================================================%      UCSD0006
000600*==========================================================%      UCSD0006
000700*=    PROGRAM: PPP020                                     =%      UCSD0006
000800*=    CHANGE # 0006         PROJ. REQUEST: IBM OFFLOAD    =%      UCSD0006
000900*=    NAME: G. CHIU         MODIFICATION DATE: 09/16/87   =%      UCSD0006
001000*=                                                        =%      UCSD0006
001100*=    DESCRIPTION:                                        =%      UCSD0006
001200*=     PROGRAM WAS MODIFIED TO PRODUCE PRODUCTION         =%      UCSD0006
001300*=     CONTROL REPORTS.                                   =%      UCSD0006
001500*==========================================================%      UCSD0006
000000**************************************************************/   28521218
000001*  PROGRAM: PPP020                                           */   28521218
000002*  RELEASE: ___1218______ SERVICE REQUEST(S): ____12852____  */   28521218
000003*  REF RLSE:___1025______                                    */   28521218
000004*  NAME:_______QUAN______ MODIFICATION DATE:  ___11/02/98__  */   28521218
000005*  DESCRIPTION:                                              */   28521218
000006*  AFTER ADDING 1 MONTH TO THE DATE, CALL DATE CONVERSION    */   28521218
000007*  ROUTINE TO VERIFY CALCUALTED DATE.                        */   28521218
000008**************************************************************/   28521218
000001**************************************************************/   32591157
000003*  PROGRAM: PPP020                                           */   32591157
000004*  RELEASE: ___1157______ SERVICE REQUEST(S): ___13259_____  */   32591157
000006*  NAME:__ROY STAPLES____ MODIFICATION DATE:  ___12/15/97__  */   32591157
000007*  DESCRIPTION:                                              */   32591157
000008*    CHANGED THE EDITING OF INPT-SPEC-PROCESS TO ENABLE      */   32591157
000009*    ADDITIONAL VALUES.  THIS IS REQUIRED FOR PPP130 TO      */   32591157
000010*    PROCESS BENEFITS ENROLLMENT SYSTEM TRANSACTIONS.        */   32591157
000015*                                                            */   32591157
000016**************************************************************/   32591157
000001**************************************************************/   25331000
000002*  PROGRAM: PPP020                                           */   25331000
000003*  RELEASE: ___1000______ SERVICE REQUEST(S): ____12533____  */   25331000
000004*  REF REL: ___0964,0988                                     */   25331000
000005*  NAME:__PHIL THOMPSON__ MODIFICATION DATE:  ___07/18/95__  */   25331000
000006*  DESCRIPTION:                                              */   25331000
000007*  - ERROR REPORT 1302:                                      */   25331000
000008*    DO NOT ALTER BYPASS FLAG DURING SPECIAL PROCESS SO      */   25331000
000009*    SPECIAL PROCESS WILL NOT INTERFERE WITH EDIT CYCLE.     */   25331000
000010*    MOVE ACTVTY GENNUM TO NUMERIC DISPLAY FIELD TO AVOID    */   25331000
000011*    TRUNCATION DURING PRINTING.                             */   25331000
000012**************************************************************/   25331000
000000**************************************************************/   25330988
000001*  PROGRAM: PPP020                                           */   25330988
000002*  RELEASE: ___0988______ SERVICE REQUEST(S): ____12533____  */   25330988
000003*  NAME:__PHIL THOMPSON__ MODIFICATION DATE:  ___06/08/95__  */   25330988
000004*  DESCRIPTION:                                              */   25330988
000005*  - ADD A SPECIAL DAILY PROCESS INDICATOR.                  */   25330988
000007**************************************************************/   25330988
000100**************************************************************/   17810964
000200*  PROGRAM: PPP020                                           */   17810964
000300*  RELEASE: ___0964______ SERVICE REQUEST(S): ____11781____  */   17810964
000400*  NAME:_____J.WILCOX____ MODIFICATION DATE:  ___12/15/94__  */   17810964
000500*  DESCRIPTION:                                              */   17810964
000600*  - COMPLETE REWRITE OF PROGRAM.                            */   17810964
000700*  - IMPLEMENT NEW SPECIAL MAINTENANCE PROCESSES             */   17810964
000800**************************************************************/   17810964
002600 IDENTIFICATION DIVISION.                                         PPP020
002700 PROGRAM-ID. PPP020.                                              PPP020
002800 AUTHOR. UNIVERSITY OF CALIFORNIA.                                PPP020
002900 INSTALLATION. UC BASE PAYROLL/PERSONNEL SYSTEM.                  PPP020
003000*REMARKS.                                                         PPP020
003100******************************************************************PPP020
003200*                                                                *PPP020
003300*    THE CONTROL RECORD MAINTENANCE PROGRAM INITIALIZES THE      *PPP020
003400*    SYSTEM CONTROL RECORD FOR A DATA BASE MAINTENANCE CYCLE.    *PPP020
003500*                                                                *PPP020
003600*    THE PROGRAM USES RUN SPECIFICATION INPUT TO SET A PROCESS   *PPP020
003700*    DATE AND TO DETERMINE WHETHER OR NOT PERIODIC MAINTENANCE   *PPP020
003800*    INDICATORS SHOULD BE SET.                                   *PPP020
003900*                                                                *PPP020
004000******************************************************************PPP020
002400*                                                                 PPP020
004200 DATE-WRITTEN.  06/12/90.                                         PPP020
004300 DATE-COMPILED.                                                   PPP020
004400     EJECT                                                        PPP020
004500 ENVIRONMENT DIVISION.                                            PPP020
004600 CONFIGURATION SECTION.                                           PPP020
004700 SOURCE-COMPUTER.                COPY CPOTXUCS.                   PPP020
004800 OBJECT-COMPUTER.                COPY CPOTXOBJ.                   PPP020
004900 SPECIAL-NAMES.  C01 IS NEW-PAGE.                                 PPP020
003300*                                                                 PPP020
005100 INPUT-OUTPUT SECTION.                                            PPP020
005200 FILE-CONTROL.                                                    PPP020
005300     SELECT CARD-FILE            COPY CPSLXCRD.                   PPP020
005400     SELECT PRINT-FILE           COPY CPSLXPRT.                   PPP020
005500     COPY CLSLCRPT.                                               UCSD0006
005600     EJECT                                                        PPP020
005700 DATA DIVISION.                                                   PPP020
005800 FILE SECTION.                                                    PPP020
004100*                                                                 PPP020
006000 FD  CARD-FILE                   COPY CPFDXCRD.                   PPP020
006100 01  CARD-RECORD.                                                 PPP020
004400     03  INPT-ID            PICTURE X(10).                        PPP020
006300         88  VALID-SPEC-ID   VALUE 'PPP02-SPEC'.                  PPP020
004600     03  INPT-PROCESS-DATE   PICTURE X(06).                       PPP020
004700     03  FILLER              PICTURE X(02).                       PPP020
007000      03  INPT-PER-INDS.                                          PPP020
007100         05  INPT-NXT-MO     PICTURE XX.                          PPP020
007200             88  INPT-NXT-MO-OK                                   PPP020
007300                             VALUE   '01' THRU '12'.              PPP020
007400         05  INPT-NXT-QTR    PICTURE X.                           PPP020
007500            88  INPT-NXT-QTR-OK                                   PPP020
007600                             VALUE   '1'  THRU '4'.               PPP020
007700         05  INPT-NXT-YR     PICTURE X.                           PPP020
007800           88  INPT-NXT-YR-OK                                     PPP020
007900                             VALUE '1'.                           PPP020
008000         05  INPT-NXT-FY     PICTURE X.                           PPP020
008100           88  INPT-NXT-FY-OK                                     PPP020
008200                             VALUE '1'.                           PPP020
008300     03  INPT-INIT-INDS      PICTURE X.                           PPP020
008400     03  INPT-ACT-GEN        PICTURE 9(3).                        PPP020
008500     03  INPT-ACT-GENX       REDEFINES     INPT-ACT-GEN           PPP020
008600                             PICTURE X(3).                        PPP020
008700     03  INPT-CR-PAYROLL     PICTURE X.                           PPP020
006600     03  FILLER              PICTURE X(2).                        PPP020
006700     03  INPT-PURGE-DATE     PICTURE X(06).                       PPP020
006800*                                                                 PPP020
006900     03  INPT-SPEC-PROC-IND  PICTURE X.                           PPP020
007000         88  INPT-SPEC-PROC-IND-OK                                PPP020
011300***                          VALUES '1' THRU '3'.                 UCSD0069
011400***                          VALUES '1' THRU '4', '7'.            UCSD0069
007110***                          VALUES '1' THRU '5'.                 32591157
007110                             VALUES '1' THRU '5', '7'.            UCSD0069
007100*****                                                          CD 28521218
007110*****                        VALUES '1' THRU '4'.                 UCSD0069
007200     03  FILLER              PICTURE X(43).                       PPP020
007300     EJECT                                                        PPP020
009900 FD  PRINT-FILE                  COPY CPFDXPRT.                   PPP020
010000         COPY CLFDCRPT.                                           UCSD0006
010100     EJECT                                                        PPP020
010200******************************************************************PPP020
010300 WORKING-STORAGE SECTION.                                         PPP020
010400 77  HERE-BEFORE-SW              PICTURE X(01)   VALUE SPACE.     PPP020
010500     88  HERE-BEFORE   VALUE 'Y'.                                 PPP020
010800 77  A-STND-PROG-ID              PICTURE X(15)                    PPP020
008010*****                                                          CD 28521218
008130*****    VALUE 'PPP020  /121597'.                                 28521218
008140         VALUE 'PPP020  /110198'.                                 28521218
011000 77  A-STND-PROG-NO              PICTURE X(02)   VALUE '02'.      PPP020
011100 77  A-STND-RPT-ID               PICTURE X(07)   VALUE 'PPP0202'. PPP020
011200 77  A-STND-RPT-TITLE            PICTURE X(35)   VALUE            PPP020
011300        '     SYSTEM CONTROL RECORD REPORT  '.                    PPP020
011400 77  ACTIVITY-GEN-DESC           PICTURE X(33)   VALUE            PPP020
011500        ' ACTIVITY GENERATION NUMBER:     '.                      PPP020
008800 77  LINE-CNT                    PICTURE S9(3)   VALUE +99 COMP-3.PPP020
012000 77  NO-OF-LINES                 PICTURE S9(3)   VALUE +0  COMP-3.PPP020
009000 77  PRINT-PAYROLL-WARNING-FLAG  PICTURE 9       VALUE ZERO.      PPP020
009100     88  PRINT-PAYROLL-WARNING                   VALUE 1.         PPP020
009200 77  CARD-EOF-SWITCH             PICTURE 9       VALUE ZERO.      PPP020
009300     88  CARD-EOF-SWITCH-ON                      VALUE 1.         PPP020
009400 77  WS-CURRENT-MO               PICTURE S9(4) COMP.              PPP020
009500 77  WS-NEXT-MO                  PICTURE S9(4) COMP.              PPP020
009600     EJECT                                                        PPP020
009700 01  DATE-CONVERSION-WORK-AREAS. COPY CPWSXDC3.                   PPP020
009800*                                                                 PPP020
013800 01  DATE-FORMAT.                COPY CPWSDATE.                   PPP020
019100 01  TIME-FORMAT.                COPY CPWSTIME.                   UCSD0006
010000*                                                                 PPP020
010100 01  CPWSSEVX                            EXTERNAL. COPY CPWSSEVX. PPP020
010200*                                                                 PPP020
014900                                                                  PPP020
015000     EJECT                                                        PPP020
015100******************************************************************PPP020
015500*        REPORT HEADERS AND PRINT LINES; MESSAGES AND INTERFACE   PPP020
015600******************************************************************PPP020
015700 01  STND-RPT-HD1.               COPY CPWSXSHR.                   PPP020
010900*                                                                 PPP020
015900 01  FORMATTED-LINE              VALUE SPACES.                    PPP020
016000     03  FILLER                  PICTURE X(30).                   PPP020
016100     03  PRINT-DETAIL            PICTURE X(102).                  PPP020
011300*                                                                 PPP020
016300 01  REPORT-LITERALS.                                             PPP020
016400     03  RPT-HEADING-LINE        PICTURE X(66)   VALUE            PPP020
016500        'THE SYSTEM CONTROL RECORD NOW CONTAINS THE FOLLOWING INFOPPP020
016600-       'RMATION:'.                                               PPP020
016700     03  RPT-DATE-LINE.                                           PPP020
016800         05  FILLER              PICTURE X(21)   VALUE SPACES.    PPP020
016900         05  FILLER              PICTURE X(18)   VALUE            PPP020
017000                'PROCESS DATE:     '.                             PPP020
012200         05  RPT-PROCESS-DATE    PICTURE X(08).                   PPP020
017700     03  RPT-MAINT-IND-LINE.                                      PPP020
017800         05  RPT-MAINT-LIT       PICTURE X(37)   VALUE            PPP020
017900            '  PERIODIC MAINTENANCE INDICATORS: '.                PPP020
018000         05  FILLER              PICTURE X(02)   VALUE SPACES.    PPP020
018100         05  RPT-MAINT-NOTE.                                      PPP020
018200             07  FILLER          PICTURE X(13)   VALUE            PPP020
018300            'BEGINNING OF '.                                      PPP020
018400             07  RPT-PERIOD-IND  PICTURE X(13).                   PPP020
013100     03  RPT-SPEC-PROC-LINE.                                      PPP020
013200         05  FILLER              PICTURE X(39)   VALUE            PPP020
013300            '     SPECIAL PROCESSING INDICATOR: '.                PPP020
013400         05  RPT-SPEC-NOTE       PICTURE X(60).                   PPP020
018800     03  RPT-PURGE-LINE.                                          PPP020
018900         05  FILLER              PICTURE X(13)   VALUE SPACES.    PPP020
019000         05  FILLER              PICTURE X(26)   VALUE            PPP020
019100              'APPT/DIST PURGE DATE:     '.                       PPP020
019200         05  RPT-PURGE-DATE.                                      PPP020
019300             07  RPT-PURGE-MO    PICTURE X(02).                   PPP020
019400             07  FILLER          PICTURE X(01)   VALUE '/'.       PPP020
019500             07  RPT-PURGE-DA    PICTURE X(02).                   PPP020
019600             07  FILLER          PICTURE X(01)   VALUE '/'.       PPP020
019700             07  RPT-PURGE-YR    PICTURE X(02).                   PPP020
014500     03  RPT-MONTH-IND.                                           PPP020
014600         05  FILLER              PICTURE X(06)   VALUE 'MONTH '.  PPP020
014700         05  RPT-MONTH-NO        PICTURE X(02).                   PPP020
019800     03  RPT-QTR-IND.                                             PPP020
019900         05  FILLER              PICTURE X(08)   VALUE 'QUARTER '.PPP020
020000         05  RPT-QTR-NO          PICTURE X(01).                   PPP020
020100     03  RPT-YEAR-IND            PICTURE X(13)   VALUE            PPP020
020200        'CALENDAR YEAR'.                                          PPP020
020300     03  RPT-FY-IND              PICTURE X(11)   VALUE            PPP020
020400        'FISCAL YEAR'.                                            PPP020
020500     03  RPT-NO-IND              PICTURE X(16)   VALUE            PPP020
020600        'NONE THIS UPDATE'.                                       PPP020
021000     03  RPT-BYPASS-LINE.                                         PPP020
021100         05  FILLER              PICTURE X(06)   VALUE SPACES.    PPP020
021200         05  FILLER              PICTURE X(33)   VALUE            PPP020
021300            'INPUT DATA BYPASS INDICATOR:     '.                  PPP020
021400         05  RPT-BYPASS-LIT      PICTURE X(50).                   PPP020
021500     03  RPT-BYPASS-OFF          PICTURE X(29)   VALUE            PPP020
021600        'OFF -- INPUT DATA IS EXPECTED'.                          PPP020
021700     03  RPT-BYPASS-ON-1         PICTURE X(37)   VALUE            PPP020
021800        'ON -- NO INPUT DATA CAN BE PROCESSED'.                   PPP020
016600     03  RPT-BYPASS-ON-2         PICTURE X(50)   VALUE            PPP020
016700        '      ONLY PERIODIC/SPECIAL MAINTENANCE WILL OCCUR'.     PPP020
022100     03  RPT-GEN-NO-LINE.                                         PPP020
022200         05  FILLER              PICTURE X(06)   VALUE SPACES.    PPP020
022300         05  RPT-GEN-DESC        PICTURE X(33)   VALUE            PPP020
022400            'DATA BASE GENERATION NUMBER:     '.                  PPP020
022500         05  RPT-GEN-NO          PICTURE X(03).                   PPP020
022600         05  FILLER REDEFINES RPT-GEN-NO.                         PPP020
022700         10  RPT-GEN-NO-9        PICTURE 99.                      PPP020
022800         10  RPT-GEN-FILL        PICTURE X.                       PPP020
017510         05  FILLER REDEFINES RPT-GEN-NO.                         25331000
017520         10  RPT-GEN-NO-999      PICTURE 999.                     25331000
023600     03  RPT-WARN-LINE-1.                                         PPP020
023700         05  FILLER              PICTURE X(60)   VALUE            PPP020
023800            'WARNING:  CONTROL RECORD INDICATES THAT A PAYROLL (ENPPP020
023900-           'DING'.                                               PPP020
024000         05  RPT-PAYROLL-RAN.                                     PPP020
024100             07  RPT-PAY-MO      PICTURE X(02).                   PPP020
024200             07  FILLER          PICTURE X(01)   VALUE '/'.       PPP020
024300             07  RPT-PAY-DA      PICTURE X(02).                   PPP020
024400             07  FILLER          PICTURE X(01)   VALUE '/'.       PPP020
024500             07  RPT-PAY-YR      PICTURE X(02).                   PPP020
024600         05  FILLER              PICTURE X(01)   VALUE ','.       PPP020
024700     03  RPT-WARN-LINE-2.                                         PPP020
024800         05  FILLER              PICTURE X(18)   VALUE            PPP020
024900            '          CYCLES: '.                                 PPP020
025000         05  RPT-CYCLE-1         PICTURE X(03).                   PPP020
025100         05  RPT-CYCLE-2         PICTURE X(03).                   PPP020
025200         05  RPT-CYCLE-3         PICTURE X(03).                   PPP020
025300         05  RPT-CYCLE-4         PICTURE X(02).                   PPP020
025400         05  FILLER              PICTURE X(36)   VALUE            PPP020
025500            ') WAS PROCESSED BUT THE DATA BASE IT'.               PPP020
025600     03  RPT-WARN-LINE-3         PICTURE X(65)   VALUE            PPP020
025700        '          CREATED WAS NOT RESTORED.  THE DATA BASE UPDATEPPP020
025800-       ' PROGRAM'.                                               PPP020
025900     03  RPT-WARN-LINE-4         PICTURE X(63)   VALUE            PPP020
026000        '          WILL N-O-T RUN UNTIL THE DATA BASE HAS BEEN RESPPP020
026100-       'TORED.'.                                                 PPP020
026200     03  RPT-INIT-PAYROLL1.                                       PPP020
026300         05  FILLER          PICTURE X(64)  VALUE                 PPP020
026400             'WARNING: PAYROLL INDICATORS WERE INITIALIZED, NORMALPPP020
026500-            ' SEQUENCE OF'.                                      PPP020
026600     03  RPT-INIT-PAYROLL2.                                       PPP020
026700         05  FILLER          PICTURE X(25)   VALUE                PPP020
026800             'EVENTS IS BEING BYPASSED'.                          PPP020
026900     03  RPT-ERROR-LINE.                                          PPP020
027000         05  FILLER              PICTURE X(19)   VALUE            PPP020
027100            '          MESSAGE: '.                                PPP020
027200         05  RPT-ERROR-NUMBER.                                    PPP020
027300             07  RPT-PROG-NO     PICTURE X(02).                   PPP020
027400             07  FILLER          PICTURE X(01)   VALUE '-'.       PPP020
027500             07  RPT-ERR-NO      PICTURE X(03).                   PPP020
027600         05  FILLER              PICTURE X(13)   VALUE            PPP020
027700            '   SEVERITY: '.                                      PPP020
027800         05  RPT-MSSG-SEV        PICTURE X(17).                   PPP020
027900         05  RPT-MSSG-TEXT       PICTURE X(65).                   PPP020
028000     03  RPT-ABEND-LINE.                                          PPP020
028100         05  FILLER              PICTURE X(14)   VALUE            PPP020
028200         'ABNORMAL EOJ--'.                                        PPP020
028300         05  RPT-ERR-PGM         PICTURE X(15).                   PPP020
022400*                                                                 PPP020
028500 01  ERROR-MESSAGE-LITERALS.                                      PPP020
028800     03  M02100                  PICTURE X(05)   VALUE '02100'.   PPP020
029000     03  M02102                  PICTURE X(05)   VALUE '02102'.   PPP020
029300     03  M02111                  PICTURE X(05)   VALUE '02111'.   PPP020
029400     03  M02112                  PICTURE X(05)   VALUE '02112'.   PPP020
029500     03  M02113                  PICTURE X(05)   VALUE '02113'.   PPP020
029600     03  M02114                  PICTURE X(05)   VALUE '02114'.   PPP020
029700     03  M02115                  PICTURE X(05)   VALUE '02115'.   PPP020
029800     03  M02116                  PICTURE X(05)   VALUE '02116'.   PPP020
023400     03  M02117                  PICTURE X(05)   VALUE '02117'.   PPP020
023500     03  M02118                  PICTURE X(05)   VALUE '02118'.   PPP020
023600     03  M02119                  PICTURE X(05)   VALUE '02119'.   PPP020
023700     03  M02120                  PICTURE X(05)   VALUE '02120'.   PPP020
023800     03  M02121                  PICTURE X(05)   VALUE '02121'.   PPP020
029900     03  M02122                  PICTURE X(05)   VALUE '02122'.   PPP020
030000     03  M02123                  PICTURE X(05)   VALUE '02123'.   PPP020
030100     03  M02124                  PICTURE X(05)   VALUE '02124'.   PPP020
024200     03  M02125                  PICTURE X(05)   VALUE '02125'.   PPP020
024300     03  M02127                  PICTURE X(05)   VALUE '02127'.   PPP020
024400     03  M02128                  PICTURE X(05)   VALUE '02128'.   PPP020
024500     03  M02129                  PICTURE X(05)   VALUE '02129'.   PPP020
024600     03  M02130                  PICTURE X(05)   VALUE '02130'.   PPP020
024700     03  M02131                  PICTURE X(05)   VALUE '02131'.   PPP020
024800*                                                                 PPP020
024900 01  XWHC-COMPILE-WORK-AREA.         COPY CPWSXWHC.               PPP020
025000*                                                                 PPP020
025100     EJECT                                                        PPP020
025200 01  MESSAGE-TABLE-INTERFACE.    COPY CPWSXMTI.                   PPP020
025300*                                                                 PPP020
030500 01  PPDB2MSG-INTERFACE.         COPY CPLNKDB2.                   PPP020
030600         COPY CLWSCRPT.                                           UCSD0006
030700**************************************************************/   PPP020
030800*              SQL - WORKING STORAGE                         */   PPP020
030900**************************************************************/   PPP020
031000 01  SCR-ROW-DATA.                                                PPP020
031100     EXEC SQL                                                     PPP020
026000          INCLUDE PPPVZSCR                                        PPP020
031300     END-EXEC.                                                    PPP020
026200*                                                                 PPP020
031400     EXEC SQL                                                     PPP020
031500          INCLUDE SQLCA                                           PPP020
031600     END-EXEC.                                                    PPP020
031700******************************************************************PPP020
031800*****                                                            *PPP020
031900*****            SQL- SELECTS                                    *PPP020
032000*****                                                            *PPP020
032100******************************************************************PPP020
032200*                                                                *PPP020
032300*  THE VIEWS USED IN THIS PROGRAM ARE:                           *PPP020
032400*                                                                *PPP020
032500*     VIEW              VIEW DDL AND DCL INCLUDE                 *PPP020
032600*                        MEMBER NAMES                            *PPP020
032700*                                                                *PPP020
027700*  PPPVZSCR_SCR          PPPVZSCR                                *PPP020
032900*                                                                *PPP020
033000******************************************************************PPP020
033600     EJECT                                                        PPP020
033700***************************************************************** PPP020
033800 PROCEDURE DIVISION.                                              PPP020
033900 MAINLINE SECTION.                                                PPP020
034000         COPY CLPDCRPT.                                           UCSD0006
028400 ENTRY-0000.                                                      PPP020
034100**************************************************************/   PPP020
034200*  SQL FROM PRE-COMPILER                                     */   PPP020
034300**************************************************************/   PPP020
034400******************************************************************PPP020
034500*    THE FOLLOWING SQL WILL CAUSE ANY 'ABNORMAL' SQLCODE TO      *PPP020
034600*    CAUSE A BRANCH TO 999999-ERROR.                             *PPP020
034700******************************************************************PPP020
034800     EXEC SQL                                                     PPP020
034900          INCLUDE CPPDXE99                                        PPP020
035000     END-EXEC.                                                    PPP020
035100***************************************************************** PPP020
029600     PERFORM INITIALIZATION-0100.                                 PPP020
029700*                                                                 PPP020
029800     PERFORM READ-SPEC-INPUT-9600.                                PPP020
029900*                                                                 PPP020
030000     IF CARD-EOF-SWITCH-ON                                        PPP020
030100         CONTINUE                                                 PPP020
030200     ELSE                                                         PPP020
030300         IF VALID-SPEC-ID                                         PPP020
030400             PERFORM UPDATE-CONTROL-REC-1000                      PPP020
030500         ELSE                                                     PPP020
030600             MOVE M02100 TO MSSG-DESIRED                          PPP020
030700             PERFORM ERROR-ROUTINE-9000                           PPP020
030800         END-IF                                                   PPP020
030900     END-IF.                                                      PPP020
031000*                                                                 PPP020
031100     PERFORM PRINT-SCR-REPORT-5000.                               PPP020
037800     PERFORM PRINT-CONTROL-REPORT.                                UCSD0006
031200*                                                                 PPP020
031300     CLOSE CARD-FILE, PRINT-FILE.                                 PPP020
031400*                                                                 PPP020
031500     PERFORM RETURN-CODE-9700.                                    PPP020
031600*                                                                 PPP020
038500     STOP RUN.                                                    PPP020
038600     EJECT                                                        PPP020
038700*-------------------------------------------------------------    PPP020
032000 INITIALIZATION-0100 SECTION.                                     PPP020
038900*-------------------------------------------------------------    PPP020
032200******************************************************************PPP020
032300**  SEVERITY COMPARANDS                                         **PPP020
032400******************************************************************PPP020
032500     MOVE 1 TO CPWSSEVX-INFORMATIONAL-SEV.                        PPP020
032600     MOVE 4 TO CPWSSEVX-WARNING-SEV.                              PPP020
032700     MOVE 5 TO CPWSSEVX-SERIOUS-SEV.                              PPP020
032800     MOVE 7 TO CPWSSEVX-SEV-FATAL.                                PPP020
032900     MOVE 8 TO CPWSSEVX-SEE-SYSTEM-SEV.                           PPP020
033000     COPY CPPDDATE.                                               PPP020
033100*                                                                 PPP020
033200     MOVE A-STND-PROG-ID TO DB2MSG-PGM-ID.                        PPP020
033300     MOVE A-STND-PROG-ID TO XWHC-DISPLAY-MODULE.                  PPP020
033400*                                                                 PPP020
033500     COPY CPPDXWHC.                                               PPP020
047600***  MOVE 8 TO CPWSSEVX-SEE-SYSTEM-SEV.                           UCSD0052
047700     MOVE 9 TO CPWSSEVX-SEE-SYSTEM-SEV.                           UCSD0052
039300**                                                                PPP020
039400*    OPEN PRINT FILE AND INITIALIZE REPORT HEADINGS               PPP020
039500**                                                                PPP020
039700     OPEN OUTPUT PRINT-FILE.                                      PPP020
039900     MOVE A-STND-PROG-ID     TO STND-PROG-ID.                     PPP020
040000     MOVE A-STND-RPT-ID      TO STND-RPT-ID.                      PPP020
040100     MOVE A-STND-RPT-TITLE   TO STND-RPT-TTL.                     PPP020
040200     MOVE GREGORIAN-DATE     TO STND-RPT-DATE.                    PPP020
040300     MOVE SPACES             TO STND-DATE2-TTL.                   PPP020
040400     MOVE ZERO TO MSSG-SEVERITY MSSG-HIGHEST-SEVERITY.            PPP020
040800*                                                                 PPP020
041100     OPEN INPUT CARD-FILE.                                        PPP020
041600     EJECT                                                        PPP020
041700*-----------------------------------------------------------------PPP020
035000 UPDATE-CONTROL-REC-1000 SECTION.                                 PPP020
035100*-----------------------------------------------------------------PPP020
035200*                                                                 PPP020
035300*--->                                                             PPP020
035400*---> SELECT NECESSARY FIELDS FROM THE SCR TABLE                  PPP020
035500*--->                                                             PPP020
035600     PERFORM SQL-SELECT-SCR-9920.                                 PPP020
035700*                                                                 PPP020
035800*--->                                                             PPP020
035900*---> EDIT AND SET THE INPUT PROCESS DATE                         PPP020
036000*--->                                                             PPP020
036100     MOVE INPT-PROCESS-DATE TO XDC3-INPUT6-DATE.                  PPP020
036200     PERFORM XDC3-VALIDATE-INPUT6-TO-ISO.                         PPP020
036300     IF XDC3-INVALID-DATE                                         PPP020
036400         MOVE M02102 TO MSSG-DESIRED                              PPP020
036500         PERFORM ERROR-ROUTINE-9000                               PPP020
036600     ELSE                                                         PPP020
036700         MOVE XDC3-ISO-DATE TO SCR-PROCESS-DATE                   PPP020
036800     END-IF.                                                      PPP020
036900*                                                                 PPP020
037000*--->                                                             PPP020
037100*---> SET THE LAST PROGRAM RUN VALUE TO OURSELF                   PPP020
037200*--->                                                             PPP020
037300     MOVE A-STND-PROG-NO TO SCR-LAST-PGM-RUN.                     PPP020
037400*                                                                 PPP020
037500*--->                                                             PPP020
037600*---> PROCESS THE PERIODIC AND SPECIAL PROCESS INDICATORS IF      PPP020
037700*---> ANY ARE SET OR IF WE'RE INITIALIZING THEM ALL. IF WE'RE     PPP020
037800*---> NOT DOING ANYTHING WITH PERIODIC MAINTENANCE OR SPECIAL     PPP020
037900*---> PROCESSING, THEN SET THE SCR TO EXPECT INPUT DATA.          PPP020
038000*--->                                                             PPP020
038100     IF SPACES NOT = INPT-PER-INDS OR INPT-SPEC-PROC-IND OR       PPP020
038200                     INPT-INIT-INDS                               PPP020
038300         PERFORM SET-PERIOD-INDICATORS-4000                       PPP020
038400     ELSE                                                         PPP020
038500         MOVE ZERO TO SCR-INPUT-BYPASS                            PPP020
038600     END-IF.                                                      PPP020
038700*                                                                 PPP020
038800*--->                                                             PPP020
038900*---> EDIT AND SET THE ACTIVITY GENERATION NUMBER                 PPP020
039000*--->                                                             PPP020
039100     IF INPT-ACT-GENX NUMERIC                                     PPP020
039200         MOVE INPT-ACT-GEN TO SCR-ACTVTY-GENNUM                   PPP020
039300     ELSE                                                         PPP020
039400         IF INPT-ACT-GENX NOT = SPACES                            PPP020
039500             MOVE M02115 TO  MSSG-DESIRED                         PPP020
039600             PERFORM ERROR-ROUTINE-9000                           PPP020
039700         END-IF                                                   PPP020
039800     END-IF.                                                      PPP020
039900*                                                                 PPP020
040000****************************************************************  PPP020
040100**  THE 'SCR-SET-CNTRL-NUM' IS SET TO ZERO AT THE START OF EACH   PPP020
040200**  EDB MAINTENANCE PROCESS.  FOR EACH SET TRANSACTION ENTERED    PPP020
040300**  INTO THE MAINTENANCE PROCESS, THIS NUMBER IS BUMPED BY ONE    PPP020
040400**  AND PLACED ON THE SET TRANSACTION.  THIS ALLOWS ALL ELEMENTS  PPP020
040500**  WITHIN THE TRANSACTION TO BE TREATED AS A SET.                PPP020
040600****************************************************************  PPP020
040700     IF SCR-ACTVTY-GENNUM = ZEROS                                 PPP020
040800         MOVE ZERO TO SCR-SET-CNTRL-NUM                           PPP020
040900     END-IF.                                                      PPP020
041000*                                                                 PPP020
041100*--->                                                             PPP020
041200*---> CLEAR THE PAYROLL-RELATED FIELDS IF REQUESTED               PPP020
041300*--->                                                             PPP020
048500     IF INPT-CR-PAYROLL NOT = SPACES                              PPP020
041500         SET PRINT-PAYROLL-WARNING TO TRUE                        PPP020
041600         MOVE XDC3-LOW-ISO-DATE TO SCR-PAY-RAN-DATE               PPP020
048900         MOVE SPACES TO SCR-CYCLES-PAID1                          PPP020
049000         MOVE SPACES TO SCR-CYCLES-PAID2                          PPP020
049100         MOVE SPACES TO SCR-CYCLES-PAID3                          PPP020
049200         MOVE SPACES TO SCR-CYCLES-PAID4.                         PPP020
055700*                                                                 PPP020
042200*--->                                                             PPP020
042300*---> SET THE PURGE DATE. NOTE THAT THE PURGE DATE IS ONLY        PPP020
042400*---> EXPECTED IF MONTHLY PERIODIC MAINTENANCE IS BEING DONE.     PPP020
042500*---> THE PURGE DATE IS SET TO 9999-12-31 AT ALL OTHER TIMES.     PPP020
042600*---> WE'LL ALSO DEFAULT TO THAT DATE DURING MONTHLY              PPP020
042700*---> MAINTENANCE IF NO DATE IS INPUT. THIS WILL PREVENT ANY      PPP020
042800*---> PURGING FROM BEING DONE. A MESSAGE IS ISSUED IN THIS CASE.  PPP020
042900*--->                                                             PPP020
043000*---> IF A PURGE DATE IS PROVIDED, WE'LL ALSO EDIT TO MAKE SURE   PPP020
043100*---> THAT THE PURGE DATE IS LESS THAN THE FIRST OF THE MONTH     PPP020
043200*---> BEING BEGUN, AND ISSUE AN ERROR IF NOT.                     PPP020
043300*--->                                                             PPP020
043400     IF INPT-NXT-MO = SPACES                                      PPP020
043500         MOVE XDC3-HIGH-ISO-DATE TO SCR-PURGE-DATE                PPP020
043600         IF INPT-PURGE-DATE = SPACES                              PPP020
043700             CONTINUE                                             PPP020
043800         ELSE                                                     PPP020
043900             MOVE M02130 TO MSSG-DESIRED                          PPP020
044000             PERFORM ERROR-ROUTINE-9000                           PPP020
044100         END-IF                                                   PPP020
044200     ELSE                                                         PPP020
044300         IF INPT-PURGE-DATE = SPACES                              PPP020
044400             MOVE M02124 TO MSSG-DESIRED                          PPP020
044500             PERFORM ERROR-ROUTINE-9000                           PPP020
044600             MOVE XDC3-HIGH-ISO-DATE TO SCR-PURGE-DATE            PPP020
044700         ELSE                                                     PPP020
044800             MOVE INPT-PURGE-DATE TO XDC3-INPUT6-DATE             PPP020
044900             PERFORM XDC3-VALIDATE-INPUT6-TO-ISO                  PPP020
045000             IF XDC3-INVALID-DATE                                 PPP020
045100                 MOVE M02122 TO MSSG-DESIRED                      PPP020
045200                 PERFORM ERROR-ROUTINE-9000                       PPP020
045300             END-IF                                               PPP020
045400             MOVE XDC3-ISO-DATE TO SCR-PURGE-DATE                 PPP020
045500                                                                  PPP020
045600             MOVE SCR-CURRENT-DATE TO XDC3-ISO-DATE               PPP020
045700             IF XDC3-ISO-MM = 12                                  PPP020
045800                 MOVE 01 TO XDC3-ISO-MM                           PPP020
045900                 ADD 1 TO XDC3-ISO-CCYY                           PPP020
046000             ELSE                                                 PPP020
046100                 ADD 1 TO XDC3-ISO-MM                             PPP020
046110*---------------> IT IS PRESUMED THAT THE DAY VALUE IN            28521218
046120*---------------> SCR-CURRENT-DATE IS 1. REGARDLESS, AFTER        28521218
046130*---------------> AFTER ADDING 1 TO MONTH  IN SCR-CURRENT-DATE,   28521218
046140*---------------> WE WILL VALIDATE THE NEW DATE.                  28521218
046150                 PERFORM XDC3-VALIDATE-ISO-DATE                   28521218
046160                 IF XDC3-INVALID-DATE                             28521218
046170                    MOVE 01 TO XDC3-ISO-DD                        28521218
046180                    PERFORM XDC3-GET-END-OF-MONTH-DATE            28521218
046190                 END-IF                                           28521218
046200             END-IF                                               PPP020
046300                                                                  PPP020
046400             IF SCR-PURGE-DATE < XDC3-ISO-DATE                    PPP020
046500                 IF SCR-PURGE-DATE = XDC3-LOW-ISO-DATE            PPP020
046600                     MOVE XDC3-HIGH-ISO-DATE TO SCR-PURGE-DATE    PPP020
046700                 END-IF                                           PPP020
046800             ELSE                                                 PPP020
046900                 MOVE M02123 TO MSSG-DESIRED                      PPP020
047000                 PERFORM ERROR-ROUTINE-9000                       PPP020
047100             END-IF                                               PPP020
047200         END-IF                                                   PPP020
047300     END-IF.                                                      PPP020
047400*                                                                 PPP020
047500*--->                                                             PPP020
047600*---> NO TERMINATING ERRORS HAVE BEEN ENCOUNTERED SO WE'LL        PPP020
047700*---> GO AHEAD AND UPDATE THE SCR TABLE.                          PPP020
047800*--->                                                             PPP020
047900     MOVE '          SCR'    TO SCR-KEY.                          PPP020
048000     PERFORM SQL-UPDATE-SCR-9940.                                 PPP020
048100     EJECT                                                        PPP020
048200*-----------------------------------------------------------------PPP020
048300 SET-PERIOD-INDICATORS-4000 SECTION.                              PPP020
048400*-----------------------------------------------------------------PPP020
048500*                                                                 PPP020
048600*--->                                                             PPP020
048700*---> FIRST WE MAKE SURE THAT WE HAVEN'T BEEN ASKED TO BOTH       PPP020
048800*---> SET AND CLEAR THE INDICATORS IN THE SAME RUN.               PPP020
048900*--->                                                             PPP020
049000     IF (INPT-PER-INDS NOT = SPACES OR                            PPP020
049100         INPT-SPEC-PROC-IND NOT = SPACE)                          PPP020
049200        AND INPT-INIT-INDS NOT = SPACE                            PPP020
049300         MOVE M02116 TO MSSG-DESIRED                              PPP020
049400         PERFORM ERROR-ROUTINE-9000                               PPP020
049500         GO TO END-SET-PERIOD-INDICATORS-4998                     PPP020
049600     END-IF.                                                      PPP020
049700*                                                                 PPP020
049800*--->                                                             PPP020
049900*---> INITIALIZE ALL OF THE PERIODIC AND SPECIAL INDICATORS       PPP020
050000*--->                                                             PPP020
050100     MOVE ZEROS TO SCR-NEXTCYCLE-MO                               PPP020
050200                   SCR-NEXTCYCLE-QTR                              PPP020
050300                   SCR-NEXTCYCLE-YR                               PPP020
050400                   SCR-NEXTCYCLE-FYR.                             PPP020
050500     MOVE SPACE TO SCR-SPEC-PROCESS.                              PPP020
050600*                                                                 PPP020
050700*--->                                                             PPP020
050800*---> IF WE WEREN'T ASKED TO JUST INITIALIZE THE INDICATORS, WE   PPP020
050900*---> CONTINUE, OTHERWISE WE'RE DONE. WE WILL, HOWEVER, SET THE   PPP020
051000*---> INPUT INDICATOR TO THE APPROPRIATE VALUE: INPUT EXPECTED    PPP020
051100*---> IF INITIALIZE ONLY; NO INPUT EXPECTED FOR PERIODIC          PPP020
051200*---> MAINTENANCE. SPECIAL PROCESSING LEAVES THE INPUT IND AS IS. 25331000
051300*--->                                                             PPP020
051400     IF INPT-INIT-INDS = SPACE                                    PPP020
051421*****    MOVE 1 TO SCR-INPUT-BYPASS                               25331000
051430         IF INPT-SPEC-PROC-IND = SPACE                            25331000
051500            MOVE 1 TO SCR-INPUT-BYPASS                            25331000
051510         END-IF                                                   25331000
051600     ELSE                                                         PPP020
051700         MOVE ZERO TO SCR-INPUT-BYPASS                            PPP020
051800         GO TO END-SET-PERIOD-INDICATORS-4998                     PPP020
051900     END-IF.                                                      PPP020
052000*                                                                 PPP020
052100*--->                                                             PPP020
052200*---> EXTRACT THE CURRENT MONTH VALUE FROM SCR-CURRENT-DATE TO    PPP020
052300*---> USE IN FURTHER EDITS.                                       PPP020
052400*--->                                                             PPP020
052500     MOVE SCR-CURRENT-DATE TO XDC3-ISO-DATE.                      PPP020
052600     MOVE XDC3-ISO-MM TO WS-CURRENT-MO.                           PPP020
052700*                                                                 PPP020
052800*--->                                                             PPP020
052900*---> NOW EDIT AND SET THE MONTHLY PERIODIC MAINTENANCE           PPP020
053000*---> INDICATOR. NOTE THAT IF IT IS PRESENT, IT MUST INDICATE     PPP020
053100*---> THE BEGINNING OF THE NEXT MONTH AFTER THE CURRENT ONE.      PPP020
053200*--->                                                             PPP020
053300     IF INPT-NXT-MO = SPACES                                      PPP020
053400         CONTINUE                                                 PPP020
053500     ELSE                                                         PPP020
053600         IF INPT-NXT-MO-OK                                        PPP020
053700             IF WS-CURRENT-MO = 12 AND INPT-NXT-MO = '01'         PPP020
053800                 MOVE INPT-NXT-MO TO SCR-NEXTCYCLE-MO             PPP020
053900             ELSE                                                 PPP020
054000                 MOVE INPT-NXT-MO TO WS-NEXT-MO                   PPP020
054100                 IF WS-NEXT-MO = (WS-CURRENT-MO + 1)              PPP020
054200                     MOVE INPT-NXT-MO TO SCR-NEXTCYCLE-MO         PPP020
054300                 ELSE                                             PPP020
054400                     MOVE M02117 TO MSSG-DESIRED                  PPP020
054500                     PERFORM ERROR-ROUTINE-9000                   PPP020
054600                 END-IF                                           PPP020
054700             END-IF                                               PPP020
054800         ELSE                                                     PPP020
054900             MOVE M02111 TO MSSG-DESIRED                          PPP020
055000             PERFORM ERROR-ROUTINE-9000                           PPP020
055100     END-IF.                                                      PPP020
055200*                                                                 PPP020
055300*--->                                                             PPP020
055400*---> NOW EDIT AND SET THE QUARTERLY PERIODIC MAINTENANCE         PPP020
055500*---> INDICATOR. NOTE THAT IF IT IS PRESENT, IT MUST INDICATE     PPP020
055600*---> THE PROPER QUARTER IN RELATION TO THE CURRENT MONTH.        PPP020
055700*--->                                                             PPP020
055800     IF INPT-NXT-QTR = SPACE                                      PPP020
055900          CONTINUE                                                PPP020
056000     ELSE                                                         PPP020
056100         IF INPT-NXT-QTR-OK                                       PPP020
056200             IF (INPT-NXT-QTR = '1' AND WS-CURRENT-MO = 12) OR    PPP020
056300                (INPT-NXT-QTR = '2' AND WS-CURRENT-MO = 03) OR    PPP020
056400                (INPT-NXT-QTR = '3' AND WS-CURRENT-MO = 06) OR    PPP020
056500                (INPT-NXT-QTR = '4' AND WS-CURRENT-MO = 09)       PPP020
056600                 MOVE INPT-NXT-QTR TO SCR-NEXTCYCLE-QTR           PPP020
056700             ELSE                                                 PPP020
056800                  MOVE M02118 TO MSSG-DESIRED                     PPP020
056900                  PERFORM ERROR-ROUTINE-9000                      PPP020
057000             END-IF                                               PPP020
057100         ELSE                                                     PPP020
057200              MOVE M02112 TO MSSG-DESIRED                         PPP020
057300              PERFORM ERROR-ROUTINE-9000                          PPP020
057400         END-IF                                                   PPP020
057500     END-IF.                                                      PPP020
057600*                                                                 PPP020
057700*--->                                                             PPP020
057800*---> NOW EDIT AND SET THE CALENDAR YEAR PERIODIC MAINTENANCE     PPP020
057900*---> INDICATOR. NOTE THAT IF IT IS PRESENT, THE CURRENT MONTH    PPP020
058000*---> MUST BE DECEMBER.                                           PPP020
058100*--->                                                             PPP020
058200     IF INPT-NXT-YR = SPACE                                       PPP020
058300         CONTINUE                                                 PPP020
058400     ELSE                                                         PPP020
058500         IF INPT-NXT-YR-OK                                        PPP020
058600             IF WS-CURRENT-MO = 12                                PPP020
058700                 MOVE INPT-NXT-YR TO SCR-NEXTCYCLE-YR             PPP020
058800             ELSE                                                 PPP020
058900                 MOVE M02119 TO MSSG-DESIRED                      PPP020
059000                 PERFORM ERROR-ROUTINE-9000                       PPP020
059100             END-IF                                               PPP020
059200         ELSE                                                     PPP020
059300             MOVE M02113 TO MSSG-DESIRED                          PPP020
059400             PERFORM ERROR-ROUTINE-9000                           PPP020
059500         END-IF                                                   PPP020
059600     END-IF.                                                      PPP020
059700*                                                                 PPP020
059800*--->                                                             PPP020
059900*---> NOW EDIT AND SET THE FISCAL YEAR PERIODIC MAINTENANCE       PPP020
060000*---> INDICATOR. NOTE THAT IF IT IS PRESENT, THE CURRENT MONTH    PPP020
060100*---> MUST BE JUNE.                                               PPP020
060200*--->                                                             PPP020
060300     IF INPT-NXT-FY = SPACE                                       PPP020
060400         CONTINUE                                                 PPP020
060500     ELSE                                                         PPP020
060600         IF INPT-NXT-FY-OK                                        PPP020
060700             IF WS-CURRENT-MO = 06                                PPP020
060800                 MOVE INPT-NXT-FY TO SCR-NEXTCYCLE-FYR            PPP020
060900             ELSE                                                 PPP020
061000                 MOVE M02120 TO MSSG-DESIRED                      PPP020
061100                 PERFORM ERROR-ROUTINE-9000                       PPP020
061200             END-IF                                               PPP020
061300         ELSE                                                     PPP020
061400             MOVE M02114 TO MSSG-DESIRED                          PPP020
061500             PERFORM ERROR-ROUTINE-9000                           PPP020
061600         END-IF                                                   PPP020
061700     END-IF.                                                      PPP020
061800*                                                                 PPP020
061900*--->                                                             PPP020
062000*---> NOW EDIT AND SET THE SPECIAL PROCESSING INDICATOR.          PPP020
062100*--->                                                             PPP020
062200     IF INPT-SPEC-PROC-IND NOT = SPACE                            PPP020
062300         IF INPT-SPEC-PROC-IND-OK                                 PPP020
062400             MOVE INPT-SPEC-PROC-IND TO SCR-SPEC-PROCESS          PPP020
062500         ELSE                                                     PPP020
062600             MOVE M02127 TO MSSG-DESIRED                          PPP020
062700             PERFORM ERROR-ROUTINE-9000                           PPP020
062800         END-IF                                                   PPP020
062900     END-IF.                                                      PPP020
063000                                                                  PPP020
063100*--->                                                             PPP020
063200*---> THE SIS "SUMMER" PROCESS CAN ONLY BE RUN DURING THE         PPP020
063300*---> ACADEMIC YEAR                                               PPP020
063400*--->                                                             PPP020
063500     IF INPT-SPEC-PROC-IND = '2'                                  PPP020
063600         IF SCR-ACAD-YEAR-IND = 'Y'                               PPP020
063700             CONTINUE                                             PPP020
063800         ELSE                                                     PPP020
063900             MOVE M02129 TO MSSG-DESIRED                          PPP020
064000             PERFORM ERROR-ROUTINE-9000                           PPP020
064100         END-IF                                                   PPP020
064200     END-IF.                                                      PPP020
064300                                                                  PPP020
064400*--->                                                             PPP020
064500*---> THE SIS "FALL" PROCESS CANNOT BE RUN DURING THE             PPP020
064600*---> ACADEMIC YEAR                                               PPP020
064700*--->                                                             PPP020
064800     IF INPT-SPEC-PROC-IND = '3'                                  PPP020
064900         IF SCR-ACAD-YEAR-IND = 'N'                               PPP020
065000             CONTINUE                                             PPP020
065100         ELSE                                                     PPP020
065200             MOVE M02131 TO MSSG-DESIRED                          PPP020
065300             PERFORM ERROR-ROUTINE-9000                           PPP020
065400         END-IF                                                   PPP020
065500     END-IF.                                                      PPP020
065600                                                                  PPP020
065700*                                                                 PPP020
065800*--->                                                             PPP020
065900*---> THE FOLLOWING ARE SOME "CONSISTENCY" EDITS FOR PERIODIC     PPP020
066000*---> AND SPECIAL MAINTENANCE INDICATORS.                         PPP020
066100*--->                                                             PPP020
066200*---> CAN'T DO REGULAR PERIODIC MAINTENANCE AND SPECIAL           PPP020
066300*---> PROCESSING AT THE SAME TIME.                                PPP020
066400*--->                                                             PPP020
066500     IF INPT-SPEC-PROC-IND NOT = SPACES AND                       PPP020
066600        INPT-PER-INDS NOT = SPACES                                PPP020
066700         MOVE M02128 TO MSSG-DESIRED                              PPP020
066800         PERFORM ERROR-ROUTINE-9000                               PPP020
066900     END-IF                                                       PPP020
067000*                                                                 PPP020
067100*--->                                                             PPP020
067200*---> THESE EDITS ARE SUGGESTIONS OF PERIODIC PROCESSES WHICH     PPP020
067300*---> CAN AND SHOULD BE RUN TOGETHER. THE BASE MESSAGES ARE       PPP020
067400*---> ONLY WARNINGS, BUT CAMPUSES WISHING TO STRICTLY ENFORCE     PPP020
067500*---> THE LINKED PROCESSES MAY UPGRADE THEM TO LEVEL 8            PPP020
067600*--->                                                             PPP020
067700*---> BEGINNING OF FISCAL YEAR AND BEGINNING OF JULY SHOULD       PPP020
067800*---> OCCUR AT THE SAME TIME                                      PPP020
067900*--->                                                             PPP020
068000     IF (INPT-NXT-FY = '1' AND INPT-NXT-MO NOT = '07')            PPP020
068100      OR (INPT-NXT-FY = SPACE AND INPT-NXT-MO = '07')             PPP020
068200         MOVE M02121 TO MSSG-DESIRED                              PPP020
068300         PERFORM ERROR-ROUTINE-9000                               PPP020
068400     END-IF.                                                      PPP020
068500*                                                                 PPP020
068600*--->                                                             PPP020
068700*---> BEGINNING OF CALENDAR YEAR AND BEGINNING OF FIRST           PPP020
068800*---> QUARTER SHOULD OCCUR AT THE SAME TIME                       PPP020
068900*--->                                                             PPP020
069000     IF (INPT-NXT-QTR = '1' AND INPT-NXT-YR = SPACE)              PPP020
069100      OR (INPT-NXT-QTR = SPACE AND INPT-NXT-YR = '1')             PPP020
069200         MOVE M02125 TO MSSG-DESIRED                              PPP020
069300         PERFORM ERROR-ROUTINE-9000                               PPP020
069400     END-IF.                                                      PPP020
069500                                                                  PPP020
063200 END-SET-PERIOD-INDICATORS-4998.                                  PPP020
063300     EXIT.                                                        PPP020
063400     EJECT                                                        PPP020
063500*-----------------------------------------------------------------PPP020
070000 PRINT-SCR-REPORT-5000 SECTION.                                   PPP020
063700*-----------------------------------------------------------------PPP020
070200*                                                                 PPP020
070300     PERFORM SQL-SELECT-SCR-9920.                                 PPP020
064400     MOVE RPT-HEADING-LINE       TO PRINT-DETAIL.                 PPP020
064500     MOVE 3                      TO NO-OF-LINES.                  PPP020
070600     PERFORM PRINT-A-LINE-9100.                                   PPP020
070700*                                                                 PPP020
070800     MOVE SCR-PROCESS-DATE TO XDC3-ISO-DATE.                      PPP020
070900     PERFORM XDC3-CONVERT-ISO-TO-FMT.                             PPP020
071000     MOVE XDC3-FMT-DATE TO RPT-PROCESS-DATE.                      PPP020
071100     MOVE 2 TO NO-OF-LINES.                                       PPP020
071200     MOVE RPT-DATE-LINE TO PRINT-DETAIL.                          PPP020
071300     PERFORM PRINT-A-LINE-9100.                                   PPP020
071400*                                                                 PPP020
071500     IF (ZERO = SCR-NEXTCYCLE-MO AND                              PPP020
071600                SCR-NEXTCYCLE-QTR AND                             PPP020
071700                SCR-NEXTCYCLE-YR AND                              PPP020
071800                SCR-NEXTCYCLE-FYR)                                PPP020
071900        AND (SCR-SPEC-PROCESS = SPACE)                            PPP020
072000         MOVE RPT-NO-IND TO RPT-MAINT-NOTE                        PPP020
067300         MOVE RPT-MAINT-IND-LINE TO PRINT-DETAIL                  PPP020
072200         MOVE 2 TO NO-OF-LINES                                    PPP020
072300         PERFORM PRINT-A-LINE-9100                                PPP020
072400*                                                                 PPP020
074600     ELSE                                                         PPP020
072600*                                                                 PPP020
072700         IF SCR-NEXTCYCLE-MO > ZERO                               PPP020
072800             MOVE SCR-NEXTCYCLE-MO TO RPT-MONTH-NO                PPP020
072900             MOVE RPT-MONTH-IND TO RPT-PERIOD-IND                 PPP020
073000             MOVE RPT-MAINT-IND-LINE TO PRINT-DETAIL              PPP020
073100             MOVE SPACES TO RPT-MAINT-LIT                         PPP020
073200             PERFORM PRINT-A-LINE-9100                            PPP020
076300                                                                  PPP020
073400             IF SCR-PURGE-DATE = XDC3-LOW-ISO-DATE                PPP020
073500                 MOVE SPACES TO RPT-PURGE-YR                      PPP020
073600                                RPT-PURGE-MO                      PPP020
073700                                RPT-PURGE-DA                      PPP020
073800             ELSE                                                 PPP020
073900                 IF SCR-PURGE-DATE = XDC3-HIGH-ISO-DATE           PPP020
074000                 MOVE '99' TO RPT-PURGE-YR                        PPP020
074100                              RPT-PURGE-MO                        PPP020
074200                              RPT-PURGE-DA                        PPP020
074300                 ELSE                                             PPP020
074400                     MOVE SCR-PURGE-DATE TO XDC3-ISO-DATE         PPP020
074500                     MOVE XDC3-ISO-YY TO RPT-PURGE-YR             PPP020
074600                     MOVE XDC3-ISO-MM TO RPT-PURGE-MO             PPP020
074700                     MOVE XDC3-ISO-DD TO RPT-PURGE-DA             PPP020
074800                 END-IF                                           PPP020
074900             END-IF                                               PPP020
075000             MOVE 2 TO NO-OF-LINES                                PPP020
075100             MOVE RPT-PURGE-LINE TO PRINT-DETAIL                  PPP020
075200             PERFORM PRINT-A-LINE-9100                            PPP020
075300         END-IF                                                   PPP020
075400*                                                                 PPP020
075500         IF SCR-NEXTCYCLE-QTR > ZERO                              PPP020
075600             MOVE SCR-NEXTCYCLE-QTR TO RPT-QTR-NO                 PPP020
075700             MOVE RPT-QTR-IND TO RPT-PERIOD-IND                   PPP020
075800             MOVE RPT-MAINT-IND-LINE TO PRINT-DETAIL              PPP020
075900             MOVE SPACES TO RPT-MAINT-LIT                         PPP020
076000             PERFORM PRINT-A-LINE-9100                            PPP020
076100         END-IF                                                   PPP020
076200*                                                                 PPP020
076300         IF SCR-NEXTCYCLE-YR > ZERO                               PPP020
076400             MOVE RPT-YEAR-IND TO RPT-PERIOD-IND                  PPP020
076500             MOVE RPT-MAINT-IND-LINE TO PRINT-DETAIL              PPP020
076600             MOVE SPACES TO RPT-MAINT-LIT                         PPP020
076700             PERFORM PRINT-A-LINE-9100                            PPP020
076800         END-IF                                                   PPP020
076900*                                                                 PPP020
077000         IF SCR-NEXTCYCLE-FYR > ZERO                              PPP020
077100             MOVE RPT-FY-IND TO RPT-PERIOD-IND                    PPP020
077200             MOVE RPT-MAINT-IND-LINE TO PRINT-DETAIL              PPP020
077300             MOVE SPACES TO RPT-MAINT-LIT                         PPP020
077400             PERFORM PRINT-A-LINE-9100                            PPP020
077500         END-IF                                                   PPP020
077600*                                                                 PPP020
077700         IF SCR-SPEC-PROCESS NOT = SPACE                          PPP020
077800             EVALUATE SCR-SPEC-PROCESS                            PPP020
077900               WHEN '1'                                           PPP020
078000                   MOVE 'SIS FILE PROCESSING' TO RPT-SPEC-NOTE    PPP020
078100               WHEN '2'                                           PPP020
078200                   MOVE 'STUDENT FICA SUMMER PROCESS' TO          PPP020
078300                       RPT-SPEC-NOTE                              PPP020
078400               WHEN '3'                                           PPP020
078500                   MOVE 'STUDENT FICA FALL PROCESS' TO            PPP020
078600                       RPT-SPEC-NOTE                              PPP020
083700               WHEN '7'                                           UCSD0069
083800                   MOVE 'STAFF CASUAL NDC RE-EVALUATION' TO       UCSD0069
083900                       RPT-SPEC-NOTE                              UCSD0069
078610               WHEN '4'                                           25330988
078630                   MOVE 'SPECIAL DAILY PROCESS' TO RPT-SPEC-NOTE  25330988
078700               WHEN '5'                                           32591157
078710                   MOVE 'SPECIAL BES TRANSACTIONS' TO             32591157
078720                       RPT-SPEC-NOTE                              32591157
078700               WHEN OTHER                                         PPP020
078800                   MOVE 'UNKNOWN SPECIAL PROCESS' TO RPT-SPEC-NOTEPPP020
078900             END-EVALUATE                                         PPP020
079000             MOVE RPT-SPEC-PROC-LINE TO PRINT-DETAIL              PPP020
079100             MOVE 2 TO NO-OF-LINES                                PPP020
079200             PERFORM PRINT-A-LINE-9100                            PPP020
079300         END-IF                                                   PPP020
079400*                                                                 PPP020
079500     END-IF.                                                      PPP020
079600*                                                                 PPP020
079700     IF SCR-INPUT-BYPASS > ZERO                                   PPP020
079800         MOVE RPT-BYPASS-ON-1 TO RPT-BYPASS-LIT                   PPP020
079900         MOVE RPT-BYPASS-LINE TO PRINT-DETAIL                     PPP020
080000         MOVE SPACES TO RPT-BYPASS-LINE                           PPP020
080100         MOVE 2 TO NO-OF-LINES                                    PPP020
080200         PERFORM PRINT-A-LINE-9100                                PPP020
080300         MOVE RPT-BYPASS-ON-2 TO RPT-BYPASS-LIT                   PPP020
080400         MOVE RPT-BYPASS-LINE TO PRINT-DETAIL                     PPP020
080500         PERFORM PRINT-A-LINE-9100                                PPP020
080600     ELSE                                                         PPP020
080700         MOVE RPT-BYPASS-OFF TO RPT-BYPASS-LIT                    PPP020
080800         MOVE RPT-BYPASS-LINE TO PRINT-DETAIL                     PPP020
080900         MOVE 2 TO NO-OF-LINES                                    PPP020
081000         PERFORM PRINT-A-LINE-9100                                PPP020
081100     END-IF.                                                      PPP020
081200*                                                                 PPP020
081300     MOVE SCR-EDB-GENNUM TO RPT-GEN-NO-9.                         PPP020
081400     MOVE SPACE TO RPT-GEN-FILL.                                  PPP020
081500     MOVE RPT-GEN-NO-LINE TO PRINT-DETAIL.                        PPP020
081600     MOVE 2 TO NO-OF-LINES.                                       PPP020
081700     PERFORM PRINT-A-LINE-9100.                                   PPP020
081800*                                                                 PPP020
081810*****                                                          CD 28521218
081910     MOVE SCR-ACTVTY-GENNUM TO RPT-GEN-NO-999.                    25331000
082000     MOVE ACTIVITY-GEN-DESC TO RPT-GEN-DESC.                      PPP020
082100     MOVE RPT-GEN-NO-LINE TO PRINT-DETAIL.                        PPP020
082200     MOVE 2 TO NO-OF-LINES.                                       PPP020
082300     PERFORM PRINT-A-LINE-9100.                                   PPP020
082400*                                                                 PPP020
082500     IF PRINT-PAYROLL-WARNING                                     PPP020
077000         MOVE RPT-INIT-PAYROLL1 TO PRINT-DETAIL                   PPP020
077100         MOVE 4 TO NO-OF-LINES                                    PPP020
082800         PERFORM PRINT-A-LINE-9100                                PPP020
077300         MOVE RPT-INIT-PAYROLL2 TO PRINT-DETAIL                   PPP020
083000         PERFORM PRINT-A-LINE-9100                                PPP020
078600     ELSE                                                         PPP020
083200         IF SCR-PAY-RAN-DATE = XDC3-LOW-ISO-DATE                  PPP020
083300             CONTINUE                                             PPP020
083400         ELSE                                                     PPP020
083500             MOVE SCR-PAY-RAN-DATE TO XDC3-ISO-DATE               PPP020
083600             IF XDC3-ISO-DATE = XDC3-HIGH-ISO-DATE                PPP020
083700                 MOVE '99' TO RPT-PAY-YR                          PPP020
083800                              RPT-PAY-MO                          PPP020
083900                              RPT-PAY-DA                          PPP020
084000             ELSE                                                 PPP020
084100                 MOVE XDC3-ISO-YY TO RPT-PAY-YR                   PPP020
084200                 MOVE XDC3-ISO-MM TO RPT-PAY-MO                   PPP020
084300                 MOVE XDC3-ISO-DD TO RPT-PAY-DA                   PPP020
084400             END-IF                                               PPP020
084500             MOVE RPT-WARN-LINE-1 TO PRINT-DETAIL                 PPP020
084600             MOVE 4 TO NO-OF-LINES                                PPP020
084700             PERFORM PRINT-A-LINE-9100                            PPP020
084800*                                                                 PPP020
084900             MOVE SCR-CYCLES-PAID1 TO RPT-CYCLE-1                 PPP020
085000             MOVE SCR-CYCLES-PAID2 TO RPT-CYCLE-2                 PPP020
085100             MOVE SCR-CYCLES-PAID3 TO RPT-CYCLE-3                 PPP020
085200             MOVE SCR-CYCLES-PAID4 TO RPT-CYCLE-4                 PPP020
085300             MOVE RPT-WARN-LINE-2 TO PRINT-DETAIL                 PPP020
085400             PERFORM PRINT-A-LINE-9100                            PPP020
085500*                                                                 PPP020
085600             MOVE RPT-WARN-LINE-3 TO PRINT-DETAIL                 PPP020
085700             PERFORM PRINT-A-LINE-9100                            PPP020
085800*                                                                 PPP020
085900             MOVE RPT-WARN-LINE-4 TO PRINT-DETAIL                 PPP020
086000             PERFORM PRINT-A-LINE-9100                            PPP020
086100         END-IF                                                   PPP020
086200     END-IF.                                                      PPP020
086300*                                                                 PPP020
081400     EJECT                                                        PPP020
086500 PERFORMED-ROUTINES SECTION.                                      PPP020
086600*                                                                 PPP020
081900 ERROR-ROUTINE-9000.                                              PPP020
086800     CALL 'PPMSSG2' USING MESSAGE-TABLE-INTERFACE.                PPP020
086900     MOVE MSSG-PGM-NO TO RPT-PROG-NO.                             PPP020
087000     MOVE MSSG-DESIRED-NO TO RPT-ERR-NO.                          PPP020
087100     MOVE MSSG-SEV-TEXT TO RPT-MSSG-SEV.                          PPP020
087200     MOVE MSSG-TEXT TO RPT-MSSG-TEXT.                             PPP020
087300     MOVE RPT-ERROR-LINE TO FORMATTED-LINE.                       PPP020
087400     PERFORM PRINT-A-LINE-9100.                                   PPP020
087500     IF MSSG-HIGHEST-SEVERITY > CPWSSEVX-WARNING-SEV              PPP020
083200         GO TO ABNORMAL-EOJ-9900.                                 PPP020
087700*                                                                 PPP020
084000 PRINT-A-LINE-9100.                                               PPP020
084100     ADD NO-OF-LINES TO LINE-CNT.                                 PPP020
084200                                                                  PPP020
084300     IF LINE-CNT > 57                                             PPP020
088200         PERFORM STANDARD-HEADINGS-9200                           PPP020
088300         MOVE 2 TO NO-OF-LINES                                    PPP020
088400     END-IF.                                                      PPP020
088500*                                                                 PPP020
088600     MOVE FORMATTED-LINE TO PRINT-LN.                             PPP020
084900     WRITE PRINT-REC AFTER ADVANCING NO-OF-LINES.                 PPP020
088800     MOVE SPACES TO FORMATTED-LINE.                               PPP020
088900     MOVE 1 TO NO-OF-LINES.                                       PPP020
089000*                                                                 PPP020
085600 STANDARD-HEADINGS-9200.         COPY CPPDXP01.                   PPP020
089200*                                                                 PPP020
085800     MOVE SPACES TO PRINT-REC.                                    PPP020
089400*                                                                 PPP020
088300 READ-SPEC-INPUT-9600.                                            PPP020
088400     READ CARD-FILE                                               PPP020
089700         AT END MOVE 1 TO CARD-EOF-SWITCH.                        PPP020
089600                                                                  PPP020
089700 RETURN-CODE-9700.                                                PPP020
090000     COPY CPPDXP50.                                               PPP020
090100*                                                                 PPP020
090200 ABNORMAL-EOJ-9900.                                               PPP020
090300     MOVE A-STND-PROG-ID TO RPT-ERR-PGM.                          PPP020
090400     MOVE RPT-ABEND-LINE TO PRINT-DETAIL.                         PPP020
090500     PERFORM PRINT-A-LINE-9100.                                   PPP020
090600     PERFORM RETURN-CODE-9700.                                    PPP020
090800     MOVE MSSG-HIGHEST-SEVERITY TO RETURN-CODE.                   PPP020
090900     STOP RUN.                                                    PPP020
090900     EJECT                                                        PPP020
091100******************************************************************PPP020
091100*** SELECT SQL FOR SCR                                           *PPP020
091300******************************************************************PPP020
091300 SQL-SELECT-SCR-9920.                                             PPP020
091400     MOVE 'SELECT SCR' TO DB2MSG-TAG.                             PPP020
091700     EXEC SQL                                                     PPP020
091600         SELECT                                                   PPP020
091700              CHAR(SCR_PROCESS_DATE, ISO)                         PPP020
091800             ,SCR_NEXTCYCLE_MO                                    PPP020
091900             ,SCR_NEXTCYCLE_QTR                                   PPP020
092000             ,SCR_NEXTCYCLE_YR                                    PPP020
092100             ,SCR_NEXTCYCLE_FYR                                   PPP020
092200             ,SCR_LAST_PGM_RUN                                    PPP020
092300             ,SCR_INPUT_BYPASS                                    PPP020
092400             ,SCR_ACTVTY_GENNUM                                   PPP020
092500             ,SCR_EDB_GENNUM                                      PPP020
092600             ,CHAR(SCR_PAY_RAN_DATE, ISO)                         PPP020
092700             ,SCR_CYCLES_PAID1                                    PPP020
092800             ,SCR_CYCLES_PAID2                                    PPP020
092900             ,SCR_CYCLES_PAID3                                    PPP020
093000             ,SCR_CYCLES_PAID4                                    PPP020
093100             ,CHAR(SCR_PURGE_DATE, ISO)                           PPP020
093200             ,CHAR(SCR_CURRENT_DATE, ISO)                         PPP020
093300             ,SCR_SET_CNTRL_NUM                                   PPP020
093400             ,SCR_SPEC_PROCESS                                    PPP020
093500             ,SCR_ACAD_YEAR_IND                                   PPP020
093600         INTO                                                     PPP020
093700              :SCR-PROCESS-DATE                                   PPP020
093800             ,:SCR-NEXTCYCLE-MO                                   PPP020
093900             ,:SCR-NEXTCYCLE-QTR                                  PPP020
094000             ,:SCR-NEXTCYCLE-YR                                   PPP020
094100             ,:SCR-NEXTCYCLE-FYR                                  PPP020
094200             ,:SCR-LAST-PGM-RUN                                   PPP020
094300             ,:SCR-INPUT-BYPASS                                   PPP020
094400             ,:SCR-ACTVTY-GENNUM                                  PPP020
094500             ,:SCR-EDB-GENNUM                                     PPP020
094600             ,:SCR-PAY-RAN-DATE                                   PPP020
094700             ,:SCR-CYCLES-PAID1                                   PPP020
094800             ,:SCR-CYCLES-PAID2                                   PPP020
094900             ,:SCR-CYCLES-PAID3                                   PPP020
095000             ,:SCR-CYCLES-PAID4                                   PPP020
095100             ,:SCR-PURGE-DATE                                     PPP020
095200             ,:SCR-CURRENT-DATE                                   PPP020
095300             ,:SCR-SET-CNTRL-NUM                                  PPP020
095400             ,:SCR-SPEC-PROCESS                                   PPP020
095500             ,:SCR-ACAD-YEAR-IND                                  PPP020
095600         FROM PPPVZSCR_SCR                                        PPP020
092600     END-EXEC.                                                    PPP020
095800*                                                                 PPP020
093800***************************************************************** PPP020
093900*****     UPDATE       SCR TABLE                                * PPP020
094000***************************************************************** PPP020
096200 SQL-UPDATE-SCR-9940.                                             PPP020
094200     PERFORM SCR-DATE-CONVERSION-9950.                            PPP020
096400     MOVE 'UPDATE SCR' TO DB2MSG-TAG.                             PPP020
094400     EXEC SQL                                                     PPP020
096600       UPDATE PPPVZSCR_SCR                                        PPP020
094600       SET SCR_NEXTCYCLE_MO                                       PPP020
094700       =  :SCR-NEXTCYCLE-MO  ,                                    PPP020
094800           SCR_NEXTCYCLE_QTR                                      PPP020
094900       =  :SCR-NEXTCYCLE-QTR ,                                    PPP020
095000           SCR_NEXTCYCLE_YR                                       PPP020
095100       =  :SCR-NEXTCYCLE-YR  ,                                    PPP020
095200           SCR_NEXTCYCLE_FYR                                      PPP020
095300       =  :SCR-NEXTCYCLE-FYR ,                                    PPP020
095400           SCR_LAST_PGM_RUN                                       PPP020
095500       =  :SCR-LAST-PGM-RUN  ,                                    PPP020
095600           SCR_INPUT_BYPASS                                       PPP020
095700       =  :SCR-INPUT-BYPASS  ,                                    PPP020
095800           SCR_ACTVTY_GENNUM                                      PPP020
095900       =  :SCR-ACTVTY-GENNUM ,                                    PPP020
096200           SCR_CYCLES_PAID1                                       PPP020
096300       =  :SCR-CYCLES-PAID1  ,                                    PPP020
096400           SCR_CYCLES_PAID2                                       PPP020
096500       =  :SCR-CYCLES-PAID2  ,                                    PPP020
096600           SCR_CYCLES_PAID3                                       PPP020
096700       =  :SCR-CYCLES-PAID3  ,                                    PPP020
096800           SCR_CYCLES_PAID4                                       PPP020
096900       =  :SCR-CYCLES-PAID4  ,                                    PPP020
097000           SCR_PERIODIC_HRS                                       PPP020
097100       =  :SCR-PERIODIC-HRS  ,                                    PPP020
099100           SCR_SET_CNTRL_NUM                                      PPP020
099200       =  :SCR-SET-CNTRL-NUM ,                                    PPP020
099300           SCR_SPEC_PROCESS                                       PPP020
099400       =  :SCR-SPEC-PROCESS                                       PPP020
097600       WHERE SCR_KEY = :SCR-KEY                                   PPP020
097700     END-EXEC.                                                    PPP020
099700     SKIP3                                                        PPP020
099800 SCR-DATE-CONVERSION-9950.                                        PPP020
098100     MOVE 'UPDATE SCR_PROCESS_DATE' TO DB2MSG-TAG.                PPP020
098200     EXEC SQL                                                     PPP020
100100       UPDATE PPPVZSCR_SCR                                        PPP020
098400       SET SCR_PROCESS_DATE                                       PPP020
098500       = DATE (:SCR-PROCESS-DATE)                                 PPP020
098600       WHERE SCR_KEY = :SCR-KEY                                   PPP020
098700     END-EXEC.                                                    PPP020
098800     MOVE 'UPDATE SCR_PAY_RAN_DATE' TO DB2MSG-TAG.                PPP020
098900     EXEC SQL                                                     PPP020
100800       UPDATE PPPVZSCR_SCR                                        PPP020
099100       SET SCR_PAY_RAN_DATE                                       PPP020
099200       = DATE (:SCR-PAY-RAN-DATE)                                 PPP020
099300       WHERE SCR_KEY = :SCR-KEY                                   PPP020
099400     END-EXEC.                                                    PPP020
099500     MOVE 'UPDATE SCR_PURGE_DATE' TO DB2MSG-TAG.                  PPP020
099600     EXEC SQL                                                     PPP020
101500       UPDATE PPPVZSCR_SCR                                        PPP020
099800       SET SCR_PURGE_DATE                                         PPP020
099900       = DATE (:SCR-PURGE-DATE)                                   PPP020
100000       WHERE SCR_KEY = :SCR-KEY                                   PPP020
100100     END-EXEC.                                                    PPP020
100900 END-SCR-DATE-CONVERSION-9950.                                    PPP020
101000     EXIT.                                                        PPP020
102200     SKIP3                                                        PPP020
101100*999999-SQL-ERROR.                                               *PPP020
101200     EXEC SQL                                                     PPP020
101300          INCLUDE CPPDXP99                                        PPP020
101400     END-EXEC.                                                    PPP020
101500     MOVE DB2MSG-MESSNO TO MSSG-DESIRED.                          PPP020
101600     IF NOT HERE-BEFORE                                           PPP020
101700         SET HERE-BEFORE TO TRUE                                  PPP020
103000         PERFORM ERROR-ROUTINE-9000                               PPP020
101900     MOVE MSSG-HIGHEST-SEVERITY TO RETURN-CODE.                   PPP020
102000     STOP RUN.                                                    PPP020
102100     COPY CLPDP020.                                               UCSD0006
103300     EJECT                                                        PPP020
103400 DATE-CONVERSION-DB2 SECTION.    COPY CPPDXDC3.                   PPP020
