000100*==========================================================%      UCSDNNNN
000200*= UCSD LOCAL CHANGES HAVE BEEN IMPLEMENTED.              =%      UCSDNNNN
000300*= COLUMN 73 THRU 80 DENOTES CHANGE NUMBER - UCSDNNNN     =%      UCSDNNNN
000400*==========================================================%      UCSDNNNN
000800*==========================================================%      UCSD0102
000200*=    PROGRAM:  PPP040                                    =%      UCSD0102
000300*=    CHANGE #UCSD0102      PROJ. REQUEST: RELEASE 1138   =%      UCSD0102
000400*=    NAME: D. CHILCOAT     MODIFICATION DATE: 09/09/97   =%      UCSD0102
000500*=                                                        =%      UCSD0102
000600*=    DESCRIPTION                                         =%      UCSD0102
000700*=    CHANGES MADE TO ACCOMMODATE THE LOCAL COA           =%      UCSD0102
000800*=                                                        =%      UCSD0102
000900*=                                                        =%      UCSD0102
008000*==========================================================%      UCSD0102
000500*==========================================================%      UCSD0052
000600*=   PROGRAM: PPP040                                      =%      UCSD0052
000700*=   CHANGE: ___0052____  SERVICE REQUEST(S): ___DT-052___=%      UCSD0052
000800*=   NAME:   JIM PIERCE   MODIFICATION DATE:  __01/06/93__=%      UCSD0052
000900*=   DESCRIPTION:                                         =%      UCSD0052
001000*=   CHANGE VALUE OF CPWSSEVX-SEE-SYSTEM-SEV SEVERITY     =%      UCSD0052
001100*=   COMPARAND FROM 8 TO 9 TO AVOID ZEKE'S INTERPRETATION =%      UCSD0052
001200*=   OF PROGRAM RETURN-CODE = 8 AS 'OKAY' WHEN PRODUCTION =%      UCSD0052
001300*=   BATCH MAINTENANCE IS RUN (RE: RELEASE 825)           =%      UCSD0052
001400*==========================================================%      UCSD0052
000500*==========================================================%      UCSD0033
000600*=    PROGRAM: PPP040                                     =%      UCSD0033
000700*=    CHANGE # DT-033       PROJ. REQUEST: IFIS CONVERSION=%      UCSD0033
000800*=    NAME: JIM PIERCE      MODIFICATION DATE: 02/04/93   =%      UCSD0033
000900*=                                                        =%      UCSD0033
001000*=    DESCRIPTION                                         =%      UCSD0033
001100*=      PROGRAM MODIFIED TO ACCOMODATE INPUT TRANSACTIONS =%      UCSD0033
001200*=      IN CPWSXTWO EXPANDED FROM 102 TO 128 BYTES.       =%      UCSD0033
001300*=      SPECIFICALLY, ADDITIONAL TRANSACTION SPACE        =%      UCSD0033
001400*=      IS NEEDED FOR NEW ELEMENTS ADDED TO SUPPORT       =%      UCSD0033
001500*=      PAYROLL/IFIS CHART OF ACCOUNTS INTERFACE.         =%      UCSD0033
001600*==========================================================%      UCSD0033
000100**************************************************************/   36560949
000200*  PROGRAM: PPP040                                           */   36560949
000300*  RELEASE: ___0949______ SERVICE REQUEST(S): ____3656_____  */   36560949
000400*  NAME:_____JYL_________ MODIFICATION DATE:  ___12/14/94__  */   36560949
000500*  DESCRIPTION:                                              */   36560949
000600*  - ADDED GRADUATE STUDENT REPORTING FILE                   */   36560949
000700**************************************************************/   36560949
001700**************************************************************/   36460825
001800*  PROGRAM: PPP040                                           */   36460825
001900*  RELEASE: ___0825______ SERVICE REQUEST(S): ____3646_____  */   36460825
002000*  NAME:_____JLT_________ MODIFICATION DATE:  ___10/14/93__  */   36460825
002100*  DESCRIPTION:                                              */   36460825
002200*  - IMPLEMENT ENHANCED MESSAGE SEVERITIES.                  */   36460825
002300**************************************************************/   36460825
000100******************************************************************36410752
000200*  PROGRAM: PPP040                                               *36410752
000300*  RELEASE: ___0752______ SERVICE REQUEST(S): _____3641____      *36410752
000400*  REF. RELEASE: ____717___                                      *36410752
000500*  NAME:_H. TRUONG  _____ MODIFICATION DATE:  ___03/29/93__      *36410752
000600*  DESCRIPTION:                                                  *36410752
000700*  -  ERROR REPORT 947:                                          *36410752
000800*     CHANGED THE EMPLOYEE ID PRINT FORMAT ON REPORT PPP0402,    *36410752
000900*     REMOVING THE DASHES.                                       *36410752
001000*                                                                *36410752
001100*  -  ERROR REPORT 948:                                          *36410752
001200*     ADDED A BATCH CARD HEADER TO THE OUTPUT ACTIVITY FILE.     *36410752
001300*                                                                *36410752
001400*  -  ALTERED CODE TO ACCESS WHOLE TABLE VIEW (PPPVSCR1) INSTEAD *36410752
001500*     OF ACCESSING PROGRAM SPECIFIC VIEW (PPPV040A).             *36410752
001600*                                                                *36410752
001700*  -  REMOVED PREVIOUS COMMENTED-OUT LINE, REPLACED WITH "CD".   *36410752
001800*                                                                *36410752
001900******************************************************************36410752
001700**************************************************************/   36410745
001800*  PROGRAM: PPP040                                           */   36410745
001900*  RELEASE: 0745               SERVICE REQUEST(S): _3641___  */   36410745
002000*  NAME:_____JLT_________      MODIFICATION DATE: _03/01/93  */   36410745
002100*  DESCRIPTION:                                              */   36410745
002200*  - STOP PROCESSING ONCE SEE SYSTEM MSG IS ENCOUNTERED;     */   36410745
002300*    ERROR REPORT #878.                                      */   36410745
002400**************************************************************/   36410745
002500*----------------------------------------------------------------*36410717
002600*|**************************************************************|*36410717
002700*|* PROGRAM: PPP040                                            *|*36410717
002800*|*  RELEASE: __0717_______ SERVICE REQUEST(S): _____3641____  *|*36410717
002900*|*  NAME:______UCOP_______ MODIFICATION DATE:  ___11/19/92__  *|*36410717
003000*|*  DESCRIPTION:                                              *|*36410717
003100*|*  - EDB MAINTENANCE RE-ENGINEERING PROJECT                  *|*36410717
003200*|*  - NEW STAND-ALONE KEY CHANGE AND DELETION PROCESS         *|*36410717
003300*|**************************************************************|*36410717
003400*----------------------------------------------------------------*36410717
003500                                                                  PPP040
003600 IDENTIFICATION DIVISION.                                         PPP040
003700 PROGRAM-ID. PPP040.                                              PPP040
003800 AUTHOR. BUSINESS INFORMATION TECHNOLOGY.                         PPP040
003900 INSTALLATION. UNIVERSITY OF CALIFORNIA.                          PPP040
004000                                                                  PPP040
004100 DATE-WRITTEN.  JUNE 23, 1992.                                    PPP040
004200 DATE-COMPILED. XX/XX/XX.                                         PPP040
004300                                                                  PPP040
004400******************************************************************PPP040
004500**                                                              **PPP040
004600**   THIS PROGRAM IS DESIGNED TO PERFORM KEY CHANGES/DELETIONS  **PPP040
004700**   IT WILL READ IN TRANSACTIONS AND CALL THE SUBROUTINE       **PPP040
004800**       "PPKEYCHD"                                             **PPP040
004900**                                                              **PPP040
005000**   THE OUTPUT WILL BE REPORTS AND CHANGE FILE TRANSACTIONS    **PPP040
006800**                                                              **36560949
006900**   RECORDS WILL BE WRITTEN TO THE GRADUATE STUDENT FILE       **36560949
007000**   WHEN A KEYCHAGE IS PROCESSED FOR AN EMPLOYEE THAT IS       **36560949
007100**   A GRADUATE STUDENT.                                        **36560949
005100**                                                              **PPP040
005200******************************************************************PPP040
005300     EJECT                                                        PPP040
005400 ENVIRONMENT DIVISION.                                            PPP040
005500 CONFIGURATION SECTION.                                           PPP040
005600 SOURCE-COMPUTER.                                  COPY CPOTXUCS. PPP040
005700 OBJECT-COMPUTER.                                  COPY CPOTXOBJ. PPP040
005800 SPECIAL-NAMES.                C01 IS NEW-PAGE.                   PPP040
005900     EJECT                                                        PPP040
006000 INPUT-OUTPUT SECTION.                                            PPP040
006100 FILE-CONTROL.                                                    PPP040
006200     SELECT CARD-FILE                              COPY CPSLXCRD. PPP040
006300                                                                  PPP040
006400     SELECT PRINT-FILE-1       ASSIGN TO UT-S-PPP0401.            PPP040
006500                                                                  PPP040
006600     SELECT PRINT-FILE-2       ASSIGN TO UT-S-PPP0402.            PPP040
006700                                                                  PPP040
006800     SELECT CARD-FILE-OUT      ASSIGN TO UT-S-CARDOUT.            PPP040
006900                                                                  PPP040
007000     SELECT EDB-CHANGE-FILE                        COPY CPSLXCHG. PPP040
009200                                                                  36560949
009300     SELECT GRAD-STUDENT-FILE  ASSIGN TO UT-S-GRADREC.            36560949
007100                                                                  PPP040
007200 DATA DIVISION.                                                   PPP040
007300 FILE SECTION.                                                    PPP040
007400                                                                  PPP040
007500 FD  CARD-FILE                                     COPY CPFDXICD. UCSD0102
007600*FD  CARD-FILE                                     COPY CLFDXICD. UCSD0102
007700                                                                  PPP040
007800 01  FILE-MAINTENANCE-CARDS.                       COPY CPCDXFMC. PPP040
007900                                                                  PPP040
008000     EJECT                                                        PPP040
008100 FD  PRINT-FILE-1                                  COPY CPFDXPRT  PPP040
008200     REPLACING PRINT-REC BY PRINT-REC-1.                          PPP040
008300                                                                  PPP040
008400     EJECT                                                        PPP040
008500 FD  PRINT-FILE-2                                  COPY CPFDXPRT  PPP040
008600     REPLACING PRINT-REC BY PRINT-REC-2.                          PPP040
008700                                                                  PPP040
008800     EJECT                                                        PPP040
008900 FD  CARD-FILE-OUT                                 COPY CPFDXICD. UCSD0102
109000*FD  CARD-FILE-OUT                                 COPY CLFDXICD. UCSD0102
009100                                                                  PPP040
009200 01  CARD-RECORD-OUT                 PIC  X(102).                 UCSD0102
009300*01  CARD-RECORD-OUT                 PIC  X(128).                 UCSD0102
009400                                                                  PPP040
009500     EJECT                                                        PPP040
009600 FD  EDB-CHANGE-FILE                               COPY CPFDXCHG  PPP040
009700         REPLACING EDB-CHANGE-RECORD BY OCHG-EDB-CHANGE-RECORD.   PPP040
009800                                                                  PPP040
009900 01  OCHG-EDB-CHANGE-RECORD.                       COPY CPWSXCHG  PPP040
010000         REPLACING XCHG-FIXED-AREA     BY OCHG-FIXED-AREA         PPP040
010100                   XCHG-EMPLOYEE-ID    BY OCHG-EMPLOYEE-ID        PPP040
010200                   XCHG-DATA-ELEM-NO   BY OCHG-DATA-ELEM-NO       PPP040
010300                   XCHG-OCCURENCE-KEY  BY OCHG-OCCURENCE-KEY      PPP040
010400                   XCHG-PROCESS-ID     BY OCHG-PROCESS-ID         PPP040
010500                   XCHG-CHANGE-SOURCE  BY OCHG-CHANGE-SOURCE      PPP040
010600                   XCHG-TIMESTAMP      BY OCHG-TIMESTAMP          PPP040
010700                   XCHG-ODO-LENGTHS    BY OCHG-ODO-LENGTHS        PPP040
010800                   XCHG-OLD-VAL-LNGTH  BY OCHG-OLD-VAL-LNGTH      PPP040
010900                   XCHG-NEW-VAL1-LNGTH BY OCHG-NEW-VAL1-LNGTH     PPP040
011000                   XCHG-NEW-VAL2-LNGTH BY OCHG-NEW-VAL2-LNGTH     PPP040
011100                   XCHG-OLD-VALUE      BY OCHG-OLD-VALUE          PPP040
011200                   XCHG-OLD-VAL        BY OCHG-OLD-VAL            PPP040
011300                   XCHG-NEW-VALUE1     BY OCHG-NEW-VALUE1         PPP040
011400                   XCHG-NEW-VAL1       BY OCHG-NEW-VAL1           PPP040
011500                   XCHG-NEW-VALUE2     BY OCHG-NEW-VALUE2         PPP040
011600                   XCHG-NEW-VAL2       BY OCHG-NEW-VAL2.          PPP040
013700*                                                                 36560949
013800 FD  GRAD-STUDENT-FILE                            COPY CPFDGSRR.  36560949
011800*----------------------------------------------------------------*PPP040
011900 WORKING-STORAGE SECTION.                                         PPP040
012000*----------------------------------------------------------------*PPP040
012100 01  A-STND-PROG-ID            PIC X(15) VALUE                    PPP040
014300*****                                                          CD 36560949
014400*****'PPP040  /032993'.                                           36560949
014500     'PPP040  /121494'.                                           36560949
012300                                                                  PPP040
012400 01  A-STND-MSG-PARMS          REDEFINES                          PPP040
012500     A-STND-PROG-ID.                                              PPP040
012600     05  FILLER                PIC X(02).                         PPP040
012700     05  WS-ROUTINE-TYPE       PIC X(01).                         PPP040
012800     05  WS-ROUTINE-NUM        PIC 9(03).                         PPP040
012900     05  FILLER                PIC X(09).                         PPP040
013000                                                                  PPP040
013100     EJECT                                                        PPP040
013200 01  MISC-WORK.                                                   PPP040
013300     05  I                     PIC S9(04) COMP VALUE +0.          PPP040
015700     05  ASUB                  PIC S9(3)  COMP VALUE +0.          36560949
015800     05  DSUB                  PIC S9(3)  COMP VALUE +0.          36560949
015900     05  LAST-DIST             PIC S9(3)  COMP VALUE +0.          36560949
013400     05  SCR-ROW-OPEN-SW       PIC  X(01)      VALUE SPACE.       PPP040
013500         88 SCR-ROW-OPEN                       VALUE 'Y'.         PPP040
013600     05  WS-SCR-SQLCODE        PIC S9(09) COMP.                   PPP040
013700     05  WS-EMPLOYEE-ID        PIC X(9)        VALUE ZEROS.       PPP040
016400     05  WS-USA-ZERO-DATE      PIC X(10) VALUE '01/01/0001'.      36560949
013800     05  CHANGE-COMMENT        PIC X(40)       VALUE              PPP040
013900         'EMPLOYEE ID KEYS CHANGED'.                              PPP040
014000     05  DELETE-COMMENT        PIC X(40)       VALUE              PPP040
014100         'EMPLOYEE ID RECS DELETED'.                              PPP040
016900                                                                  PPP040
014300     05  ABORT-SW              PIC 9           VALUE ZERO.        PPP040
014400     05  HERE-BEFORE-PPMSGUTL-SW  PIC 9        VALUE ZERO.        36410745
014500     05  HERE-BEFORE-ROLLBACK-SW  PIC 9        VALUE ZERO.        36410745
014600     05  EDB-PROCESS-DATE      PIC X(6)        VALUE SPACES.      PPP040
014700     05  PRT-SQL-DESCRIP.                                         PPP040
014800         10  PRT-SQL-DESC1     PIC X(21)       VALUE SPACES.      PPP040
014900         10  PRT-SQL-DESC2     PIC 9(9)-       VALUE ZEROS.       PPP040
015000         10  PRT-SQL-DESC3     PIC X(31)       VALUE SPACES.      PPP040
015100                                                                  PPP040
015200 01  SWITCHES-AREA.                                               PPP040
015300     05  INPUT-EOF-SW          PIC X(01)       VALUE SPACES.      PPP040
015400         88  INPUT-EOF                         VALUE 'Y'.         PPP040
015410     05  CHANGE-REC-SW         PIC X           VALUE 'Y'.         36410752
015420         88  FIRST-TIME-CHD-REC                VALUE 'Y'.         36410752
015430         88  NOT-FIRST-TIME-CHD-REC            VALUE 'N'.         36410752
018500     05  DIST-MATCH-FLAG            PIC X(1).                     36560949
018600         88 DIST-PROCESSED                          VALUE 'Y'.    36560949
018700         88 NO-DIST-MATCH                           VALUE 'N'.    36560949
015500                                                                  PPP040
015600 01  COUNTERS-AREA.                                               PPP040
015700     05  CA-TOTAL-CTR            PIC 9(05) VALUE 0.               PPP040
015800     05  CA-ACCEPT-CTR           PIC 9(05) VALUE 0.               PPP040
015900     05  CA-REJECT-CTR           PIC 9(05) VALUE 0.               PPP040
016000     05  CA-DELETE-CTR           PIC 9(05) VALUE 0.               PPP040
016100     05  CA-CHANGE-CTR           PIC 9(05) VALUE 0.               PPP040
016200     05  CA-X2-CTR               PIC 9(05) VALUE 0.               PPP040
016300     05  CA-CHG-CTR              PIC 9(05) VALUE 0.               PPP040
016400     05  LINE-CTR-1              PIC 9(02) VALUE 60.              PPP040
016500     05  LINE-CTR-2              PIC 9(02) VALUE 60.              PPP040
016600     05  PAGE-CTR-1              PIC 9(05) VALUE 0.               PPP040
016700     05  PAGE-CTR-2              PIC 9(05) VALUE 0.               PPP040
020100     05  TOT-GRAD-REC-OUT        PIC S9(6) VALUE 0.               36560949
016800                                                                  PPP040
020300******                                                         CD 36560949
017300                                                                  PPP040
018100     EJECT                                                        PPP040
018200 01  XSCR-SYSTEM-CONTROL-RECORD.                   COPY CPWSXSCR. PPP040
018300                                                                  PPP040
018400     EJECT                                                        PPP040
018500 01  CONTROL-FILE-KEYS.                            COPY CPWSXCFK. PPP040
018600                                                                  PPP040
018700     EJECT                                                        PPP040
018800 01  DATE-CONVERSION-WORK-AREAS.                   COPY CPWSXDC2. PPP040
018900                                                                  PPP040
019000     EJECT                                                        PPP040
019100 01  XWHC-COMPILE-WORK-AREA.                       COPY CPWSXWHC. PPP040
019200                                                                  PPP040
019300     EJECT                                                        PPP040
019400 01  XMDY-DATE-WORK-AREA.                          COPY CPWSXMDY. PPP040
019500                                                                  PPP040
019600     EJECT                                                        PPP040
019700 01  TIME-WORK-AREA.                               COPY CPWSTIME. PPP040
019800                                                                  PPP040
019900     EJECT                                                        PPP040
020000 01  DATE-FORMAT.                                  COPY CPWSDATE. PPP040
020100                                                                  PPP040
020200     EJECT                                                        PPP040
020300 01  MSSG-INTERFACE.                               COPY CPWSXMIF. PPP040
020400                                                                  PPP040
020500     EJECT                                                        PPP040
020600 01  PPDB2MSG-INTERFACE.                           COPY CPLNKDB2. PPP040
020700                                                                  PPP040
020800     EJECT                                                        36410745
020900 01  INSTALLATION-DEPENDT-CONSTANTS.               COPY CPWSXIDC. 36410745
021000                                                                  36410745
023500     EJECT                                                        36560949
023600 01  CPWSWORK                         EXTERNAL.    COPY CPWSWORK. 36560949
023700     EJECT                                                        36560949
023800 01  GRADUATE-STUDENT-RECORD.                      COPY CPWSGSRR. 36560949
023900     EJECT                                                        36560949
024000 01  GRADUATE-STUDENT-RECORDS         EXTERNAL.    COPY CPWSGSRX. 36560949
021100     EJECT                                                        PPP040
021200******************************************************************PPP040
021300**  THE XCHD AREA IS A COMMON AREA THAT IS USED TO PASS         **PPP040
021400**  INFORMATION THAT IS REQUIRED FOR THIS MODULE TO EXECUTE     **PPP040
021500******************************************************************PPP040
021600                                                                  PPP040
021700 01  KCHD-LINKAGE-SECTION.                         COPY CPLNKCHD. PPP040
021800                                                                  PPP040
021900     EJECT                                                        PPP040
022000******************************************************************PPP040
022100**    THIS EMPLOYEE CHANGE FILE RECORD IS USED TO ALLOW ALL     **PPP040
022200**        PROCESSES THAT CALL THIS ROUTINE TO AUDIT THE PROCESS **PPP040
022300******************************************************************PPP040
022400                                                                  PPP040
022500 01  XCHG-EDB-CHANGE-RECORD.                       COPY CPWSXCHG. PPP040
022600                                                                  PPP040
022700     EJECT                                                        PPP040
022800******************************************************************PPP040
022900** THIS X2 RECORD IS USED TO UPDATE THE EMPLOYEE'S RECORDS IN   **PPP040
023000**      SUBSEQUENT PROCESSES                                    **PPP040
023100******************************************************************PPP040
023200                                                                  PPP040
023300 01  X2-RECORD.                                    COPY CPWSXTWO. PPP040
023400                                                                  PPP040
023500     EJECT                                                        PPP040
023600 01  KMTA-MESSAGE-TABLE-ARRAY.                     COPY CPLNKMTA. PPP040
023700                                                                  PPP040
023800     EJECT                                                        PPP040
023900******************************************************************PPP040
024000**    THE FOLLOWING IS THE REPORT HEADINGS FOR PPP0411/PPP0490  **PPP040
024100******************************************************************PPP040
024200                                                                  PPP040
024300 01  STND-RPT-HD1.                                 COPY CPWSXSHR. PPP040
024400                                                                  PPP040
024410* * * * * * * * * * * * * * * * * * * * * * * * * * * * * * * * **36410752
024420*                   BATCH CARD HEADER                            *36410752
024430* * * * * * * * * * * * * * * * * * * * * * * * * * * * * * * * **36410752
024440                                                                  36410752
024450 01  BATCH-CARD.                                                  36410752
024460     05  FILLER                  PIC X(5)    VALUE 'BATCH'.       36410752
024470     05  BATCH-LOC               PIC 9(2).                        36410752
024480     05  FILLER-BATCH-NUM        PIC X(3)    VALUE '040'.         36410752
024490     05  SCHED-NO-MO             PIC X(2).                        36410752
024491     05  SCHED-NO-YR             PIC X.                           36410752
024492     05  BATCH-ORIGIN            PIC X(3)    VALUE 'KEY'.         36410752
024493     05  DATE-PREPARED           PIC 9(6).                        36410752
024494     05  FILLER                  PIC X(24)   VALUE ALL '0'.       36410752
024495     05  FILLER                  PIC X(30)   VALUE SPACES.        36410752
024496     05  FILLER                  PIC X(4)    VALUE 'CONV'.        36410752
024497     05  FILLER-OP               PIC X(2)    VALUE SPACES.        36410752
024498     05  FILLER-WOS              PIC X(20)   VALUE SPACES.        36410752
024499                                                                  36410752
024500     EJECT                                                        36410752
024500******************************************************************PPP040
024600**  THESE ARE THE SPECIFIC HEADINGS FOR PPP0490                 **PPP040
024700**           --  RUN STATS                                      **PPP040
024800******************************************************************PPP040
024900                                                                  PPP040
025000 01  LINE-01-1.                                                   PPP040
025100     05  CARRIAGE-CTL-CHAR       PIC X(01).                       PPP040
025200     05  FILLER                  PIC X(43) VALUE SPACES.          PPP040
030200*****                                                          CD 36560949
025310     05  L01-TEXT                PIC X(50).                       36410752
025400     05  FILLER                  PIC X(02) VALUE SPACES.          PPP040
025500     05  L01-CTR                 PIC ZZ,ZZ9.                      PPP040
030600*****                                                          CD 36560949
025610     05  FILLER                  PIC X(31) VALUE SPACES.          36410752
025700                                                                  PPP040
025800******************************************************************PPP040
025900**  THESE ARE THE SPECIFIC HEADINGS FOR PPP0411                 **PPP040
026000**           -- CONFIRM SUMMARY                                 **PPP040
026100******************************************************************PPP040
026200                                                                  PPP040
026300 01  HEAD-02-1.                                                   PPP040
026400     05  CARRIAGE-CTL-CHAR       PIC X(01).                       PPP040
026500     05  FILLER                  PIC X(11)  VALUE 'PAY PERIOD '.  PPP040
026600     05  FILLER                  PIC X(02)  VALUE SPACES.         PPP040
026700     05  FILLER                  PIC X(10)  VALUE 'REQUESTING'.   PPP040
026800     05  FILLER                  PIC X(02)  VALUE SPACES.         PPP040
026900     05  FILLER                  PIC X(14)  VALUE                 PPP040
027000         'IDENTIFICATION'.                                        PPP040
027100     05  FILLER                  PIC X(02)  VALUE SPACES.         PPP040
027200     05  FILLER                  PIC X(14)  VALUE                 PPP040
027300         'IDENTIFICATION'.                                        PPP040
027400     05  FILLER                  PIC X(02)  VALUE SPACES.         PPP040
027500     05  FILLER                  PIC X(40)  VALUE SPACES.         PPP040
027600     05  FILLER                  PIC X(02)  VALUE SPACES.         PPP040
027700                                                                  PPP040
027800 01  HEAD-02-2.                                                   PPP040
027900     05  CARRIAGE-CTL-CHAR       PIC X(01).                       PPP040
028000     05  FILLER                  PIC X(11)  VALUE 'ACTION DATE'.  PPP040
028100     05  FILLER                  PIC X(02)  VALUE SPACES.         PPP040
028200     05  FILLER                  PIC X(10)  VALUE '  ACTION  '.   PPP040
028300     05  FILLER                  PIC X(02)  VALUE SPACES.         PPP040
028400     05  FILLER                  PIC X(14)  VALUE                 PPP040
028500         'NUMBER (PRIOR)'.                                        PPP040
028600     05  FILLER                  PIC X(02)  VALUE SPACES.         PPP040
028700     05  FILLER                  PIC X(14)  VALUE                 PPP040
028800         ' NUMBER (NEW) '.                                        PPP040
028900     05  FILLER                  PIC X(02)  VALUE SPACES.         PPP040
029000     05  FILLER                  PIC X(40)  VALUE                 PPP040
029100         'ERROR CONDITION AND/OR ACTION TAKEN     '.              PPP040
029200     05  FILLER                  PIC X(02)  VALUE SPACES.         PPP040
029300                                                                  PPP040
029400 01  HEAD-02-3.                                                   PPP040
029500     05  CARRIAGE-CTL-CHAR       PIC X(01).                       PPP040
029600     05  FILLER                  PIC X(11)  VALUE ALL '-'.        PPP040
029700     05  FILLER                  PIC X(02)  VALUE SPACES.         PPP040
029800     05  FILLER                  PIC X(10)  VALUE ALL '-'.        PPP040
029900     05  FILLER                  PIC X(02)  VALUE SPACES.         PPP040
030000     05  FILLER                  PIC X(14)  VALUE ALL '-'.        PPP040
030100     05  FILLER                  PIC X(02)  VALUE SPACES.         PPP040
030200     05  FILLER                  PIC X(14)  VALUE ALL '-'.        PPP040
030300     05  FILLER                  PIC X(02)  VALUE SPACES.         PPP040
030400     05  FILLER                  PIC X(40)  VALUE ALL '-'.        PPP040
030500     05  FILLER                  PIC X(02)  VALUE SPACES.         PPP040
030600                                                                  PPP040
030700 01  LINE-02-1.                                                   PPP040
030800     05  CARRIAGE-CTL-CHAR       PIC X(01).                       PPP040
030900     05  FILLER                  PIC X(01)  VALUE SPACES.         PPP040
031000     05  L02-EFF-DATE            PIC X(08).                       PPP040
031100     05  FILLER                  PIC X(06)  VALUE SPACES.         PPP040
031200     05  L02-CHANGE-DELETE       PIC X(06).                       PPP040
036400*****                                                          CD 36560949
031710     05  FILLER                  PIC X(06)  VALUE SPACES.         36410752
031720     05  L02-FROM-ID-NUMBER      PIC X(9).                        36410752
031730     05  FILLER                  PIC X(07)  VALUE SPACES.         36410752
031740     05  L02-TO-ID-NUMBER        PIC X(9).                        36410752
031750     05  FILLER                  PIC X(05)  VALUE SPACES.         36410752
031800     05  L02-COMMENTS            PIC X(40).                       PPP040
031900     05  FILLER                  PIC X(02)  VALUE SPACES.         PPP040
032000                                                                  PPP040
032100 01  LINE-02-2.                                                   PPP040
032200     05  CARRIAGE-CTL-CHAR       PIC X(01).                       PPP040
032300     05  L02-TEXT                PIC X(38)  VALUE SPACES.         PPP040
032400     05  FILLER                  PIC X(02)  VALUE SPACES.         PPP040
032500     05  L02-CTR                 PIC ZZ,ZZ9.                      PPP040
038200*                                                                 36460825
038300 01  CPWSSEVX                            EXTERNAL. COPY CPWSSEVX. 36460825
038400*                                                                 36460825
032600                                                                  PPP040
032700 01  MESSAGES-USED.                                               PPP040
032800     05  M04001                  PIC X(05)  VALUE '04001'.        PPP040
032900     05  M04002                  PIC X(05)  VALUE '04002'.        PPP040
033000     05  M04101                  PIC X(05)  VALUE '04101'.        PPP040
033010     05  M04102                  PIC X(5)   VALUE '04102'.        36410752
033100                                                                  PPP040
033200     EJECT                                                        PPP040
033300******************************************************************PPP040
033400**         SQL - WORKING STORAGE                                **PPP040
033500******************************************************************PPP040
033600                                                                  PPP040
033700 01  SCR-ROW-DATA                          EXTERNAL.              PPP040
033800                                                                  PPP040
033900     EXEC SQL                                                     PPP040
039600*****                                                          CD 36560949
034010          INCLUDE PPPVSCR1                                        36410752
034100     END-EXEC.                                                    PPP040
034200                                                                  PPP040
034210 01  CCR-ROW-DATA.                                                36410752
034220                                                                  36410752
034221     EXEC SQL                                                     36410752
034230          INCLUDE PPPVZCCR                                        36410752
034231     END-EXEC.                                                    36410752
034240                                                                  36410752
034300     EXEC SQL                                                     PPP040
034400          INCLUDE SQLCA                                           PPP040
034500     END-EXEC.                                                    PPP040
034600                                                                  PPP040
034700******************************************************************PPP040
034800**       SQL SELECTS                                            **PPP040
034900**                                                              **PPP040
035000** THE VIEWS USED IN THIS PROGRAM ARE:                          **PPP040
035100**                                                              **PPP040
035200**    VIEW              VIEW DDL AND DCL INCLUDE                **PPP040
035300**                       MEMBER NAMES                           **PPP040
035400**                                                              **PPP040
035500**  PPPVSCR1_SCR          PPPVSCR1                              **36410752
035510**  PPPVZCCR_CCR          PPPVZCCR                              **36410752
035600**                                                              **PPP040
035700******************************************************************PPP040
035800                                                                  PPP040
035900     EXEC SQL                                                     PPP040
036000          DECLARE SCR_ROW CURSOR FOR                              PPP040
042500*****                                                          CD 36560949
036110              SELECT SCR_PROCESS_DATE, SCR_NEXTCYCLE_MO,          36410752
036120                     SCR_NEXTCYCLE_QTR, SCR_NEXTCYCLE_YR,         36410752
036130                     SCR_NEXTCYCLE_FYR, SCR_EDB_GENNUM,           36410752
036140                     SCR_PURGE_DATE, SCR_CURRENT_DATE             36410752
036150              FROM PPPVSCR1_SCR                                   36410752
036200     END-EXEC.                                                    PPP040
036300                                                                  PPP040
036400     EJECT                                                        PPP040
036500*----------------------------------------------------------------*PPP040
036600 PROCEDURE DIVISION.                                              PPP040
036700*----------------------------------------------------------------*PPP040
036800                                                                  PPP040
036900     EXEC SQL                                                     PPP040
037000          INCLUDE CPPDXE99                                        PPP040
037100     END-EXEC.                                                    PPP040
037200                                                                  PPP040
037300*----------------------------------------------------------------*PPP040
037400 0000-DRIVER    SECTION.                                          PPP040
037500*----------------------------------------------------------------*PPP040
037600                                                                  PPP040
037700     PERFORM 0100-INITIALIZE.                                     PPP040
037800                                                                  PPP040
037900******************************************************************PPP040
038000**   PERFORM THE MAIN ROUTINE NOW - AFTER WHICH WE WILL         **PPP040
038100**   CLOSE FILES AND STOP THE PROCESS                           **PPP040
038200******************************************************************PPP040
038300                                                                  PPP040
038400     IF ABORT-SW   = ZERO                                         PPP040
038500         PERFORM 1000-MAINLINE-ROUTINE  UNTIL INPUT-EOF           PPP040
038600                                           OR ABORT-SW NOT = ZERO 36410745
038700     END-IF.                                                      PPP040
038800                                                                  PPP040
038900 0000-END-OF-RUN.                                                 36410745
039000                                                                  36410745
039100******************************************************************PPP040
039200**   TERMINATION ROUTINE WILL FINISH UP THE PROCESS             **PPP040
039300******************************************************************PPP040
039400                                                                  PPP040
039500     PERFORM 9990-TERMINATION-ROUTINE.                            PPP040
039600     IF ABORT-SW  NOT = ZERO  AND                                 36410745
039700        HERE-BEFORE-ROLLBACK-SW  = ZERO                           36410745
039800         MOVE 1  TO HERE-BEFORE-ROLLBACK-SW                       36410745
039900         PERFORM 9980-HALT-JOB-ROLLBACK                           36410745
040000     END-IF.                                                      36410745
040100                                                                  PPP040
040200******************************************************************PPP040
040300**   CHECK THE RETURN CODE PRIOR TO EXITING                     **PPP040
040400******************************************************************PPP040
040500                                                                  PPP040
040600*                                                 *-------------* PPP040
040700                                                   COPY CPPDXP40. PPP040
040800*                                                 *-------------* PPP040
040900                                                                  PPP040
041000     STOP RUN.                                                    PPP040
041100                                                                  PPP040
041200                                                                  PPP040
041300     EJECT                                                        PPP040
041400*----------------------------------------------------------------*PPP040
041500 0100-INITIALIZE    SECTION.                                      PPP040
041600*----------------------------------------------------------------*PPP040
041700                                                                  PPP040
041800******************************************************************PPP040
041900**   GET THE CURRENT DATE                                       **PPP040
042000******************************************************************PPP040
042100                                                                  PPP040
042200*                                                 *-------------* PPP040
042300                                                   COPY CPPDDATE. PPP040
042400*                                                 *-------------* PPP040
042500                                                                  PPP040
042600     MOVE A-STND-PROG-ID       TO XWHC-DISPLAY-MODULE.            PPP040
042700                                                                  PPP040
042800*                                                 *-------------* PPP040
042900                                                   COPY CPPDXWHC. PPP040
043000*                                                 *-------------* PPP040
043100                                                                  PPP040
050500******************************************************************36460825
050600**  SEVERITY COMPARANDS                                         **36460825
050700******************************************************************36460825
050800     MOVE 1 TO CPWSSEVX-INFORMATIONAL-SEV.                        36460825
050900     MOVE 4 TO CPWSSEVX-WARNING-SEV.                              36460825
051000     MOVE 5 TO CPWSSEVX-SERIOUS-SEV.                              36460825
051100     MOVE 7 TO CPWSSEVX-SEV-FATAL.                                36460825
052200***  MOVE 8 TO CPWSSEVX-SEE-SYSTEM-SEV.                           UCSD0052
052300     MOVE 9 TO CPWSSEVX-SEE-SYSTEM-SEV.                           UCSD0052
043200******************************************************************PPP040
043300**   SET UP THE PPMSGUTL INTERFACE                              **PPP040
043400******************************************************************PPP040
043500                                                                  PPP040
043600     MOVE SPACES               TO MSSG-INTERFACE.                 PPP040
043700     MOVE A-STND-PROG-ID       TO XMSG-PROG-ID.                   PPP040
043800     MOVE 'PPP0403'            TO XMSG-RPT-ID.                    PPP040
043900     MOVE ZEROS                TO XMSG-NUMBER,                    PPP040
044000                                  XMSG-SEVERITY,                  PPP040
044100                                  XMSG-HIGHEST-SEVERITY.          PPP040
044200     MOVE 'D'                  TO XMSG-REFERENCE.                 PPP040
044300                                                                  PPP040
044400     MOVE '         REJECTED TRANSACTIONS' TO XMSG-RPT-TTL.       PPP040
044500                                                                  PPP040
044600******************************************************************PPP040
044700**   SET UP SOME CONSTANTS ON THE OTHER REPORTS NOW             **PPP040
044800******************************************************************PPP040
044900                                                                  PPP040
045000     MOVE A-STND-PROG-ID       TO STND-PROG-ID.                   PPP040
045100                                                                  PPP040
045200     MOVE 'EDB KEY CHANGES AND DELETIONS' TO STND-FUNC-AREA.      PPP040
045300                                                                  PPP040
045400     MOVE GREGORIAN-DATE        TO STND-RPT-DATE.                 PPP040
045500                                                                  PPP040
045600******************************************************************PPP040
045700**   OPEN THE INPUT/OUTPUT FILES NOW                            **PPP040
045800******************************************************************PPP040
045900                                                                  PPP040
046000     OPEN INPUT  CARD-FILE,                                       PPP040
046100          OUTPUT PRINT-FILE-1,                                    PPP040
046200                 PRINT-FILE-2,                                    PPP040
046300                 CARD-FILE-OUT,                                   PPP040
054100                 GRAD-STUDENT-FILE,                               36560949
046400                 EDB-CHANGE-FILE.                                 PPP040
046500                                                                  PPP040
046600     MOVE A-STND-PROG-ID  TO DB2MSG-PGM-ID.                       PPP040
046700     PERFORM 9510-SQL-OPEN-SCR.                                   PPP040
046800     PERFORM 9515-READ-SCR.                                       PPP040
046900                                                                  PPP040
047000     MOVE SCR-PROCESS-DATE TO DB2-DATE.                           PPP040
047100     PERFORM CONVERT-DB2-DATE                                     PPP040
047200     MOVE WSX-STD-DATE      TO EDB-PROCESS-DATE.                  PPP040
047300                                                                  PPP040
047400******************************************************************PPP040
047500**  WRITE HEADER SCR RECORD TO OUTPUT CHANGE FILE               **PPP040
047600******************************************************************PPP040
047700                                                                  PPP040
047800     INITIALIZE                       XSCR-SYSTEM-CONTROL-RECORD. PPP040
047900     MOVE XCFK-SCR                 TO XSCR-KEY-AREA.              PPP040
048000     MOVE EDB-PROCESS-DATE         TO XSCR-PROCESS-DATE.          PPP040
048100     MOVE SCR-NEXTCYCLE-MO         TO XSCR-NEXT-MONTH.            PPP040
048200     MOVE SCR-NEXTCYCLE-QTR        TO XSCR-NEXT-QTR.              PPP040
048300     MOVE SCR-NEXTCYCLE-YR         TO XSCR-NEXT-YEAR.             PPP040
048400     MOVE SCR-NEXTCYCLE-FYR        TO XSCR-NEXT-FY.               PPP040
048500     MOVE '04'                     TO XSCR-LAST-PGM-RUN.          PPP040
048600     MOVE SCR-EDB-GENNUM           TO XSCR-EDB-GEN-NO.            PPP040
048700     MOVE SCR-PURGE-DATE    TO DB2-DATE.                          PPP040
048800     PERFORM CONVERT-DB2-DATE                                     PPP040
048900     MOVE WSX-STD-DATE             TO XSCR-PURGE-DATE.            PPP040
049000     MOVE SCR-CURRENT-DATE  TO DB2-DATE.                          PPP040
049100     PERFORM CONVERT-DB2-DATE                                     PPP040
049200     MOVE WSX-STD-DATE             TO XSCR-CURRENT-DATE.          PPP040
049300                                                                  PPP040
049400     MOVE LOW-VALUES           TO XCHG-ODO-LENGTHS.               PPP040
049500     MOVE XSCR-SYSTEM-CONTROL-RECORD  TO XCHG-EDB-CHANGE-RECORD.  PPP040
049600     MOVE LOW-VALUES           TO XCHG-ODO-LENGTHS.               PPP040
049700     WRITE OCHG-EDB-CHANGE-RECORD FROM XCHG-EDB-CHANGE-RECORD     PPP040
049800     ADD 1           TO CA-CHG-CTR                                PPP040
049900                                                                  PPP040
050000     PERFORM 9530-SQL-CLOSE-SCR.                                  PPP040
050100                                                                  PPP040
050200     EJECT                                                        PPP040
050300*----------------------------------------------------------------*PPP040
050400 1000-MAINLINE-ROUTINE    SECTION.                                PPP040
050500*----------------------------------------------------------------*PPP040
050600                                                                  PPP040
050700     READ CARD-FILE                                               PPP040
050800         AT END                                                   PPP040
050900             SET INPUT-EOF TO TRUE,                               PPP040
051000             GO TO 1000-MAINLINE-ROUTINE-EXIT                     PPP040
051100     END-READ.                                                    PPP040
051200                                                                  PPP040
051300******************************************************************PPP040
051400**   SMALL EDITS PERFORMED HERE                                 **PPP040
051500******************************************************************PPP040
051600                                                                  PPP040
051700     ADD 1                     TO CA-TOTAL-CTR.                   PPP040
051800                                                                  PPP040
051900     IF FMCRD-CARD-CODE NOT = 'AA'                                PPP040
052000         MOVE M04001           TO XMSG-NUMBER,                    PPP040
052100         MOVE FILE-MAINTENANCE-CARDS TO XMSG-DATA,                PPP040
052200         PERFORM 8000-CALL-PPMSGUTL,                              PPP040
052300         ADD 1                 TO CA-REJECT-CTR,                  PPP040
052400         GO TO 1000-MAINLINE-ROUTINE-EXIT                         PPP040
052500     END-IF.                                                      PPP040
052600                                                                  PPP040
052700     IF FMCRD-ACTN-TYPE  NOT = 'C'  AND                           PPP040
052800        FMCRD-ACTN-TYPE  NOT = 'D'                                PPP040
052900         MOVE M04002           TO XMSG-NUMBER,                    PPP040
053000         MOVE FILE-MAINTENANCE-CARDS TO XMSG-DATA,                PPP040
053100         PERFORM 8000-CALL-PPMSGUTL,                              PPP040
053200         ADD 1                 TO CA-REJECT-CTR,                  PPP040
053300         GO TO 1000-MAINLINE-ROUTINE-EXIT                         PPP040
053400     END-IF.                                                      PPP040
053500                                                                  PPP040
053600******************************************************************PPP040
053700**   FORMAT THE CALL FOR PPKEYCHD                               **PPP040
053800******************************************************************PPP040
053900                                                                  PPP040
054000     MOVE 'BA'                  TO KCHD-REQUESTING-PROCESS.       PPP040
054100     MOVE FMCRD-ACTN-TYPE       TO KCHD-ACTION.                   PPP040
054200     MOVE FMCRD-SS-NO           TO KCHD-FROM-ID-NUMBER.           PPP040
054300     MOVE FMCAA-NEW-SS-NO       TO KCHD-TO-ID-NUMBER.             PPP040
054400     MOVE FMCAA-NAME            TO KCHD-NEW-NAME.                 PPP040
054500     MOVE FMCRD-EFFECT-DATE     TO KCHD-EFF-DATE.                 PPP040
054600     PERFORM 8800-CALL-PPKEYCHD.                                  PPP040
054700                                                                  PPP040
054800     IF KMTA-CTR > +0                                             PPP040
054900         ADD 1                 TO CA-REJECT-CTR,                  PPP040
055000         PERFORM 1100-PRINT-ERRORS                                PPP040
055100             VARYING I FROM 1 BY 1 UNTIL I > KMTA-CTR             PPP040
055200         GO TO 1000-MAINLINE-ROUTINE-EXIT                         PPP040
055300     END-IF.                                                      PPP040
055400                                                                  PPP040
055500******************************************************************PPP040
055600**  LET'S ADD INTO THE CHANGE/DELETE TOTAL COUNTERS             **PPP040
055700**      .. EVERYTHING WAS ACCEPTED BY THIS TIME                 **PPP040
055800******************************************************************PPP040
055900                                                                  PPP040
056000     ADD 1                     TO CA-ACCEPT-CTR.                  PPP040
056100     IF KCHD-CHANGE                                               PPP040
056200         ADD 1                 TO CA-CHANGE-CTR                   PPP040
056300     ELSE                                                         PPP040
056400         ADD 1                 TO CA-DELETE-CTR                   PPP040
056500     END-IF.                                                      PPP040
056600                                                                  PPP040
056700******************************************************************PPP040
056800**  LET'S PERFORM A ROUTINE NOW THAT WILL WRITE OUT THE RECORDS **PPP040
056900**        THAT WERE SENT BACK FROM PPKEYCHD AND PRODUCE THE     **PPP040
057000**        CONFIRMATION SUMMARY ALSO                             **PPP040
057100******************************************************************PPP040
057200                                                                  PPP040
057300     PERFORM 2100-WRITE-CONF-SUMM.                                PPP040
057400     PERFORM 1200-WRITE-NEW-FILES.                                PPP040
057500                                                                  PPP040
065400     IF CPWSWORK-GRAD-STUDENT                                     36560949
065500         PERFORM 1400-PROCESS-GRAD-RECORDS                        36560949
065600     END-IF.                                                      36560949
065700     MOVE SPACES TO CPWSWORK-GRAD-STUDENT-FLAG.                   36560949
065800*                                                                 36560949
057600     IF      KCHD-CHANGE                                          PPP040
057700         AND FMCAA-NAME  NOT = SPACES                             PPP040
057800         MOVE '1'      TO KCHD-ACTION                             PPP040
057900         PERFORM 8800-CALL-PPKEYCHD                               PPP040
058000         WRITE OCHG-EDB-CHANGE-RECORD FROM XCHG-EDB-CHANGE-RECORD PPP040
058100         ADD 1           TO CA-CHG-CTR                            PPP040
058200         MOVE '2'      TO KCHD-ACTION                             PPP040
058300         PERFORM 8800-CALL-PPKEYCHD                               PPP040
058400         WRITE OCHG-EDB-CHANGE-RECORD FROM XCHG-EDB-CHANGE-RECORD PPP040
058500         ADD 1           TO CA-CHG-CTR                            PPP040
058600     END-IF.                                                      PPP040
058700                                                                  PPP040
058800 1000-MAINLINE-ROUTINE-EXIT.    EXIT.                             PPP040
058900     EJECT                                                        PPP040
059000*----------------------------------------------------------------*PPP040
059100 1100-PRINT-ERRORS    SECTION.                                    PPP040
059200*----------------------------------------------------------------*PPP040
059300                                                                  PPP040
059400******************************************************************PPP040
059500**   IN THIS ROUTINE - ALL ERRORS DETECTED BY PPKEYCHD WILL     **PPP040
059600**   BE PASSED TO PPMSGUTL FOR PRINTING                         **PPP040
059700******************************************************************PPP040
059800                                                                  PPP040
059900     MOVE KMTA-MSG-NUMBER (I)    TO XMSG-NUMBER.                  PPP040
060000     MOVE KMTA-MSG-DATA (I)      TO XMSG-DATA.                    PPP040
060100     MOVE KCHD-FROM-ID-NUMBER    TO XMSG-ID-NO.                   PPP040
060200                                                                  PPP040
060300     PERFORM 8000-CALL-PPMSGUTL.                                  PPP040
060400                                                                  PPP040
060500     EJECT                                                        PPP040
060600*----------------------------------------------------------------*PPP040
060700 1200-WRITE-NEW-FILES    SECTION.                                 PPP040
060800*----------------------------------------------------------------*PPP040
060900                                                                  PPP040
061000******************************************************************PPP040
061100** BASED ON WHETHER THIS WAS A 'CHANGE' OR 'DELETE' TRANSACTION **PPP040
061200**     - WE WILL EITHER WRITE (OR NOT WRITE) THE 'X2' TRAN      **PPP040
061300**       RETURNED FROM PPKEYCHD.                                **PPP040
061400******************************************************************PPP040
061500                                                                  PPP040
061600     IF KCHD-CHANGE                                               PPP040
070000*****                                                          CD 36560949
061801         IF FIRST-TIME-CHD-REC                                    36410752
061802            PERFORM 1300-SETUP-BATCH-CARD                         36410752
061803            WRITE CARD-RECORD-OUT FROM BATCH-CARD                 36410752
061804            ADD 1              TO CA-X2-CTR                       36410752
061805            SET NOT-FIRST-TIME-CHD-REC TO TRUE                    36410752
061806         END-IF                                                   36410752
061810         WRITE CARD-RECORD-OUT FROM X2-RECORD                     36410752
061820         ADD 1                 TO CA-X2-CTR                       36410752
061830     END-IF.                                                      36410752
061900                                                                  PPP040
062000******************************************************************PPP040
062100**   ALL TRANSACTIONS WILL WRITE THE EMPCHG RECORD              **PPP040
062200******************************************************************PPP040
062300                                                                  PPP040
062400     WRITE OCHG-EDB-CHANGE-RECORD FROM XCHG-EDB-CHANGE-RECORD.    PPP040
062500                                                                  PPP040
062600     ADD 1                     TO CA-CHG-CTR.                     PPP040
062700                                                                  PPP040
062710     EJECT                                                        36410752
062720*----------------------------------------------------------------*36410752
062730 1300-SETUP-BATCH-CARD   SECTION.                                 36410752
062740*----------------------------------------------------------------*36410752
062750                                                                  36410752
062751     PERFORM 9516-SELECT-TBL-PPPCCR.                              36410752
062752     MOVE CCR-LOCATION TO BATCH-LOC.                              36410752
062753     MOVE FMCRD-EFFECT-DATE (1:2) TO SCHED-NO-MO.                 36410752
062754     MOVE FMCRD-EFFECT-DATE (6:1) TO SCHED-NO-YR.                 36410752
062755     MOVE FMCRD-EFFECT-DATE       TO DATE-PREPARED.               36410752
062760                                                                  36410752
062800     EJECT                                                        PPP040
073100*----------------------------------------------------------------*36560949
073200 1400-PROCESS-GRAD-RECORDS     SECTION.                           36560949
073300*----------------------------------------------------------------*36560949
073400*                                                                 36560949
073500     INITIALIZE GSRR-STUDENT-REPORTING.                           36560949
073600     MOVE WS-USA-ZERO-DATE TO GSR1-APPT-BEGIN-DATE                36560949
073700                              GSR1-APPT-END-DATE                  36560949
073800                              GSR2-APPT-BEGIN-DATE                36560949
073900                              GSR2-APPT-END-DATE                  36560949
074000                              GSR1-PAY-BEGIN-DATE                 36560949
074100                              GSR1-PAY-END-DATE                   36560949
074200                              GSR2-PAY-BEGIN-DATE                 36560949
074300                              GSR2-PAY-END-DATE.                  36560949
074400     SET NO-DIST-MATCH TO TRUE.                                   36560949
074500     MOVE ZERO TO ASUB, DSUB, LAST-DIST.                          36560949
074600     MOVE CPWSGSRX-EMP-DATA TO GSRR-EMP-DATA.                     36560949
074700*                                                                 36560949
074800     IF CPWSGSRX-APPT-COUNT > ZERO                                36560949
074900         PERFORM 1420-PROCESS-APPTS                               36560949
075000              VARYING ASUB FROM +1 BY +1 UNTIL                    36560949
075100              ASUB > CPWSGSRX-APPT-COUNT                          36560949
075200     ELSE                                                         36560949
075300         PERFORM 1440-WRITE-GRAD-RECORDS                          36560949
075400     END-IF.                                                      36560949
075500*----------------------------------------------------------------*36560949
075600 1420-PROCESS-APPTS   SECTION.                                    36560949
075700*----------------------------------------------------------------*36560949
075800     MOVE CPWSGSRX-APPT-DATA (ASUB) TO GSRR-APPT-DATA.            36560949
075900     INITIALIZE GSRR-DIST-DATA.                                   36560949
076000     MOVE WS-USA-ZERO-DATE TO GSR1-PAY-BEGIN-DATE                 36560949
076100                              GSR1-PAY-END-DATE                   36560949
076200                              GSR2-PAY-BEGIN-DATE                 36560949
076300                              GSR2-PAY-END-DATE.                  36560949
076400     IF CPWSGSRX-DIST-COUNT > ZERO                                36560949
076500         SET NO-DIST-MATCH TO TRUE                                36560949
076600         MOVE LAST-DIST TO DSUB                                   36560949
076700         PERFORM 1430-PROCESS-DIST                                36560949
076800         IF NO-DIST-MATCH                                         36560949
076900             PERFORM 1440-WRITE-GRAD-RECORDS                      36560949
077000         END-IF                                                   36560949
077100     ELSE                                                         36560949
077200         PERFORM 1440-WRITE-GRAD-RECORDS                          36560949
077300     END-IF.                                                      36560949
077400*                                                                 36560949
077500*----------------------------------------------------------------*36560949
077600 1430-PROCESS-DIST  SECTION.                                      36560949
077700*----------------------------------------------------------------*36560949
077800 1435-LOOP.                                                       36560949
077900     ADD +1 TO DSUB.                                              36560949
078000     IF DSUB > CPWSGSRX-DIST-COUNT                                36560949
078100         NEXT SENTENCE                                            36560949
078200     ELSE                                                         36560949
078300         MOVE CPWSGSRX-DIST-DATA (DSUB) TO GSRR-DIST-DATA         36560949
078400         IF GSR1-DIST-NUM1 = GSR1-APPT-NUM1                       36560949
078500             PERFORM 1440-WRITE-GRAD-RECORDS                      36560949
078600             INITIALIZE GSRR-DIST-DATA                            36560949
078700             MOVE WS-USA-ZERO-DATE TO GSR1-PAY-BEGIN-DATE         36560949
078800                                      GSR1-PAY-END-DATE           36560949
078900                                      GSR2-PAY-BEGIN-DATE         36560949
079000                                      GSR2-PAY-END-DATE           36560949
079100             SET DIST-PROCESSED TO TRUE                           36560949
079200             MOVE DSUB TO LAST-DIST                               36560949
079300             GO TO 1435-LOOP                                      36560949
079400         ELSE                                                     36560949
079500             IF GSR1-DIST-NUM1 > GSR1-APPT-NUM1                   36560949
079600                 INITIALIZE GSRR-DIST-DATA                        36560949
079700                 MOVE WS-USA-ZERO-DATE TO GSR1-PAY-BEGIN-DATE     36560949
079800                                          GSR1-PAY-END-DATE       36560949
079900                                          GSR2-PAY-BEGIN-DATE     36560949
080000                                          GSR2-PAY-END-DATE       36560949
080100             ELSE                                                 36560949
080200                 INITIALIZE GSRR-DIST-DATA                        36560949
080300                 MOVE WS-USA-ZERO-DATE TO GSR1-PAY-BEGIN-DATE     36560949
080400                                          GSR1-PAY-END-DATE       36560949
080500                                          GSR2-PAY-BEGIN-DATE     36560949
080600                                          GSR2-PAY-END-DATE       36560949
080700                 GO TO 1435-LOOP                                  36560949
080800             END-IF                                               36560949
080900         END-IF                                                   36560949
081000     END-IF.                                                      36560949
081100*----------------------------------------------------------------*36560949
081200 1440-WRITE-GRAD-RECORDS  SECTION.                                36560949
081300*----------------------------------------------------------------*36560949
081400     WRITE GRAD-STUDENT-RECS FROM GSRR-STUDENT-REPORTING.         36560949
081500     ADD +1 TO TOT-GRAD-REC-OUT.                                  36560949
081600*                                                                 36560949
062900*----------------------------------------------------------------*PPP040
063000 2000-FORMAT-RUN-STAT    SECTION.                                 PPP040
063100*----------------------------------------------------------------*PPP040
063200                                                                  PPP040
063300******************************************************************PPP040
063400**   THIS REPORT IS ONLY PRINTED ONCE                           **PPP040
063500**   THIS REPORT WILL ALWAYS FIT ON ONE (1) PAGE                **PPP040
063600******************************************************************PPP040
063700                                                                  PPP040
063800     MOVE 'PPP0401'                       TO STND-RPT-ID.         PPP040
063900     MOVE 1                               TO STND-PAGE-NO.        PPP040
064000                                                                  PPP040
064100     MOVE SPACES                          TO STND-DATE2-TTL.      PPP040
064200     MOVE '             RUN STATISTICS'   TO STND-RPT-TTL.        PPP040
064300                                                                  PPP040
064400******************************************************************PPP040
064500**   PRINT THE 3 HEADING LINES FIRST - THEN THE DETAIL LINES    **PPP040
064600******************************************************************PPP040
064700                                                                  PPP040
064800     WRITE PRINT-REC-1 FROM STND-RPT-HD1 AFTER ADVANCING PAGE.    PPP040
064900     WRITE PRINT-REC-1 FROM STND-RPT-HD2 AFTER ADVANCING 1 LINES. PPP040
065000     WRITE PRINT-REC-1 FROM STND-RPT-HD3 AFTER ADVANCING 1 LINES. PPP040
065100                                                                  PPP040
065200******************************************************************PPP040
065300**   PRINT THE SUMMARY LINES OF THE REPORT NOW                  **PPP040
065400******************************************************************PPP040
065500                                                                  PPP040
065600     MOVE 'TOTAL TRANSACTIONS INPUT'  TO L01-TEXT.                PPP040
065700     MOVE CA-TOTAL-CTR                TO L01-CTR.                 PPP040
065800     WRITE PRINT-REC-1 FROM LINE-01-1 AFTER ADVANCING 2 LINES.    PPP040
065900                                                                  PPP040
066000     MOVE '      ACCEPTED'            TO L01-TEXT.                PPP040
066100     MOVE CA-ACCEPT-CTR               TO L01-CTR.                 PPP040
066200     WRITE PRINT-REC-1 FROM LINE-01-1 AFTER ADVANCING 1 LINES.    PPP040
066300                                                                  PPP040
066400     MOVE '      REJECTED'            TO L01-TEXT.                PPP040
066500     MOVE CA-REJECT-CTR               TO L01-CTR.                 PPP040
066600     WRITE PRINT-REC-1 FROM LINE-01-1 AFTER ADVANCING 1 LINES.    PPP040
066700                                                                  PPP040
066800     MOVE 'TOTAL EMPLOYEE DELETIONS PROCESSED' TO L01-TEXT.       PPP040
066900     MOVE CA-DELETE-CTR               TO L01-CTR.                 PPP040
067000     WRITE PRINT-REC-1 FROM LINE-01-1 AFTER ADVANCING 2 LINES.    PPP040
067100                                                                  PPP040
067200     MOVE 'TOTAL EMPLOYEE KEY CHANGES PROCESSED' TO L01-TEXT.     PPP040
067300     MOVE CA-CHANGE-CTR               TO L01-CTR.                 PPP040
067400     WRITE PRINT-REC-1 FROM LINE-01-1 AFTER ADVANCING 2 LINES.    PPP040
067500                                                                  PPP040
086400*****                                                          CD 36560949
067610     MOVE 'TOTAL TRANSACTION OUTPUT (INCLUDED BATCH HEADER)'      36410752
067620                                      TO L01-TEXT.                36410752
067700     MOVE CA-X2-CTR                   TO L01-CTR.                 PPP040
067800     WRITE PRINT-REC-1 FROM LINE-01-1 AFTER ADVANCING 2 LINES.    PPP040
067900                                                                  PPP040
068000     MOVE 'TOTAL CHANGE FILE RECORDS WRITTEN' TO L01-TEXT.        PPP040
068100     MOVE CA-CHG-CTR                  TO L01-CTR.                 PPP040
068200     WRITE PRINT-REC-1 FROM LINE-01-1 AFTER ADVANCING 2 LINES.    PPP040
068300                                                                  PPP040
087400     MOVE 'TOTAL GRADUATE STUDENT RECORDS WRITTEN' TO L01-TEXT.   36560949
087500     MOVE TOT-GRAD-REC-OUT            TO L01-CTR.                 36560949
087600     WRITE PRINT-REC-1 FROM LINE-01-1 AFTER ADVANCING 2 LINES.    36560949
087700                                                                  36560949
068400******************************************************************PPP040
068500**   END OF REPORT PPP0490                                      **PPP040
068600******************************************************************PPP040
068700                                                                  PPP040
068800     EJECT                                                        PPP040
068900*----------------------------------------------------------------*PPP040
069000 2100-WRITE-CONF-SUMM    SECTION.                                 PPP040
069100*----------------------------------------------------------------*PPP040
069200                                                                  PPP040
069300******************************************************************PPP040
069400**   CHECK FOR PAGE EJECTS FIRST                                **PPP040
069500******************************************************************PPP040
069600                                                                  PPP040
069700     IF LINE-CTR-2 > 55                                           PPP040
069800         PERFORM 2150-WRITE-CONF-HEAD.                            PPP040
069900                                                                  PPP040
070000     MOVE SPACES                TO LINE-02-1.                     PPP040
070100                                                                  PPP040
070200     MOVE KCHD-EFF-DATE         TO XMDY-MMDDYY.                   PPP040
070300     MOVE CORR XMDY-MMDDYY      TO XMDY-MM-DD-YY.                 PPP040
070400     MOVE XMDY-MM-DD-YY         TO L02-EFF-DATE.                  PPP040
070500                                                                  PPP040
070600     IF KCHD-CHANGE                                               PPP040
070700         MOVE 'CHANGE'          TO L02-CHANGE-DELETE,             PPP040
070800         MOVE CHANGE-COMMENT    TO L02-COMMENTS,                  PPP040
070900     ELSE                                                         PPP040
071000         MOVE 'DELETE'          TO L02-CHANGE-DELETE,             PPP040
071100         MOVE DELETE-COMMENT    TO L02-COMMENTS.                  PPP040
071200                                                                  PPP040
090700*****                                                          CD 36560949
071510     MOVE KCHD-FROM-ID-NUMBER   TO L02-FROM-ID-NUMBER.            36410752
071600                                                                  PPP040
071700******************************************************************PPP040
071800**   ONLY MOVE THE 'TO' ID NUMBER FOR CHANGE TRANSACTIONS       **PPP040
071900******************************************************************PPP040
072000                                                                  PPP040
072100     IF KCHD-CHANGE                                               PPP040
091500*****                                                          CD 36560949
072410         MOVE KCHD-TO-ID-NUMBER   TO L02-TO-ID-NUMBER             36410752
072420     END-IF.                                                      36410752
072500                                                                  PPP040
072600     WRITE PRINT-REC-2 FROM LINE-02-1 AFTER ADVANCING 1 LINE.     PPP040
072700     ADD 1                     TO LINE-CTR-2.                     PPP040
072800                                                                  PPP040
072900     EJECT                                                        PPP040
073000*----------------------------------------------------------------*PPP040
073100 2150-WRITE-CONF-HEAD    SECTION.                                 PPP040
073200*----------------------------------------------------------------*PPP040
073300                                                                  PPP040
073400     MOVE 'PPP0402'                       TO STND-RPT-ID.         PPP040
073500     ADD 1                                TO PAGE-CTR-2.          PPP040
073600     MOVE PAGE-CTR-2                      TO STND-PAGE-NO.        PPP040
073700                                                                  PPP040
073800     MOVE SPACES                          TO STND-DATE2-TTL.      PPP040
073900     MOVE '          CONFIRMATION SUMMARY' TO STND-RPT-TTL.       PPP040
074000                                                                  PPP040
074100******************************************************************PPP040
074200**    PRINT THE 3 HEADING LINES FIRST - THEN THE DETAIL LINES   **PPP040
074300******************************************************************PPP040
074400                                                                  PPP040
074500     WRITE PRINT-REC-2 FROM STND-RPT-HD1 AFTER ADVANCING PAGE.    PPP040
074600     WRITE PRINT-REC-2 FROM STND-RPT-HD2 AFTER ADVANCING 1 LINES. PPP040
074700     WRITE PRINT-REC-2 FROM STND-RPT-HD3 AFTER ADVANCING 1 LINES. PPP040
074800                                                                  PPP040
074900     WRITE PRINT-REC-2 FROM HEAD-02-1    AFTER ADVANCING 2 LINES. PPP040
075000     WRITE PRINT-REC-2 FROM HEAD-02-2    AFTER ADVANCING 1 LINES. PPP040
075100     WRITE PRINT-REC-2 FROM HEAD-02-3    AFTER ADVANCING 1 LINES. PPP040
075200                                                                  PPP040
075300     MOVE 6                    TO LINE-CTR-2.                     PPP040
075400                                                                  PPP040
075500     EJECT                                                        PPP040
075600*----------------------------------------------------------------*PPP040
075700 2200-FINISH-CONF-SUMM    SECTION.                                PPP040
075800*----------------------------------------------------------------*PPP040
075900                                                                  PPP040
076000******************************************************************PPP040
076100**   CHECK FOR PAGE EJECTS FIRST                                **PPP040
076200******************************************************************PPP040
076300                                                                  PPP040
076400     IF LINE-CTR-2 > 50                                           PPP040
076500         PERFORM 2150-WRITE-CONF-HEAD.                            PPP040
076600                                                                  PPP040
076700     MOVE SPACES                TO LINE-02-2.                     PPP040
076800                                                                  PPP040
076900     MOVE 'TOTAL KEY CHANGES PROCESSED:' TO L02-TEXT.             PPP040
077000     MOVE CA-CHANGE-CTR               TO L02-CTR.                 PPP040
077100     WRITE PRINT-REC-2 FROM LINE-02-2 AFTER ADVANCING 2 LINES.    PPP040
077200                                                                  PPP040
077300     MOVE 'TOTAL DELETIONS   PROCESSED:' TO L02-TEXT.             PPP040
077400     MOVE CA-DELETE-CTR               TO L02-CTR.                 PPP040
077500     WRITE PRINT-REC-2 FROM LINE-02-2 AFTER ADVANCING 2 LINES.    PPP040
077600                                                                  PPP040
077700     EJECT                                                        PPP040
077800*----------------------------------------------------------------*PPP040
077900 8000-CALL-PPMSGUTL    SECTION.                                   PPP040
078000*----------------------------------------------------------------*PPP040
078100                                                                  PPP040
078200     CALL 'PPMSGUT2'         USING MSSG-INTERFACE.                PPP040
097600*****                                                          CD 36560949
089000     IF XMSG-HIGHEST-SEVERITY-9  NOT < CPWSSEVX-SEE-SYSTEM-SEV    36460825
078400         MOVE 1   TO ABORT-SW                                     36410745
078500     END-IF.                                                      36410745
078600                                                                  PPP040
078700     EJECT                                                        PPP040
078800*----------------------------------------------------------------*PPP040
078900 8800-CALL-PPKEYCHD    SECTION.                                   PPP040
079000*----------------------------------------------------------------*PPP040
079100                                                                  PPP040
079200     CALL 'PPKEYCHD' USING KCHD-LINKAGE-SECTION,                  PPP040
079300                           XCHG-EDB-CHANGE-RECORD,                PPP040
079400                           X2-RECORD,                             PPP040
079500                           KMTA-MESSAGE-TABLE-ARRAY.              PPP040
079600                                                                  PPP040
079700     EJECT                                                        PPP040
079800*----------------------------------------------------------------*PPP040
079900 9990-TERMINATION-ROUTINE    SECTION.                             PPP040
080000*----------------------------------------------------------------*PPP040
080100                                                                  PPP040
080200******************************************************************PPP040
080300**   END OF PROCESS REPORTS FIRST                               **PPP040
080400******************************************************************PPP040
080500                                                                  PPP040
080600     PERFORM 2000-FORMAT-RUN-STAT.                                PPP040
080700     PERFORM 2200-FINISH-CONF-SUMM.                               PPP040
080800                                                                  PPP040
080900******************************************************************PPP040
081000**   CLOSE PPMSGUTL NOW                                         **PPP040
081100******************************************************************PPP040
081200                                                                  PPP040
081300     MOVE HIGH-VALUES TO XMSG-NUMBER.                             PPP040
081400     PERFORM 8000-CALL-PPMSGUTL.                                  PPP040
081500                                                                  PPP040
081600******************************************************************PPP040
081700**   CLOSE ALL OF THE INPUT/OUTPUT FILES                        **PPP040
081800******************************************************************PPP040
081900                                                                  PPP040
082000     CLOSE CARD-FILE,                                             PPP040
082100           PRINT-FILE-1,                                          PPP040
082200           PRINT-FILE-2,                                          PPP040
082300           CARD-FILE-OUT,                                         PPP040
101800           GRAD-STUDENT-FILE,                                     36560949
082400           EDB-CHANGE-FILE.                                       PPP040
082500                                                                  PPP040
082600                                                                  PPP040
082700*----------------------------------------------------------------*PPP040
082800 DATE-CONVERSION-DB2 SECTION.                                     PPP040
082900*----------------------------------------------------------------*PPP040
083000                                                                  PPP040
083100*                                                 *-------------* PPP040
083200                                                   COPY CPPDXDC2. PPP040
083300*                                                 *-------------* PPP040
083400                                                                  PPP040
083500******************************************************************PPP040
083600**               SQL- SELECTS                                   **PPP040
083700******************************************************************PPP040
083800******************************************************************PPP040
083900**                                                              **PPP040
084000** THE VIEWS USED IN THIS PROGRAM ARE:                          **PPP040
084100**                                                              **PPP040
084200**         VIEW                 VIEW         DCL                **PPP040
084300**                               DDL        INCLUDE             **PPP040
084400**      PPPVSCR1_SCR           PPPVSCR1     PPPVSCR1            **36410752
084410**      PPPVZCCR_CCR           PPPVZCCR     PPPVZCCR            **36410752
084500**                                                              **PPP040
084600******************************************************************PPP040
084700                                                                  PPP040
084800******************************************************************PPP040
084900** PROCEDURE SQL (OPEN/SELECT/CLOSE) FOR SCR & CCR VIEWS        **36410752
085000******************************************************************PPP040
085100*----------------------------------------------------------------*PPP040
085200 9510-SQL-OPEN-SCR  SECTION.                                      PPP040
085300*----------------------------------------------------------------*PPP040
085400                                                                  PPP040
085500     IF  NOT SCR-ROW-OPEN                                         PPP040
085600         MOVE 'OPEN SCR CURSOR' TO DB2MSG-TAG                     PPP040
085700         EXEC SQL                                                 PPP040
085800             OPEN SCR_ROW                                         PPP040
085900         END-EXEC                                                 PPP040
086000         SET SCR-ROW-OPEN TO TRUE                                 PPP040
086100     END-IF.                                                      PPP040
086200                                                                  PPP040
086300                                                                  PPP040
086400*----------------------------------------------------------------*PPP040
086500 9515-READ-SCR  SECTION.                                          PPP040
086600*----------------------------------------------------------------*PPP040
086700     PERFORM 9520-SQL-FETCH-SCR.                                  PPP040
086800     IF WS-SCR-SQLCODE   NOT = ZERO                               PPP040
086900         MOVE '** SCR FETCH ERROR = ' TO PRT-SQL-DESC1            PPP040
087000         MOVE WS-SCR-SQLCODE          TO PRT-SQL-DESC2            PPP040
087100         MOVE DB2MSG-TAG              TO PRT-SQL-DESC3            PPP040
087200         MOVE PRT-SQL-DESCRIP    TO XMSG-DATA                     PPP040
087300         MOVE M04101             TO XMSG-NUMBER                   PPP040
087400         PERFORM 8000-CALL-PPMSGUTL                               PPP040
087500         MOVE 1   TO ABORT-SW                                     PPP040
087600     END-IF.                                                      PPP040
087700                                                                  PPP040
087710*----------------------------------------------------------------*36410752
087720 9516-SELECT-TBL-PPPCCR  SECTION.                                 36410752
087721*----------------------------------------------------------------*36410752
087730                                                                  36410752
087740     MOVE 'SELECT CCR ROW' TO DB2MSG-TAG.                         36410752
087741     EXEC SQL                                                     36410752
087742          SELECT CCR_LOCATION INTO :CCR-LOCATION                  36410752
087743                 FROM PPPVZCCR_CCR                                36410752
087744     END-EXEC.                                                    36410752
087745     IF SQLCODE NOT = ZERO                                        36410752
087746        MOVE '*** CCR SELECT ERROR = ' TO PRT-SQL-DESC1           36410752
087747        MOVE SQLCODE                   TO PRT-SQL-DESC2           36410752
087748        MOVE DB2MSG-TAG                TO PRT-SQL-DESC3           36410752
087749        MOVE PRT-SQL-DESCRIP           TO XMSG-DATA               36410752
087750        MOVE M04102                    TO XMSG-NUMBER             36410752
087751        PERFORM 8000-CALL-PPMSGUTL                                36410752
087755        PERFORM 0000-END-OF-RUN                                   36410752
087756     END-IF.                                                      36410752
087760                                                                  36410752
087800                                                                  PPP040
087900*----------------------------------------------------------------*PPP040
088000 9520-SQL-FETCH-SCR  SECTION.                                     PPP040
088100*----------------------------------------------------------------*PPP040
088200                                                                  PPP040
088300     MOVE 'FETCH SCR ROW' TO DB2MSG-TAG.                          PPP040
088400                                                                  PPP040
088500     EXEC SQL                                                     PPP040
110100*****                                                             36560949
088610         FETCH SCR_ROW INTO :SCR-PROCESS-DATE, :SCR-NEXTCYCLE-MO, 36410752
088620                       :SCR-NEXTCYCLE-QTR, :SCR-NEXTCYCLE-YR,     36410752
088630                       :SCR-NEXTCYCLE-FYR, :SCR-EDB-GENNUM,       36410752
088640                       :SCR-PURGE-DATE, :SCR-CURRENT-DATE         36410752
088700     END-EXEC.                                                    PPP040
088800                                                                  PPP040
088900     MOVE SQLCODE  TO WS-SCR-SQLCODE.                             PPP040
089000                                                                  PPP040
089100*----------------------------------------------------------------*PPP040
089200 9530-SQL-CLOSE-SCR  SECTION.                                     PPP040
089300*----------------------------------------------------------------*PPP040
089400                                                                  PPP040
089500     IF SCR-ROW-OPEN                                              PPP040
089600         MOVE 'CLOSE SCR CURSOR' TO DB2MSG-TAG                    PPP040
089700         EXEC SQL                                                 PPP040
089800             CLOSE SCR_ROW                                        PPP040
089900         END-EXEC                                                 PPP040
090000         MOVE SPACE TO SCR-ROW-OPEN-SW                            PPP040
090100     END-IF.                                                      PPP040
090200                                                                  PPP040
090300                                                                  PPP040
090400*----------------------------------------------------------------*36410745
090500 9980-HALT-JOB-ROLLBACK    SECTION.                               36410745
090600*----------------------------------------------------------------*36410745
090700                                                                  36410745
112700*****                                                          CD 36560949
090900     MOVE '9980-HALT-JOB-ROLLBACK' TO DB2MSG-TAG                  36410745
091000                                                                  36410745
091100     EXEC SQL                                                     36410745
091200         ROLLBACK WORK                                            36410745
091300     END-EXEC.                                                    36410745
091400                                                                  36410745
091500*----------------------------------------------------------------*PPP040
091600 MISC-SECTION  SECTION.                                           PPP040
091700*----------------------------------------------------------------*PPP040
091800*999999-SQL-ERROR.                                                PPP040
091900                                                                  PPP040
092000     EXEC SQL                                                     PPP040
092100          INCLUDE CPPDXP99                                        PPP040
092200     END-EXEC.                                                    PPP040
092300                                                                  PPP040
092400     MOVE DB2MSG-MESSNO           TO XMSG-NUMBER.                 PPP040
092500     MOVE SPACES                  TO XMSG-DATA.                   PPP040
092600                                                                  PPP040
092800     IF HERE-BEFORE-PPMSGUTL-SW  = ZERO                           36410745
092900         MOVE 1  TO HERE-BEFORE-PPMSGUTL-SW                       36410745
093000         PERFORM 8000-CALL-PPMSGUTL                               36410745
093100     END-IF.                                                      36410745
093200                                                                  PPP040
093300     MOVE 1                       TO ABORT-SW.                    PPP040
093400                                                                  PPP040
093500     GO TO 0000-END-OF-RUN.                                       36410745
094100                                                                  PPP040
094200******************************************************************PPP040
094300**   E N D  S O U R C E   ----  PPP040 ----                     **PPP040
094400******************************************************************PPP040
