000000**************************************************************/   17810989
000001*  PROGRAM: PPP133                                           */   17810989
000002*  RELEASE: ___0989______ SERVICE REQUEST(S): ____11781____  */   17810989
000003*  NAME:___H. TRUONG ____ MODIFICATION DATE:  ___06/09/95__  */   17810989
000004*  DESCRIPTION:                                              */   17810989
000005*  ERROR REPORT 1269                                         */   17810989
000006*     MODIFIED CODE TO DISPLAY ALL 6 CHARACTERS OF THE HOME  */   17810989
000007*     DEPARTMENT NUMBER ON REPORT "EMPLOYEE WITH STUDENT CODE*/   17810989
000008*     5, 6, 7.                                               */   17810989
000009*                                                            */   17810989
000010**************************************************************/   17810989
000100**************************************************************/   17810972
000200*  PROGRAM: PPP133                                           */   17810972
000300*  RELEASE: ___0972______ SERVICE REQUEST(S): ____11781____  */   17810972
000400*  NAME:_____M. SANO_____ MODIFICATION DATE:  ___03/13/95__  */   17810972
000500*  DESCRIPTION: LIST EMPLOYEES WITH  A                       */   17810972
000600*  STUDENT STATUS CODE (D.E. # 0119) WITH A VALUE OF 5 6 OR  */   17810972
000700*  7                                                         */   17810972
000800**************************************************************/   17810972
000900 IDENTIFICATION DIVISION.                                         PPP133
001000 PROGRAM-ID. PPP133.                                              PPP133
001100 AUTHOR. UCOP                                                     PPP133
001200     SKIP1                                                        PPP133
001300*REMARKS.                                                         PPP133
001400     SKIP1                                                        PPP133
001500     EJECT                                                        PPP133
001600***********************************************************       PPP133
001700*        E N V I R O N M E N T     D I V I S I O N        *       PPP133
001800***********************************************************       PPP133
001900     SKIP1                                                        PPP133
002000 ENVIRONMENT DIVISION.                                            PPP133
002100 CONFIGURATION SECTION.                                           PPP133
002200     SKIP1                                                        PPP133
002300 SPECIAL-NAMES.                                                   PPP133
002400     C01 IS NEW-PAGE.                                             PPP133
002500     SKIP1                                                        PPP133
002600 INPUT-OUTPUT SECTION.                                            PPP133
002700 FILE-CONTROL.                                                    PPP133
002800     SKIP1                                                        PPP133
002900     SELECT PPP1331-REPORT ASSIGN TO UT-S-PPP1331.                PPP133
003000     SKIP2                                                        PPP133
003100     SELECT PPP1332-REPORT ASSIGN TO UT-S-PPP1332.                PPP133
003200     SKIP2                                                        PPP133
003300     SELECT PPP1333-REPORT ASSIGN TO UT-S-PPP1333.                PPP133
003400     SKIP2                                                        PPP133
003500     SELECT PPP1334-REPORT ASSIGN TO UT-S-PPP1334.                PPP133
003600     SKIP2                                                        PPP133
003700     SELECT CARDFILE       ASSIGN TO UT-S-CARDFIL.                PPP133
003800     EJECT                                                        PPP133
003900***********************************************************       PPP133
004000*                D A T A     D I V I S I O N              *       PPP133
004100***********************************************************       PPP133
004200     SKIP1                                                        PPP133
004300 DATA DIVISION.                                                   PPP133
004400 FILE SECTION.                                                    PPP133
004500*                                                                *PPP133
004600     SKIP1                                                        PPP133
004700 FD  PPP1331-REPORT                                               PPP133
004800     LABEL RECORDS ARE OMITTED                                    PPP133
004900     BLOCK CONTAINS 0 RECORDS                                     PPP133
005000     RECORDING MODE IS F                                          PPP133
005100     RECORD CONTAINS 133 CHARACTERS.                              PPP133
005200     SKIP1                                                        PPP133
005300 01  PPP1331-LINE.                                                PPP133
005400     05  FILLER                   PIC X.                          PPP133
005500     05  PPP1331-DATA             PIC X(132).                     PPP133
005600     SKIP3                                                        PPP133
005700 FD  PPP1332-REPORT                                               PPP133
005800     LABEL RECORDS ARE OMITTED                                    PPP133
005900     BLOCK CONTAINS 0 RECORDS                                     PPP133
006000     RECORDING MODE IS F                                          PPP133
006100     RECORD CONTAINS 133 CHARACTERS.                              PPP133
006200     SKIP1                                                        PPP133
006300 01  PPP1332-LINE.                                                PPP133
006400     05  FILLER                   PIC X.                          PPP133
006500     05  PPP1332-DATA             PIC X(132).                     PPP133
006600     SKIP3                                                        PPP133
006700 FD  PPP1333-REPORT                                               PPP133
006800     LABEL RECORDS ARE OMITTED                                    PPP133
006900     BLOCK CONTAINS 0 RECORDS                                     PPP133
007000     RECORDING MODE IS F                                          PPP133
007100     RECORD CONTAINS 133 CHARACTERS.                              PPP133
007200     SKIP1                                                        PPP133
007300 01  PPP1333-LINE.                                                PPP133
007400     05  FILLER                   PIC X.                          PPP133
007500     05  PPP1333-DATA             PIC X(132).                     PPP133
007600     SKIP3                                                        PPP133
007700 FD  PPP1334-REPORT                                               PPP133
007800     LABEL RECORDS ARE OMITTED                                    PPP133
007900     BLOCK CONTAINS 0 RECORDS                                     PPP133
008000     RECORDING MODE IS F                                          PPP133
008100     RECORD CONTAINS 133 CHARACTERS.                              PPP133
008200     SKIP1                                                        PPP133
008300 01  PPP1334-LINE.                                                PPP133
008400     05  FILLER                   PIC X.                          PPP133
008500     05  PPP1334-DATA             PIC X(132).                     PPP133
008600     SKIP3                                                        PPP133
008700 FD  CARDFILE                                                     PPP133
008800     LABEL RECORDS ARE OMITTED                                    PPP133
008900     RECORDING MODE IS F                                          PPP133
009000     RECORD CONTAINS 80 CHARACTERS                                PPP133
009100     DATA RECORD IS SPEC-CARD.                                    PPP133
009200     SKIP1                                                        PPP133
009300 01  SPEC-CARD.                                                   PPP133
009400     05  SPEC-PGM-ID             PIC X(11).                       PPP133
009500         88  VALID-SPEC-PGM-ID              VALUE 'PPP133-SPEC'.  PPP133
009600     05  SPEC-PGM-SORT           PIC X(04).                       PPP133
009700     05  SPEC-PGM-SORT-R REDEFINES SPEC-PGM-SORT.                 PPP133
009800         10  PGM-SORT-ID      PIC X.                              PPP133
009900             88 ID-REPORT                 VALUE 'I'.              PPP133
010000         10  PGM-SORT-NAME   PIC X.                               PPP133
010100             88  NAME-REPORT              VALUE 'N'.              PPP133
010200         10  PGM-SORT-DEPT    PIC X.                              PPP133
010300             88  DEPT-REPORT              VALUE 'D'.              PPP133
010400         10  PGM-SORT-STATUS  PIC X.                              PPP133
010500             88  STATUS-REPORT            VALUE 'S'.              PPP133
010600     05  FILLER                  PIC X(65).                       PPP133
010700     EJECT                                                        PPP133
010800 WORKING-STORAGE SECTION.                                         PPP133
010900     SKIP1                                                        PPP133
011000***********************************************************       PPP133
011100*        M I S C    W O R K I N G     S T O R A G E       *       PPP133
011200***********************************************************       PPP133
011300     SKIP1                                                        PPP133
011400 01  WX-BEGIN-FLAG               PIC X(32) VALUE                  PPP133
011500     'PPP133 WORK STORAGE HERE'.                                  PPP133
011600 01  WA-COMPILE-WORK-AREA.       COPY CPWSXWHC.                   PPP133
011700 01  WS-WORK-MISC.                                                PPP133
011800     05  WS-PGM-ID.                                               PPP133
011900         10  FILLER              PIC X(08) VALUE 'PPP133 '.       PPP133
011910         10  DATE-CMPLD          PIC X(07) VALUE '/060995'.       17810989
012000*****    10  DATE-CMPLD          PIC X(07) VALUE '/031395'.       17810989
012100*****05  WS-EMPLOYEE-ID         PIC X(09).                        17810989
012200*****05  WS-EMP-NAME            PIC X(26).                        17810989
012300     05  WS-UNITS               PIC 99.9.                         PPP133
012400     05  WS-UNITS-X  REDEFINES WS-UNITS PIC X(4).                 PPP133
012500     05  WS-TOTAL PIC S9(5) COMP VALUE 0.                         PPP133
012600     05  WS-DEPT-TOTAL PIC S9(5) COMP VALUE 0.                    PPP133
012700     05  WS-HOME-DEPT.                                            PPP133
012800         10  WS-HOME-DEPT-NUMBER PIC X(06) VALUE SPACES.          PPP133
012900         10  FILLER             PIC X(02) VALUE SPACE.            PPP133
013000         10  WS-HOME-DEPT-NAME  PIC X(15) VALUE SPACES.           PPP133
013100     05 HERE-BEFORE-SW PIC X(01) VALUE SPACE.                     PPP133
013200         88 HERE-BEFORE VALUE 'Y'.                                PPP133
013300     05 PER-ROW-OPEN-SW PIC X(01) VALUE SPACE.                    PPP133
013400         88 PER-ROW-OPEN VALUE 'Y'.                               PPP133
013500     05  FIRST-TIME-SW           PIC X(01) VALUE 'Y'.             PPP133
013600         88  FIRST-TIME                    VALUE 'Y'.             PPP133
013700         88  NOT-FIRST-TIME                VALUE 'N'.             PPP133
013800     05  MAX-LINES-PER-PAGE       PIC S9(04) VALUE +55.           PPP133
013900     05  RPT1-LINES-PER-PAGE      PIC S9(04) VALUE +60.           PPP133
014000     05  RPT2-LINES-PER-PAGE      PIC S9(04) VALUE +60.           PPP133
014100     05  RPT3-LINES-PER-PAGE      PIC S9(04) VALUE +60.           PPP133
014200     05  RPT4-LINES-PER-PAGE      PIC S9(04) VALUE +60.           PPP133
014300     05  RPT-ADVANCE            PIC S9(4) COMP VALUE 0.           PPP133
014400     05  WS-HOLD-SORT.                                            PPP133
014500         10  WS-HOLD-SORT-ID  PIC X.                              PPP133
014600                 88 HOLD-ID-REPORT                 VALUE 'I'.     PPP133
014700         10  WS-HOLD-SORT-NAME PIC X.                             PPP133
014800                 88 HOLD-NAME-REPORT              VALUE 'N'.      PPP133
014900         10  WS-HOLD-SORT-DEPT PIC X.                             PPP133
015000             88  HOLD-DEPT-REPORT                  VALUE 'D'.     PPP133
015100         10  WS-HOLD-SORT-STATUS PIC X.                           PPP133
015200             88  HOLD-STATUS-REPORT                VALUE 'S'.     PPP133
015300 01  PROGRAM-ERROR-MESSAGES.                                      PPP133
015400     05  M13310                  PIC X(05) VALUE '13310'.         PPP133
015500     05  M13311                  PIC X(05) VALUE '13311'.         PPP133
015600     05  M13312                  PIC X(05) VALUE '13312'.         PPP133
015700     05  M13313                  PIC X(05) VALUE '13313'.         PPP133
015800 01  WS-SSN.                                                      PPP133
015900     05  WS-SSN-3                PIC X(03).                       PPP133
016000     05  WS-SSN-2                PIC X(02).                       PPP133
016100     05  WS-SSN-4                PIC X(04).                       PPP133
016200     SKIP1                                                        PPP133
016300 01  DATE-FORMAT.                COPY CPWSDATE.                   PPP133
016400     SKIP1                                                        PPP133
016500 01  DATE-WORK-3.                COPY CPWSXDC3.                   PPP133
016600     SKIP1                                                        PPP133
016700 01  WX-FLAGS.                                                    PPP133
016800     05  WX-ABEND-FLAG           PIC S9(01) VALUE +0.             PPP133
016900         88  WX-ABEND                       VALUE +1.             PPP133
017000     05  EOF-FLAG                PIC S9(01) VALUE +0.             PPP133
017100         88  EOF                            VALUE +1.             PPP133
017200     05  STATUS-SORT-FLAG        PIC S9(01) VALUE +0.             PPP133
017300         88  S1                             VALUE +1.             PPP133
017400         88  S2                             VALUE +2.             PPP133
017500     05  STATUS-NUMBER-FLAG      PIC S9(01) VALUE +0.             PPP133
017600         88  FIRST-7                        VALUE +0.             PPP133
017700         88  NOT-FIRST-7                    VALUE +2.             PPP133
017800     EJECT                                                        PPP133
017900 01  DEPT-HDR.                                                    PPP133
018000     05  FILLER                  PIC X(01).                       PPP133
018100     05  PRT-DEPT-DESC           PIC X(17) VALUE                  PPP133
018200                                       'DEPARTMENT:      '.       PPP133
018300     05  PRT-HOME-DEPT-NUMBER    PIC X(06) VALUE SPACES.          PPP133
018400     05  FILLER                  PIC X(03) VALUE SPACE.           PPP133
018500     05  PRT-HOME-DEPT-NAME      PIC X(30) VALUE SPACES.          PPP133
018600     05  FILLER                  PIC X(80) VALUE SPACES.          PPP133
018700 01  PPP1331-HDR1.                                                PPP133
018800     05  FILLER                  PIC X(01).                       PPP133
018900     05  FILLER                  PIC X(12) VALUE                  PPP133
019000                                'EMPLOYEE ID '.                   PPP133
019100     05  FILLER                  PIC X(28) VALUE                  PPP133
019200                                'EMPLOYEE NAME              '.    PPP133
019300     05  FILLER                  PIC X(13) VALUE 'SOC. SEC. NO.'. PPP133
019400     05  FILLER                  PIC X(02) VALUE SPACES.          PPP133
019500     05  FILLER                  PIC X(07) VALUE 'PRIMARY'.       PPP133
019600     05  FILLER                  PIC X(02) VALUE SPACES.          PPP133
019700     05  FILLER                  PIC X(06) VALUE 'EMPL  '.        PPP133
019800     05  FILLER                  PIC X(02) VALUE SPACES.          PPP133
019900     05  FILLER                  PIC X(01) VALUE SPACES.          PPP133
020000     05  FILLER                  PIC X(08) VALUE 'CITIZEN '.      PPP133
020100     05  FILLER                  PIC X(01) VALUE SPACES.          PPP133
020200     05  FILLER                  PIC X(05) VALUE 'VISA '.         PPP133
020300     05  FILLER                  PIC X(01) VALUE SPACES.          PPP133
020400     05  FILLER                  PIC X(15) VALUE                  PPP133
020500                                               'UC STDT STATUS/'. PPP133
020600     05  FILLER                  PIC X(14) VALUE 'RET SYS CODE/ '.PPP133
020700     05  FILLER                  PIC X(02) VALUE SPACES.          PPP133
020800     05  HDR1-HOME               PIC X(05) VALUE ' HOME'.         PPP133
020900     05  FILLER                  PIC X(15) VALUE SPACES.          PPP133
021000 01  PPP1331-HDR2.                                                PPP133
021100     05  FILLER                  PIC X(01).                       PPP133
021200     05  FILLER                  PIC X(40) VALUE SPACES.          PPP133
021300     05  FILLER                  PIC X(13) VALUE 'DATE OF BIRTH'. PPP133
021400     05  FILLER                  PIC X(01) VALUE SPACES.          PPP133
021500     05  FILLER                  PIC X(07) VALUE ' TITLE '.       PPP133
021600     05  FILLER                  PIC X(03) VALUE SPACES.          PPP133
021700     05  FILLER                  PIC X(06) VALUE 'STATUS'.        PPP133
021800     05  FILLER                  PIC X(02) VALUE SPACES.          PPP133
021900     05  FILLER                  PIC X(08) VALUE ' CODE   '.      PPP133
022000     05  FILLER                  PIC X(01) VALUE SPACES.          PPP133
022100     05  FILLER                  PIC X(05) VALUE ' TYPE'.         PPP133
022200     05  FILLER                  PIC X(02) VALUE SPACES.          PPP133
022300     05  FILLER                  PIC X(14) VALUE 'NO REG UNITS  '.PPP133
022400     05  FILLER                  PIC X(01) VALUE SPACES.          PPP133
022500     05  FILLER                  PIC X(14) VALUE 'FICA ELIG CODE'.PPP133
022600     05  FILLER                  PIC X(03) VALUE SPACES.          PPP133
022700     05  HDR2-HOME               PIC X(05) VALUE 'DEPT.'.         PPP133
022800     05  FILLER                  PIC X(12) VALUE SPACES.          PPP133
022900 01  RPT1-BIRTH-DATE-SEP.                                         PPP133
023000     05  FILLER                  PIC X(08) VALUE '  /  /  '.      PPP133
023100 01  RPT1-SSN-SEP.                                                PPP133
023200     05  FILLER                  PIC X(11) VALUE '   -  -    '.   PPP133
023300                                                                  PPP133
023400 01  PPP1331-DETAIL-LINE1.                                        PPP133
023500     05  FILLER                  PIC X(01).                       PPP133
023600     05  RPT1-EMP-DATA.                                           PPP133
023700         10  RPT1-EMP-ID          PIC X(09) VALUE SPACES.         PPP133
023800         10  FILLER               PIC X(03) VALUE SPACES.         PPP133
023900         10  RPT1-EMP-NAME        PIC X(26) VALUE SPACES.         PPP133
024000         10  FILLER               PIC X(02) VALUE SPACES.         PPP133
024100         10  RPT1-SSN.                                            PPP133
024200             15  RPT1-SSN-3       PIC X(03) VALUE SPACES.         PPP133
024300             15  FILLER           PIC X VALUE SPACES.             PPP133
024400             15  RPT1-SSN-2       PIC X(02) VALUE SPACES.         PPP133
024500             15  FILLER           PIC X VALUE SPACES.             PPP133
024600             15  RPT1-SSN-4       PIC X(04) VALUE SPACES.         PPP133
024700         10  FILLER               PIC X(04) VALUE SPACES.         PPP133
024800         10  RPT1-PRIMARY-TITLE   PIC X(04) VALUE SPACES.         PPP133
024900         10  FILLER               PIC X(05) VALUE SPACES.         PPP133
025000         10  RPT1-EMP-STATUS      PIC X(01) VALUE SPACES.         PPP133
025100         10  FILLER               PIC X(08) VALUE SPACES.         PPP133
025200         10  RPT1-CITIZEN-CODE    PIC X(01) VALUE SPACES.         PPP133
025300         10  FILLER               PIC X(08) VALUE SPACES.         PPP133
025400         10  RPT1-VISA-TYPE       PIC X(02) VALUE SPACES.         PPP133
025500         10  FILLER               PIC X(04) VALUE SPACES.         PPP133
025600         10  RPT1-STUDENT-STATUS  PIC X(01) VALUE SPACES.         PPP133
025700         10  RPT1-SEP-U           PIC X(01) VALUE SPACES.         PPP133
025800         10  RPT1-REGISTERD-UNITS PIC X(04) VALUE SPACES.         PPP133
025900         10  FILLER               PIC X(09) VALUE SPACES.         PPP133
026000         10  RPT1-RET             PIC X(01) VALUE SPACES.         PPP133
026100         10  RPT1-SEP-N           PIC X(01) VALUE SPACES.         PPP133
026200         10  RPT1-FICA            PIC X(01) VALUE SPACES.         PPP133
026300         10  FILLER               PIC X(14) VALUE SPACES.         PPP133
026400     05  RPT1-DEPT-DATA.                                          PPP133
026410         10  RPT1-HOME-DEPT       PIC X(06) VALUE SPACES.         17810989
026420         10  FILLER               PIC X(07) VALUE SPACES.         17810989
026500*****    10  RPT1-HOME-DEPT       PIC X(05) VALUE SPACES.         17810989
026600*****    10  FILLER               PIC X(08) VALUE SPACES.         17810989
026700     SKIP1                                                        PPP133
026800 01  PPP1331-DETAIL-LINE2.                                        PPP133
026900     05  FILLER                  PIC X(01).                       PPP133
027000     05  FILLER                  PIC X(40) VALUE SPACES.          PPP133
027100     05  RPT2-EMP-DATA2.                                          PPP133
027200         10  RPT1-BIRTH-DATE.                                     PPP133
027300             15  RPT1-BIRTH-MM        PIC X(02) VALUE SPACES.     PPP133
027400             15  FILLER               PIC X(01) VALUE SPACES.     PPP133
027500             15  RPT1-BIRTH-DD        PIC X(02) VALUE SPACES.     PPP133
027600             15  FILLER               PIC X(01) VALUE SPACES.     PPP133
027700             15  RPT1-BIRTH-YY        PIC X(02) VALUE SPACES.     PPP133
027800         10  FILLER               PIC X(69) VALUE SPACES.         PPP133
027900     05  RPT1-DEPT-DATA2.                                         PPP133
028000         10  RPT1-HOME-DEPT-NAME  PIC X(15) VALUE SPACES.         PPP133
028100         10  FILLER               PIC X(02) VALUE SPACES.         PPP133
028200     SKIP1                                                        PPP133
028300 01  PPP1331-TOTAL-LINE.                                          PPP133
028400     05  FILLER                  PIC X(01).                       PPP133
028500     05  RPT1-TOTAL-DESC         PIC X(25) VALUE                  PPP133
028600           'TOTAL NUMBER OF RECORDS: '.                           PPP133
028700     05  RPT1-TOTAL              PIC ZZZZ9.                       PPP133
028800     EJECT                                                        PPP133
028900***********************************************************       PPP133
029000*        S T A N D A R D    C O P Y   M E M B E R S       *       PPP133
029100***********************************************************       PPP133
029200 01  STND-RPT-HD.                COPY CPWSPSHR.                   PPP133
029300     EJECT                                                        PPP133
029400 01  MSSG-INTERFACE.             COPY CPWSXMIF.                   PPP133
029500     EJECT                                                        PPP133
029600 01  PPDB2MSG-INTERFACE. COPY CPLNKDB2.                           PPP133
029700     EJECT                                                        PPP133
029800******************************************************************PPP133
029900*          SQL - WORKING STORAGE                                 *PPP133
030000******************************************************************PPP133
030100 01  PAY-ROW.                                                     PPP133
030200     EXEC SQL                                                     PPP133
030300          INCLUDE PPPVPAY1                                        PPP133
030400     END-EXEC.                                                    PPP133
030500 01  PER-ROW.                                                     PPP133
030600     EXEC SQL                                                     PPP133
030700          INCLUDE PPPVPER1                                        PPP133
030800     END-EXEC.                                                    PPP133
030900 01  BEN-ROW.                                                     PPP133
031000     EXEC SQL                                                     PPP133
031100          INCLUDE PPPVBEN1                                        PPP133
031200     END-EXEC.                                                    PPP133
031300 01  HME-ROW-DATA.                                                PPP133
031400     EXEC SQL                                                     PPP133
031500          INCLUDE PPPVZHME                                        PPP133
031600     END-EXEC.                                                    PPP133
031700     EXEC SQL                                                     PPP133
031800          INCLUDE SQLCA                                           PPP133
031900     END-EXEC.                                                    PPP133
032000 01  CURSOR-ROW.                                                  PPP133
032100     10 CR-EMPLOYEE-ID       PIC X(9).                            PPP133
032200     10 CR-EMP-NAME          PIC X(26).                           PPP133
032300     10 CR-BIRTH-DATE        PIC X(10).                           PPP133
032400     10 CR-HOME-DEPT         PIC X(6).                            PPP133
032500     10 CR-EMP-STATUS        PIC X(1).                            PPP133
032600     10 CR-STUDENT-STATUS    PIC X(1).                            PPP133
032700     10 CR-PRIMARY-TITLE     PIC X(4).                            PPP133
032800     10 CR-REGISTERD-UNITS   PIC S9(2)V9(1) USAGE COMP-3.         PPP133
032900     10 CR-CITIZEN-CODE      PIC X(1).                            PPP133
033000     10 CR-VISA-TYPE         PIC X(2).                            PPP133
033100     10 CR-SOC-SEC-NUM       PIC X(9).                            PPP133
033200     10 CR-FICA-ELIG-CODE    PIC X(1).                            PPP133
033300     10 CR-RET-ELIG-CODE     PIC X(1).                            PPP133
033400 01  WX-END-FLAG                 PIC X(36) VALUE                  PPP133
033500     'PPP133 WORKING STORAGE ENDS HERE'.                          PPP133
033600     SKIP3                                                        PPP133
033700     EXEC SQL                                                     PPP133
033800          DECLARE PER_ROW_I CURSOR FOR                            PPP133
033900       SELECT                                                     PPP133
034000            PPPVPER1_PER.EMPLOYEE_ID                              PPP133
034100           ,EMP_NAME                                              PPP133
034200           ,BIRTH_DATE                                            PPP133
034300           ,HOME_DEPT                                             PPP133
034400           ,EMP_STATUS                                            PPP133
034500           ,STUDENT_STATUS                                        PPP133
034600           ,PRIMARY_TITLE                                         PPP133
034700           ,REGISTERD_UNITS                                       PPP133
034800           ,CITIZEN_CODE                                          PPP133
034900           ,VISA_TYPE                                             PPP133
035000           ,SOC_SEC_NUM                                           PPP133
035100           ,FICA_ELIG_CODE                                        PPP133
035200           ,RET_ELIG_CODE                                         PPP133
035300           FROM PPPVPER1_PER, PPPVPAY1_PAY, PPPVBEN1_BEN          PPP133
035400      WHERE PPPVPER1_PER.EMPLOYEE_ID = PPPVPAY1_PAY.EMPLOYEE_ID   PPP133
035500        AND PPPVPER1_PER.EMPLOYEE_ID = PPPVBEN1_BEN.EMPLOYEE_ID   PPP133
035600        AND STUDENT_STATUS IN ('5', '6', '7')                     PPP133
035700      ORDER BY EMPLOYEE_ID                                        PPP133
035800     END-EXEC.                                                    PPP133
035900     SKIP3                                                        PPP133
036000     EXEC SQL                                                     PPP133
036100          DECLARE PER_ROW_N CURSOR FOR                            PPP133
036200       SELECT                                                     PPP133
036300            PPPVPER1_PER.EMPLOYEE_ID                              PPP133
036400           ,EMP_NAME                                              PPP133
036500           ,BIRTH_DATE                                            PPP133
036600           ,HOME_DEPT                                             PPP133
036700           ,EMP_STATUS                                            PPP133
036800           ,STUDENT_STATUS                                        PPP133
036900           ,PRIMARY_TITLE                                         PPP133
037000           ,REGISTERD_UNITS                                       PPP133
037100           ,CITIZEN_CODE                                          PPP133
037200           ,VISA_TYPE                                             PPP133
037300           ,SOC_SEC_NUM                                           PPP133
037400           ,FICA_ELIG_CODE                                        PPP133
037500           ,RET_ELIG_CODE                                         PPP133
037600           FROM PPPVPER1_PER, PPPVPAY1_PAY, PPPVBEN1_BEN          PPP133
037700      WHERE PPPVPER1_PER.EMPLOYEE_ID = PPPVPAY1_PAY.EMPLOYEE_ID   PPP133
037800        AND PPPVPER1_PER.EMPLOYEE_ID = PPPVBEN1_BEN.EMPLOYEE_ID   PPP133
037900        AND STUDENT_STATUS IN ('5', '6', '7')                     PPP133
038000      ORDER BY EMP_NAME                                           PPP133
038100     END-EXEC.                                                    PPP133
038200     SKIP3                                                        PPP133
038300     EXEC SQL                                                     PPP133
038400          DECLARE PER_ROW_D CURSOR FOR                            PPP133
038500       SELECT                                                     PPP133
038600            PPPVPER1_PER.EMPLOYEE_ID                              PPP133
038700           ,EMP_NAME                                              PPP133
038800           ,BIRTH_DATE                                            PPP133
038900           ,HOME_DEPT                                             PPP133
039000           ,EMP_STATUS                                            PPP133
039100           ,STUDENT_STATUS                                        PPP133
039200           ,PRIMARY_TITLE                                         PPP133
039300           ,REGISTERD_UNITS                                       PPP133
039400           ,CITIZEN_CODE                                          PPP133
039500           ,VISA_TYPE                                             PPP133
039600           ,SOC_SEC_NUM                                           PPP133
039700           ,FICA_ELIG_CODE                                        PPP133
039800           ,RET_ELIG_CODE                                         PPP133
039900           FROM PPPVPER1_PER, PPPVPAY1_PAY, PPPVBEN1_BEN          PPP133
040000      WHERE PPPVPER1_PER.EMPLOYEE_ID = PPPVPAY1_PAY.EMPLOYEE_ID   PPP133
040100        AND PPPVPER1_PER.EMPLOYEE_ID = PPPVBEN1_BEN.EMPLOYEE_ID   PPP133
040200        AND STUDENT_STATUS IN ('5', '6', '7')                     PPP133
040300      ORDER BY HOME_DEPT, EMP_NAME                                PPP133
040400     END-EXEC.                                                    PPP133
040500     SKIP3                                                        PPP133
040600     EXEC SQL                                                     PPP133
040700          DECLARE PER_ROW_S CURSOR FOR                            PPP133
040800       SELECT                                                     PPP133
040900            PPPVPER1_PER.EMPLOYEE_ID                              PPP133
041000           ,EMP_NAME                                              PPP133
041100           ,BIRTH_DATE                                            PPP133
041200           ,HOME_DEPT                                             PPP133
041300           ,EMP_STATUS                                            PPP133
041400           ,STUDENT_STATUS                                        PPP133
041500           ,PRIMARY_TITLE                                         PPP133
041600           ,REGISTERD_UNITS                                       PPP133
041700           ,CITIZEN_CODE                                          PPP133
041800           ,VISA_TYPE                                             PPP133
041900           ,SOC_SEC_NUM                                           PPP133
042000           ,FICA_ELIG_CODE                                        PPP133
042100           ,RET_ELIG_CODE                                         PPP133
042200           FROM PPPVPER1_PER, PPPVPAY1_PAY, PPPVBEN1_BEN          PPP133
042300      WHERE PPPVPER1_PER.EMPLOYEE_ID = PPPVPAY1_PAY.EMPLOYEE_ID   PPP133
042400        AND PPPVPER1_PER.EMPLOYEE_ID = PPPVBEN1_BEN.EMPLOYEE_ID   PPP133
042500        AND STUDENT_STATUS IN ('5', '7')                          PPP133
042600      ORDER BY STUDENT_STATUS, EMP_NAME                           PPP133
042700     END-EXEC.                                                    PPP133
042800     SKIP3                                                        PPP133
042900     EXEC SQL                                                     PPP133
043000          DECLARE PER_ROW_S2 CURSOR FOR                           PPP133
043100       SELECT                                                     PPP133
043200            PPPVPER1_PER.EMPLOYEE_ID                              PPP133
043300           ,EMP_NAME                                              PPP133
043400           ,BIRTH_DATE                                            PPP133
043500           ,HOME_DEPT                                             PPP133
043600           ,EMP_STATUS                                            PPP133
043700           ,STUDENT_STATUS                                        PPP133
043800           ,PRIMARY_TITLE                                         PPP133
043900           ,REGISTERD_UNITS                                       PPP133
044000           ,CITIZEN_CODE                                          PPP133
044100           ,VISA_TYPE                                             PPP133
044200           ,SOC_SEC_NUM                                           PPP133
044300           ,FICA_ELIG_CODE                                        PPP133
044400           ,RET_ELIG_CODE                                         PPP133
044500           FROM PPPVPER1_PER, PPPVPAY1_PAY, PPPVBEN1_BEN          PPP133
044600      WHERE PPPVPER1_PER.EMPLOYEE_ID = PPPVPAY1_PAY.EMPLOYEE_ID   PPP133
044700        AND PPPVPER1_PER.EMPLOYEE_ID = PPPVBEN1_BEN.EMPLOYEE_ID   PPP133
044800        AND STUDENT_STATUS = '6'                                  PPP133
044900      ORDER BY HOME_DEPT, EMP_NAME                                PPP133
045000     END-EXEC.                                                    PPP133
045100     EJECT                                                        PPP133
045200 PROCEDURE DIVISION.                                              PPP133
045300     EXEC SQL                                                     PPP133
045400          INCLUDE CPPDXE99                                        PPP133
045500     END-EXEC.                                                    PPP133
045600     SKIP2                                                        PPP133
045700***********************************************************       PPP133
045800*                    M A I N L I N E                      *       PPP133
045900***********************************************************       PPP133
046000     SKIP1                                                        PPP133
046100 0001-MAINLINE.                                                   PPP133
046200     SKIP1                                                        PPP133
046300     PERFORM 1000-INITIALIZATION.                                 PPP133
046400     IF NOT WX-ABEND                                              PPP133
046500         PERFORM 2000-PROCESS-EMPS                                PPP133
046600     END-IF.                                                      PPP133
046700     PERFORM 9000-FINALIZATION.                                   PPP133
046800     STOP RUN.                                                    PPP133
046900     SKIP1                                                        PPP133
047000 0001-EXIT. EXIT.                                                 PPP133
047100     EJECT                                                        PPP133
047200***********************************************************       PPP133
047300*                   I N I T I A L I Z E                   *       PPP133
047400***********************************************************       PPP133
047500     SKIP1                                                        PPP133
047600 1000-INITIALIZATION SECTION.                                     PPP133
047700     SKIP1                                                        PPP133
047800     COPY CPPDDATE.                                               PPP133
047900     MOVE WS-PGM-ID TO STND-PROG-ID                               PPP133
048000                       XMSG-PROG-ID.                              PPP133
048100     MOVE 'PPP1335' TO XMSG-RPT-ID.                               PPP133
048200     MOVE STND-PROG-ID TO DB2MSG-PGM-ID.                          PPP133
048300     MOVE GREGORIAN-DATE TO STND-RPT-DATE                         PPP133
048400                            XMSG-RUN-DATE.                        PPP133
048500     MOVE '   EMPLOYEES WITH STUDENT CODE 5, 6 OR 7 '             PPP133
048600                         TO STND-RPT-TTL.                         PPP133
048700     MOVE '       ERROR AND WARNING MESSAGES'                     PPP133
048800                         TO XMSG-RPT-TTL                          PPP133
048900     MOVE SPACES TO STND-RPT-COMMENT                              PPP133
049000                    STND-DATE2                                    PPP133
049100                    STND-DATE2-TTL.                               PPP133
049200     MOVE SPACES TO STND-RPT-COMMENT,                             PPP133
049300                    XMSG-CHK-DATE,                                PPP133
049400                    XMSG-END-DATE,                                PPP133
049500                    XMSG-CYCLES,                                  PPP133
049600                    XMSG-ID-NO,                                   PPP133
049700                    XMSG-USER.                                    PPP133
049800     MOVE ZEROES TO XMSG-NUMBER,                                  PPP133
049900                    XMSG-SEVERITY.                                PPP133
050000     MOVE 'P' TO XMSG-REFERENCE.                                  PPP133
050100     PERFORM 7500-CALL-PPMSGUTL.                                  PPP133
050200     OPEN INPUT CARDFILE.                                         PPP133
050300     OPEN OUTPUT  PPP1331-REPORT                                  PPP133
050400                  PPP1332-REPORT                                  PPP133
050500                  PPP1333-REPORT                                  PPP133
050600                  PPP1334-REPORT.                                 PPP133
050700     PERFORM 1050-VALIDATE-SPEC.                                  PPP133
050800                                                                  PPP133
050900     SKIP1                                                        PPP133
051000 1000-EXIT.  EXIT.                                                PPP133
051100 1050-VALIDATE-SPEC SECTION.                                      PPP133
051200 1050-VALIDATE-SPEC-CARD.                                         PPP133
051300     READ CARDFILE                                                PPP133
051400          AT END                                                  PPP133
051500                SET WX-ABEND TO TRUE                              PPP133
051600                MOVE M13310 TO XMSG-NUMBER                        PPP133
051700                PERFORM 7500-CALL-PPMSGUTL                        PPP133
051800                GO TO 1059-VALIDATE-SPEC-CARD-EXIT.               PPP133
051900     SKIP1                                                        PPP133
052000 1030-VALIDATE-DATA.                                              PPP133
052100      IF NOT VALID-SPEC-PGM-ID                                    PPP133
052200         SET WX-ABEND TO TRUE                                     PPP133
052300         MOVE M13311 TO XMSG-NUMBER                               PPP133
052400         PERFORM 7500-CALL-PPMSGUTL                               PPP133
052500      END-IF.                                                     PPP133
052600      SKIP1                                                       PPP133
052700      IF (PGM-SORT-ID = SPACES OR 'I') AND                        PPP133
052800         (PGM-SORT-NAME = SPACES OR 'N') AND                      PPP133
052900         (PGM-SORT-DEPT = SPACES OR 'D') AND                      PPP133
053000         (PGM-SORT-STATUS = SPACES OR 'S') AND                    PPP133
053100         (SPEC-PGM-SORT NOT = SPACES)                             PPP133
053200           NEXT SENTENCE                                          PPP133
053300      ELSE                                                        PPP133
053400         SET WX-ABEND TO TRUE                                     PPP133
053500         MOVE M13312 TO XMSG-NUMBER                               PPP133
053600         PERFORM 7500-CALL-PPMSGUTL                               PPP133
053700      END-IF.                                                     PPP133
053800 1059-VALIDATE-SPEC-CARD-EXIT.                                    PPP133
053900     EXIT.                                                        PPP133
054000 2000-PROCESS      SECTION.                                       PPP133
054100 2000-PROCESS-EMPS.                                               PPP133
054200     SKIP1                                                        PPP133
054300     MOVE SPACES TO WS-HOLD-SORT.                                 PPP133
054400     MOVE SPEC-PGM-SORT TO WS-HOLD-SORT.                          PPP133
054500     IF ID-REPORT                                                 PPP133
054600        PERFORM 8500-SQL-OPEN-PER                                 PPP133
054700        IF PER-ROW-OPEN                                           PPP133
054800           PERFORM 8510-FETCH-PER                                 PPP133
054900           PERFORM 2100-PRINT-REPORT                              PPP133
055000                   THRU  2100-EXIT                                PPP133
055100             UNTIL EOF                                            PPP133
055200             OR WX-ABEND                                          PPP133
055300           IF RPT1-LINES-PER-PAGE  >   MAX-LINES-PER-PAGE         PPP133
055400              PERFORM 5050-WRITE-RPT1-NEWPAGE                     PPP133
055500           END-IF                                                 PPP133
055600           MOVE WS-TOTAL TO RPT1-TOTAL                            PPP133
055700           COMPUTE RPT-ADVANCE = (MAX-LINES-PER-PAGE -            PPP133
055800                              RPT1-LINES-PER-PAGE) + 2            PPP133
055900           WRITE PPP1331-LINE FROM PPP1331-TOTAL-LINE             PPP133
056000                              AFTER ADVANCING RPT-ADVANCE         PPP133
056100           PERFORM 8520-CLOSE-PER                                 PPP133
056200        END-IF                                                    PPP133
056300        MOVE SPACES TO WS-HOLD-SORT-ID                            PPP133
056400     END-IF.                                                      PPP133
056500                                                                  PPP133
056600     IF NAME-REPORT AND NOT WX-ABEND                              PPP133
056700        MOVE SPACE TO PGM-SORT-DEPT, PGM-SORT-ID, PGM-SORT-STATUS PPP133
056800                      PER-ROW-OPEN-SW                             PPP133
056900        MOVE ZERO TO STND-PAGE-NO                                 PPP133
057000                     WS-TOTAL                                     PPP133
057100        SET FIRST-TIME TO TRUE                                    PPP133
057200        PERFORM 8500-SQL-OPEN-PER                                 PPP133
057300        IF PER-ROW-OPEN                                           PPP133
057400           PERFORM 8510-FETCH-PER                                 PPP133
057500           PERFORM 2100-PRINT-REPORT                              PPP133
057600                   THRU  2100-EXIT                                PPP133
057700             UNTIL EOF                                            PPP133
057800             OR WX-ABEND                                          PPP133
057900           IF RPT2-LINES-PER-PAGE  >   MAX-LINES-PER-PAGE         PPP133
058000              PERFORM 5150-WRITE-RPT2-NEWPAGE                     PPP133
058100           END-IF                                                 PPP133
058200           COMPUTE RPT-ADVANCE = (MAX-LINES-PER-PAGE -            PPP133
058300                              RPT2-LINES-PER-PAGE) + 2            PPP133
058400           MOVE WS-TOTAL TO RPT1-TOTAL                            PPP133
058500           WRITE PPP1332-LINE FROM PPP1331-TOTAL-LINE             PPP133
058600                              AFTER ADVANCING RPT-ADVANCE         PPP133
058700           PERFORM 8520-CLOSE-PER                                 PPP133
058800        END-IF                                                    PPP133
058900        MOVE SPACES TO WS-HOLD-SORT-NAME                          PPP133
059000     END-IF.                                                      PPP133
059100                                                                  PPP133
059200     MOVE WS-HOLD-SORT TO SPEC-PGM-SORT.                          PPP133
059300     IF DEPT-REPORT AND NOT WX-ABEND                              PPP133
059400        MOVE SPACE TO PGM-SORT-NAME, PGM-SORT-ID, PGM-SORT-STATUS PPP133
059500                      PER-ROW-OPEN-SW                             PPP133
059600                      RPT1-DEPT-DATA                              PPP133
059700                      RPT1-DEPT-DATA2                             PPP133
059800                      HDR1-HOME                                   PPP133
059900                      HDR2-HOME                                   PPP133
060000        MOVE 54 TO MAX-LINES-PER-PAGE                             PPP133
060100        MOVE ZERO TO STND-PAGE-NO                                 PPP133
060200                     WS-DEPT-TOTAL                                PPP133
060300                     WS-TOTAL                                     PPP133
060400        MOVE '       DEPARTMENT TOTAL: ' TO RPT1-TOTAL-DESC       PPP133
060500        SET FIRST-TIME TO TRUE                                    PPP133
060600        PERFORM 8500-SQL-OPEN-PER                                 PPP133
060700        IF PER-ROW-OPEN                                           PPP133
060800           PERFORM 8510-FETCH-PER                                 PPP133
060900           PERFORM 2100-PRINT-REPORT                              PPP133
061000             UNTIL EOF                                            PPP133
061100             OR WX-ABEND                                          PPP133
061200           IF RPT3-LINES-PER-PAGE > MAX-LINES-PER-PAGE            PPP133
061300              PERFORM 5510-WRITE-RPT3-NEWPAGE                     PPP133
061400           ELSE                                                   PPP133
061500           COMPUTE RPT-ADVANCE = (MAX-LINES-PER-PAGE -            PPP133
061600                              RPT3-LINES-PER-PAGE) + 2            PPP133
061700              MOVE WS-DEPT-TOTAL TO RPT1-TOTAL                    PPP133
061800              WRITE PPP1333-LINE FROM PPP1331-TOTAL-LINE          PPP133
061900                              AFTER ADVANCING RPT-ADVANCE         PPP133
062000           END-IF                                                 PPP133
062100           MOVE 'TOTAL NUMBER OF RECORDS: ' TO RPT1-TOTAL-DESC    PPP133
062200           MOVE WS-TOTAL TO RPT1-TOTAL                            PPP133
062300           WRITE PPP1333-LINE FROM PPP1331-TOTAL-LINE             PPP133
062400                              AFTER ADVANCING 1                   PPP133
062500           PERFORM 8520-CLOSE-PER                                 PPP133
062600        END-IF                                                    PPP133
062700        MOVE SPACES TO WS-HOLD-SORT-DEPT                          PPP133
062800     END-IF.                                                      PPP133
062900                                                                  PPP133
063000     MOVE WS-HOLD-SORT TO SPEC-PGM-SORT.                          PPP133
063100     IF STATUS-REPORT AND NOT WX-ABEND                            PPP133
063200        MOVE SPACE TO PGM-SORT-NAME, PGM-SORT-ID, PGM-SORT-DEPT   PPP133
063300                      PER-ROW-OPEN-SW                             PPP133
063400                      RPT1-DEPT-DATA                              PPP133
063500                      RPT1-DEPT-DATA2                             PPP133
063600        MOVE ' HOME' TO HDR1-HOME                                 PPP133
063700        MOVE 'DEPT ' TO HDR2-HOME                                 PPP133
063710        MOVE SPACES TO DEPT-HDR                                   PPP133
063800        MOVE 'GRADUATE STUDENTS' TO PRT-DEPT-DESC                 PPP133
063900        MOVE '  STUDENT STATUS TOTAL:  ' TO RPT1-TOTAL-DESC       PPP133
064000        MOVE 55 TO MAX-LINES-PER-PAGE                             PPP133
064100        MOVE ZERO TO STND-PAGE-NO                                 PPP133
064200                     WS-DEPT-TOTAL                                PPP133
064300                     WS-TOTAL                                     PPP133
064400        SET FIRST-TIME TO TRUE                                    PPP133
064500        PERFORM 8500-SQL-OPEN-PER                                 PPP133
064600        IF PER-ROW-OPEN                                           PPP133
064700           MOVE 1 TO STATUS-SORT-FLAG                             PPP133
064800           PERFORM 8510-FETCH-PER                                 PPP133
064900           PERFORM 2100-PRINT-REPORT                              PPP133
065000             UNTIL EOF                                            PPP133
065100             OR WX-ABEND                                          PPP133
065200           MOVE WS-DEPT-TOTAL TO RPT1-TOTAL                       PPP133
065300           WRITE PPP1334-LINE FROM PPP1331-TOTAL-LINE             PPP133
065400                              AFTER ADVANCING 2                   PPP133
065500           PERFORM 8520-CLOSE-PER                                 PPP133
065600           MOVE 54 TO MAX-LINES-PER-PAGE                          PPP133
065700           MOVE ZERO TO WS-DEPT-TOTAL                             PPP133
065800           MOVE SPACE TO                                          PPP133
065900                      PER-ROW-OPEN-SW                             PPP133
066000                      RPT1-DEPT-DATA                              PPP133
066100                      RPT1-DEPT-DATA2                             PPP133
066200                      HDR1-HOME                                   PPP133
066300                      HDR2-HOME                                   PPP133
066400           SET FIRST-TIME TO TRUE                                 PPP133
066500           MOVE 2 TO STATUS-SORT-FLAG                             PPP133
066600           PERFORM 8501-SQL-OPEN-PER-S2                           PPP133
066700           MOVE '       DEPARTMENT TOTAL: ' TO RPT1-TOTAL-DESC    PPP133
066800           MOVE 'DEPARTMENT:      ' TO PRT-DEPT-DESC              PPP133
066900           PERFORM 8510-FETCH-PER                                 PPP133
067000           PERFORM 2100-PRINT-REPORT                              PPP133
067100             UNTIL EOF                                            PPP133
067200             OR WX-ABEND                                          PPP133
067300           IF RPT4-LINES-PER-PAGE > MAX-LINES-PER-PAGE            PPP133
067400              PERFORM 5710-WRITE-RPT4-NEWPAGE                     PPP133
067500           ELSE                                                   PPP133
067600              MOVE WS-DEPT-TOTAL TO RPT1-TOTAL                    PPP133
067700              WRITE PPP1334-LINE FROM PPP1331-TOTAL-LINE          PPP133
067800                              AFTER ADVANCING RPT-ADVANCE         PPP133
067900           END-IF                                                 PPP133
068000           MOVE 'TOTAL NUMBER OF RECORDS: ' TO RPT1-TOTAL-DESC    PPP133
068100           MOVE WS-TOTAL TO RPT1-TOTAL                            PPP133
068200           WRITE PPP1334-LINE FROM PPP1331-TOTAL-LINE             PPP133
068300                              AFTER ADVANCING 1                   PPP133
068400           PERFORM 8520-CLOSE-PER                                 PPP133
068500        END-IF                                                    PPP133
068600     END-IF.                                                      PPP133
068700 2000-EXIT. EXIT.                                                 PPP133
068800     EJECT                                                        PPP133
068900***********************************************************       PPP133
069000*           P R I N T   R E P O R T                       *       PPP133
069100***********************************************************       PPP133
069200     SKIP1                                                        PPP133
069300 2100-PRINT-REPORT.                                               PPP133
069400     SKIP1                                                        PPP133
069500     PERFORM 2160-PRINT-DETAIL.                                   PPP133
069600     PERFORM 8510-FETCH-PER.                                      PPP133
069700 2100-EXIT. EXIT.                                                 PPP133
069800     SKIP1                                                        PPP133
069900***********************************************************       PPP133
070000*   CHANGE PER PAY  AND BEN ROWS OF SELECTED EMPLOYEES     *      PPP133
070100***********************************************************       PPP133
070200*----------------------------------------------------------------*PPP133
070300 2160-PRINT-DETAIL.                                               PPP133
070400     MOVE CR-EMP-NAME TO RPT1-EMP-NAME.                           PPP133
070500     MOVE CR-EMPLOYEE-ID TO RPT1-EMP-ID.                          PPP133
070600     MOVE RPT1-SSN-SEP TO RPT1-SSN.                               PPP133
070700     MOVE CR-SOC-SEC-NUM  TO WS-SSN.                              PPP133
070800     MOVE WS-SSN-3 TO RPT1-SSN-3                                  PPP133
070900     MOVE WS-SSN-2 TO RPT1-SSN-2                                  PPP133
071000     MOVE WS-SSN-4 TO RPT1-SSN-4                                  PPP133
071100     MOVE RPT1-BIRTH-DATE-SEP TO RPT1-BIRTH-DATE.                 PPP133
071200     MOVE CR-BIRTH-DATE TO XDC3-DB2-DATE.                         PPP133
071300     PERFORM XDC3-CONVERT-DB2-TO-STD.                             PPP133
071400     MOVE XDC3-STD-MM TO RPT1-BIRTH-MM                            PPP133
071500     MOVE XDC3-STD-DD TO RPT1-BIRTH-DD                            PPP133
071600     MOVE XDC3-STD-YY TO RPT1-BIRTH-YY.                           PPP133
071700     MOVE CR-PRIMARY-TITLE                                        PPP133
071800                         TO RPT1-PRIMARY-TITLE.                   PPP133
071900     MOVE '/' TO RPT1-SEP-U                                       PPP133
072000                 RPT1-SEP-N.                                      PPP133
072100     MOVE CR-STUDENT-STATUS                                       PPP133
072200                         TO RPT1-STUDENT-STATUS.                  PPP133
072300     MOVE CR-EMP-STATUS                                           PPP133
072400                     TO RPT1-EMP-STATUS.                          PPP133
072500     MOVE CR-REGISTERD-UNITS TO WS-UNITS.                         PPP133
072600     MOVE WS-UNITS-X TO RPT1-REGISTERD-UNITS.                     PPP133
072700     MOVE CR-CITIZEN-CODE                                         PPP133
072800                     TO RPT1-CITIZEN-CODE.                        PPP133
072900     MOVE CR-VISA-TYPE                                            PPP133
073000                     TO RPT1-VISA-TYPE.                           PPP133
073100     MOVE CR-RET-ELIG-CODE                                        PPP133
073200                     TO RPT1-RET.                                 PPP133
073300     MOVE CR-FICA-ELIG-CODE                                       PPP133
073400                     TO RPT1-FICA.                                PPP133
073500     IF ID-REPORT OR NAME-REPORT OR (STATUS-REPORT AND S1)        PPP133
073600        MOVE CR-HOME-DEPT TO WS-HOME-DEPT-NUMBER                  PPP133
073700                             RPT1-HOME-DEPT                       PPP133
073800        PERFORM 6000-GET-HOME-DEPARTMENT THRU                     PPP133
073900                6000-EXIT                                         PPP133
074000        MOVE WS-HOME-DEPT-NAME TO RPT1-HOME-DEPT-NAME             PPP133
074100     END-IF.                                                      PPP133
074200     IF ID-REPORT                                                 PPP133
074300        PERFORM 5000-WRITE-RPT1-LINE                              PPP133
074400     ELSE                                                         PPP133
074500        IF NAME-REPORT                                            PPP133
074600           PERFORM 5100-WRITE-RPT2-LINE                           PPP133
074700        ELSE                                                      PPP133
074800           IF DEPT-REPORT                                         PPP133
074900              PERFORM 5500-WRITE-RPT3-LINE                        PPP133
075000           ELSE                                                   PPP133
075100              PERFORM 5700-WRITE-RPT4-LINE                        PPP133
075200           END-IF                                                 PPP133
075300        END-IF                                                    PPP133
075400     END-IF.                                                      PPP133
075500*----------------------------------------------------------------*PPP133
075600***********************************************************       PPP133
075700*           PRINT REPORTS ON SELECTED EMPLOYEES           *       PPP133
075800***********************************************************       PPP133
075900     SKIP1                                                        PPP133
076000 5000-WRITE-RPT SECTION.                                          PPP133
076100 5000-WRITE-RPT1-LINE.                                            PPP133
076200     IF RPT1-LINES-PER-PAGE                >   MAX-LINES-PER-PAGE PPP133
076300        PERFORM 5050-WRITE-RPT1-NEWPAGE                           PPP133
076400     END-IF.                                                      PPP133
076500     WRITE PPP1331-LINE FROM PPP1331-DETAIL-LINE1                 PPP133
076600                           AFTER ADVANCING 2.                     PPP133
076700     WRITE PPP1331-LINE FROM PPP1331-DETAIL-LINE2                 PPP133
076800                           AFTER ADVANCING 1.                     PPP133
076900     ADD 3             TO RPT1-LINES-PER-PAGE.                    PPP133
077000     SKIP2                                                        PPP133
077100 5050-WRITE-RPT1-NEWPAGE.                                         PPP133
077200     SKIP1                                                        PPP133
077300     IF FIRST-TIME                                                PPP133
077400        SET NOT-FIRST-TIME TO TRUE                                PPP133
077500        MOVE 'PPP1331'        TO STND-RPT-ID                      PPP133
077600     END-IF.                                                      PPP133
077700     ADD   1               TO STND-PAGE-NO.                       PPP133
077800     INSPECT STND-PAGE-NO REPLACING LEADING ZEROS BY SPACE.       PPP133
077900     WRITE PPP1331-LINE FROM STND-RPT-HD1                         PPP133
078000                                        AFTER ADVANCING NEW-PAGE. PPP133
078100     WRITE PPP1331-LINE FROM STND-RPT-HD2 AFTER ADVANCING 1.      PPP133
078200     WRITE PPP1331-LINE FROM STND-RPT-HD3 AFTER ADVANCING 1.      PPP133
078300     WRITE PPP1331-LINE FROM PPP1331-HDR1 AFTER ADVANCING 3.      PPP133
078400     WRITE PPP1331-LINE FROM PPP1331-HDR2 AFTER ADVANCING 1.      PPP133
078500     MOVE  SPACES     TO PPP1331-LINE.                            PPP133
078600     WRITE PPP1331-LINE AFTER 1.                                  PPP133
078700     MOVE 9           TO RPT1-LINES-PER-PAGE.                     PPP133
078800 5100-WRITE-RPT2-LINE.                                            PPP133
078900     IF RPT2-LINES-PER-PAGE                >   MAX-LINES-PER-PAGE PPP133
079000        PERFORM 5150-WRITE-RPT2-NEWPAGE                           PPP133
079100     END-IF.                                                      PPP133
079200     WRITE PPP1332-LINE FROM PPP1331-DETAIL-LINE1                 PPP133
079300                           AFTER ADVANCING 2.                     PPP133
079400     WRITE PPP1332-LINE FROM PPP1331-DETAIL-LINE2                 PPP133
079500                           AFTER ADVANCING 1.                     PPP133
079600     ADD 3             TO RPT2-LINES-PER-PAGE.                    PPP133
079700     SKIP2                                                        PPP133
079800 5150-WRITE-RPT2-NEWPAGE.                                         PPP133
079900     SKIP1                                                        PPP133
080000     IF FIRST-TIME                                                PPP133
080100        SET NOT-FIRST-TIME TO TRUE                                PPP133
080200        MOVE 'PPP1332' TO STND-RPT-ID                             PPP133
080300     END-IF.                                                      PPP133
080400     ADD   1               TO STND-PAGE-NO.                       PPP133
080500     INSPECT STND-PAGE-NO REPLACING LEADING ZEROS BY SPACE.       PPP133
080600     WRITE PPP1332-LINE FROM STND-RPT-HD1                         PPP133
080700                                        AFTER ADVANCING NEW-PAGE. PPP133
080800     WRITE PPP1332-LINE FROM STND-RPT-HD2 AFTER ADVANCING 1.      PPP133
080900     WRITE PPP1332-LINE FROM STND-RPT-HD3 AFTER ADVANCING 1.      PPP133
081000     WRITE PPP1332-LINE FROM PPP1331-HDR1 AFTER ADVANCING 3.      PPP133
081100     WRITE PPP1332-LINE FROM PPP1331-HDR2 AFTER ADVANCING 1.      PPP133
081200     MOVE  SPACES     TO PPP1332-LINE.                            PPP133
081300     WRITE PPP1332-LINE AFTER 1.                                  PPP133
081400     MOVE 9           TO RPT2-LINES-PER-PAGE.                     PPP133
081500 5500-WRITE-RPT3-LINE.                                            PPP133
081600     IF CR-HOME-DEPT  NOT = PRT-HOME-DEPT-NUMBER                  PPP133
081700        MOVE CR-HOME-DEPT TO WS-HOME-DEPT-NUMBER                  PPP133
081800                             PRT-HOME-DEPT-NUMBER                 PPP133
081900        PERFORM 6000-GET-HOME-DEPARTMENT THRU                     PPP133
082000                6000-EXIT                                         PPP133
082100        MOVE WS-HOME-DEPT-NAME TO PRT-HOME-DEPT-NAME              PPP133
082200        PERFORM 5510-WRITE-RPT3-NEWPAGE                           PPP133
082300        ADD 1 TO WS-DEPT-TOTAL                                    PPP133
082400     ELSE                                                         PPP133
082500        ADD 1 TO WS-DEPT-TOTAL                                    PPP133
082600        IF RPT3-LINES-PER-PAGE > MAX-LINES-PER-PAGE               PPP133
082700           PERFORM 5510-WRITE-RPT3-NEWPAGE                        PPP133
082800        END-IF                                                    PPP133
082900     END-IF.                                                      PPP133
083000     WRITE PPP1333-LINE FROM PPP1331-DETAIL-LINE1                 PPP133
083100                           AFTER ADVANCING 2.                     PPP133
083200     WRITE PPP1333-LINE FROM PPP1331-DETAIL-LINE2                 PPP133
083300                           AFTER ADVANCING 1.                     PPP133
083400     ADD 3             TO RPT3-LINES-PER-PAGE.                    PPP133
083500     SKIP2                                                        PPP133
083600 5510-WRITE-RPT3-NEWPAGE.                                         PPP133
083700     SKIP1                                                        PPP133
083800     IF FIRST-TIME                                                PPP133
083900        SET NOT-FIRST-TIME TO TRUE                                PPP133
084000        MOVE 'PPP1333' TO STND-RPT-ID                             PPP133
084100     ELSE                                                         PPP133
084200        COMPUTE RPT-ADVANCE = (MAX-LINES-PER-PAGE -               PPP133
084300                              RPT3-LINES-PER-PAGE) + 2            PPP133
084400        MOVE WS-DEPT-TOTAL TO RPT1-TOTAL                          PPP133
084500        WRITE PPP1333-LINE FROM PPP1331-TOTAL-LINE                PPP133
084600                              AFTER ADVANCING RPT-ADVANCE         PPP133
084700        MOVE 0 TO WS-DEPT-TOTAL                                   PPP133
084800     END-IF.                                                      PPP133
084900     ADD   1               TO STND-PAGE-NO.                       PPP133
085000     INSPECT STND-PAGE-NO REPLACING LEADING ZEROS BY SPACE.       PPP133
085100     WRITE PPP1333-LINE FROM STND-RPT-HD1                         PPP133
085200                                        AFTER ADVANCING NEW-PAGE. PPP133
085300     WRITE PPP1333-LINE FROM STND-RPT-HD2 AFTER ADVANCING 1.      PPP133
085400     WRITE PPP1333-LINE FROM STND-RPT-HD3 AFTER ADVANCING 1.      PPP133
085500     WRITE PPP1333-LINE FROM DEPT-HDR    AFTER ADVANCING 1.       PPP133
085600     WRITE PPP1333-LINE FROM PPP1331-HDR1 AFTER ADVANCING 3.      PPP133
085700     WRITE PPP1333-LINE FROM PPP1331-HDR2 AFTER ADVANCING 1.      PPP133
085800     MOVE  SPACES     TO PPP1333-LINE.                            PPP133
085900     WRITE PPP1333-LINE AFTER 1.                                  PPP133
086000     MOVE 10          TO RPT3-LINES-PER-PAGE.                     PPP133
086100     SKIP2                                                        PPP133
086200 5700-WRITE-RPT4-LINE.                                            PPP133
086300     IF S2 AND                                                    PPP133
086400         (CR-HOME-DEPT  NOT = PRT-HOME-DEPT-NUMBER)               PPP133
086500        MOVE CR-HOME-DEPT TO WS-HOME-DEPT-NUMBER                  PPP133
086600                             PRT-HOME-DEPT-NUMBER                 PPP133
086700        PERFORM 6000-GET-HOME-DEPARTMENT THRU                     PPP133
086800                6000-EXIT                                         PPP133
086900        MOVE WS-HOME-DEPT-NAME TO PRT-HOME-DEPT-NAME              PPP133
087000        PERFORM 5710-WRITE-RPT4-NEWPAGE                           PPP133
087100        ADD 1 TO WS-DEPT-TOTAL                                    PPP133
087200     ELSE                                                         PPP133
087300        IF S1 AND FIRST-7 AND CR-STUDENT-STATUS = '7'             PPP133
087400           SET NOT-FIRST-7 TO TRUE                                PPP133
087500           MOVE WS-DEPT-TOTAL TO RPT1-TOTAL                       PPP133
087600           WRITE PPP1334-LINE FROM PPP1331-TOTAL-LINE             PPP133
087700                              AFTER ADVANCING 2                   PPP133
087800           MOVE 0 TO WS-DEPT-TOTAL                                PPP133
087900           MOVE SPACES TO PPP1334-LINE                            PPP133
088000           WRITE PPP1334-LINE AFTER ADVANCING 2                   PPP133
088100           ADD 4  TO RPT4-LINES-PER-PAGE                          PPP133
088200        END-IF                                                    PPP133
088300        ADD 1 TO WS-DEPT-TOTAL                                    PPP133
088400        IF RPT4-LINES-PER-PAGE > MAX-LINES-PER-PAGE               PPP133
088500           PERFORM 5710-WRITE-RPT4-NEWPAGE                        PPP133
088600        END-IF                                                    PPP133
088700     END-IF.                                                      PPP133
088800     WRITE PPP1334-LINE FROM PPP1331-DETAIL-LINE1                 PPP133
088900                           AFTER ADVANCING 2.                     PPP133
089000     WRITE PPP1334-LINE FROM PPP1331-DETAIL-LINE2                 PPP133
089100                           AFTER ADVANCING 1.                     PPP133
089200     ADD 3             TO RPT4-LINES-PER-PAGE.                    PPP133
089300     SKIP2                                                        PPP133
089400 5710-WRITE-RPT4-NEWPAGE.                                         PPP133
089500     SKIP1                                                        PPP133
089600     IF FIRST-TIME                                                PPP133
089700        SET NOT-FIRST-TIME TO TRUE                                PPP133
089800        MOVE 'PPP1334' TO STND-RPT-ID                             PPP133
089900     ELSE                                                         PPP133
090000        IF S2                                                     PPP133
090100           COMPUTE RPT-ADVANCE = (MAX-LINES-PER-PAGE -            PPP133
090200                              RPT4-LINES-PER-PAGE) + 2            PPP133
090300           MOVE WS-DEPT-TOTAL TO RPT1-TOTAL                       PPP133
090400           WRITE PPP1334-LINE FROM PPP1331-TOTAL-LINE             PPP133
090500                              AFTER ADVANCING RPT-ADVANCE         PPP133
090600           MOVE 0 TO WS-DEPT-TOTAL                                PPP133
090700        END-IF                                                    PPP133
090800     END-IF.                                                      PPP133
090900     ADD   1               TO STND-PAGE-NO.                       PPP133
091000     INSPECT STND-PAGE-NO REPLACING LEADING ZEROS BY SPACE.       PPP133
091100     WRITE PPP1334-LINE FROM STND-RPT-HD1                         PPP133
091200                                        AFTER ADVANCING NEW-PAGE. PPP133
091300     WRITE PPP1334-LINE FROM STND-RPT-HD2 AFTER ADVANCING 1.      PPP133
091400     WRITE PPP1334-LINE FROM STND-RPT-HD3 AFTER ADVANCING 1.      PPP133
091500     WRITE PPP1334-LINE FROM DEPT-HDR    AFTER ADVANCING 1.       PPP133
091600     WRITE PPP1334-LINE FROM PPP1331-HDR1 AFTER ADVANCING 3.      PPP133
091700     WRITE PPP1334-LINE FROM PPP1331-HDR2 AFTER ADVANCING 1.      PPP133
091800     MOVE  SPACES     TO PPP1334-LINE.                            PPP133
091900     WRITE PPP1334-LINE AFTER 1.                                  PPP133
092000     MOVE 10          TO RPT4-LINES-PER-PAGE.                     PPP133
092100     SKIP2                                                        PPP133
092200***********************************************************       PPP133
092300*         U T I I T I E S                                 *       PPP133
092400***********************************************************       PPP133
092500 6000-GET-HOME-DEPARTMENT.                                        PPP133
092600     SKIP1                                                        PPP133
092700     MOVE 'SELECT DEPT DATA' TO DB2MSG-TAG.                       PPP133
092800     EXEC SQL                                                     PPP133
092900         SELECT HME_ABRV_DEPT_NAME INTO :HME-ABRV-DEPT-NAME       PPP133
093000         FROM PPPVZHME_HME                                        PPP133
093100         WHERE HME_DEPT_NO = :WS-HOME-DEPT-NUMBER                 PPP133
093200     END-EXEC.                                                    PPP133
093300     IF SQLCODE = ZERO                                            PPP133
093400         MOVE HME-ABRV-DEPT-NAME TO WS-HOME-DEPT-NAME             PPP133
093500     ELSE                                                         PPP133
093600        MOVE 'UNKNOWN DEPT   '   TO WS-HOME-DEPT-NAME             PPP133
093700     END-IF.                                                      PPP133
093800 6000-EXIT. EXIT.                                                 PPP133
093900     SKIP1                                                        PPP133
094000 7500-CALL-PPMSGUTL.                                              PPP133
094100     SKIP1                                                        PPP133
094200     CALL 'PPMSGUT2' USING MSSG-INTERFACE.                        PPP133
094300     SKIP1                                                        PPP133
094400     IF XMSG-SEVERITY > 7                                         PPP133
094500         SET WX-ABEND  TO TRUE                                    PPP133
094600     END-IF.                                                      PPP133
094700     SKIP3                                                        PPP133
094800 8500-SQL-OPEN-PER SECTION.                                       PPP133
094900     IF NOT    PER-ROW-OPEN                                       PPP133
095000         MOVE 'OPEN PER CURSOR' TO DB2MSG-TAG                     PPP133
095100         IF ID-REPORT                                             PPP133
095200            EXEC SQL                                              PPP133
095300                OPEN PER_ROW_I                                    PPP133
095400            END-EXEC                                              PPP133
095500         ELSE                                                     PPP133
095600            IF NAME-REPORT                                        PPP133
095700               EXEC SQL                                           PPP133
095800                   OPEN PER_ROW_N                                 PPP133
095900               END-EXEC                                           PPP133
096000            ELSE                                                  PPP133
096100               IF DEPT-REPORT                                     PPP133
096200                  EXEC SQL                                        PPP133
096300                      OPEN PER_ROW_D                              PPP133
096400                  END-EXEC                                        PPP133
096500               ELSE                                               PPP133
096600                  EXEC SQL                                        PPP133
096700                      OPEN PER_ROW_S                              PPP133
096800                  END-EXEC                                        PPP133
096900               END-IF                                             PPP133
097000            END-IF                                                PPP133
097100         END-IF                                                   PPP133
097200     END-IF.                                                      PPP133
097300     IF  SQLCODE = 0                                              PPP133
097400         SET PER-ROW-OPEN TO TRUE                                 PPP133
097500     ELSE                                                         PPP133
097600         SET WX-ABEND TO TRUE                                     PPP133
097700         MOVE 0 TO SQLCODE                                        PPP133
097800     END-IF.                                                      PPP133
097900 8501-SQL-OPEN-PER-S2 SECTION.                                    PPP133
098000     IF NOT    PER-ROW-OPEN                                       PPP133
098100         MOVE 'OPEN PER CURSOR' TO DB2MSG-TAG                     PPP133
098200         EXEC SQL                                                 PPP133
098300             OPEN PER_ROW_S2                                      PPP133
098400         END-EXEC                                                 PPP133
098500     END-IF.                                                      PPP133
098600     IF  SQLCODE = 0                                              PPP133
098700         SET PER-ROW-OPEN TO TRUE                                 PPP133
098800     ELSE                                                         PPP133
098900         SET WX-ABEND TO TRUE                                     PPP133
099000         MOVE 0 TO SQLCODE                                        PPP133
099100     END-IF.                                                      PPP133
099200 8510-FETCH-PER SECTION.                                          PPP133
099300     MOVE 'FETCH PER ROW' TO DB2MSG-TAG.                          PPP133
099400     IF ID-REPORT                                                 PPP133
099500        EXEC SQL                                                  PPP133
099600             FETCH PER_ROW_I INTO :CURSOR-ROW                     PPP133
099700        END-EXEC                                                  PPP133
099800     ELSE                                                         PPP133
099900        IF NAME-REPORT                                            PPP133
100000           EXEC SQL                                               PPP133
100100                FETCH PER_ROW_N INTO :CURSOR-ROW                  PPP133
100200           END-EXEC                                               PPP133
100300        ELSE                                                      PPP133
100400           IF DEPT-REPORT                                         PPP133
100500              EXEC SQL                                            PPP133
100600                FETCH PER_ROW_D INTO :CURSOR-ROW                  PPP133
100700              END-EXEC                                            PPP133
100800           ELSE                                                   PPP133
100900              IF S2                                               PPP133
101000                 EXEC SQL                                         PPP133
101100                    FETCH PER_ROW_S2 INTO :CURSOR-ROW             PPP133
101200                 END-EXEC                                         PPP133
101300              ELSE                                                PPP133
101400                 EXEC SQL                                         PPP133
101500                    FETCH PER_ROW_S INTO :CURSOR-ROW              PPP133
101600                 END-EXEC                                         PPP133
101700              END-IF                                              PPP133
101800           END-IF                                                 PPP133
101900        END-IF                                                    PPP133
102000     END-IF.                                                      PPP133
102100     IF SQLCODE = 0                                               PPP133
102200        ADD 1 TO WS-TOTAL                                         PPP133
102300     ELSE                                                         PPP133
102400        IF SQLCODE = +100                                         PPP133
102500           SET EOF TO TRUE                                        PPP133
102600        ELSE                                                      PPP133
102700           SET WX-ABEND TO TRUE                                   PPP133
102800        END-IF                                                    PPP133
102900     END-IF.                                                      PPP133
103000 8510-FETCH-PER-EXIT.                                             PPP133
103100     EXIT.                                                        PPP133
103200 8520-CLOSE-PER SECTION.                                          PPP133
103300     IF PER-ROW-OPEN                                              PPP133
103400         MOVE 'CLOSE PER CURSOR' TO DB2MSG-TAG                    PPP133
103500         IF ID-REPORT                                             PPP133
103600            EXEC SQL                                              PPP133
103700               CLOSE PER_ROW_I                                    PPP133
103800            END-EXEC                                              PPP133
103900         ELSE                                                     PPP133
104000            IF NAME-REPORT                                        PPP133
104100               EXEC SQL                                           PPP133
104200                  CLOSE PER_ROW_N                                 PPP133
104300               END-EXEC                                           PPP133
104400            ELSE                                                  PPP133
104500               IF DEPT-REPORT                                     PPP133
104600                  EXEC SQL                                        PPP133
104700                     CLOSE PER_ROW_D                              PPP133
104800                  END-EXEC                                        PPP133
104900               ELSE                                               PPP133
105000                  IF S1                                           PPP133
105100                     EXEC SQL                                     PPP133
105200                        CLOSE PER_ROW_S                           PPP133
105300                     END-EXEC                                     PPP133
105400                  ELSE                                            PPP133
105500                     EXEC SQL                                     PPP133
105600                        CLOSE PER_ROW_S2                          PPP133
105700                     END-EXEC                                     PPP133
105800                  END-IF                                          PPP133
105900               END-IF                                             PPP133
106000            END-IF                                                PPP133
106100         END-IF                                                   PPP133
106200         MOVE SPACE TO PER-ROW-OPEN-SW                            PPP133
106300     END-IF.                                                      PPP133
106400     IF SQLCODE = 0                                               PPP133
106500        MOVE 0 TO EOF-FLAG                                        PPP133
106600     ELSE                                                         PPP133
106700        SET WX-ABEND TO TRUE                                      PPP133
106800     END-IF.                                                      PPP133
106900    SKIP1                                                         PPP133
107000                                                                  PPP133
107100 8900-DATE-CONVERSION SECTION.                                    PPP133
107200    COPY CPPDXDC3.                                                PPP133
107300***********************************************************       PPP133
107400*                    F I N A L I Z E                      *       PPP133
107500***********************************************************       PPP133
107600     SKIP1                                                        PPP133
107700 9000-FINALIZATION SECTION.                                       PPP133
107800     SKIP1                                                        PPP133
107900     IF WX-ABEND                                                  PPP133
108000        MOVE +9        TO RETURN-CODE                             PPP133
108100        GO TO 9000-EXIT                                           PPP133
108200     END-IF.                                                      PPP133
108300     SKIP1                                                        PPP133
108400 9000-EXIT.                                                       PPP133
108500     CLOSE   CARDFILE.                                            PPP133
108600     CLOSE   PPP1331-REPORT                                       PPP133
108700             PPP1332-REPORT                                       PPP133
108800             PPP1333-REPORT                                       PPP133
108900             PPP1334-REPORT.                                      PPP133
109000*                                                                *PPP133
109100     SKIP1                                                        PPP133
109200*999999-SQL-ERROR.                                               *PPP133
109300     EXEC SQL                                                     PPP133
109400          INCLUDE CPPDXP99                                        PPP133
109500     END-EXEC.                                                    PPP133
109600     IF NOT HERE-BEFORE                                           PPP133
109700         SET HERE-BEFORE TO TRUE                                  PPP133
109800     END-IF.                                                      PPP133
109900     MOVE +9               TO RETURN-CODE.                        PPP133
110000     MOVE DB2MSG-MESSNO               TO XMSG-NUMBER.             PPP133
110100     PERFORM 7500-CALL-PPMSGUTL.                                  PPP133
110200     STOP RUN.                                                    PPP133
110300********  END OF PROGRAM PPP133 ********                          PPP133
