000100*==========================================================%      UCDS0006
000200*= UCSD LOCAL CHANGES HAVE BEEN IMPLEMENTED.              =%      UCDS0006
000300*= COLUMN 73 THRU 80 DENOTES CHANGE NUMBER - UCSD9999     =%      UCDS0006
000400*=                                                        =%      UCDS0006
000500*==========================================================%      UCDS0006
000600*=============================================================%   UCSD0084
000700*=   PROGRAM:  PPP435                                        =%   UCSD0084
000800*=   CHANGE:   #0084       PROJ. REQUEST:  ACR               =%   UCSD0084
000900*=   NAME: G. CHIU         MODIFICATION DATE: 03/28/96       =%   UCSD0084
001000*=                                                           =%   UCSD0084
001100*=   DESCRIPTION:                                            =%   UCSD0084
001200*=   RESTORE THE PURGED PCR ROW.                             =%   UCSD0084
000600*=============================================================%   UCSD0084
000600*=============================================================%   UCSD0006
000700*=   PROGRAM:  PPP435                                        =%   UCSD0006
000800*=   CHANGE:   #0006       PROJ. REQUEST:  REL699            =%   UCSD0006
000900*=   NAME: G. CHIU         MODIFICATION DATE: 10/18/92       =%   UCSD0006
001000*=                                                           =%   UCSD0006
001100*=   DESCRIPTION:  PROGRAM WAS MODIFIED TO PRODUCT           =%   UCSD0006
001200*=   PRODUCTION CONTROL REPORTS.                             =%   UCSD0006
001300*=                                                           =%   UCSD0006
001400*=                                                           =%   UCSD0006
001500*=============================================================%   UCSD0006
000001**************************************************************/   30871230
000002*  PROGRAM: PPP435                                           */   30871230
000003*  RELEASE: ___1230______ SERVICE REQUEST(S): _____3087____  */   30871230
000004*  NAME:___SRS___________ MODIFICATION DATE:  ___03/08/99__  */   30871230
000005*  DESCRIPTION:                                              */   30871230
000006*  REPLACE MESSAGE UTILITY CALLS WITH DB2 VERSION.           */   30871230
000007*  CHANGE TO USE NEW SEVERITIES.                             */   30871230
000008**************************************************************/   30871230
000000**************************************************************/   28521087
000001*  PROGRAM: PPP435                                           */   28521087
000002*  RELEASE: ___1087______ SERVICE REQUEST(S): ____12852____  */   28521087
000003*  NAME:_______QUAN______ MODIFICATION DATE:  ___07/10/96__  */   28521087
000004*  DESCRIPTION:                                              */   28521087
000005*  ** DATE CONVERSION II **                                  */   28521087
000006*  - REPLACED CPWSXDC2 AND CPPDXDC2 WITH CPWSXDC3 AND        */   28521087
000007*    CPPDXDC3.                                               */   28521087
000008**************************************************************/   28521087
000010**************************************************************/   36370967
000020*  PROGRAM: PPP435                                           */   36370967
000030*  RELEASE: ___0967______ SERVICE REQUEST(S): _____3637____  */   36370967
000040*  NAME:___JLT___________ CREATION DATE:      ___03/10/95__  */   36370967
000050*  DESCRIPTION:                                              */   36370967
000060*   - TABLES TTC AND TIM WILL NOW BE RELATED TO THE PCR      */   36370967
000061*     FOR CASCADE DELETE BASED ON PPI. DELETE COUNTS ADDED   */   36370967
000062*     FOR TIM TABLE.                                         */   36370967
000070**************************************************************/   36370967
001600**************************************************************/   36300699
001700*  PROGRAM: PPP435                                           */   36300699
001800*  RELEASE: ___0699______ SERVICE REQUEST(S): _____3630____  */   36300699
001900*  NAME:___PXP___________ CREATION DATE:      ___09/17/92__  */   36300699
002000*  DESCRIPTION:                                              */   36300699
002100*  PAYROLL COMPUTE DB2 THF PURGE PROGRAM                     */   36300699
002200**************************************************************/   36300699
002300     SKIP2                                                        PPP435
002400 IDENTIFICATION DIVISION.                                         PPP435
002500 PROGRAM-ID. PPP435.                                              PPP435
002600 AUTHOR. UCOP                                                     PPP435
002700 DATE-WRITTEN. FEB 1992.                                          PPP435
002800 DATE-COMPILED.                                                   PPP435
002900     SKIP2                                                        PPP435
003000 ENVIRONMENT DIVISION.                                            PPP435
003100 CONFIGURATION SECTION.                                           PPP435
003200 SPECIAL-NAMES.                                                   PPP435
003300     SKIP1                                                        PPP435
003400     C01 IS NEW-PAGE.                                             PPP435
003500     SKIP1                                                        PPP435
003600 INPUT-OUTPUT SECTION.                                            PPP435
003700 FILE-CONTROL.                                                    PPP435
003800     SKIP2                                                        PPP435
003900     SELECT CARDFILE                 COPY CPSLXCRD.               PPP435
004000     SKIP2                                                        PPP435
004100     SELECT PPP4352-REPORT ASSIGN TO PPP4352.                     PPP435
004200     SKIP2                                                        PPP435
004300     SELECT PAYROLL-PROCESS-ID-FILE  COPY CPSLXPPI.               PPP435
004400     COPY CLSLCRPT.                                               UCSD0006
004500     EJECT                                                        PPP435
004600******************************************************************PPP435
004700*                                                                *PPP435
004800*                         DATA DIVISION                          *PPP435
004900*                                                                *PPP435
005000******************************************************************PPP435
005100 DATA DIVISION.                                                   PPP435
005200 FILE SECTION.                                                    PPP435
005300     SKIP3                                                        PPP435
005400 FD  CARDFILE                                                     PPP435
005500     LABEL RECORDS ARE OMITTED                                    PPP435
005600     RECORDING MODE IS F                                          PPP435
005700     RECORD CONTAINS 80 CHARACTERS                                PPP435
005800     DATA RECORD IS CARD-RECORD.                                  PPP435
005900     SKIP1                                                        PPP435
006000 01  CARD-RECORD                  PIC X(80).                      PPP435
006100     SKIP3                                                        PPP435
006200 FD  PPP4352-REPORT                                               PPP435
006300     LABEL RECORDS ARE OMITTED                                    PPP435
006400     BLOCK CONTAINS 0 RECORDS                                     PPP435
006500     RECORDING MODE IS F                                          PPP435
006600     RECORD CONTAINS 133 CHARACTERS                               PPP435
006700     DATA RECORD IS RPT2.                                         PPP435
006800     SKIP1                                                        PPP435
006900 01  RPT2.                                                        PPP435
007000     05  RPT2-CC                  PIC X(01).                      PPP435
007100     05  FILLER                   PIC X(132).                     PPP435
007200     SKIP3                                                        PPP435
007300 FD  PAYROLL-PROCESS-ID-FILE                                      PPP435
007400         COPY CPFDXPPI.                                           PPP435
007500 01  PAYROLL-PROCESS-ID-RECORD    PIC X(08).                      PPP435
007600                                                                  PPP435
007700     COPY CLFDCRPT.                                               UCSD0006
007800 WORKING-STORAGE SECTION.                                         PPP435
007900     SKIP1                                                        PPP435
008000     COPY CLWSCRPT.                                               UCSD0006
006210 77  WS-NULL-IND                     PIC S9(04) COMP VALUE ZERO.  36370967
006220 77  WS-TOTAL-COUNT                  PIC S9(08) COMP VALUE ZERO.  36370967
006230 77  WS-THF-COUNT                    PIC S9(08) COMP VALUE ZERO.  36370967
006240 77  WS-TIM-COUNT                    PIC S9(08) COMP VALUE ZERO.  36370967
006250                                                                  36370967
008100 01  MISC-WORK.                                                   PPP435
008200     05  PCR-ROW-OPEN-SW          PIC X(01) VALUE SPACE.          PPP435
008300         88 PCR-ROW-OPEN                    VALUE 'Y'.            PPP435
008400     05  PCR-FOUND-SW             PIC X(01) VALUE SPACE.          PPP435
008500         88 PCR-FOUND                       VALUE 'Y'.            PPP435
008600     05  NO-SPEC-CARD-SW          PIC X(01) VALUE SPACE.          PPP435
008700         88 NO-SPEC-CARD                    VALUE 'Y'.            PPP435
008800     05  HERE-BEFORE-SW           PIC X(01) VALUE SPACE.          PPP435
008900         88 HERE-BEFORE                     VALUE 'Y'.            PPP435
009000     05  WS-PAY-CYCLE-CHK-DATE   PIC X(10).                       PPP435
009100     05  WS-PAY-CYCLE-END-DATE   PIC X(10).                       PPP435
009200     05  WS-PAY-CYCLE-CODE-1     PIC X(02).                       PPP435
009300     05  WS-PAY-CYCLE-CODE-2     PIC X(02).                       PPP435
009400     05  WS-PAY-CYCLE-CODE-3     PIC X(02).                       PPP435
007410 01  CPWSSEVX         EXTERNAL.   COPY CPWSSEVX.                  30871230
007420 01  CALLED-ROUTINES.             COPY CPWSXRTN.                  30871230
009500 01  XPCR-RECORD.                                                 UCSD0084
009600                                            COPY 'CPWSXPCR'.      PPP435
009700 01  PAYROLL-PROCESS-ID.          COPY CPWSXPPI.                  PPP435
009800*                                                                *PPP435
009900*    NOTE THAT THE PRECOMPILER (AT THIS TIME) FINDS THESE        *PPP435
010000*    LOCAL VARIABLES UNACCEPTABLE UNLESS THE COBOL LEVEL         *PPP435
010100*    NUMBERS IN THIS STRUCTURE MATCH THOSE IN THE VIEWS          *PPP435
010200*    THAT CONTAIN THE CORRSEPONDING ITEM!                        *PPP435
010300*                                                                *PPP435
010400*                                                                *PPP435
010500 01  PPI-STUFF.                                                   PPP435
010600     10 WS-PPI                    PIC X(08) VALUE SPACE.          PPP435
010700 01  SPEC-CARD.                                                   PPP435
010800     05  SPEC-CARD-I-D          PIC X(10).                        PPP435
010900         88  VALID-SPEC-PGM-ID              VALUE 'PP435-SPEC'.   PPP435
011000     05  SPEC-CARD-CHECK-DATE.                                    PPP435
011100         10  SPEC-CARD-CHECK-MONTH   PIC 99.                      PPP435
011200         10  SPEC-CARD-CHECK-DAY     PIC 99.                      PPP435
011300         10  SPEC-CARD-CHECK-YEAR    PIC 99.                      PPP435
011400     05  SPEC-CARD-PAY-END.                                       PPP435
011500         10  SPEC-CARD-PAY-MONTH PIC XX.                          PPP435
011600         10  SPEC-CARD-PAY-DAY   PIC XX.                          PPP435
011700         10  SPEC-CARD-PAY-YEAR  PIC XX.                          PPP435
011800     05  SPEC-CARD-CYCLES        OCCURS 3.                        PPP435
011900         10  SPEC-CARD-CYCLE-TYPE    PIC XX.                      PPP435
012000         10  SPEC-CARD-CYCLE-BEGIN.                               PPP435
012100             15  SPEC-CARD-CYCLE-BGN-MONTH   PIC XX.              PPP435
012200             15  SPEC-CARD-CYCLE-BGN-DAY     PIC XX.              PPP435
012300             15  SPEC-CARD-CYCLE-BGN-YEAR    PIC XX.              PPP435
012400     05  SPEC-CARD-PPI               PIC X(08).                   PPP435
012500     05  FILLER                      PIC X(10).                   PPP445
012600     05  SPEC-CARD-PPI-OVERRIDE      PIC X(08).                   PPP435
012700 01  WK-RPT4302.                                                  PPP435
012800     05  FILLER                   PIC X(01) VALUE SPACE.          PPP435
011001     05  FILLER                   PIC X(26)                       36370967
011010             VALUE 'THF AND TIME ROSTER PURGED'.                  36370967
013100     05  FILLER                   PIC X(27)                       PPP435
013200             VALUE ' FOR PPI: '.                                  PPP435
013300     05  WK-PPI                   PIC X(08)                       PPP435
013400             VALUE SPACE.                                         PPP435
011410 01  WK-RPT4302-RDF   REDEFINES                                   36370967
011411     WK-RPT4302.                                                  36370967
011420     05  FILLER                   PIC X(01).                      36370967
011430     05  RPT4302-DESC             PIC X(30).                      36370967
011440     05  RPT4302-CNT              PIC ZZ,ZZZ,ZZ9.                 36370967
011450     05  FILLER                   PIC X(30).                      36370967
013500 01  MESSAGE-LITERALS.                                            PPP435
013600     05  M43501                   PIC X(05) VALUE '43501'.        PPP435
013700     05  M43502                   PIC X(05) VALUE '43502'.        PPP435
013800     05  M43503                   PIC X(05) VALUE '43503'.        PPP435
013900     05  M43504                   PIC X(05) VALUE '43504'.        PPP435
014000     05  M43505                   PIC X(05) VALUE '43505'.        PPP435
014100     05  M43506                   PIC X(05) VALUE '43506'.        PPP435
014200     05  M43507                   PIC X(05) VALUE '43507'.        PPP435
014300     05  M43508                   PIC X(05) VALUE '43508'.        PPP435
014400     05  M43509                   PIC X(05) VALUE '43509'.        PPP435
014500     05  M43510                   PIC X(05) VALUE '43510'.        PPP435
014600     05  M43511                   PIC X(05) VALUE '43511'.        PPP435
014700     05  M43512                   PIC X(05) VALUE '43512'.        PPP435
014800 01  STND-RPT-HD.                                                 PPP435
014900                                            COPY CPWSPSHR.        PPP435
015000 01  DATE-FORMAT.                                                 PPP435
015100          COPY CPWSDATE.                                          PPP435
015200 01  TIME-FORMAT.                                                 PPP435
015300          COPY CPWSTIME.                                          PPP435
015400 01  MSSG-INTERFACE.                                              PPP435
015500                                            COPY CPWSXMIF.        PPP435
015600 01  PPDB2MSG-INTERFACE.                      COPY CPLNKDB2.      PPP435
013700*                                                              CD 30871230
013710 01  DATE-CONVERSION-WORK-AREAS. COPY CPWSXDC3.                   28521087
015800******************************************************************PPP435
013850*                                                                 36370967
013860 01  WS-THF.                                                      36370967
013870     EXEC SQL                                                     36370967
013880         INCLUDE PPPVZTHF                                         36370967
013890     END-EXEC.                                                    36370967
013891*                                                                 36370967
013892 01  WS-TIM.                                                      36370967
013893     EXEC SQL                                                     36370967
013894         INCLUDE PPPVZTIM                                         36370967
013895     END-EXEC.                                                    36370967
013896*                                                                 36370967
015900 01  PCR-ROW-DATA.                                                PPP435
016000     EXEC SQL                                                     PPP435
014100          INCLUDE PPPVPCR1                                        36370967
014200     END-EXEC.                                                    36370967
015900 01  PCR-SAVED.                                                   UCSD0084
016000     EXEC SQL                                                     UCSD0084
014100          INCLUDE PPPVZPCR                                        UCSD0084
014200     END-EXEC.                                                    UCSD0084
016300     EXEC SQL                                                     PPP435
016400         INCLUDE SQLCA                                            PPP435
016500     END-EXEC.                                                    PPP435
016600     EXEC SQL                                                     PPP435
016700          DECLARE PCR_ROW CURSOR FOR                              PPP435
014710          SELECT PAY_PROCESS_ID                                   36370967
014720                ,LAST_PGM_RUN                                     36370967
014730                ,PAY_CYCLE_CHK_DATE                               36370967
014740                ,PAY_CYCLE_END_DATE                               36370967
014750                ,PAY_CYCLE_CODE_1                                 36370967
014760                ,PAY_CYCLE_CODE_2                                 36370967
014770                ,PAY_CYCLE_CODE_3                                 36370967
014780                ,PAY_CYC_BEG_DATE_1                               36370967
014790                ,PAY_CYC_BEG_DATE_2                               36370967
014791                ,PAY_CYC_BEG_DATE_3                               36370967
014792                ,PAY_CYC_PPE_DATE_1                               36370967
014793                ,PAY_CYC_PPE_DATE_2                               36370967
014794                ,PAY_CYC_PPE_DATE_3                               36370967
014795                ,PAY_CYC_WRK_DAYS_1                               36370967
014796                ,PAY_CYC_WRK_DAYS_2                               36370967
014797                ,PAY_CYC_WRK_DAYS_3                               36370967
014798                ,PAY_DEDN_SCHED_1                                 36370967
014799                ,PAY_DEDN_SCHED_2                                 36370967
014800                ,PAY_DEDN_SCHED_3                                 36370967
014801                ,PERIOD_END_MNTH                                  36370967
014802                ,PERIOD_END_QTR                                   36370967
014803                ,PERIOD_END_YR                                    36370967
014804                ,PERIOD_END_FY                                    36370967
014805                ,NEXT_PER_MNTH                                    36370967
014806                ,NEXT_PER_QTR                                     36370967
014807                ,NEXT_PER_YR                                      36370967
014808                ,NEXT_PER_FY                                      36370967
014809                ,LAST_DAY_MNTH                                    36370967
014810                ,QTR_CODE                                         36370967
014811                ,LAST_EDB_GEN                                     36370967
014812                ,LAST_PR_GEN                                      36370967
014813                ,THF_SEQ_NUM                                      36370967
014814                ,RE_EDIT_IND                                      36370967
014815                ,CHECK_REL_DATE                                   36370967
014816                ,BW_WORK_DAYS                                     36370967
014817                ,FSCL_IND                                         36370967
014818                ,DAY_ARRAYS                                       36370967
014819                ,BW_ACUR_DATE_1                                   36370967
014820                ,BW_ACUR_DATE_2                                   36370967
014821                ,BW_ACUR_DATE_3                                   36370967
014822              FROM PPPVPCR1_PCR                                   36370967
016900              WHERE PAY_CYCLE_CHK_DATE = :WS-PAY-CYCLE-CHK-DATE   PPP435
017000                AND PAY_CYCLE_END_DATE = :WS-PAY-CYCLE-END-DATE   PPP435
017100                AND                                               PPP435
017200              ((PAY_CYCLE_CODE_1       = :WS-PAY-CYCLE-CODE-1     PPP435
017300                AND PAY_CYCLE_CODE_2   = :WS-PAY-CYCLE-CODE-2     PPP435
017400                AND PAY_CYCLE_CODE_3   = :WS-PAY-CYCLE-CODE-3)    PPP435
017500                OR                                                PPP435
017600               (PAY_CYCLE_CODE_1       = :WS-PAY-CYCLE-CODE-1     PPP435
017700                AND PAY_CYCLE_CODE_2   = :WS-PAY-CYCLE-CODE-3     PPP435
017800                AND PAY_CYCLE_CODE_3   = :WS-PAY-CYCLE-CODE-2)    PPP435
017900                OR                                                PPP435
018000               (PAY_CYCLE_CODE_1       = :WS-PAY-CYCLE-CODE-2     PPP435
018100                AND PAY_CYCLE_CODE_2   = :WS-PAY-CYCLE-CODE-1     PPP435
018200                AND PAY_CYCLE_CODE_3   = :WS-PAY-CYCLE-CODE-3)    PPP435
018300                OR                                                PPP435
018400               (PAY_CYCLE_CODE_1       = :WS-PAY-CYCLE-CODE-2     PPP435
018500                AND PAY_CYCLE_CODE_2   = :WS-PAY-CYCLE-CODE-3     PPP435
018600                AND PAY_CYCLE_CODE_3   = :WS-PAY-CYCLE-CODE-1)    PPP435
018700                OR                                                PPP435
018800               (PAY_CYCLE_CODE_1       = :WS-PAY-CYCLE-CODE-3     PPP435
018900                AND PAY_CYCLE_CODE_2   = :WS-PAY-CYCLE-CODE-1     PPP435
019000                AND PAY_CYCLE_CODE_3   = :WS-PAY-CYCLE-CODE-2)    PPP435
019100                OR                                                PPP435
019200               (PAY_CYCLE_CODE_1       = :WS-PAY-CYCLE-CODE-3     PPP435
019300                AND PAY_CYCLE_CODE_2   = :WS-PAY-CYCLE-CODE-2     PPP435
019400                AND PAY_CYCLE_CODE_3   = :WS-PAY-CYCLE-CODE-1))   PPP435
019500     END-EXEC.                                                    PPP435
019600     EJECT                                                        PPP435
019700 PROCEDURE DIVISION.                                              PPP435
019800**************************************************************/  *PPP435
019900*  SQL FROM PRE-COMPILER                                     */  *PPP435
020000**************************************************************/  *PPP435
020100******************************************************************PPP435
020200*****THE FOLLOWING SQL WILL CAUSE ANY 'ABNORMAL' SQLCODE TO      *PPP435
020300*****CAUSE A BRANCH TO 999999-SQL-ERROR                          *PPP435
020400******************************************************************PPP435
020500     EXEC SQL                                                     PPP435
020600          INCLUDE CPPDXE99                                        PPP435
020700     END-EXEC.                                                    PPP435
020800     SKIP1                                                        PPP435
020900 MAINLINE SECTION.                                                PPP435
021000     SKIP1                                                        PPP435
021100     COPY CLPDCRPT.                                               UCSD0006
021200     PERFORM 1000-INITIALIZATION.                                 PPP435
019200*****IF XMSG-HIGHEST-SEVERITY NOT > '4'                           30871230
019210     IF XMSG-HIGHEST-SEVERITY < CPWSSEVX-SEE-SYSTEM-SEV           30871230
021400         IF  PCR-FOUND                                            PPP435
019320         PERFORM  9551-COUNT-THF-ROWS                             36370967
019330         MOVE  WS-TOTAL-COUNT       TO WS-THF-COUNT               36370967
019340         PERFORM  9552-COUNT-TIM-ROWS                             36370967
019350         MOVE  WS-TOTAL-COUNT       TO WS-TIM-COUNT               36370967
010351         PERFORM 9650-SQL-SELECT-PCR2                             UCSD0084
021600         IF SQLCODE NOT = ZERO                                    UCSD0084
021900             MOVE M43501 TO XMSG-NUMBER                           UCSD0084
022000             PERFORM 9500-ERROR-WRITE                             UCSD0084
022100         END-IF                                                   UCSD0084
021500         PERFORM 9600-DELETE-PCR                                  PPP435
021600         IF SQLCODE = ZERO                                        PPP435
021700             PERFORM 8000-RPT4302                                 PPP435
021800         ELSE                                                     PPP435
021900             MOVE M43501 TO XMSG-NUMBER                           PPP435
022000             PERFORM 9500-ERROR-WRITE                             PPP435
022100         END-IF                                                   PPP435
022210         PERFORM 9710-INSERT-PCR2                                 UCSD0084
022220         IF SQLCODE = ZERO                                        UCSD0084
022230            CONTINUE                                              UCSD0084
022240         ELSE                                                     UCSD0084
022250             MOVE M43501 TO XMSG-NUMBER                           UCSD0084
022260             PERFORM 9500-ERROR-WRITE                             UCSD0084
022270         END-IF                                                   UCSD0084
022200         END-IF                                                   PPP435
022300     END-IF.                                                      PPP435
022400     PERFORM 10000-EOJ-PROCESS.                                   PPP435
022500     SKIP1                                                        PPP435
022600     SKIP1                                                        PPP435
022700     GOBACK.                                                      PPP435
022800 1000-INITIALIZATION SECTION.                                     PPP435
022900     SKIP1                                                        PPP435
023000******************************************************************PPP435
023100*   SET STANDARD REPORT AND MESSAGE INTERFACE VALUES             *PPP435
023200******************************************************************PPP435
023300     SKIP1                                                        PPP435
021110     MOVE 1 TO CPWSSEVX-INFORMATIONAL-SEV.                        30871230
021120     MOVE 3 TO CPWSSEVX-WARNING-SEV.                              30871230
021130     MOVE 4 TO CPWSSEVX-SERIOUS-SEV.                              30871230
021140     MOVE 5 TO CPWSSEVX-SEV-FATAL.                                30871230
021150     MOVE 8 TO CPWSSEVX-SEE-SYSTEM-SEV.                           30871230
021160                                                                  30871230
023400     COPY CPPDDATE.                                               PPP435
023500     COPY CPPDTIME.                                               PPP435
023600     MOVE 'PPP435' TO DB2MSG-PGM-ID.                              PPP435
023700     MOVE SPACES TO MSSG-INTERFACE.                               PPP435
023800     MOVE ZERO TO XMSG-SEVERITY                                   PPP435
023900                  XMSG-HIGHEST-SEVERITY.                          PPP435
024000     MOVE GREGORIAN-DATE TO XMSG-RUN-DATE                         PPP435
024100                          STND-RPT-DATE.                          PPP435
024200     MOVE 'PPI: ' TO STND-PPI-TTL.                                PPP435
022100*                                                              CD 30871230
022210     MOVE 'PPP435 /080196 ' TO XMSG-PROG-ID                       28521087
022220                               STND-PROG-ID.                      28521087
024500     MOVE 'PPP4351 ' TO XMSG-RPT-ID.                              PPP435
024600     MOVE '            ERROR-MESSAGES' TO XMSG-RPT-TTL.           PPP435
024700******************************************************************PPP435
024800*   OPEN FILES AND READ,STORE, AND EDIT SPEC CARD                *PPP435
024900******************************************************************PPP435
025000     SKIP1                                                        PPP435
025100     OPEN INPUT  CARDFILE                                         PPP435
025200                 PAYROLL-PROCESS-ID-FILE                          PPP435
025300          OUTPUT PPP4352-REPORT.                                  PPP435
025400     MOVE SPACES TO SPEC-CARD.                                    PPP435
025500     READ CARDFILE INTO SPEC-CARD                                 PPP435
025600          AT END                                                  PPP435
025700          SET NO-SPEC-CARD TO TRUE.                               PPP435
025800     IF NO-SPEC-CARD                                              PPP435
025900         MOVE M43510 TO XMSG-NUMBER                               PPP435
026000         PERFORM 9500-ERROR-WRITE                                 PPP435
026100         GO TO 1000-INITIALIZATION-X.                             PPP435
026200     IF NOT VALID-SPEC-PGM-ID                                     PPP435
026300         MOVE M43502 TO XMSG-NUMBER                               PPP435
026400         PERFORM 9500-ERROR-WRITE                                 PPP435
026500         GO TO 1000-INITIALIZATION-X.                             PPP435
026600     IF SPEC-CARD-PPI-OVERRIDE > SPACES                           PPP435
026700         MOVE SPEC-CARD-PPI-OVERRIDE TO WS-PPI                    PPP435
026800         MOVE M43511 TO XMSG-NUMBER                               PPP435
026900         PERFORM 9500-ERROR-WRITE                                 PPP435
027000         GO TO 1000-CONTINUE.                                     PPP435
027100     MOVE SPEC-CARD-PPI TO WS-PPI.                                PPP435
027200     PERFORM 7000-FETCH-PCR.                                      PPP435
027300******************************************************************PPP435
027400*    GET PAYROLL CONTROL FILE CONTROL RECORD                     *PPP435
027500******************************************************************PPP435
027600     PERFORM 9400-READ-PPI.                                       PPP435
027700     IF WS-PPI NOT > SPACE                                        PPP435
027800         GO TO 1000-INITIALIZATION-X                              PPP435
027900     END-IF.                                                      PPP435
028000 1000-CONTINUE.                                                   PPP435
028100     MOVE WS-PPI TO STND-PPI.                                     PPP435
028200     PERFORM 9700-SQL-SELECT-PCR.                                 PPP435
028300     IF SQLCODE = ZERO                                            PPP435
028400         SET PCR-FOUND TO TRUE                                    PPP435
028500     ELSE                                                         PPP435
028600         MOVE M43503 TO XMSG-NUMBER                               PPP435
028700         PERFORM 9500-ERROR-WRITE                                 PPP435
028800         GO TO 1000-INITIALIZATION-X                              PPP435
028900     END-IF.                                                      PPP435
029000     INITIALIZE XPCR-RECORD.                                      PPP435
029100     PERFORM 9800-CONSTRUCT-OLD-PCR.                              PPP435
029200     IF SPEC-CARD-PPI-OVERRIDE NOT > SPACES                       PPP435
029300         IF XPCR-LAST-PGM NOT = '43'                              PPP435
029400            MOVE M43505 TO XMSG-NUMBER                            PPP435
029500            PERFORM 9500-ERROR-WRITE                              PPP435
029600            GO TO 1000-INITIALIZATION-X                           PPP435
029700         END-IF                                                   PPP435
029800     END-IF.                                                      PPP435
029900 1000-INITIALIZATION-X.                                           PPP435
030000     EXIT.                                                        PPP435
030100 7000-FETCH-PCR SECTION.                                          PPP435
030200*                                                                *PPP435
030300*    SETUP KEYS FOR CURSOR OPEN. THIS CURSOR WILL FETCH          *PPP435
030400*    THE   PCR TABLE ROWS WITH THE SAME CHECK DATE,              *PPP435
030500*    END DATE, AND CYCLE TYPES AS THOSE ON THE SPEC CARD.        *PPP435
030600*                                                                *PPP435
028300*                                                              CD 30871230
029210     MOVE SPEC-CARD-CHECK-MONTH TO XDC3-STD-MM.                   28521087
029220     MOVE SPEC-CARD-CHECK-DAY   TO XDC3-STD-DD.                   28521087
029230     MOVE SPEC-CARD-CHECK-YEAR  TO XDC3-STD-YY.                   28521087
029240     PERFORM XDC3-CONVERT-STD-TO-ISO.                             28521087
029250     MOVE XDC3-ISO-DATE TO WS-PAY-CYCLE-CHK-DATE.                 28521087
029260     MOVE SPEC-CARD-PAY-MONTH   TO XDC3-STD-MM.                   28521087
029270     MOVE SPEC-CARD-PAY-DAY     TO XDC3-STD-DD.                   28521087
029280     MOVE SPEC-CARD-PAY-YEAR    TO XDC3-STD-YY.                   28521087
029290     PERFORM XDC3-CONVERT-STD-TO-ISO.                             28521087
029291     MOVE XDC3-ISO-DATE TO WS-PAY-CYCLE-END-DATE.                 28521087
031700     MOVE SPEC-CARD-CYCLE-TYPE (1) TO WS-PAY-CYCLE-CODE-1.        PPP435
031800     MOVE SPEC-CARD-CYCLE-TYPE (2) TO WS-PAY-CYCLE-CODE-2.        PPP435
031900     MOVE SPEC-CARD-CYCLE-TYPE (3) TO WS-PAY-CYCLE-CODE-3.        PPP435
032000*                                                                *PPP435
032100*    SEE IF WE CAN FIND ONE.                                     *PPP435
032200*                                                                *PPP435
032300     PERFORM SQL-OPEN-PCR-7650.                                   PPP435
032400     PERFORM SQL-FETCH-PCR-7650.                                  PPP435
032500     SKIP1                                                        PPP435
032600     IF SQLCODE = ZERO                                            PPP435
032700*                                                                *PPP435
032800*    HIGH VALUES IN THE FIRST BYTE OF A PPI MEANS THAT           *PPP435
032900*    THIS IS A GENERATED PPI                                     *PPP435
033000*    DO NOT DELETE IT !                                          *PPP435
033100         IF PAY-PROCESS-ID OF PCR-ROW-DATA(1:1)  = HIGH-VALUES    PPP435
033200             MOVE M43506 TO XMSG-NUMBER                           PPP435
033300             PERFORM 9500-ERROR-WRITE                             PPP435
033400         END-IF                                                   PPP435
033500         IF PAY-PROCESS-ID OF PCR-ROW-DATA NOT = WS-PPI           PPP435
033600             MOVE M43508 TO XMSG-NUMBER                           PPP435
033700             PERFORM 9500-ERROR-WRITE                             PPP435
033800         END-IF                                                   PPP435
033900*                                                                *PPP435
034000*    TWO OF THEM IS REALLY BAD NEWS                              *PPP435
034100*                                                                *PPP435
034200         PERFORM SQL-FETCH-PCR-7650                               PPP435
034300         IF SQLCODE = ZERO                                        PPP435
034400             MOVE M43507 TO XMSG-NUMBER                           PPP435
034500             PERFORM 9500-ERROR-WRITE                             PPP435
034600         END-IF                                                   PPP435
034700     ELSE                                                         PPP435
034800*                                                                *PPP435
034900*    CAN'T FIND IT                                               *PPP435
035000*                                                                *PPP435
035100         MOVE M43509 TO XMSG-NUMBER                               PPP435
035200         PERFORM 9500-ERROR-WRITE                                 PPP435
035300     END-IF.                                                      PPP435
035400     PERFORM SQL-CLOSE-PCR-7650.                                  PPP435
035500     SKIP1                                                        PPP435
035600 8000-RPT4302      SECTION.                                       PPP435
035700     SKIP1                                                        PPP435
035800     MOVE XPCR-CHECK-YEAR TO STND-DATE2-YEAR.                     PPP435
035900     MOVE XPCR-CHECK-MONTH TO STND-DATE2-MONTH.                   PPP435
036000     MOVE XPCR-CHECK-DAY TO STND-DATE2-DAY.                       PPP435
036100     MOVE XPCR-CYCLE-TYPE (1) TO STND-RPT-CYCLE (1).              PPP435
036200     MOVE XPCR-END-YEAR TO STND-RPT-END-YR.                       PPP435
036300     MOVE XPCR-END-MONTH TO STND-RPT-END-MONTH                    PPP435
036400     MOVE XPCR-END-DAY TO STND-RPT-END-DAY.                       PPP435
036500     MOVE 'PPP4352' TO STND-RPT-ID.                               PPP435
036600     MOVE ' PAYROLL PROCESS ID DELETION'                          PPP435
036700         TO STND-RPT-TTL.                                         PPP435
036800     ADD 1 TO STND-PAGE-NO.                                       PPP435
036900     WRITE RPT2 FROM STND-RPT-HD1 AFTER ADVANCING NEW-PAGE.       PPP435
037000     WRITE RPT2 FROM STND-RPT-HD2 AFTER ADVANCING 1 LINE.         PPP435
037100     WRITE RPT2 FROM STND-RPT-HD3 AFTER ADVANCING 1 LINE.         PPP435
037200     MOVE WS-PPI TO WK-PPI.                                       PPP435
037300     WRITE RPT2 FROM WK-RPT4302     AFTER ADVANCING 4 LINES.      PPP435
034910     MOVE SPACES  TO WK-RPT4302.                                  36370967
034920     MOVE 'THF ENTRIES DELETED:'   TO  RPT4302-DESC               36370967
034930     MOVE WS-THF-COUNT             TO  RPT4302-CNT                36370967
034940     WRITE RPT2 FROM WK-RPT4302     AFTER ADVANCING 2 LINES.      36370967
034941     MOVE SPACES  TO WK-RPT4302.                                  36370967
034950     MOVE 'TIME ROSTER ENTRIES DELETED:'   TO  RPT4302-DESC       36370967
034960     MOVE WS-TIM-COUNT             TO  RPT4302-CNT                36370967
034970     WRITE RPT2 FROM WK-RPT4302     AFTER ADVANCING 2 LINES.      36370967
037400     MOVE SPACES TO RPT2.                                         PPP435
037500     WRITE RPT2 AFTER ADVANCING 2 LINES.                          PPP435
037600     SKIP1                                                        PPP435
037700 9400-READ-PPI SECTION.                                           PPP435
037800     READ PAYROLL-PROCESS-ID-FILE INTO PAYROLL-PROCESS-ID         PPP435
037900         AT END                                                   PPP435
038000          MOVE SPACE TO WS-PPI                                    PPP435
038100          MOVE M43504 TO XMSG-NUMBER                              PPP435
038200          PERFORM 9500-ERROR-WRITE                                PPP435
038300          GO TO 9400-READ-PPI-X.                                  PPP435
038400     IF XPPI-PPI NOT = WS-PPI                                     PPP435
038500         MOVE SPACE TO WS-PPI                                     PPP435
038600         MOVE M43512 TO XMSG-NUMBER                               PPP435
038700         PERFORM 9500-ERROR-WRITE                                 PPP435
038800     END-IF.                                                      PPP435
038900 9400-READ-PPI-X.                                                 PPP435
039000     EXIT.                                                        PPP435
039100 9500-ERROR-WRITE SECTION.                                        PPP435
039200     SKIP1                                                        PPP435
039300****************************************************************  PPP435
039400*    ERROR MESSAGE CALL ROUTINE-REPORT 4301 PRINT              *  PPP435
039500****************************************************************  PPP435
039600     SKIP1                                                        PPP435
037300*****CALL 'PPMSGUTL' USING MSSG-INTERFACE.                        30871230
037301     CALL PGM-PPMSGUTL USING MSSG-INTERFACE.                      30871230
037310**--------------------------------------------------------------  36370967
037320 9551-COUNT-THF-ROWS  SECTION.                                    36370967
037330**--------------------------------------------------------------  36370967
037340     MOVE 'COUNT THF   '               TO DB2MSG-TAG.             36370967
037350     EXEC SQL                                                     36370967
037360     SELECT COUNT(*)                                              36370967
037370        INTO :WS-TOTAL-COUNT:WS-NULL-IND                          36370967
037380           FROM PPPVZTHF_THF                                      36370967
037390        WHERE  PAY_PROCESS_ID  = :PCR-ROW-DATA.PAY-PROCESS-ID     36370967
037391     END-EXEC.                                                    36370967
037392     IF WS-NULL-IND  = -1                                         36370967
037393         MOVE ZERO   TO WS-TOTAL-COUNT                            36370967
037394     END-IF.                                                      36370967
037395**--------------------------------------------------------------  36370967
037396 9552-COUNT-TIM-ROWS  SECTION.                                    36370967
037397**--------------------------------------------------------------  36370967
037398     MOVE 'COUNT TIM   '               TO DB2MSG-TAG.             36370967
037399     EXEC SQL                                                     36370967
037400     SELECT COUNT(*)                                              36370967
037401        INTO :WS-TOTAL-COUNT:WS-NULL-IND                          36370967
037402           FROM PPPVZTIM_TIM                                      36370967
037403        WHERE  PAY_PROCESS_ID  = :PCR-ROW-DATA.PAY-PROCESS-ID     36370967
037404     END-EXEC.                                                    36370967
037405     IF WS-NULL-IND  = -1                                         36370967
037406         MOVE ZERO   TO WS-TOTAL-COUNT                            36370967
037407     END-IF.                                                      36370967
037408**--------------------------------------------------------------  36370967
039800 9600-DELETE-PCR SECTION.                                         PPP435
039900     MOVE 'DELETE PPPPCR' TO DB2MSG-TAG.                          PPP435
040000     EXEC SQL                                                     PPP435
037700         DELETE FROM PPPVPCR1_PCR                                 36370967
040200            WHERE PAY_PROCESS_ID = :PCR-ROW-DATA.PAY-PROCESS-ID   PPP435
040300     END-EXEC.                                                    PPP435
040412*                                                                 UCSD0084
040413 9650-SQL-SELECT-PCR2 SECTION.                                    UCSD0084
040414     MOVE 'SELECT PCR2 ROW' TO DB2MSG-TAG.                        UCSD0084
040415     EXEC SQL                                                     UCSD0084
040416         SELECT * INTO :PCR-SAVED                                 UCSD0084
040417                  FROM PPPVZPCR_PCR                               UCSD0084
040418         WHERE PAY_PROCESS_ID = :PCR-ROW-DATA.PAY-PROCESS-ID      UCSD0084
040419     END-EXEC.                                                    UCSD0084
040420*                                                                 UCSD0084
040400 9700-SQL-SELECT-PCR SECTION.                                     PPP435
040500     MOVE 'SELECT PCR ROW' TO DB2MSG-TAG.                         PPP435
038610     EXEC SQL                                                     36370967
038620          SELECT PAY_PROCESS_ID                                   36370967
038630                ,LAST_PGM_RUN                                     36370967
038640                ,PAY_CYCLE_CHK_DATE                               36370967
038650                ,PAY_CYCLE_END_DATE                               36370967
038660                ,PAY_CYCLE_CODE_1                                 36370967
038670                ,PAY_CYCLE_CODE_2                                 36370967
038680                ,PAY_CYCLE_CODE_3                                 36370967
038690                ,PAY_CYC_BEG_DATE_1                               36370967
038691                ,PAY_CYC_BEG_DATE_2                               36370967
038692                ,PAY_CYC_BEG_DATE_3                               36370967
038693                ,PAY_CYC_PPE_DATE_1                               36370967
038694                ,PAY_CYC_PPE_DATE_2                               36370967
038695                ,PAY_CYC_PPE_DATE_3                               36370967
038696                ,PAY_CYC_WRK_DAYS_1                               36370967
038697                ,PAY_CYC_WRK_DAYS_2                               36370967
038698                ,PAY_CYC_WRK_DAYS_3                               36370967
038699                ,PAY_DEDN_SCHED_1                                 36370967
038700                ,PAY_DEDN_SCHED_2                                 36370967
038701                ,PAY_DEDN_SCHED_3                                 36370967
038702                ,PERIOD_END_MNTH                                  36370967
038703                ,PERIOD_END_QTR                                   36370967
038704                ,PERIOD_END_YR                                    36370967
038705                ,PERIOD_END_FY                                    36370967
038706                ,NEXT_PER_MNTH                                    36370967
038707                ,NEXT_PER_QTR                                     36370967
038708                ,NEXT_PER_YR                                      36370967
038709                ,NEXT_PER_FY                                      36370967
038710                ,LAST_DAY_MNTH                                    36370967
038711                ,QTR_CODE                                         36370967
038712                ,LAST_EDB_GEN                                     36370967
038713                ,LAST_PR_GEN                                      36370967
038714                ,THF_SEQ_NUM                                      36370967
038715                ,RE_EDIT_IND                                      36370967
038716                ,CHECK_REL_DATE                                   36370967
038717                ,BW_WORK_DAYS                                     36370967
038718                ,FSCL_IND                                         36370967
038719                ,DAY_ARRAYS                                       36370967
038720                ,BW_ACUR_DATE_1                                   36370967
038721                ,BW_ACUR_DATE_2                                   36370967
038722                ,BW_ACUR_DATE_3                                   36370967
038723           INTO :PCR-ROW-DATA.PAY-PROCESS-ID                      36370967
038724               ,:PCR-ROW-DATA.LAST-PGM-RUN                        36370967
038725               ,:PCR-ROW-DATA.PAY-CYCLE-CHK-DATE                  36370967
038726               ,:PCR-ROW-DATA.PAY-CYCLE-END-DATE                  36370967
038727               ,:PCR-ROW-DATA.PAY-CYCLE-CODE-1                    36370967
038728               ,:PCR-ROW-DATA.PAY-CYCLE-CODE-2                    36370967
038729               ,:PCR-ROW-DATA.PAY-CYCLE-CODE-3                    36370967
038730               ,:PCR-ROW-DATA.PAY-CYC-BEG-DATE-1                  36370967
038731               ,:PCR-ROW-DATA.PAY-CYC-BEG-DATE-2                  36370967
038732               ,:PCR-ROW-DATA.PAY-CYC-BEG-DATE-3                  36370967
038733               ,:PCR-ROW-DATA.PAY-CYC-PPE-DATE-1                  36370967
038734               ,:PCR-ROW-DATA.PAY-CYC-PPE-DATE-2                  36370967
038735               ,:PCR-ROW-DATA.PAY-CYC-PPE-DATE-3                  36370967
038736               ,:PCR-ROW-DATA.PAY-CYC-WRK-DAYS-1                  36370967
038737               ,:PCR-ROW-DATA.PAY-CYC-WRK-DAYS-2                  36370967
038738               ,:PCR-ROW-DATA.PAY-CYC-WRK-DAYS-3                  36370967
038739               ,:PCR-ROW-DATA.PAY-DEDN-SCHED-1                    36370967
038740               ,:PCR-ROW-DATA.PAY-DEDN-SCHED-2                    36370967
038741               ,:PCR-ROW-DATA.PAY-DEDN-SCHED-3                    36370967
038742               ,:PCR-ROW-DATA.PERIOD-END-MNTH                     36370967
038743               ,:PCR-ROW-DATA.PERIOD-END-QTR                      36370967
038744               ,:PCR-ROW-DATA.PERIOD-END-YR                       36370967
038745               ,:PCR-ROW-DATA.PERIOD-END-FY                       36370967
038746               ,:PCR-ROW-DATA.NEXT-PER-MNTH                       36370967
038747               ,:PCR-ROW-DATA.NEXT-PER-QTR                        36370967
038748               ,:PCR-ROW-DATA.NEXT-PER-YR                         36370967
038749               ,:PCR-ROW-DATA.NEXT-PER-FY                         36370967
038750               ,:PCR-ROW-DATA.LAST-DAY-MNTH                       36370967
038751               ,:PCR-ROW-DATA.QTR-CODE                            36370967
038752               ,:PCR-ROW-DATA.LAST-EDB-GEN                        36370967
038753               ,:PCR-ROW-DATA.LAST-PR-GEN                         36370967
038754               ,:PCR-ROW-DATA.THF-SEQ-NUM                         36370967
038755               ,:PCR-ROW-DATA.RE-EDIT-IND                         36370967
038756               ,:PCR-ROW-DATA.CHECK-REL-DATE                      36370967
038757               ,:PCR-ROW-DATA.BW-WORK-DAYS                        36370967
038758               ,:PCR-ROW-DATA.FSCL-IND                            36370967
038759               ,:PCR-ROW-DATA.DAY-ARRAYS                          36370967
038760               ,:PCR-ROW-DATA.BW-ACUR-DATE-1                      36370967
038761               ,:PCR-ROW-DATA.BW-ACUR-DATE-2                      36370967
038762               ,:PCR-ROW-DATA.BW-ACUR-DATE-3                      36370967
038763          FROM PPPVPCR1_PCR                                       36370967
038764            WHERE PAY_PROCESS_ID = :WS-PPI                        36370967
038765     END-EXEC.                                                    36370967
041000*                                                                 UCSD0084
041010 9710-INSERT-PCR2 SECTION.                                        UCSD0084
040401     MOVE 'INSERT PCR  ROW' TO DB2MSG-TAG.                        UCSD0084
041011     EXEC SQL                                                     UCSD0084
041012         INSERT INTO PPPVZPCR_PCR                                 UCSD0084
041014                VALUES (:PCR-SAVED)                               UCSD0084
041015     END-EXEC.                                                    UCSD0084
041100 9800-CONSTRUCT-OLD-PCR SECTION.                                  PPP435
041200     MOVE 'PCR' TO XPCR-I-D.                                      PPP435
041300     MOVE LAST-PGM-RUN OF PCR-ROW-DATA TO XPCR-LAST-PGM.          PPP435
039000*                                                              CD 30871230
039510     MOVE PAY-CYCLE-CHK-DATE OF PCR-ROW-DATA TO XDC3-ISO-DATE.    28521087
039520     PERFORM XDC3-CONVERT-ISO-TO-STD.                             28521087
039530     MOVE XDC3-STD-DATE TO XPCR-CHECK-DATE.                       28521087
039540     MOVE PAY-CYCLE-END-DATE OF PCR-ROW-DATA TO XDC3-ISO-DATE.    28521087
039550     PERFORM XDC3-CONVERT-ISO-TO-STD.                             28521087
039560     MOVE XDC3-STD-DATE TO XPCR-END-DATE.                         28521087
042000     MOVE PAY-CYCLE-CODE-1 OF PCR-ROW-DATA                        PPP435
042100     TO XPCR-CYCLE-TYPE (1).                                      PPP435
042200     MOVE PAY-CYCLE-CODE-2 OF PCR-ROW-DATA                        PPP435
042300     TO XPCR-CYCLE-TYPE (2).                                      PPP435
042400     MOVE PAY-CYCLE-CODE-3 OF PCR-ROW-DATA                        PPP435
042500     TO XPCR-CYCLE-TYPE (3).                                      PPP435
040200*                                                              CD 30871230
041010     MOVE PAY-CYC-BEG-DATE-1 OF PCR-ROW-DATA TO XDC3-ISO-DATE.    28521087
041020     PERFORM XDC3-CONVERT-ISO-TO-STD.                             28521087
041030     MOVE XDC3-STD-DATE TO XPCR-BEGIN-DATE (1).                   28521087
041040     MOVE PAY-CYC-BEG-DATE-2 OF PCR-ROW-DATA TO XDC3-ISO-DATE.    28521087
041050     PERFORM XDC3-CONVERT-ISO-TO-STD.                             28521087
041060     MOVE XDC3-STD-DATE TO XPCR-BEGIN-DATE (2).                   28521087
041070     MOVE PAY-CYC-BEG-DATE-3 OF PCR-ROW-DATA TO XDC3-ISO-DATE.    28521087
041080     PERFORM XDC3-CONVERT-ISO-TO-STD.                             28521087
041090     MOVE XDC3-STD-DATE TO XPCR-BEGIN-DATE (3).                   28521087
043500     MOVE PAY-CYC-WRK-DAYS-1 OF PCR-ROW-DATA                      PPP435
043600     TO XPCR-CYCLE-WORK-DAYS (1).                                 PPP435
043700     MOVE PAY-CYC-WRK-DAYS-2 OF PCR-ROW-DATA                      PPP435
043800     TO XPCR-CYCLE-WORK-DAYS (2).                                 PPP435
043900     MOVE PAY-CYC-WRK-DAYS-3 OF PCR-ROW-DATA                      PPP435
044000     TO XPCR-CYCLE-WORK-DAYS (3).                                 PPP435
044100     MOVE PAY-DEDN-SCHED-1 OF PCR-ROW-DATA                        PPP435
044200     TO XPCR-CYCLE-DEDN-SCHED (1).                                PPP435
044300     MOVE PAY-DEDN-SCHED-2 OF PCR-ROW-DATA                        PPP435
044400     TO XPCR-CYCLE-DEDN-SCHED (2).                                PPP435
044500     MOVE PAY-DEDN-SCHED-3 OF PCR-ROW-DATA                        PPP435
044600     TO XPCR-CYCLE-DEDN-SCHED (3).                                PPP435
044700     MOVE PERIOD-END-MNTH OF PCR-ROW-DATA TO XPCR-PER-END-MONTH.  PPP435
044800     MOVE PERIOD-END-QTR OF PCR-ROW-DATA TO XPCR-PER-END-QTR.     PPP435
044900     MOVE PERIOD-END-YR OF PCR-ROW-DATA TO XPCR-PER-END-YEAR.     PPP435
045000     MOVE PERIOD-END-FY OF PCR-ROW-DATA TO XPCR-PER-END-FY.       PPP435
045100     MOVE NEXT-PER-MNTH OF PCR-ROW-DATA TO XPCR-NEXT-MONTH.       PPP435
045200     MOVE NEXT-PER-QTR OF PCR-ROW-DATA TO XPCR-NEXT-QTR.          PPP435
045300     MOVE NEXT-PER-YR OF PCR-ROW-DATA TO XPCR-NEXT-YEAR.          PPP435
045400     MOVE NEXT-PER-FY OF PCR-ROW-DATA TO XPCR-NEXT-FY.            PPP435
045500     MOVE LAST-DAY-MNTH OF PCR-ROW-DATA                           PPP435
045600     TO XPCR-LAST-DAY-IN-MONTH.                                   PPP435
045700     MOVE QTR-CODE OF PCR-ROW-DATA TO XPCR-QTR-CODE.              PPP435
045800     MOVE LAST-EDB-GEN OF PCR-ROW-DATA TO XPCR-LAST-EDB-GEN.      PPP435
045900     MOVE LAST-PR-GEN OF PCR-ROW-DATA TO XPCR-LAST-PAYROLL-GEN.   PPP435
046000     MOVE THF-SEQ-NUM OF PCR-ROW-DATA TO XPCR-THF-SEQ-NO.         PPP435
046100     MOVE RE-EDIT-IND OF PCR-ROW-DATA TO XPCR-THF-RE-EDIT.        PPP435
043800*                                                              CD 30871230
044010     MOVE CHECK-REL-DATE OF PCR-ROW-DATA TO XDC3-ISO-DATE.        28521087
044020     PERFORM XDC3-CONVERT-ISO-TO-STD.                             28521087
044030     MOVE XDC3-STD-DATE TO XPCR-CHECK-REL-DATE.                   28521087
046500     MOVE BW-WORK-DAYS OF PCR-ROW-DATA TO XPCR-BW-WORK-DAYS.      PPP435
046600     MOVE FSCL-IND OF PCR-ROW-DATA TO XPCR-FSCL-IND.              PPP435
046700     MOVE DAY-ARRAYS OF PCR-ROW-DATA TO XPCR-DAY-ARRAYS.          PPP435
046800 10000-END-OF-JOB SECTION.                                        PPP435
046900     SKIP2                                                        PPP435
047000 10000-EOJ-PROCESS.                                               PPP435
047100     SKIP1                                                        PPP435
047200******************************************************************PPP435
047300*    CLOSE ALL FILES AND SET RETURN CODE TO HIGHEST MSSG SEVERITY*PPP435
047400******************************************************************PPP435
047500     SKIP1                                                        PPP435
047600     CLOSE CARDFILE                                               PPP435
047700           PAYROLL-PROCESS-ID-FILE                                PPP435
047800           PPP4352-REPORT.                                        PPP435
047900     MOVE HIGH-VALUES TO XMSG-KEY.                                PPP435
045600*****CALL 'PPMSGUTL' USING MSSG-INTERFACE.                        30871230
045610     CALL PGM-PPMSGUTL USING MSSG-INTERFACE.                      30871230
048100     SKIP1                                                        PPP435
048200     IF XMSG-HIGHEST-SEVERITY IS NOT NUMERIC                      PPP435
048300        MOVE ZERO TO RETURN-CODE                                  PPP435
048400     ELSE                                                         PPP435
048500        MOVE XMSG-HIGHEST-SEVERITY TO RETURN-CODE.                PPP435
048600     SKIP3                                                        PPP435
048700     PERFORM PRINT-CONTROL-REPORT.                                UCSD0006
048800 10099-EOJ-PROCESS-EXIT.                                          PPP435
048900     SKIP1                                                        PPP435
049000     EXIT.                                                        PPP435
046600*                                                              CD 30871230
046610 DATE-CONVERSION-DB2 SECTION.        COPY CPPDXDC3.               28521087
049200 SQL-OPEN-PCR-7650 SECTION.                                       PPP435
049300     IF NOT PCR-ROW-OPEN                                          PPP435
049400     MOVE 'OPEN PCR CURSOR' TO DB2MSG-TAG                         PPP435
049500     EXEC SQL                                                     PPP435
049600         OPEN PCR_ROW                                             PPP435
049700     END-EXEC                                                     PPP435
049800     SET PCR-ROW-OPEN TO TRUE.                                    PPP435
049900 SQL-FETCH-PCR-7650 SECTION.                                      PPP435
050000     MOVE 'FETCH PCR ROW' TO DB2MSG-TAG.                          PPP435
050100     EXEC SQL                                                     PPP435
047710         FETCH PCR_ROW                                            36370967
047720           INTO :PCR-ROW-DATA.PAY-PROCESS-ID                      36370967
047730               ,:PCR-ROW-DATA.LAST-PGM-RUN                        36370967
047740               ,:PCR-ROW-DATA.PAY-CYCLE-CHK-DATE                  36370967
047750               ,:PCR-ROW-DATA.PAY-CYCLE-END-DATE                  36370967
047760               ,:PCR-ROW-DATA.PAY-CYCLE-CODE-1                    36370967
047770               ,:PCR-ROW-DATA.PAY-CYCLE-CODE-2                    36370967
047780               ,:PCR-ROW-DATA.PAY-CYCLE-CODE-3                    36370967
047790               ,:PCR-ROW-DATA.PAY-CYC-BEG-DATE-1                  36370967
047791               ,:PCR-ROW-DATA.PAY-CYC-BEG-DATE-2                  36370967
047792               ,:PCR-ROW-DATA.PAY-CYC-BEG-DATE-3                  36370967
047793               ,:PCR-ROW-DATA.PAY-CYC-PPE-DATE-1                  36370967
047794               ,:PCR-ROW-DATA.PAY-CYC-PPE-DATE-2                  36370967
047795               ,:PCR-ROW-DATA.PAY-CYC-PPE-DATE-3                  36370967
047796               ,:PCR-ROW-DATA.PAY-CYC-WRK-DAYS-1                  36370967
047797               ,:PCR-ROW-DATA.PAY-CYC-WRK-DAYS-2                  36370967
047798               ,:PCR-ROW-DATA.PAY-CYC-WRK-DAYS-3                  36370967
047799               ,:PCR-ROW-DATA.PAY-DEDN-SCHED-1                    36370967
047800               ,:PCR-ROW-DATA.PAY-DEDN-SCHED-2                    36370967
047801               ,:PCR-ROW-DATA.PAY-DEDN-SCHED-3                    36370967
047802               ,:PCR-ROW-DATA.PERIOD-END-MNTH                     36370967
047803               ,:PCR-ROW-DATA.PERIOD-END-QTR                      36370967
047804               ,:PCR-ROW-DATA.PERIOD-END-YR                       36370967
047805               ,:PCR-ROW-DATA.PERIOD-END-FY                       36370967
047806               ,:PCR-ROW-DATA.NEXT-PER-MNTH                       36370967
047807               ,:PCR-ROW-DATA.NEXT-PER-QTR                        36370967
047808               ,:PCR-ROW-DATA.NEXT-PER-YR                         36370967
047809               ,:PCR-ROW-DATA.NEXT-PER-FY                         36370967
047810               ,:PCR-ROW-DATA.LAST-DAY-MNTH                       36370967
047811               ,:PCR-ROW-DATA.QTR-CODE                            36370967
047812               ,:PCR-ROW-DATA.LAST-EDB-GEN                        36370967
047813               ,:PCR-ROW-DATA.LAST-PR-GEN                         36370967
047814               ,:PCR-ROW-DATA.THF-SEQ-NUM                         36370967
047815               ,:PCR-ROW-DATA.RE-EDIT-IND                         36370967
047816               ,:PCR-ROW-DATA.CHECK-REL-DATE                      36370967
047817               ,:PCR-ROW-DATA.BW-WORK-DAYS                        36370967
047818               ,:PCR-ROW-DATA.FSCL-IND                            36370967
047819               ,:PCR-ROW-DATA.DAY-ARRAYS                          36370967
047820               ,:PCR-ROW-DATA.BW-ACUR-DATE-1                      36370967
047821               ,:PCR-ROW-DATA.BW-ACUR-DATE-2                      36370967
047822               ,:PCR-ROW-DATA.BW-ACUR-DATE-3                      36370967
050300     END-EXEC.                                                    PPP435
050400 SQL-CLOSE-PCR-7650 SECTION.                                      PPP435
050500     IF PCR-ROW-OPEN                                              PPP435
050600     MOVE 'CLOSE PCR CURSOR' TO DB2MSG-TAG                        PPP435
050700     EXEC SQL                                                     PPP435
050800         CLOSE PCR_ROW                                            PPP435
050900     END-EXEC                                                     PPP435
051000     MOVE SPACE TO PCR-ROW-OPEN-SW.                               PPP435
051100*999999-SQL-ERROR.                                                PPP435
051200     SKIP1                                                        PPP435
051300     EXEC SQL                                                     PPP435
051400          INCLUDE CPPDXP99                                        PPP435
051500     END-EXEC.                                                    PPP435
051600     IF NOT HERE-BEFORE                                           PPP435
051700         SET HERE-BEFORE TO TRUE                                  PPP435
051800         MOVE 'ROLLBACK' TO DB2MSG-TAG                            PPP435
051900         EXEC SQL                                                 PPP435
052000             ROLLBACK                                             PPP435
052100         END-EXEC                                                 PPP435
052200     END-IF.                                                      PPP435
052300     GOBACK.                                                      PPP435
052400     SKIP1                                                        PPP435
052500     COPY CLPDP435.                                               UCSD0006
052600****************  E N D   O F   P R O G R A M  *******************PPP435
