000100**************************************************************/   32041155
000200*  PROGRAM: PPP548                                           */   32041155
000300*  RELEASE: ___1155 _____ SERVICE REQUEST(S): ____13204____  */   32041155
000400*  NAME:________JLT______ MODIFICATION DATE:  ___12/01/97__  */   32041155
000500*  DESCRIPTION:                                              */   32041155
000600*  - NEW PROGRAM TO REPORT EXTENDED SICK LEAVE ACTIVITY      */   32041155
000700*    MAINTAINED ON THE EDB.                                  */   32041155
000800**************************************************************/   32041155
001500**-----------------------------------------------------------*/   PPP548
001600 IDENTIFICATION DIVISION.                                         PPP548
001700 PROGRAM-ID. PPP548                                               PPP548
001800 AUTHOR. UCOP.                                                    PPP548
001900 INSTALLATION. UNIVERSITY OF CALIFORNIA, BASE PAYROLL SYSTEM      PPP548
002000 DATE-WRITTEN.  OCT 14, 1997.                                     PPP548
002100 DATE-COMPILED.                                                   PPP548
002200                                                                  PPP548
002300******************************************************************PPP548
002400* THIS PROGRAM READS THE CURRENT YTD EDB BALANCES FOR EXTENDED    PPP548
002500* SICK LEAVE (YTD-ESL-GROSS; D.E. 5548) AND WORKERS COMP REFUND   PPP548
002600* (YTD-WCR-REFUND; D.E. 5549) AND PRODUCES DETAIL REPORT LINES    PPP548
002700* FOR EACH EMPLOYEE WITH A NON-ZERO BALANCE.                      PPP548
003100******************************************************************PPP548
003200     EJECT                                                        PPP548
003300 ENVIRONMENT DIVISION.                                            PPP548
003400 CONFIGURATION SECTION.                                           PPP548
003500 SOURCE-COMPUTER. COPY CPOTXISI.                                  PPP548
003600 OBJECT-COMPUTER. COPY CPOTXOBJ.                                  PPP548
003700 SPECIAL-NAMES.                                                   PPP548
003800     C01 IS NEW-PAGE.                                             PPP548
003900 INPUT-OUTPUT SECTION.                                            PPP548
004000 FILE-CONTROL.                                                    PPP548
004100*                                                                 PPP548
004500     SELECT CARD-FILE        COPY CPSLXCRD.                       PPP548
004700                                                                  PPP548
004800     SELECT SORT-FILE                                             PPP548
004900                             COPY CPSLXSRT.                       PPP548
005000                                                                  PPP548
005400     SELECT RPT-P5482-FILE                                        PPP548
005500        ASSIGN TO UT-S-PPP5482.                                   PPP548
006800*                                                                 PPP548
006900 DATA DIVISION.                                                   PPP548
007000 FILE SECTION.                                                    PPP548
007100*                                                                 PPP548
007200*                                                                 PPP548
007300 FD  CARD-FILE                   COPY CPFDXCRD.                   PPP548
007400 01  CARD-REC.                                                    PPP548
007500     03  INPT-ID            PICTURE X(11).                        PPP548
007600         88  VALID-SPEC-ID   VALUE 'PPP548-SPEC'.                 PPP548
007700     03  INPT-SPEC-RPT-ORDER PICTURE X(04).                       PPP548
008894         88  INPT-SPEC-RPT-ORDER-NAME  VALUE 'NAME'.              PPP548
008895         88  INPT-SPEC-RPT-ORDER-EMID  VALUE 'ID  '.              PPP548
008896         88  INPT-SPEC-RPT-ORDER-BOTH  VALUE 'BOTH'.              PPP548
008899     03  FILLER              PICTURE X(65).                       PPP548
013300*                                                                 PPP548
013400 FD  RPT-P5482-FILE              COPY CPFDXRPT.                   PPP548
013500*                                                                 PPP548
013600 01  RPT-P5482-REC.                                               PPP548
013700     05  CARRIAGE-CTL-CHAR       PIC X.                           PPP548
013800     05  FILLER                  PIC X(132).                      PPP548
014500*                                                                 PPP548
014600 SD  SORT-FILE                                                    PPP548
014700     RECORD CONTAINS 126 CHARACTERS.                              PPP548
014800 01  SORT-REC.                                                    PPP548
014900     05  SORT-REC-KEY                PIC X(28).                   PPP548
015000     05  SORT-REC-DETAIL             PIC X(98).                   PPP548
019300                                                                  PPP548
019400 WORKING-STORAGE SECTION.                                         PPP548
019410                                                                  PPP548
019500 77  A-STND-PGM-ID               PIC X(15)       VALUE            PPP548
019600     'PPP548  /102097'.                                           PPP548
019800 77  HERE-BEFORE-SW PIC X(01) VALUE SPACE.                        PPP548
019900     88  HERE-BEFORE VALUE 'Y'.                                   PPP548
020300                                                                  PPP548
020310 01  SORT-RECORD.                                                 PPP548
020320     05  SORT-KEY                PIC X(28).                       PPP548
020330     05  SORT-KEY-DETAIL  REDEFINES                               PPP548
020340         SORT-KEY.                                                PPP548
020350         10  SORT-KEY-RPT           PIC X(01).                    PPP548
020360             88  SORT-KEY-RPT-ID     VALUE '1'.                   PPP548
020370             88  SORT-KEY-RPT-NAME   VALUE '2'.                   PPP548
020380         10  SORT-KEY-ID-OR-NAME    PIC X(27).                    PPP548
020390     05  SORT-REC-DETAIL.                                         PPP548
020391         10  SORT-EMP-ID            PIC X(09).                    PPP548
020392         10  SORT-EMP-NAME          PIC X(30).                    PPP548
020393         10  SORT-SS-NO             PIC X(09).                    PPP548
020394         10  SORT-EMP-STAT          PIC X(01).                    PPP548
020395         10  SORT-DEPT              PIC X(06).                    PPP548
020396         10  SORT-DEPT-NAME         PIC X(25).                    PPP548
020397         10  SORT-PRIM-TITLE        PIC X(04).                    PPP548
020398         10  SORT-EMP-UNIT          PIC X(02).                    PPP548
020399         10  SORT-YTD-ESL-GROSS     PIC S9(9)V99 COMP-3.          PPP548
020400         10  SORT-YTD-WCR-REFUND    PIC S9(9)V99 COMP-3.          PPP548
020401*                                                                 PPP548
027500 01  RPT-ORDER.                                                   PPP548
027600     05  FILLER         PIC X  VALUE SPACE.                       PPP548
027700         88 RPT-ORDER-NAME      VALUE 'Y'.                        PPP548
027800     05  FILLER         PIC X  VALUE SPACE.                       PPP548
027900         88 RPT-ORDER-EMPID     VALUE 'Y'.                        PPP548
028600                                                                  PPP548
028641 01  CONTROL-COUNTS.                                              PPP548
028642     05  EOJ-EMP-SELECTED        PIC 9(7)      COMP-3 VALUE 0.    PPP548
028643     05  EOJ-YTD-ESL-GROSS       PIC S9(11)V99 COMP-3 VALUE 0.    PPP548
028644     05  EOJ-YTD-WCR-REFUND      PIC S9(11)V99 COMP-3 VALUE 0.    PPP548
028650                                                                  PPP548
028700 01  MISC-DATA.                                                   PPP548
028710     05  LINES-TO-BOTTOM       PIC S9(4) COMP VALUE ZERO.         PPP548
028720     05  TEMP-X                PIC S9(4) COMP VALUE ZERO.         PPP548
028900     05  WS-EMPLOYEE-ID         PIC X(09)  VALUE SPACES.          PPP548
028910     05  FILLER                 PIC X(01)  VALUE SPACE.           PPP548
029000         88 PCM-ROW-OPEN                   VALUE 'Y'.             PPP548
029100         88 NOT-PCM-ROW-OPEN               VALUE SPACE.           PPP548
029200     05  EOF-CARD-FILE-SW       PIC X(01)  VALUE SPACE.           PPP548
029400         88 EOF-CARD-FILE                  VALUE 'Y'.             PPP548
029500     05  LAST-KEY-RPT           PIC X(01) VALUE LOW-VALUES.       PPP548
035800*                                                                 PPP548
035900 01  CALLED-PROGRAMS.                                             PPP548
036000     05  PGM-PPMSGUT2            PIC X(08) VALUE 'PPMSGUT2'.      PPP548
036100*                                                                 PPP548
036200 01  CPWSSEVX          EXTERNAL. COPY CPWSSEVX.                   PPP548
036300                                                                  PPP548
036400 01  MSSG-INTERFACE.             COPY CPWSXMIF.                   PPP548
036500 01  MSSG-INTERFACE-2        REDEFINES                            PPP548
036600     MSSG-INTERFACE.                                              PPP548
036700     05  FILLER              PIC X(186).                          PPP548
036800     05  XMSG-DATA2          PIC X(80).                           PPP548
036900     05  XMSG-FORMATZ  REDEFINES XMSG-DATA2.                      PPP548
036901         10  XMSG-DESCZ      PIC X(34).                           PPP548
036902         10  FILLER          PIC X(01).                           PPP548
036903         10  XMSG-COUNT      PIC Z(6)9.                           PPP548
036904         10  FILLER          PIC X(38).                           PPP548
036905     05  XMSG-FORMATD  REDEFINES XMSG-DATA2.                      PPP548
036906         10  XMSG-DESCD      PIC X(34).                           PPP548
036907         10  FILLER          PIC X(01).                           PPP548
036909         10  XMSG-AMTD       PIC ZZZ,ZZZ,ZZ9.99-.                 PPP548
036910         10  FILLER          PIC X(30).                           PPP548
037300                                                                  PPP548
037400 01  XWHC-COMPILE-WORK-AREA.     COPY CPWSXWHC.                   PPP548
037500                                                                  PPP548
037600 01  MESSAGE-NUMBERS.                                             PPP548
037700     05  M54801                  PIC X(5)       VALUE '54801'.    PPP548
037800     05  M54802                  PIC X(5)       VALUE '54802'.    PPP548
037900     05  M54803                  PIC X(5)       VALUE '54803'.    PPP548
038000     05  M54804                  PIC X(5)       VALUE '54804'.    PPP548
038900                                                                  PPP548
039000 01  WS-REF.                                                      PPP548
039100     05  WS-REF-CC               PIC X      VALUE SPACES.         PPP548
039200     05  WS-REF-TEXT             PIC X(132)  VALUE SPACES.        PPP548
039210                                                                  PPP548
039220 01  P5482-PRINTER-CONTROL.                                       PPP548
039230     05  P5482-LINE-COUNT            PIC 9(03)  VALUE ZERO.       PPP548
039240     05  P5482-LINE-COUNT-MAX        PIC 99     VALUE 50.         PPP548
039300*                                                                 PPP548
039400 01  STND-RPT-HD.          COPY CPWSPSHR.                         PPP548
039500*                                                                 PPP548
041900 01  WS-RPT-P5482-STND-HD-3.                                      PPP548
042000     05  CARRIAGE-CTL-CHAR        PIC X.                          PPP548
042100     05  FILLER                   PIC X(42)   VALUE SPACES.       PPP548
042110     05  WS-STND-PPP5482-RPT-TTL  PIC X(51)   VALUE SPACES.       PPP548
042200     05  FILLER                   PIC X(39)   VALUE SPACES.       PPP548
042210*                                                                 PPP548
042300 01  WS-RPT-P5482-HD-4.                                           PPP548
042310     05  CARRIAGE-CTL-CHAR        PIC X.                          PPP548
042320     05  FILLER                   PIC X(56)   VALUE SPACES.       PPP548
042330     05  WS-PPP5482-HD4-RPT-ORDER PIC X(22)  VALUE SPACES.        PPP548
042340     05  FILLER                   PIC X(54)   VALUE SPACES.       PPP548
043300*                                                                 PPP548
043310 01  WS-RPT-P5482-HD-5.                                           PPP548
043320     05  FILLER   PIC X     VALUE SPACE.                          PPP548
043330     05  FILLER   PIC X(25) VALUE '           EMPLOYEE ID   '.    PPP548
043340     05  FILLER   PIC X(25) VALUE '                    SOC S'.    PPP548
043350     05  FILLER   PIC X(25) VALUE 'EC NO      HOME DEPT     '.    PPP548
043360     05  FILLER   PIC X(25) VALUE '           PRIM TITLE    '.    PPP548
043370     05  FILLER   PIC X(25) VALUE '   ESL GROSS YTD         '.    PPP548
043380     05  FILLER   PIC X(07) VALUE '       '.                      PPP548
043390                                                                  PPP548
043400 01  WS-RPT-P5482-HD-6.                                           PPP548
043500     05  FILLER   PIC X     VALUE SPACE.                          PPP548
043700     05  FILLER   PIC X(25) VALUE '           EMPLOYEE NAME '.    PPP548
043800     05  FILLER   PIC X(25) VALUE '                    EMPL '.    PPP548
043900     05  FILLER   PIC X(25) VALUE 'STATUS     CODE/NAME     '.    PPP548
044000     05  FILLER   PIC X(25) VALUE '           EMPL UNIT     '.    PPP548
044100     05  FILLER   PIC X(25) VALUE '   WCR YTD*              '.    PPP548
044200     05  FILLER   PIC X(07) VALUE '       '.                      PPP548
044210                                                                  PPP548
044400 01  RPT-P5482-REC-DTL-1.                                         PPP548
044500     05  CARRIAGE-CTL-CHAR       PIC X       VALUE SPACES.        PPP548
044600     05  P5482-DTL-LINE-1.                                        PPP548
044610         10  FILLER                   PIC X(12).                  PPP548
044700         10  P5482-EMP-ID             PIC X(09).                  PPP548
046800         10  FILLER                   PIC X(25).                  PPP548
046900         10  P5482-SS-NO              PIC X(09).                  PPP548
047000         10  FILLER                   PIC X(07).                  PPP548
047100         10  P5482-DEPT               PIC X(06).                  PPP548
047200         10  FILLER                   PIC X(20).                  PPP548
047300         10  P5482-PRIM-TITLE         PIC X(04).                  PPP548
047400         10  FILLER                   PIC X(09).                  PPP548
047700         10  P5482-YTD-ESL-GROSS      PIC ZZZ,ZZZ,ZZ9.99-.        PPP548
047800         10  FILLER                   PIC X(06).                  PPP548
047801                                                                  PPP548
047810 01  RPT-P5482-REC-DTL-2.                                         PPP548
047820     05  CARRIAGE-CTL-CHAR       PIC X       VALUE SPACES.        PPP548
047830     05  P5482-DTL-LINE-2.                                        PPP548
047831         10  FILLER                   PIC X(12).                  PPP548
047840         10  P5482-EMP-NAME           PIC X(30).                  PPP548
047870         10  FILLER                   PIC X(04).                  PPP548
047880         10  P5482-EMP-STAT           PIC X(01).                  PPP548
047890         10  FILLER                   PIC X(15).                  PPP548
047891         10  P5482-DEPT-NAME          PIC X(20).                  PPP548
047892         10  FILLER                   PIC X(06).                  PPP548
047893         10  P5482-EMP-UNIT           PIC X(02).                  PPP548
047894         10  FILLER                   PIC X(11).                  PPP548
047895         10  P5482-YTD-WCR-REFUND     PIC ZZZ,ZZZ,ZZ9.99-.        PPP548
047896         10  FILLER                   PIC X(06).                  PPP548
047913*                                                                 PPP548
048710 01  FOOT-LINE-1.                                                 PPP548
048720     05 FILLER  PIC X     VALUE SPACE.                            PPP548
048730     05 FILLER  PIC X(30) VALUE '______________________________'. PPP548
048735*                                                                 PPP548
048736 01  FOOT-LINE-2.                                                 PPP548
048737     05 FILLER  PIC X     VALUE SPACE.                            PPP548
048738     05 FILLER  PIC X(30) VALUE '*  WCR, Workers'' Compensation '.PPP548
048739     05 FILLER  PIC X(30) VALUE 'Refunds processed through PPS,'. PPP548
048740     05 FILLER  PIC X(30) VALUE ' may include payments made whi'. PPP548
048741     05 FILLER  PIC X(30) VALUE 'le the employee               '. PPP548
048742*                                                                 PPP548
048743 01  FOOT-LINE-3.                                                 PPP548
048744     05 FILLER  PIC X     VALUE SPACE.                            PPP548
048745     05 FILLER  PIC X(30) VALUE 'was receiving 100% salary (whi'. PPP548
048746     05 FILLER  PIC X(30) VALUE 'le on accrued sick leave) as w'. PPP548
048747     05 FILLER  PIC X(30) VALUE 'ell as for the period of time '. PPP548
048748     05 FILLER  PIC X(30) VALUE 'the employee was              '. PPP548
048749*                                                                 PPP548
048750 01  FOOT-LINE-4.                                                 PPP548
048751     05 FILLER  PIC X     VALUE SPACE.                            PPP548
048752     05 FILLER  PIC X(30) VALUE 'receiving 80% salary (while on'. PPP548
048753     05 FILLER  PIC X(30) VALUE ' extended sick leave).        '. PPP548
048755*                                                                 PPP548
054500*                                                                 PPP548
054600 01  DATE-CONVERSION-WORK-AREAS. COPY CPWSXDC3.                   PPP548
054700*                                                                 PPP548
054800 01  PPDB2MSG-INTERFACE. COPY CPLNKDB2.                           PPP548
054900******************************************************************PPP548
055000*          SQL - WORKING STORAGE                                 *PPP548
055100******************************************************************PPP548
055200 01  PCM-ROW-DATA.                                                PPP548
055300     EXEC SQL INCLUDE PPPVZPCM END-EXEC.                          PPP548
055400                                                                  PPP548
055500     EXEC SQL                                                     PPP548
055600          DECLARE PCM_ROW CURSOR FOR                              PPP548
055700         SELECT EMPLOYEE_ID                                       PPP548
055800               ,YTD_ESL_GROSS                                     PPP548
055900               ,YTD_WCR_REFUND                                    PPP548
056100              FROM PPPVZPCM_PCM                                   PPP548
056200              WHERE                                               PPP548
056202               (YTD_ESL_GROSS ^= 0   OR                           PPP548
056203                YTD_WCR_REFUND ^= 0)                              PPP548
056700     END-EXEC.                                                    PPP548
056810                                                                  PPP548
056820 01  PER-ROW.                                                     PPP548
056830     EXEC SQL                                                     PPP548
056840         INCLUDE PPPVZPER                                         PPP548
056850     END-EXEC.                                                    PPP548
056851                                                                  PPP548
056852 01  PAY-ROW.                                                     PPP548
056853     EXEC SQL                                                     PPP548
056854         INCLUDE PPPVZPAY                                         PPP548
056855     END-EXEC.                                                    PPP548
056856                                                                  PPP548
056857 01  HME-ROW.                                                     PPP548
056858     EXEC SQL                                                     PPP548
056859          INCLUDE PPPVZHME                                        PPP548
056860     END-EXEC.                                                    PPP548
056870                                                                  PPP548
056900     EXEC SQL                                                     PPP548
057000          INCLUDE SQLCA                                           PPP548
057100     END-EXEC.                                                    PPP548
057200                                                                  PPP548
057300*---------------------------------------------------------------- PPP548
057400 PROCEDURE DIVISION.                                              PPP548
057500*---------------------------------------------------------------- PPP548
057600     EXEC SQL                                                     PPP548
057700          INCLUDE CPPDXE99                                        PPP548
057800     END-EXEC.                                                    PPP548
057900*---------------------------------------------------------------- PPP548
058000 MAIN-0001 SECTION.                                               PPP548
058100*---------------------------------------------------------------- PPP548
058200     PERFORM 0100-INITIALIZATION.                                 PPP548
058300                                                                  PPP548
058400     SORT SORT-FILE                                               PPP548
058500        ON ASCENDING KEY SORT-REC-KEY                             PPP548
058600            INPUT PROCEDURE IS 1000-PROCESS-PCM-ROW-INPUT         PPP548
058700            OUTPUT PROCEDURE IS 2000-PRODUCE-PPP5482-REPORT.      PPP548
059600                                                                  PPP548
059700     MOVE ZEROS             TO   XMSG-NUMBER                      PPP548
059800     MOVE SPACES            TO   XMSG-TEXT.                       PPP548
059900     MOVE 'ESL/WCR EMPLOYEES SELECTED            '                PPP548
060000                                          TO XMSG-DESCZ.          PPP548
060100     MOVE EOJ-EMP-SELECTED                TO XMSG-COUNT.          PPP548
060200     MOVE 2                               TO XMSG-SKIP.           PPP548
060300     MOVE HIGH-VALUE                      TO XMSG-FLAG.           PPP548
060400     PERFORM 9200-CALL-PPMSGUTL-MODULE.                           PPP548
060500     MOVE 'TOTAL YTD ESL GROSS     '      TO XMSG-DESCD.          PPP548
060700     MOVE EOJ-YTD-ESL-GROSS               TO XMSG-AMTD.           PPP548
060800     MOVE 2                               TO XMSG-SKIP.           PPP548
060900     MOVE HIGH-VALUE                      TO XMSG-FLAG.           PPP548
061000     PERFORM 9200-CALL-PPMSGUTL-MODULE.                           PPP548
061310     MOVE 'TOTAL YTD WCR AMOUNT    '      TO XMSG-DESCD.          PPP548
061320     MOVE EOJ-YTD-WCR-REFUND              TO XMSG-AMTD.           PPP548
061400     MOVE 2                               TO XMSG-SKIP.           PPP548
061500     MOVE HIGH-VALUE                      TO XMSG-FLAG.           PPP548
061600     PERFORM 9200-CALL-PPMSGUTL-MODULE.                           PPP548
061700 0100-RETURN.                                                     PPP548
061800     CLOSE RPT-P5482-FILE,                                        PPP548
062100           CARD-FILE,                                             PPP548
062600     MOVE XMSG-HIGHEST-SEVERITY-9 TO RETURN-CODE.                 PPP548
062700     STOP RUN.                                                    PPP548
062800                                                                  PPP548
062900*---------------------------------------------------------------- PPP548
063000 0100-INITIALIZATION  SECTION.                                    PPP548
063100*---------------------------------------------------------------- PPP548
063200     MOVE A-STND-PGM-ID TO STND-PROG-ID,                          PPP548
063300                           DB2MSG-PGM-ID                          PPP548
063400                           XWHC-DISPLAY-MODULE.                   PPP548
063500     COPY     CPPDXWHC.                                           PPP548
063600     MOVE 1 TO CPWSSEVX-INFORMATIONAL-SEV.                        PPP548
063700     MOVE 3 TO CPWSSEVX-WARNING-SEV.                              PPP548
063800     MOVE 4 TO CPWSSEVX-SERIOUS-SEV.                              PPP548
063900     MOVE 5 TO CPWSSEVX-SEV-FATAL.                                PPP548
064000     MOVE 8 TO CPWSSEVX-SEE-SYSTEM-SEV.                           PPP548
064100     MOVE ZERO TO XMSG-SEVERITY XMSG-HIGHEST-SEVERITY-9.          PPP548
064300     OPEN INPUT  CARD-FILE.                                       PPP548
064500     OPEN OUTPUT RPT-P5482-FILE.                                  PPP548
064900     PERFORM XDC3-GET-CURRENT-DATE.                               PPP548
065000     PERFORM XDC3-CONVERT-LILIAN-TO-ISO.                          PPP548
065100     PERFORM XDC3-CONVERT-ISO-TO-FMT.                             PPP548
065200     MOVE XDC3-FMT-DATE  TO STND-RPT-DATE.                        PPP548
065300     MOVE 'PPP5482'      TO STND-RPT-ID.                          PPP548
065440     MOVE 'EXTENDED SICK LEAVE & WORKERS'' COMPENSATION REFUNDS'  PPP548
065450                         TO  WS-STND-PPP5482-RPT-TTL.             PPP548
065700     PERFORM 0900-INITIALIZE-PPMSGUTL.                            PPP548
065710     MOVE SPACES       TO RPT-P5482-REC-DTL-1.                    PPP548
065720     MOVE SPACES       TO RPT-P5482-REC-DTL-2.                    PPP548
065800*                                                                 PPP548
065900     MOVE SPACES  TO RPT-ORDER.                                   PPP548
068600     PERFORM 8500-READ-SPEC-CARD.                                 PPP548
068700     IF EOF-CARD-FILE                                             PPP548
068900*-->     MISSING SPEC CARD                                        PPP548
069000        MOVE M54801            TO   XMSG-NUMBER                   PPP548
069100        MOVE SPACES            TO   XMSG-DATA                     PPP548
069200        PERFORM 9100-ERROR-ROUTINE                                PPP548
069300     ELSE                                                         PPP548
069310        IF  NOT VALID-SPEC-ID                                     PPP548
069500*--->       INVALID SPEC ID                                       PPP548
069600           MOVE M54802            TO   XMSG-NUMBER                PPP548
069700           MOVE CARD-REC          TO   XMSG-DATA                  PPP548
069800           PERFORM 9100-ERROR-ROUTINE                             PPP548
071200        ELSE                                                      PPP548
071201            EVALUATE TRUE                                         PPP548
071202                WHEN INPT-SPEC-RPT-ORDER-NAME                     PPP548
071203                      SET RPT-ORDER-NAME  TO TRUE                 PPP548
071204                WHEN INPT-SPEC-RPT-ORDER-EMID                     PPP548
071205                      SET RPT-ORDER-EMPID TO TRUE                 PPP548
071206                WHEN INPT-SPEC-RPT-ORDER-BOTH                     PPP548
071207                      SET RPT-ORDER-NAME  TO TRUE                 PPP548
071208                      SET RPT-ORDER-EMPID TO TRUE                 PPP548
071209                WHEN OTHER                                        PPP548
071210                      MOVE M54803         TO   XMSG-NUMBER        PPP548
071211                      MOVE CARD-REC       TO   XMSG-DATA          PPP548
071212                      PERFORM 9100-ERROR-ROUTINE                  PPP548
071214            END-EVALUATE                                          PPP548
071215        END-IF                                                    PPP548
071216     END-IF.                                                      PPP548
071217     IF RPT-ORDER    = SPACES                                     PPP548
071218        SET RPT-ORDER-NAME  TO TRUE                               PPP548
071220        SET RPT-ORDER-EMPID TO TRUE                               PPP548
071300     END-IF.                                                      PPP548
073400*                                                                 PPP548
077200                                                                  PPP548
077300*---------------------------------------------------------------- PPP548
079200 0900-INITIALIZE-PPMSGUTL  SECTION.                               PPP548
079300*---------------------------------------------------------------- PPP548
079400     MOVE ZERO                   TO   XMSG-NUMBER                 PPP548
079500     MOVE A-STND-PGM-ID          TO   XMSG-PROG-ID.               PPP548
079600     MOVE    'PPP5481'           TO   XMSG-RPT-ID.                PPP548
079700     MOVE    XDC3-FMT-DATE       TO   XMSG-RUN-DATE.              PPP548
079800     MOVE    SPACES              TO   XMSG-END-DATE.              PPP548
079900     MOVE    ' '                 TO   XMSG-REFERENCE.             PPP548
080000     MOVE    '       EXTENDED SICK LEAVE CONTROL'                 PPP548
080100                                 TO   XMSG-RPT-TTL.               PPP548
080200     MOVE    SPACES              TO   XMSG-CHK-DATE.              PPP548
080300     PERFORM 9200-CALL-PPMSGUTL-MODULE.                           PPP548
080400                                                                  PPP548
080500*---------------------------------------------------------------- PPP548
080600 1000-PROCESS-PCM-ROW-INPUT   SECTION.                            PPP548
080700*---------------------------------------------------------------- PPP548
080710****************************************************************  PPP548
080720* SEARCH THE EDB FOR NON-ZERO YTD-ESL-GROSS AND YTD-WCR-REFUNDS   PPP548
080730****************************************************************  PPP548
080740     PERFORM SQL-OPEN-PCM.                                        PPP548
080750     IF  SQLCODE NOT = ZERO                                       PPP548
080760           MOVE M54804            TO   XMSG-NUMBER                PPP548
080770           MOVE DB2MSG-TAG        TO   XMSG-DATA                  PPP548
080780           PERFORM 9100-ERROR-ROUTINE                             PPP548
080790     END-IF.                                                      PPP548
080791     PERFORM SQL-FETCH-PCM.                                       PPP548
080793     PERFORM                                                      PPP548
080794        UNTIL SQLCODE NOT = ZERO                                  PPP548
080795            PERFORM 1010-BUILD-RELEASE-SORT-REC                   PPP548
080801            PERFORM SQL-FETCH-PCM                                 PPP548
080802     END-PERFORM.                                                 PPP548
080803     IF  SQLCODE  NOT = +100                                      PPP548
080804            MOVE M54804            TO   XMSG-NUMBER               PPP548
080805            MOVE DB2MSG-TAG        TO   XMSG-DATA                 PPP548
080806            PERFORM 9100-ERROR-ROUTINE                            PPP548
080807     END-IF.                                                      PPP548
080808     PERFORM SQL-CLOSE-PCM.                                       PPP548
081000****************************************************************  PPP548
081100*   WRITE SORT TRAILER RECORD                                     PPP548
081200****************************************************************  PPP548
081300     MOVE HIGH-VALUES     TO  SORT-KEY                            PPP548
081400     RELEASE SORT-REC  FROM SORT-RECORD.                          PPP548
081500 1000-EXIT.   EXIT.                                               PPP548
081510                                                                  PPP548
081600*---------------------------------------------------------------- PPP548
081710 1010-BUILD-RELEASE-SORT-REC  SECTION.                            PPP548
081800*---------------------------------------------------------------- PPP548
081900     ADD  1                 TO  EOJ-EMP-SELECTED.                 PPP548
081901     ADD  YTD-ESL-GROSS     TO  EOJ-YTD-ESL-GROSS                 PPP548
081902     ADD  YTD-WCR-REFUND    TO  EOJ-YTD-WCR-REFUND.               PPP548
081910     INITIALIZE SORT-RECORD.                                      PPP548
082000     MOVE EMPLOYEE-ID OF PCM-ROW-DATA  TO WS-EMPLOYEE-ID          PPP548
082100                                       SORT-EMP-ID                PPP548
084901     MOVE YTD-ESL-GROSS             TO SORT-YTD-ESL-GROSS         PPP548
084902     MOVE YTD-WCR-REFUND            TO SORT-YTD-WCR-REFUND        PPP548
084903     PERFORM 9600-SQL-SELECT-PER-ROW                              PPP548
084905     MOVE EMP-NAME                  TO SORT-EMP-NAME              PPP548
084906     MOVE HOME-DEPT                 TO SORT-DEPT                  PPP548
084907     PERFORM 9675-SQL-SELECT-HME-DEPT                             PPP548
084909     MOVE HME-ABRV-DEPT-NAME        TO SORT-DEPT-NAME             PPP548
084910     MOVE EMP-STATUS                TO SORT-EMP-STAT              PPP548
084911     MOVE PRIMARY-TITLE             TO SORT-PRIM-TITLE            PPP548
084912     MOVE EMP-REL-UNIT              TO SORT-EMP-UNIT              PPP548
084913     MOVE SOC-SEC-NUM               TO SORT-SS-NO                 PPP548
084914     IF  RPT-ORDER-NAME                                           PPP548
084915          SET SORT-KEY-RPT-NAME     TO TRUE                       PPP548
084916          MOVE SORT-EMP-NAME   TO SORT-KEY-ID-OR-NAME             PPP548
084917          RELEASE SORT-REC     FROM SORT-RECORD                   PPP548
084918     END-IF.                                                      PPP548
084919     IF  RPT-ORDER-EMPID                                          PPP548
084920          SET SORT-KEY-RPT-ID       TO TRUE                       PPP548
084921          MOVE SORT-EMP-ID     TO SORT-KEY-ID-OR-NAME             PPP548
084922          RELEASE SORT-REC     FROM SORT-RECORD                   PPP548
084923     END-IF.                                                      PPP548
084924 1010-EXIT.   EXIT.                                               PPP548
091600                                                                  PPP548
091700*---------------------------------------------------------------- PPP548
091800 2000-PRODUCE-PPP5482-REPORT  SECTION.                            PPP548
091900*---------------------------------------------------------------- PPP548
092013     PERFORM 3800-RETURN-SORT-FILE.                               PPP548
092040     PERFORM                                                      PPP548
092050       UNTIL SORT-KEY = HIGH-VALUES                               PPP548
092051         IF  SORT-KEY-RPT  NOT =  LAST-KEY-RPT                    PPP548
092052          OR P5482-LINE-COUNT  > P5482-LINE-COUNT-MAX             PPP548
092056             IF LAST-KEY-RPT  NOT = LOW-VALUES                    PPP548
092057                 PERFORM 2200-FOOTNOTE                            PPP548
092058             END-IF                                               PPP548
092059             PERFORM 6500-P5482-HEADING                           PPP548
092061             MOVE SORT-KEY-RPT  TO LAST-KEY-RPT                   PPP548
092062         END-IF                                                   PPP548
092063         PERFORM 2100-PRINT-DETAIL                                PPP548
092064         PERFORM 3800-RETURN-SORT-FILE                            PPP548
092070     END-PERFORM.                                                 PPP548
092080     IF LAST-KEY-RPT  NOT = LOW-VALUES                            PPP548
092090         PERFORM 2200-FOOTNOTE                                    PPP548
092091     END-IF.                                                      PPP548
092092 2000-EXIT.    EXIT.                                              PPP548
092100                                                                  PPP548
092110*---------------------------------------------------------------- PPP548
092200 2100-PRINT-DETAIL  SECTION.                                      PPP548
092300*---------------------------------------------------------------- PPP548
092320*-->  BUILD DETAIL LINE 1                                         PPP548
092330     MOVE SORT-EMP-ID          TO P5482-EMP-ID                    PPP548
092340     MOVE SORT-SS-NO           TO P5482-SS-NO                     PPP548
092350     MOVE SORT-DEPT            TO P5482-DEPT                      PPP548
092360     MOVE SORT-PRIM-TITLE      TO P5482-PRIM-TITLE                PPP548
092370     MOVE SORT-YTD-ESL-GROSS   TO P5482-YTD-ESL-GROSS             PPP548
092371     WRITE RPT-P5482-REC  FROM RPT-P5482-REC-DTL-1                PPP548
092373                          AFTER  ADVANCING 2.                     PPP548
092380*-->  BUILD DETAIL LINE 2                                         PPP548
092390     MOVE SORT-EMP-NAME        TO P5482-EMP-NAME                  PPP548
092391     MOVE SORT-EMP-STAT        TO P5482-EMP-STAT                  PPP548
092392     MOVE SORT-DEPT-NAME       TO P5482-DEPT-NAME                 PPP548
092393     MOVE SORT-EMP-UNIT        TO P5482-EMP-UNIT                  PPP548
092394     MOVE SORT-YTD-WCR-REFUND  TO P5482-YTD-WCR-REFUND            PPP548
092395     WRITE RPT-P5482-REC  FROM RPT-P5482-REC-DTL-2                PPP548
092396                          AFTER  ADVANCING 1.                     PPP548
092397     ADD 3     TO P5482-LINE-COUNT.                               PPP548
092398 2100-EXIT.    EXIT.                                              PPP548
092399                                                                  PPP548
092400*---------------------------------------------------------------- PPP548
092410 2200-FOOTNOTE  SECTION.                                          PPP548
092420*---------------------------------------------------------------- PPP548
092421     IF P5482-LINE-COUNT     NOT > P5482-LINE-COUNT-MAX           PPP548
092422        COMPUTE LINES-TO-BOTTOM  = P5482-LINE-COUNT-MAX           PPP548
092423                                 - P5482-LINE-COUNT + 1           PPP548
092424        COMPUTE LINES-TO-BOTTOM  = LINES-TO-BOTTOM  / 2           PPP548
092425        PERFORM                                                   PPP548
092426          VARYING TEMP-X  FROM 1 BY 1                             PPP548
092427            UNTIL TEMP-X  > LINES-TO-BOTTOM                       PPP548
092428              MOVE SPACES    TO RPT-P5482-REC                     PPP548
092429              WRITE RPT-P5482-REC  AFTER ADVANCING 2              PPP548
092430        END-PERFORM                                               PPP548
092431     END-IF.                                                      PPP548
092432     WRITE RPT-P5482-REC  FROM FOOT-LINE-1  AFTER ADVANCING 2.    PPP548
092434     WRITE RPT-P5482-REC  FROM FOOT-LINE-2  AFTER ADVANCING 1.    PPP548
092436     WRITE RPT-P5482-REC  FROM FOOT-LINE-3  AFTER ADVANCING 1.    PPP548
092438     WRITE RPT-P5482-REC  FROM FOOT-LINE-4  AFTER ADVANCING 1.    PPP548
092500 2200-EXIT.    EXIT.                                              PPP548
092600                                                                  PPP548
118200*---------------------------------------------------------------- PPP548
118300 3800-RETURN-SORT-FILE  SECTION.                                  PPP548
118400*---------------------------------------------------------------- PPP548
118500     RETURN SORT-FILE   INTO SORT-RECORD                          PPP548
118600            AT END                                                PPP548
118700                MOVE HIGH-VALUES   TO SORT-KEY.                   PPP548
118800                                                                  PPP548
132500*---------------------------------------------------------------- PPP548
132600 6500-P5482-HEADING   SECTION.                                    PPP548
132700*---------------------------------------------------------------- PPP548
132800     ADD 1  TO STND-PAGE-NO.                                      PPP548
133000     WRITE RPT-P5482-REC   FROM STND-RPT-HD1                      PPP548
133100                                 AFTER  ADVANCING NEW-PAGE.       PPP548
133200     WRITE RPT-P5482-REC   FROM STND-RPT-HD2                      PPP548
133300                                 AFTER  ADVANCING 1.              PPP548
133500     WRITE RPT-P5482-REC   FROM WS-RPT-P5482-STND-HD-3            PPP548
133600                                 AFTER  ADVANCING 1.              PPP548
133601     IF  SORT-KEY-RPT-NAME                                        PPP548
133602         MOVE '(EMPLOYEE NAME ORDER)' TO WS-PPP5482-HD4-RPT-ORDER PPP548
133603     ELSE                                                         PPP548
133604         MOVE ' (EMPLOYEE ID ORDER) ' TO WS-PPP5482-HD4-RPT-ORDER PPP548
133605     END-IF.                                                      PPP548
133610     WRITE RPT-P5482-REC   FROM WS-RPT-P5482-HD-4                 PPP548
133620                                 AFTER  ADVANCING 1.              PPP548
133700     WRITE RPT-P5482-REC   FROM WS-RPT-P5482-HD-5                 PPP548
133800                                 AFTER  ADVANCING 2.              PPP548
134200     WRITE RPT-P5482-REC   FROM WS-RPT-P5482-HD-6                 PPP548
134300                                 AFTER  ADVANCING 1.              PPP548
134400     MOVE 8   TO P5482-LINE-COUNT.                                PPP548
134600 6500-EXIT.  EXIT.                                                PPP548
134700                                                                  PPP548
137800                                                                  PPP548
140400*---------------------------------------------------------------- PPP548
140500 8500-READ-SPEC-CARD     SECTION.                                 PPP548
140600*---------------------------------------------------------------- PPP548
140700     READ CARD-FILE                                               PPP548
140800         AT END                                                   PPP548
140900             SET EOF-CARD-FILE    TO TRUE.                        PPP548
141200 8500-EXIT.    EXIT.                                              PPP548
141300                                                                  PPP548
142000*---------------------------------------------------------------- PPP548
142100 9100-ERROR-ROUTINE  SECTION.                                     PPP548
142200*---------------------------------------------------------------- PPP548
142300     MOVE    '1'                 TO   XMSG-REFERENCE.             PPP548
142400     PERFORM 9200-CALL-PPMSGUTL-MODULE.                           PPP548
142500                                                                  PPP548
142600*---------------------------------------------------------------- PPP548
142700 9200-CALL-PPMSGUTL-MODULE  SECTION.                              PPP548
142800*---------------------------------------------------------------- PPP548
142900     CALL PGM-PPMSGUT2           USING MSSG-INTERFACE             PPP548
143000             END-CALL.                                            PPP548
143100     IF XMSG-SEVERITY  NOT < CPWSSEVX-SEE-SYSTEM-SEV              PPP548
143200         GO TO 0100-RETURN                                        PPP548
143300     END-IF.                                                      PPP548
143400     MOVE SPACES                 TO   XMSG-DATA.                  PPP548
143500*                                                                 PPP548
143510*-------------------------------------------------------------    PPP548
143520 9600-SQL-SELECT-PER-ROW    SECTION.                              PPP548
143530*-------------------------------------------------------------    PPP548
143540     MOVE 'SELECT PER ROW ' TO DB2MSG-TAG.                        PPP548
143550     EXEC SQL                                                     PPP548
143560       SELECT EMPLOYEE_ID                                         PPP548
143570            , EMP_NAME                                            PPP548
143571            , HOME_DEPT                                           PPP548
143572            , EMP_STATUS                                          PPP548
143573            , EMP_REL_UNIT                                        PPP548
143574            , PRIMARY_TITLE                                       PPP548
143580       INTO  :PER-ROW.EMPLOYEE-ID                                 PPP548
143581           , :EMP-NAME                                            PPP548
143582           , :HOME-DEPT                                           PPP548
143583           , :EMP-STATUS                                          PPP548
143590           , :EMP-REL-UNIT                                        PPP548
143591           , :PRIMARY-TITLE                                       PPP548
143592       FROM PPPVZPER_PER                                          PPP548
143593       WHERE EMPLOYEE_ID = :WS-EMPLOYEE-ID                        PPP548
143594     END-EXEC.                                                    PPP548
143595     IF  SQLCODE  = ZERO                                          PPP548
143596         PERFORM 9650-SQL-SELECT-PAY-ROW                          PPP548
143597     ELSE                                                         PPP548
143598            MOVE M54804            TO   XMSG-NUMBER               PPP548
143599            MOVE DB2MSG-TAG        TO   XMSG-DATA                 PPP548
143600            PERFORM 9100-ERROR-ROUTINE                            PPP548
143601            INITIALIZE PER-ROW                                    PPP548
143602            INITIALIZE PAY-ROW                                    PPP548
143603     END-IF.                                                      PPP548
143604 9600-EXIT.    EXIT.                                              PPP548
143605*                                                                 PPP548
143611*-------------------------------------------------------------    PPP548
143612 9650-SQL-SELECT-PAY-ROW    SECTION.                              PPP548
143613*-------------------------------------------------------------    PPP548
143614     MOVE 'SELECT PAY ROW ' TO DB2MSG-TAG.                        PPP548
143615     EXEC SQL                                                     PPP548
143616       SELECT EMPLOYEE_ID                                         PPP548
143617            , SOC_SEC_NUM                                         PPP548
143618       INTO  :PAY-ROW.EMPLOYEE-ID                                 PPP548
143619           , :SOC-SEC-NUM                                         PPP548
143620       FROM PPPVZPAY_PAY                                          PPP548
143621       WHERE EMPLOYEE_ID = :WS-EMPLOYEE-ID                        PPP548
143622     END-EXEC.                                                    PPP548
143623     IF  SQLCODE  NOT = ZERO                                      PPP548
143627            INITIALIZE PAY-ROW                                    PPP548
143628     END-IF.                                                      PPP548
143629 9650-EXIT.    EXIT.                                              PPP548
143630*                                                                 PPP548
143631*-------------------------------------------------------------    PPP548
143632 9675-SQL-SELECT-HME-DEPT  SECTION.                               PPP548
143633*-------------------------------------------------------------    PPP548
143635**************************************************************    PPP548
143636*  SELECT THE HOME DEPARTMENT NAME FROM THE HME TABLE        *    PPP548
143637**************************************************************    PPP548
143639     MOVE HOME-DEPT OF PER-ROW TO HME-DEPT-NO.                    PPP548
143641     MOVE 'SELECT HME' TO DB2MSG-TAG.                             PPP548
143643     EXEC SQL                                                     PPP548
143644          SELECT HME_ABRV_DEPT_NAME                               PPP548
143645          INTO  :HME-ABRV-DEPT-NAME                               PPP548
143646          FROM PPPVZHME_HME                                       PPP548
143647          WHERE HME_DEPT_NO = :HME-DEPT-NO                        PPP548
143648     END-EXEC.                                                    PPP548
143649     IF  SQLCODE  NOT = ZERO                                      PPP548
143650          INITIALIZE HME-ABRV-DEPT-NAME                           PPP548
143654     END-IF.                                                      PPP548
143655 9675-EXIT.    EXIT.                                              PPP548
143656                                                                  PPP548
143660*---------------------------------------------------------------- PPP548
143700 SQL-OPEN-PCM      SECTION.                                       PPP548
143800*---------------------------------------------------------------- PPP548
143900     IF NOT PCM-ROW-OPEN                                          PPP548
144000         MOVE 'OPEN PCM CURSOR' TO DB2MSG-TAG                     PPP548
144100         EXEC SQL                                                 PPP548
144200             OPEN PCM_ROW                                         PPP548
144300         END-EXEC                                                 PPP548
144400         SET PCM-ROW-OPEN TO TRUE                                 PPP548
144500     END-IF.                                                      PPP548
144600*---------------------------------------------------------------- PPP548
144700 SQL-CLOSE-PCM      SECTION.                                      PPP548
144800*---------------------------------------------------------------- PPP548
144900     IF PCM-ROW-OPEN                                              PPP548
145000         MOVE 'CLOSE PCM CURSOR' TO DB2MSG-TAG                    PPP548
145100         EXEC SQL                                                 PPP548
145200             CLOSE PCM_ROW                                        PPP548
145300         END-EXEC                                                 PPP548
145400         SET NOT-PCM-ROW-OPEN TO TRUE                             PPP548
145500     END-IF.                                                      PPP548
145600*---------------------------------------------------------------- PPP548
145700 SQL-FETCH-PCM      SECTION.                                      PPP548
145800*---------------------------------------------------------------- PPP548
145900     MOVE 'FETCH PCM ROW' TO DB2MSG-TAG                           PPP548
146000     EXEC SQL                                                     PPP548
146100         FETCH PCM_ROW                                            PPP548
146200         INTO :PCM-ROW-DATA.EMPLOYEE-ID                           PPP548
146300            , :PCM-ROW-DATA.YTD-ESL-GROSS                         PPP548
146400            , :PCM-ROW-DATA.YTD-WCR-REFUND                        PPP548
146600     END-EXEC.                                                    PPP548
146700*                                                                 PPP548
146800*---------------------------------------------------------------- PPP548
146900 DATE-CONVERSION-DB2 SECTION.        COPY CPPDXDC3.               PPP548
147000*---------------------------------------------------------------- PPP548
147100                                                                  PPP548
147200*---------------------------------------------------------------- PPP548
147300*999999-SQL-ERROR.                                               *PPP548
147400*---------------------------------------------------------------- PPP548
147500     COPY CPPDXP99.                                               PPP548
147600     MOVE DB2MSG-MESSNO TO XMSG-NUMBER.                           PPP548
147700     IF NOT HERE-BEFORE                                           PPP548
147800         SET HERE-BEFORE TO TRUE                                  PPP548
147900         PERFORM 9100-ERROR-ROUTINE                               PPP548
148000     END-IF.                                                      PPP548
148100     MOVE XMSG-HIGHEST-SEVERITY-9 TO RETURN-CODE.                 PPP548
148200     STOP RUN.                                                    PPP548
148300*--------  E N D  O F   PPP548  --------------------------------- PPP548
