000100**************************************************************/   28981140
000200*  PROGRAM: PPP645                                           */   28981140
000300*  RELEASE: ___1140______ SERVICE REQUEST(S): ____12898____  */   28981140
000400*  NAME:______M SANO_____ MODIFICATION DATE:  ___08/07/97__  */   28981140
000500*  DESCRIPTION:                                              */   28981140
000600*     CHANGE 'OPT' TO 'VIS' IN HEADING                       */   28981140
000700**************************************************************/   28981140
000100**************************************************************/   28091042
000200*  PROGRAM: PPP645                                           */   28091042
000300*  RELEASE: ___1042______ SERVICE REQUEST(S): ____12809____  */   28091042
000400*  REF. REL:___1026______                                    */   28091042
000500*  NAME:______PAYMTS_____ MODIFICATION DATE:  ___12/08/95__  */   28091042
000600*  DESCRIPTION:                                              */   28091042
000700*     CORRECTION OF LEAVE TYPE CODE TRANSLATIONS 15 AND 16   */   28091042
000800*                                                            */   28091042
000900**************************************************************/   28091042
000100**************************************************************/   28091026
000200*  PROGRAM: PPP645                                           */   28091026
000300*  RELEASE: ___1026______ SERVICE REQUEST(S): ____12809____  */   28091026
000400*  NAME:______M. SANO____ MODIFICATION DATE:  ___10/19/95__  */   28091026
000500*  DESCRIPTION:                                              */   28091026
000600*     REPORT TO IDENTIFY EMPLOYEES ON LEAVE STATUS OR        */   28091026
000700*     SEPARTED AS OF THE OPEN ENROLLMENT COVERAGE EFFECTIVE  */   28091026
000800*     DATE WHO HAVE CHANGED PLANS AS OF THAT DATE.           */   28091026
000900**************************************************************/   28091026
001000 IDENTIFICATION DIVISION.                                         PPP645
001100 PROGRAM-ID. PPP645.                                              PPP645
001200 AUTHOR. UCOP                                                     PPP645
001300     SKIP1                                                        PPP645
001400*REMARKS.                                                         PPP645
001500**************************************************************    PPP645
001600**                                                          **    PPP645
001700** INPUT:                                                   **    PPP645
001800**                                                          **    PPP645
001900**        CTL HME TABLE                                     **    PPP645
002000**        CTL MSG TABLE                                     **    PPP645
002100**        CARDFILE (SPECIFICATION RECORD WITH COVERAGE      **    PPP645
002200**                    EFFECTIVE DATE)                       **    PPP645
002300**        EDB (PPPVPER1 AND PPPVBEN1 VIEWS)                 **    PPP645
002400**                                                          **    PPP645
002500** OUTPUT:                                                  **    PPP645
002600**        PPP6451 SORTED BY EMPLOYEE NAME                   **    PPP645
002700**        PPP6452 SORTED BY LEAVE TYPE CODE, EMPLOYEE NAME  **    PPP645
002800**        ERROR REPORT (PPP6453)                            **    PPP645
002900**                                                          **    PPP645
003000** PROCESS: VERIFY THAT THERE IS A SPEC RECORD.             **    PPP645
003100**          VALIDATE THE SPEC CARD FOR ID AND VALID DATE.   **    PPP645
003200**          FETCH THE CURSOR IN NAME ORDER. FORMAT AND      **    PPP645
003300**          PRINT.  CLOSE THE CURSOR AND FETCH THE CURSOR   **    PPP645
003400**          IN LEAVE TYPE ORDER.  FORMAT AND PRINT.         **    PPP645
003500**************************************************************    PPP645
003600     SKIP1                                                        PPP645
003700     EJECT                                                        PPP645
003800***********************************************************       PPP645
003900*        E N V I R O N M E N T     D I V I S I O N        *       PPP645
004000***********************************************************       PPP645
004100     SKIP1                                                        PPP645
004200 ENVIRONMENT DIVISION.                                            PPP645
004300 CONFIGURATION SECTION.                                           PPP645
004400     SKIP1                                                        PPP645
004500 SPECIAL-NAMES.                                                   PPP645
004600     C01 IS NEW-PAGE.                                             PPP645
004700     SKIP1                                                        PPP645
004800 INPUT-OUTPUT SECTION.                                            PPP645
004900 FILE-CONTROL.                                                    PPP645
005000     SKIP1                                                        PPP645
005100     SELECT PPP6451-REPORT ASSIGN TO UT-S-PPP6451.                PPP645
005200     SKIP2                                                        PPP645
005300     SELECT PPP6452-REPORT ASSIGN TO UT-S-PPP6452.                PPP645
005400     SKIP2                                                        PPP645
005500     SELECT CARDFILE       ASSIGN TO UT-S-CARDFIL.                PPP645
005600     EJECT                                                        PPP645
005700***********************************************************       PPP645
005800*                D A T A     D I V I S I O N              *       PPP645
005900***********************************************************       PPP645
006000     SKIP1                                                        PPP645
006100 DATA DIVISION.                                                   PPP645
006200 FILE SECTION.                                                    PPP645
006300*                                                                *PPP645
006400     SKIP1                                                        PPP645
006500 FD  PPP6451-REPORT                                               PPP645
006600     LABEL RECORDS ARE OMITTED                                    PPP645
006700     BLOCK CONTAINS 0 RECORDS                                     PPP645
006800     RECORDING MODE IS F                                          PPP645
006900     RECORD CONTAINS 133 CHARACTERS.                              PPP645
007000     SKIP1                                                        PPP645
007100 01  PPP6451-LINE.                                                PPP645
007200     05  FILLER                   PIC X.                          PPP645
007300     05  PPP6451-DATA             PIC X(132).                     PPP645
007400     SKIP3                                                        PPP645
007500 FD  PPP6452-REPORT                                               PPP645
007600     LABEL RECORDS ARE OMITTED                                    PPP645
007700     BLOCK CONTAINS 0 RECORDS                                     PPP645
007800     RECORDING MODE IS F                                          PPP645
007900     RECORD CONTAINS 133 CHARACTERS.                              PPP645
008000     SKIP1                                                        PPP645
008100 01  PPP6452-LINE.                                                PPP645
008200     05  FILLER                   PIC X.                          PPP645
008300     05  PPP6452-DATA             PIC X(132).                     PPP645
008400     SKIP3                                                        PPP645
008500     SKIP3                                                        PPP645
008600 FD  CARDFILE                                                     PPP645
008700     LABEL RECORDS ARE OMITTED                                    PPP645
008800     RECORDING MODE IS F                                          PPP645
008900     RECORD CONTAINS 80 CHARACTERS                                PPP645
009000     DATA RECORD IS SPEC-CARD.                                    PPP645
009100     SKIP1                                                        PPP645
009200 01  SPEC-CARD.                                                   PPP645
009300     05  SPEC-PGM-ID             PIC X(11).                       PPP645
009400         88  VALID-SPEC-PGM-ID              VALUE 'PPP645-SPEC'.  PPP645
009500     05  SPEC-PGM-DATE           PIC X(06).                       PPP645
009600     05  FILLER                  PIC X(63).                       PPP645
009700     EJECT                                                        PPP645
009800 WORKING-STORAGE SECTION.                                         PPP645
009900     SKIP1                                                        PPP645
010000***********************************************************       PPP645
010100*        M I S C    W O R K I N G     S T O R A G E       *       PPP645
010200***********************************************************       PPP645
010300     SKIP1                                                        PPP645
010400 01  WX-BEGIN-FLAG               PIC X(32) VALUE                  PPP645
010500     'PPP645 WORK STORAGE HERE'.                                  PPP645
010600 01  WA-COMPILE-WORK-AREA.       COPY CPWSXWHC.                   PPP645
010700 01  WS-WORK-MISC.                                                PPP645
010800     05  WS-PGM-ID.                                               PPP645
010900         10  FILLER              PIC X(08) VALUE 'PPP645 '.       PPP645
011000         10  DATE-CMPLD          PIC X(07) VALUE '/101995'.       PPP645
011100     05  WS-COVEFFDATE           PIC X(10).                       PPP645
011200     05  WS-COVEFFDATE-PLUS-1    PIC X(10).                       PPP645
011300     05  WS-COVEFFDATE-MINUS-1   PIC X(10).                       PPP645
011400     05  WS-INIT-DATE            PIC X(10) VALUE '0001-01-01'.    PPP645
011500     05  WS-LILIAN-COVEFFDATE   PIC S9(9) COMP.                   PPP645
011600     05  WS-HOME-DEPT.                                            PPP645
011700         10  WS-HOME-DEPT-NUMBER PIC X(06) VALUE SPACES.          PPP645
011800         10  FILLER             PIC X(02) VALUE SPACE.            PPP645
011900         10  WS-HOME-DEPT-NAME  PIC X(30) VALUE SPACES.           PPP645
012000     05  WS-HOLD-LOA-TYPE       PIC X(20) VALUE 'ZZ'.             PPP645
012100     05  WS-LOA-TYPE.                                             PPP645
012200         10  WS-LOA-TYPE-CODE    PIC X(06) VALUE SPACES.          PPP645
012300         10  FILLER             PIC X(02) VALUE SPACE.            PPP645
012400         10  WS-LOA-TYPE-CODE-NAME PIC X(12) VALUE SPACES.        PPP645
012500     05  WS-LOA-TYPE-CODES.                                       PPP645
012600         10  FILLER             PIC X(14) VALUE                   PPP645
012700                 '01SABBATICAL/F'.                                PPP645
012800         10  FILLER             PIC X(14) VALUE                   PPP645
012900                 '02SABBATICAL/P'.                                PPP645
013000         10  FILLER             PIC X(14) VALUE                   PPP645
013100                 '03SAB/RES-FULL'.                                PPP645
013200         10  FILLER             PIC X(14) VALUE                   PPP645
013300                 '04CHILDBEARING'.                                PPP645
013400         10  FILLER             PIC X(14) VALUE                   PPP645
013500                 '05EXT ILLNESS '.                                PPP645
013600         10  FILLER             PIC X(14) VALUE                   PPP645
013700                 '06GOVT/PUB SR '.                                PPP645
013800         10  FILLER             PIC X(14) VALUE                   PPP645
013900                 '07PROF DEVELOP'.                                PPP645
014000         10  FILLER             PIC X(14) VALUE                   PPP645
014100                 '08PERSONAL    '.                                PPP645
014200         10  FILLER             PIC X(14) VALUE                   PPP645
014300                 '09WKRS COMP   '.                                PPP645
014400         10  FILLER             PIC X(14) VALUE                   PPP645
014500                 '10FURLOUGH    '.                                PPP645
014600         10  FILLER             PIC X(14) VALUE                   PPP645
014700                 '11MILITARY    '.                                PPP645
014800         10  FILLER             PIC X(14) VALUE                   PPP645
014900                 '12SP RESEARCH '.                                PPP645
015000         10  FILLER             PIC X(14) VALUE                   PPP645
015100                 '13ADMIN       '.                                PPP645
015200         10  FILLER             PIC X(14) VALUE                   PPP645
015300                 '14SAB/RES-PART'.                                PPP645
015400         10  FILLER             PIC X(14) VALUE                   PPP645
016400                 '15FMLA W/O PAY'.                                28091042
017200****                                                           CD 28981140
015600         10  FILLER             PIC X(14) VALUE                   PPP645
016700                 '16FMLA W/PAY  '.                                28091042
017500****                                                           CD 28981140
015800         10  FILLER             PIC X(14) VALUE                   PPP645
015900                 '99OTHER       '.                                PPP645
016000     05  WS-TBL-LEAVE REDEFINES WS-LOA-TYPE-CODES OCCURS 17.      PPP645
016100         10  WS-TBL-LEAVE-CODE  PIC X(02).                        PPP645
016200         10  WS-TBL-LEAVE-NAME  PIC X(12).                        PPP645
016300     05 HERE-BEFORE-SW PIC X(01) VALUE SPACE.                     PPP645
016400         88 HERE-BEFORE VALUE 'Y'.                                PPP645
016500     05 PER-ROW-OPEN-SW PIC X(01) VALUE SPACE.                    PPP645
016600         88 PER-ROW-OPEN VALUE 'Y'.                               PPP645
016700     05  FIRST-TIME-SW           PIC X(01) VALUE 'Y'.             PPP645
016800         88  FIRST-TIME                    VALUE 'Y'.             PPP645
016900         88  NOT-FIRST-TIME                VALUE 'N'.             PPP645
017000     05  PGM-SORT-SW             PIC X(01) VALUE ' '.             PPP645
017100         88  LEAVE-CD-REPORT               VALUE 'L'.             PPP645
017200         88  NAME-REPORT                   VALUE 'N'.             PPP645
017300     05  WS-PER-SQLCODE        PIC S9(09)    COMP.                PPP645
017400     05  MAX-LINES-PER-PAGE       PIC S9(04) VALUE +55.           PPP645
017500     05  RPT1-LINES-PER-PAGE      PIC S9(04) VALUE +60.           PPP645
017600     05  RPT2-LINES-PER-PAGE      PIC S9(04) VALUE +60.           PPP645
017700     05  SUB                    PIC S9(4) COMP VALUE 0.           PPP645
017800 01  PROGRAM-ERROR-MESSAGES.                                      PPP645
017900     05  M64510                  PIC X(05) VALUE '64510'.         PPP645
018000     05  M64511                  PIC X(05) VALUE '64511'.         PPP645
018100     05  M64512                  PIC X(05) VALUE '64512'.         PPP645
018200     SKIP1                                                        PPP645
018300 01  DATE-FORMAT.                COPY CPWSDATE.                   PPP645
018400     SKIP1                                                        PPP645
018500 01  DATE-WORK-3.                COPY CPWSXDC3.                   PPP645
018600     SKIP1                                                        PPP645
018700 01  WX-FLAGS.                                                    PPP645
018800     05  WX-ABEND-FLAG           PIC S9(01) VALUE +0.             PPP645
018900         88  WX-ABEND                       VALUE +1.             PPP645
019000     05  EOF-FLAG                PIC S9(01) VALUE +0.             PPP645
019100         88  EOF                            VALUE +1.             PPP645
019200     EJECT                                                        PPP645
019300 01  LOA-TYPE-HDR.                                                PPP645
019400     05  FILLER                  PIC X(01).                       PPP645
019500     05  FILLER                  PIC X(12) VALUE                  PPP645
019600                                       'LEAVE TYPE: '.            PPP645
019700     05  PRT-LOA-TYPE-CODE       PIC X(02) VALUE SPACES.          PPP645
019800     05  FILLER                  PIC X(01) VALUE SPACE.           PPP645
019900     05  PRT-LOA-TYPE-CODE-NAME PIC X(12) VALUE SPACES.           PPP645
020000     05  FILLER                  PIC X(105) VALUE SPACES.         PPP645
020100 01  PPP6451-HDRA.                                                PPP645
020200     05  FILLER                  PIC X(01).                       PPP645
020300     05  FILLER                  PIC X(60) VALUE SPACES.          PPP645
020400     05  HDR-RPT-TYPE            PIC X(13) VALUE SPACES.          PPP645
020500     05  FILLER                  PIC X(60) VALUE SPACES.          PPP645
020600 01  PPP6451-HDR1.                                                PPP645
020700     05  FILLER                  PIC X(01).                       PPP645
020800     05  FILLER                  PIC X(32) VALUE                  PPP645
020900                              'NAME                            '. PPP645
021000     05  FILLER                  PIC X(11) VALUE 'ID#        '.   PPP645
021100     05  FILLER                  PIC X(06) VALUE SPACES.          PPP645
021200     05  FILLER                  PIC X(14) VALUE 'SEPARATION    '.PPP645
021300     05  FILLER                  PIC X(16) VALUE                  PPP645
021400                                'LEAVE OF ABSENCE'.               PPP645
021500     05  FILLER                  PIC X(19) VALUE SPACES.          PPP645
021600     05  FILLER                  PIC X(27) VALUE                  PPP645
021700                    'OPEN ENROLLMENT PLAN CHANGE'.                PPP645
021800     05  FILLER                  PIC X(10) VALUE SPACES.          PPP645
021900 01  PPP6451-HDR2.                                                PPP645
022000     05  FILLER                  PIC X(01).                       PPP645
022100     05  FILLER                  PIC X(32) VALUE                  PPP645
022200                              '  HOME DEPARTMENT               '. PPP645
022300     05  FILLER                  PIC X(11) VALUE SPACES.          PPP645
022400     05  FILLER                  PIC X(06) VALUE 'STATUS'.        PPP645
022500     05  FILLER                  PIC X(14) VALUE '   DATE       '.PPP645
022600     05  FILLER                  PIC X(21) VALUE                  PPP645
022700                              'BEGIN    RETURN  TYPE'.            PPP645
022800     05  FILLER                  PIC X(15) VALUE SPACES.          PPP645
022900     05  FILLER                  PIC X(27) VALUE                  PPP645
024800                    '   MED   DEN  VIS   LEG    '.                28981140
024900****                '   MED   DEN  OPT   LEG    '.                28981140
023100     05  FILLER                  PIC X(10) VALUE SPACES.          PPP645
023200 01  RPT1-DATE-SEPARATOR.                                         PPP645
023300     05  FILLER                  PIC X(08) VALUE '  /  /  '.      PPP645
023400                                                                  PPP645
023500 01  PPP6451-DETAIL-LINE1.                                        PPP645
023600     05  FILLER                  PIC X(01).                       PPP645
023700     05  RPT1-EMP-DATA.                                           PPP645
023800         10  RPT1-EMP-NAME        PIC X(26) VALUE SPACES.         PPP645
023900         10  FILLER               PIC X(02) VALUE SPACES.         PPP645
024000         10  RPT1-EMP-ID          PIC X(09) VALUE SPACES.         PPP645
024100         10  FILLER               PIC X(08) VALUE SPACES.         PPP645
024200         10  RPT1-EMP-STATUS      PIC X(01) VALUE SPACES.         PPP645
024300         10  FILLER               PIC X(05) VALUE SPACES.         PPP645
024400         10  RPT1-SEP-DATE.                                       PPP645
024500             15  RPT1-SEP-MM          PIC X(02) VALUE SPACES.     PPP645
024600             15  FILLER               PIC X(01) VALUE SPACES.     PPP645
024700             15  RPT1-SEP-DD          PIC X(02) VALUE SPACES.     PPP645
024800             15  FILLER               PIC X(01) VALUE SPACES.     PPP645
024900             15  RPT1-SEP-YY          PIC X(02) VALUE SPACES.     PPP645
025000         10  FILLER               PIC X(02) VALUE SPACES.         PPP645
025100         10  RPT1-LOA-BEG-DATE.                                   PPP645
025200             15  RPT1-LOA-BEG-MM      PIC X(02) VALUE SPACES.     PPP645
025300             15  FILLER               PIC X(01) VALUE SPACES.     PPP645
025400             15  RPT1-LOA-BEG-DD      PIC X(02) VALUE SPACES.     PPP645
025500             15  FILLER               PIC X(01) VALUE SPACES.     PPP645
025600             15  RPT1-LOA-BEG-YY      PIC X(02) VALUE SPACES.     PPP645
025700         10  FILLER               PIC X(02) VALUE SPACES.         PPP645
025800         10  RPT1-LOA-RET-DATE.                                   PPP645
025900             15  RPT1-LOA-RET-MM      PIC X(02) VALUE SPACES.     PPP645
026000             15  FILLER               PIC X(01) VALUE SPACES.     PPP645
026100             15  RPT1-LOA-RET-DD      PIC X(02) VALUE SPACES.     PPP645
026200             15  FILLER               PIC X(01) VALUE SPACES.     PPP645
026300             15  RPT1-LOA-RET-YY      PIC X(02) VALUE SPACES.     PPP645
026400         10  FILLER               PIC X(02) VALUE SPACES.         PPP645
026500         10  RPT1-LOA-TYPE-CODE PIC X(02) VALUE SPACES.           PPP645
026600         10  FILLER               PIC X(02) VALUE SPACES.         PPP645
026700         10  RPT1-LOA-TYPE-CODE-NAME PIC X(12) VALUE SPACES.      PPP645
026800         10  FILLER               PIC X(05) VALUE SPACES.         PPP645
026900         10  RPT1-MED-PLAN-CHANGE PIC X(03) VALUE SPACES.         PPP645
027000         10  FILLER               PIC X(03) VALUE SPACES.         PPP645
027100         10  RPT1-DEN-PLAN-CHANGE PIC X(03) VALUE SPACES.         PPP645
027200         10  FILLER               PIC X(03) VALUE SPACES.         PPP645
027300         10  RPT1-OPT-PLAN-CHANGE PIC X(03) VALUE SPACES.         PPP645
027400         10  FILLER               PIC X(03) VALUE SPACES.         PPP645
027500         10  RPT1-LEG-PLAN-CHANGE PIC X(03) VALUE SPACES.         PPP645
027600         10  FILLER               PIC X(09) VALUE SPACES.         PPP645
027700     SKIP1                                                        PPP645
027800 01  PPP6451-DETAIL-LINE2.                                        PPP645
027900     05  FILLER                  PIC X(01).                       PPP645
028000     05  RPT1-DEPT-DATA.                                          PPP645
028100         10  FILLER               PIC X(02) VALUE SPACES.         PPP645
028200         10  RPT1-HOME-DEPT       PIC X(06) VALUE SPACES.         PPP645
028300         10  FILLER               PIC X(02) VALUE SPACES.         PPP645
028400         10  RPT1-HOME-DEPT-NAME  PIC X(30) VALUE SPACES.         PPP645
028500     05  FILLER                  PIC X(92) VALUE SPACES.          PPP645
028600     EJECT                                                        PPP645
028700***********************************************************       PPP645
028800*        S T A N D A R D    C O P Y   M E M B E R S       *       PPP645
028900***********************************************************       PPP645
029000     SKIP1                                                        PPP645
029100 01  STND-RPT-HD.                COPY CPWSPSHR.                   PPP645
029200     EJECT                                                        PPP645
029300 01  MSSG-INTERFACE.             COPY CPWSXMIF.                   PPP645
029400     EJECT                                                        PPP645
029500 01  PPDB2MSG-INTERFACE. COPY CPLNKDB2.                           PPP645
029600     EJECT                                                        PPP645
029700******************************************************************PPP645
029800*          SQL - WORKING STORAGE                                 *PPP645
029900******************************************************************PPP645
030000 01  PER-ROW.                                                     PPP645
030100     EXEC SQL                                                     PPP645
030200          INCLUDE PPPVPER1                                        PPP645
030300     END-EXEC.                                                    PPP645
030400 01  BEN-ROW.                                                     PPP645
030500     EXEC SQL                                                     PPP645
030600          INCLUDE PPPVBEN1                                        PPP645
030700     END-EXEC.                                                    PPP645
030800 01  HME-ROW-DATA.                                                PPP645
030900     EXEC SQL                                                     PPP645
031000          INCLUDE PPPVZHME                                        PPP645
031100     END-EXEC.                                                    PPP645
031200     EXEC SQL                                                     PPP645
031300          INCLUDE SQLCA                                           PPP645
031400     END-EXEC.                                                    PPP645
031500 01  CURSOR-ROW.                                                  PPP645
031600     10 CR-EMPLOYEE-ID       PIC X(9).                            PPP645
031700     10 CR-EMP-NAME          PIC X(26).                           PPP645
031800     10 CR-HOME-DEPT         PIC X(6).                            PPP645
031900     10 CR-EMP-STATUS        PIC X(1).                            PPP645
032000     10 CR-LOA-BEGIN-DATE    PIC X(10).                           PPP645
032100     10 CR-LOA-RETURN-DATE    PIC X(10).                          PPP645
032200     10 CR-LOA-TYPE-CODE      PIC X(02).                          PPP645
032300     10 CR-LOA-STATUS-IND     PIC X(01).                          PPP645
032400     10 CR-SEPARATE-DATE      PIC X(10).                          PPP645
032500     10 CR-HLTH-COVEFFDATE    PIC X(10).                          PPP645
032600     10 CR-DENTAL-COVEFFDATE  PIC X(10).                          PPP645
032700     10 CR-VIS-COVEFFDATE PIC X(10).                              PPP645
032800     10 CR-LEGAL-COVEFFDATE PIC X(10).                            PPP645
032900 01  WX-END-FLAG                 PIC X(36) VALUE                  PPP645
033000     'PPP645 WORKING STORAGE ENDS HERE'.                          PPP645
033100     EXEC SQL                                                     PPP645
033200          DECLARE PER_ROW_N CURSOR FOR                            PPP645
033300       SELECT                                                     PPP645
033400            PPPVPER1_PER.EMPLOYEE_ID                              PPP645
033500           ,EMP_NAME                                              PPP645
033600           ,HOME_DEPT                                             PPP645
033700           ,EMP_STATUS                                            PPP645
033800           ,LOA_BEGIN_DATE                                        PPP645
033900           ,LOA_RETURN_DATE                                       PPP645
034000           ,LOA_TYPE_CODE                                         PPP645
034100           ,LOA_STATUS_IND                                        PPP645
034200           ,SEPARATE_DATE                                         PPP645
034300           ,HLTH_COVEFFDATE                                       PPP645
034400           ,DENTAL_COVEFFDATE                                     PPP645
034500           ,VIS_COVEFFDATE                                        PPP645
034600           ,LEGAL_COVEFFDATE                                      PPP645
034700           FROM PPPVPER1_PER, PPPVBEN1_BEN                        PPP645
034800      WHERE PPPVPER1_PER.EMPLOYEE_ID = PPPVBEN1_BEN.EMPLOYEE_ID   PPP645
034900      AND                                                         PPP645
035000        (                                                         PPP645
035100           (LOA_RETURN_DATE > :WS-COVEFFDATE-MINUS-1              PPP645
035200            AND LOA_STATUS_IND IN ('N', 'P')                      PPP645
035300            AND LOA_TYPE_CODE IN ('04', '05', '08', '09', '15',   PPP645
035400                                                      '16', '99') PPP645
035500           )                                                      PPP645
035600         OR                                                       PPP645
035700           (SEPARATE_DATE >  :WS-INIT-DATE AND                    PPP645
035800            SEPARATE_DATE <  :WS-COVEFFDATE-PLUS-1                PPP645
035900           )                                                      PPP645
036000        )                                                         PPP645
036100      AND                                                         PPP645
036200        (  HLTH_COVEFFDATE = :WS-COVEFFDATE                       PPP645
036300              OR                                                  PPP645
036400           DENTAL_COVEFFDATE =  :WS-COVEFFDATE                    PPP645
036500              OR                                                  PPP645
036600           VIS_COVEFFDATE =  :WS-COVEFFDATE                       PPP645
036700             OR                                                   PPP645
036800           LEGAL_COVEFFDATE =  :WS-COVEFFDATE                     PPP645
036900        )                                                         PPP645
037000      ORDER BY EMP_NAME                                           PPP645
037100     END-EXEC.                                                    PPP645
037200     EXEC SQL                                                     PPP645
037300          DECLARE PER_ROW_L CURSOR FOR                            PPP645
037400       SELECT                                                     PPP645
037500            PPPVPER1_PER.EMPLOYEE_ID                              PPP645
037600           ,EMP_NAME                                              PPP645
037700           ,HOME_DEPT                                             PPP645
037800           ,EMP_STATUS                                            PPP645
037900           ,LOA_BEGIN_DATE                                        PPP645
038000           ,LOA_RETURN_DATE                                       PPP645
038100           ,LOA_TYPE_CODE                                         PPP645
038200           ,LOA_STATUS_IND                                        PPP645
038300           ,SEPARATE_DATE                                         PPP645
038400           ,HLTH_COVEFFDATE                                       PPP645
038500           ,DENTAL_COVEFFDATE                                     PPP645
038600           ,VIS_COVEFFDATE                                        PPP645
038700           ,LEGAL_COVEFFDATE                                      PPP645
038800           FROM PPPVPER1_PER, PPPVBEN1_BEN                        PPP645
038900      WHERE PPPVPER1_PER.EMPLOYEE_ID = PPPVBEN1_BEN.EMPLOYEE_ID   PPP645
039000      AND                                                         PPP645
039100        (                                                         PPP645
039200           (LOA_RETURN_DATE > :WS-COVEFFDATE-MINUS-1              PPP645
039300            AND LOA_STATUS_IND IN ('N', 'P')                      PPP645
039400            AND LOA_TYPE_CODE IN ('04', '05', '08', '09', '15',   PPP645
039500                                                      '16', '99') PPP645
039600           )                                                      PPP645
039700         OR                                                       PPP645
039800           (SEPARATE_DATE > :WS-INIT-DATE AND                     PPP645
039900            SEPARATE_DATE <  :WS-COVEFFDATE-PLUS-1                PPP645
040000           )                                                      PPP645
040100        )                                                         PPP645
040200      AND                                                         PPP645
040300        (  HLTH_COVEFFDATE = :WS-COVEFFDATE                       PPP645
040400              OR                                                  PPP645
040500           DENTAL_COVEFFDATE =  :WS-COVEFFDATE                    PPP645
040600              OR                                                  PPP645
040700           VIS_COVEFFDATE =  :WS-COVEFFDATE                       PPP645
040800              OR                                                  PPP645
040900           LEGAL_COVEFFDATE =  :WS-COVEFFDATE                     PPP645
041000        )                                                         PPP645
041100      ORDER BY LOA_TYPE_CODE, EMP_NAME                            PPP645
041200     END-EXEC.                                                    PPP645
041300     SKIP3                                                        PPP645
041400     EJECT                                                        PPP645
041500 PROCEDURE DIVISION.                                              PPP645
041600     EXEC SQL                                                     PPP645
041700          INCLUDE CPPDXE99                                        PPP645
041800     END-EXEC.                                                    PPP645
041900     SKIP2                                                        PPP645
042000***********************************************************       PPP645
042100*                    M A I N L I N E                      *       PPP645
042200***********************************************************       PPP645
042300     SKIP1                                                        PPP645
042400 0001-MAINLINE.                                                   PPP645
042500     SKIP1                                                        PPP645
042600     PERFORM 1000-INITIALIZATION.                                 PPP645
042700     IF NOT WX-ABEND                                              PPP645
042800         PERFORM 2000-PROCESS-EMPS                                PPP645
042900     END-IF.                                                      PPP645
043000     PERFORM 9000-FINALIZATION.                                   PPP645
043100     STOP RUN.                                                    PPP645
043200     SKIP1                                                        PPP645
043300 0001-EXIT. EXIT.                                                 PPP645
043400     EJECT                                                        PPP645
043500***********************************************************       PPP645
043600*                   I N I T I A L I Z E                   *       PPP645
043700***********************************************************       PPP645
043800     SKIP1                                                        PPP645
043900 1000-INITIALIZATION SECTION.                                     PPP645
044000     SKIP1                                                        PPP645
044100     COPY CPPDDATE.                                               PPP645
044200     MOVE WS-PGM-ID TO STND-PROG-ID                               PPP645
044300                       XMSG-PROG-ID.                              PPP645
044400     MOVE 'PPP6453' TO XMSG-RPT-ID.                               PPP645
044500     MOVE STND-PROG-ID TO DB2MSG-PGM-ID.                          PPP645
044600     MOVE GREGORIAN-DATE TO STND-RPT-DATE                         PPP645
044700                            XMSG-RUN-DATE.                        PPP645
044800     MOVE 'OPEN ENROLLMENT LEAVE OF ABSENCE/SEPARATION REPORT'    PPP645
044900                         TO STND-RPT-TTL.                         PPP645
045000     MOVE '        PERSONNEL PROCESSING' TO STND-FUNC-AREA.       PPP645
045100     MOVE '       ERROR AND WARNING MESSAGES'                     PPP645
045200                         TO XMSG-RPT-TTL.                         PPP645
045300     MOVE SPACES TO STND-RPT-COMMENT                              PPP645
045400                    STND-DATE2                                    PPP645
045500                    STND-DATE2-TTL.                               PPP645
045600     MOVE SPACES TO STND-RPT-COMMENT,                             PPP645
045700                    XMSG-CHK-DATE,                                PPP645
045800                    XMSG-END-DATE,                                PPP645
045900                    XMSG-CYCLES,                                  PPP645
046000                    XMSG-ID-NO,                                   PPP645
046100                    XMSG-USER.                                    PPP645
046200     MOVE ZEROES TO XMSG-NUMBER,                                  PPP645
046300                    XMSG-SEVERITY.                                PPP645
046400     MOVE 'P' TO XMSG-REFERENCE.                                  PPP645
046500     PERFORM 7500-CALL-PPMSGUTL.                                  PPP645
046600     MOVE ZERO TO WS-PER-SQLCODE.                                 PPP645
046700     OPEN INPUT CARDFILE.                                         PPP645
046800     OPEN OUTPUT  PPP6451-REPORT                                  PPP645
046900                  PPP6452-REPORT.                                 PPP645
047000     PERFORM 1050-VALIDATE-SPEC.                                  PPP645
047100                                                                  PPP645
047200     SKIP1                                                        PPP645
047300 1000-EXIT.  EXIT.                                                PPP645
047400 1050-VALIDATE-SPEC SECTION.                                      PPP645
047500 1050-VALIDATE-SPEC-CARD.                                         PPP645
047600     READ CARDFILE                                                PPP645
047700          AT END                                                  PPP645
047800                SET WX-ABEND TO TRUE                              PPP645
047900                MOVE M64510 TO XMSG-NUMBER                        PPP645
048000                PERFORM 7500-CALL-PPMSGUTL                        PPP645
048100                GO TO 1059-VALIDATE-SPEC-CARD-EXIT.               PPP645
048200     SKIP1                                                        PPP645
048300 1030-VALIDATE-DATA.                                              PPP645
048400      IF NOT VALID-SPEC-PGM-ID                                    PPP645
048500         SET WX-ABEND TO TRUE                                     PPP645
048600         MOVE M64511 TO XMSG-NUMBER                               PPP645
048700         MOVE SPEC-CARD TO XMSG-DATA                              PPP645
048800         PERFORM 7500-CALL-PPMSGUTL                               PPP645
048900      END-IF.                                                     PPP645
049000      SKIP1                                                       PPP645
049100      MOVE SPEC-PGM-DATE TO XDC3-INPUT6-DATE.                     PPP645
049200      PERFORM XDC3-VALIDATE-INPUT6-TO-ISO.                        PPP645
049300      IF XDC3-INVALID-DATE                                        PPP645
049400         SET WX-ABEND TO TRUE                                     PPP645
049500         MOVE M64512 TO XMSG-NUMBER                               PPP645
049600         MOVE SPEC-CARD TO XMSG-DATA                              PPP645
049700         PERFORM 7500-CALL-PPMSGUTL                               PPP645
049800      ELSE                                                        PPP645
049900         MOVE XDC3-ISO-DATE TO WS-COVEFFDATE                      PPP645
050000         PERFORM XDC3-CONVERT-ISO-TO-LILIAN                       PPP645
050100         MOVE XDC3-LILIAN-DATE TO WS-LILIAN-COVEFFDATE            PPP645
050200         COMPUTE XDC3-LILIAN-DATE = XDC3-LILIAN-DATE - 1          PPP645
050300         PERFORM XDC3-CONVERT-LILIAN-TO-ISO                       PPP645
050400         MOVE XDC3-ISO-DATE TO WS-COVEFFDATE-MINUS-1              PPP645
050500         COMPUTE XDC3-LILIAN-DATE = WS-LILIAN-COVEFFDATE + 1      PPP645
050600         PERFORM XDC3-CONVERT-LILIAN-TO-ISO                       PPP645
050700         MOVE XDC3-ISO-DATE TO WS-COVEFFDATE-PLUS-1               PPP645
050800      END-IF.                                                     PPP645
050900 1059-VALIDATE-SPEC-CARD-EXIT.                                    PPP645
051000     EXIT.                                                        PPP645
051100 2000-PROCESS      SECTION.                                       PPP645
051200 2000-PROCESS-EMPS.                                               PPP645
051300     SKIP1                                                        PPP645
051400                                                                  PPP645
051500     MOVE SPACE TO PER-ROW-OPEN-SW.                               PPP645
051600     MOVE ZERO TO STND-PAGE-NO.                                   PPP645
051700     SET FIRST-TIME TO TRUE.                                      PPP645
051800     SET NAME-REPORT TO TRUE.                                     PPP645
051900     PERFORM 8500-SQL-OPEN-PER                                    PPP645
052000     IF PER-ROW-OPEN                                              PPP645
052100        PERFORM 8510-FETCH-PER                                    PPP645
052200        PERFORM 2100-PRINT-REPORT                                 PPP645
052300                   THRU  2100-EXIT                                PPP645
052400             UNTIL EOF                                            PPP645
052500             OR WX-ABEND                                          PPP645
052600        PERFORM 8520-CLOSE-PER                                    PPP645
052700     END-IF.                                                      PPP645
052800                                                                  PPP645
052900     SET LEAVE-CD-REPORT TO TRUE.                                 PPP645
053000     IF NOT WX-ABEND                                              PPP645
053100        MOVE SPACE TO PER-ROW-OPEN-SW                             PPP645
053200                      RPT1-EMP-DATA                               PPP645
053300                      RPT1-DEPT-DATA                              PPP645
053400        MOVE 54 TO MAX-LINES-PER-PAGE                             PPP645
053500        MOVE ZERO TO STND-PAGE-NO                                 PPP645
053600                     SQLCODE                                      PPP645
053700        SET FIRST-TIME TO TRUE                                    PPP645
053800        PERFORM 8500-SQL-OPEN-PER                                 PPP645
053900        IF PER-ROW-OPEN                                           PPP645
054000           PERFORM 8510-FETCH-PER                                 PPP645
054100           PERFORM 2100-PRINT-REPORT                              PPP645
054200             UNTIL EOF                                            PPP645
054300             OR WX-ABEND                                          PPP645
054400           PERFORM 8520-CLOSE-PER                                 PPP645
054500        END-IF                                                    PPP645
054600     END-IF.                                                      PPP645
054700 2000-EXIT. EXIT.                                                 PPP645
054800     EJECT                                                        PPP645
054900***********************************************************       PPP645
055000*           P R I N T   R E P O R T                       *       PPP645
055100***********************************************************       PPP645
055200     SKIP1                                                        PPP645
055300 2100-PRINT-REPORT.                                               PPP645
055400     SKIP1                                                        PPP645
055500     PERFORM 2160-PRINT-DETAIL.                                   PPP645
055600     PERFORM 8510-FETCH-PER.                                      PPP645
055700 2100-EXIT. EXIT.                                                 PPP645
055800     SKIP1                                                        PPP645
055900***********************************************************       PPP645
056000*   CHANGE PER PAY  AND BEN ROWS OF SELECTED EMPLOYEES     *      PPP645
056100***********************************************************       PPP645
056200*----------------------------------------------------------------*PPP645
056300 2160-PRINT-DETAIL.                                               PPP645
056400     MOVE SPACES TO RPT1-EMP-DATA                                 PPP645
056500                    RPT1-DEPT-DATA.                               PPP645
056600     MOVE CR-EMP-NAME TO RPT1-EMP-NAME.                           PPP645
056700     MOVE CR-EMPLOYEE-ID TO RPT1-EMP-ID.                          PPP645
056800     IF CR-SEPARATE-DATE = WS-INIT-DATE                           PPP645
056900        MOVE SPACES TO RPT1-SEP-DATE                              PPP645
057000     ELSE                                                         PPP645
057100        MOVE RPT1-DATE-SEPARATOR TO RPT1-SEP-DATE                 PPP645
057200        MOVE CR-SEPARATE-DATE TO XDC3-DB2-DATE                    PPP645
057300        PERFORM XDC3-CONVERT-DB2-TO-STD                           PPP645
057400        MOVE XDC3-STD-MM TO RPT1-SEP-MM                           PPP645
057500        MOVE XDC3-STD-DD TO RPT1-SEP-DD                           PPP645
057600        MOVE XDC3-STD-YY TO RPT1-SEP-YY                           PPP645
057700     END-IF.                                                      PPP645
057800     IF CR-LOA-BEGIN-DATE = WS-INIT-DATE                          PPP645
057900        MOVE SPACES TO RPT1-LOA-BEG-DATE                          PPP645
058000     ELSE                                                         PPP645
058100        MOVE RPT1-DATE-SEPARATOR TO RPT1-LOA-BEG-DATE             PPP645
058200        MOVE CR-LOA-BEGIN-DATE TO XDC3-DB2-DATE                   PPP645
058300        PERFORM XDC3-CONVERT-DB2-TO-STD                           PPP645
058400        MOVE XDC3-STD-MM TO RPT1-LOA-BEG-MM                       PPP645
058500        MOVE XDC3-STD-DD TO RPT1-LOA-BEG-DD                       PPP645
058600        MOVE XDC3-STD-YY TO RPT1-LOA-BEG-YY                       PPP645
058700     END-IF.                                                      PPP645
058800     IF CR-LOA-RETURN-DATE = WS-INIT-DATE                         PPP645
058900        MOVE SPACES TO RPT1-LOA-RET-DATE                          PPP645
059000     ELSE                                                         PPP645
059100        MOVE RPT1-DATE-SEPARATOR TO RPT1-LOA-RET-DATE             PPP645
059200        MOVE CR-LOA-RETURN-DATE TO XDC3-DB2-DATE                  PPP645
059300        PERFORM XDC3-CONVERT-DB2-TO-STD                           PPP645
059400        MOVE XDC3-STD-MM TO RPT1-LOA-RET-MM                       PPP645
059500        MOVE XDC3-STD-DD TO RPT1-LOA-RET-DD                       PPP645
059600        MOVE XDC3-STD-YY TO RPT1-LOA-RET-YY                       PPP645
059700     END-IF.                                                      PPP645
059800     IF RPT1-LOA-BEG-DATE = SPACES AND                            PPP645
059900        RPT1-LOA-RET-DATE = SPACES                                PPP645
060000           MOVE SPACES TO RPT1-LOA-TYPE-CODE                      PPP645
060100                       RPT1-LOA-TYPE-CODE-NAME                    PPP645
060200     ELSE                                                         PPP645
060300           MOVE CR-LOA-TYPE-CODE TO RPT1-LOA-TYPE-CODE            PPP645
060400                                 WS-LOA-TYPE-CODE                 PPP645
060500           PERFORM 6400-GET-LOA-TYPE-CODE THRU                    PPP645
060600                6400-EXIT                                         PPP645
060700           MOVE WS-LOA-TYPE-CODE-NAME TO RPT1-LOA-TYPE-CODE-NAME  PPP645
060800     END-IF.                                                      PPP645
060900     MOVE CR-EMP-STATUS                                           PPP645
061000                     TO RPT1-EMP-STATUS.                          PPP645
061100     MOVE CR-HOME-DEPT TO WS-HOME-DEPT-NUMBER                     PPP645
061200                             RPT1-HOME-DEPT                       PPP645
061300     PERFORM 6000-GET-HOME-DEPARTMENT THRU                        PPP645
061400               6000-EXIT                                          PPP645
061500     MOVE WS-HOME-DEPT-NAME TO RPT1-HOME-DEPT-NAME.               PPP645
061600     IF CR-HLTH-COVEFFDATE = WS-COVEFFDATE                        PPP645
061700        MOVE 'YES' TO RPT1-MED-PLAN-CHANGE                        PPP645
061800     ELSE                                                         PPP645
061900        MOVE SPACES TO RPT1-MED-PLAN-CHANGE                       PPP645
062000     END-IF.                                                      PPP645
062100     IF CR-DENTAL-COVEFFDATE = WS-COVEFFDATE                      PPP645
062200        MOVE 'YES' TO RPT1-DEN-PLAN-CHANGE                        PPP645
062300     ELSE                                                         PPP645
062400        MOVE SPACES TO RPT1-DEN-PLAN-CHANGE                       PPP645
062500     END-IF.                                                      PPP645
062600     IF CR-VIS-COVEFFDATE = WS-COVEFFDATE                         PPP645
062700        MOVE 'YES' TO RPT1-OPT-PLAN-CHANGE                        PPP645
062800     ELSE                                                         PPP645
062900        MOVE SPACES TO RPT1-OPT-PLAN-CHANGE                       PPP645
063000     END-IF.                                                      PPP645
063100     IF CR-LEGAL-COVEFFDATE = WS-COVEFFDATE                       PPP645
063200        MOVE 'YES' TO RPT1-LEG-PLAN-CHANGE                        PPP645
063300     ELSE                                                         PPP645
063400        MOVE SPACES TO RPT1-LEG-PLAN-CHANGE                       PPP645
063500     END-IF.                                                      PPP645
063600     IF LEAVE-CD-REPORT                                           PPP645
063700        PERFORM 5500-WRITE-RPT2-LINE                              PPP645
063800     ELSE                                                         PPP645
063900        PERFORM 5100-WRITE-RPT1-LINE                              PPP645
064000     END-IF.                                                      PPP645
064100*----------------------------------------------------------------*PPP645
064200***********************************************************       PPP645
064300*           PRINT REPORTS ON SELECTED EMPLOYEES           *       PPP645
064400***********************************************************       PPP645
064500     SKIP1                                                        PPP645
064600 5000-WRITE-RPT SECTION.                                          PPP645
064700 5100-WRITE-RPT1-LINE.                                            PPP645
064800     IF RPT1-LINES-PER-PAGE                >   MAX-LINES-PER-PAGE PPP645
064900        PERFORM 5150-WRITE-RPT1-NEWPAGE                           PPP645
065000     END-IF.                                                      PPP645
065100     WRITE PPP6451-LINE FROM PPP6451-DETAIL-LINE1                 PPP645
065200                           AFTER ADVANCING 2.                     PPP645
065300     WRITE PPP6451-LINE FROM PPP6451-DETAIL-LINE2                 PPP645
065400                           AFTER ADVANCING 1.                     PPP645
065500     ADD 3             TO RPT1-LINES-PER-PAGE.                    PPP645
065600     SKIP2                                                        PPP645
065700 5150-WRITE-RPT1-NEWPAGE.                                         PPP645
065800     SKIP1                                                        PPP645
065900     IF FIRST-TIME                                                PPP645
066000        SET NOT-FIRST-TIME TO TRUE                                PPP645
066100        MOVE 'PPP6451' TO STND-RPT-ID                             PPP645
066200        MOVE '  BY NAME   ' TO  HDR-RPT-TYPE                      PPP645
066300     END-IF.                                                      PPP645
066400     ADD   1               TO STND-PAGE-NO.                       PPP645
066500     INSPECT STND-PAGE-NO REPLACING LEADING ZEROS BY SPACE.       PPP645
066600     WRITE PPP6451-LINE FROM STND-RPT-HD1                         PPP645
066700                                        AFTER ADVANCING NEW-PAGE. PPP645
066800     WRITE PPP6451-LINE FROM STND-RPT-HD2 AFTER ADVANCING 1.      PPP645
066900     WRITE PPP6451-LINE FROM STND-RPT-HD3 AFTER ADVANCING 1.      PPP645
067000     WRITE PPP6451-LINE FROM PPP6451-HDRA AFTER ADVANCING 1.      PPP645
067100     WRITE PPP6451-LINE FROM PPP6451-HDR1 AFTER ADVANCING 3.      PPP645
067200     WRITE PPP6451-LINE FROM PPP6451-HDR2 AFTER ADVANCING 1.      PPP645
067300     MOVE  SPACES     TO PPP6451-LINE.                            PPP645
067400     WRITE PPP6451-LINE AFTER 1.                                  PPP645
067500     MOVE 8           TO RPT1-LINES-PER-PAGE.                     PPP645
067600 5500-WRITE-RPT2-LINE.                                            PPP645
067700     IF CR-LOA-TYPE-CODE NOT = WS-HOLD-LOA-TYPE                   PPP645
067800        IF CR-LOA-TYPE-CODE = SPACES OR '00'                      PPP645
067900           MOVE SPACES TO PRT-LOA-TYPE-CODE                       PPP645
068000           MOVE 'NOT ON LEAVE' TO PRT-LOA-TYPE-CODE-NAME          PPP645
068100        ELSE                                                      PPP645
068200           MOVE CR-LOA-TYPE-CODE TO WS-LOA-TYPE-CODE              PPP645
068300                             PRT-LOA-TYPE-CODE                    PPP645
068400           PERFORM 6400-GET-LOA-TYPE-CODE THRU                    PPP645
068500                6400-EXIT                                         PPP645
068600           MOVE WS-LOA-TYPE-CODE-NAME TO PRT-LOA-TYPE-CODE-NAME   PPP645
068700        END-IF                                                    PPP645
068800        PERFORM 5510-WRITE-RPT2-NEWPAGE                           PPP645
068900     ELSE                                                         PPP645
069000        IF RPT2-LINES-PER-PAGE > MAX-LINES-PER-PAGE               PPP645
069100           PERFORM 5510-WRITE-RPT2-NEWPAGE                        PPP645
069200        END-IF                                                    PPP645
069300     END-IF.                                                      PPP645
069400     WRITE PPP6452-LINE FROM PPP6451-DETAIL-LINE1                 PPP645
069500                           AFTER ADVANCING 2.                     PPP645
069600     WRITE PPP6452-LINE FROM PPP6451-DETAIL-LINE2                 PPP645
069700                           AFTER ADVANCING 1.                     PPP645
069800     ADD 3             TO RPT2-LINES-PER-PAGE.                    PPP645
069900     MOVE CR-LOA-TYPE-CODE TO WS-HOLD-LOA-TYPE.                   PPP645
070000     SKIP2                                                        PPP645
070100 5510-WRITE-RPT2-NEWPAGE.                                         PPP645
070200     SKIP1                                                        PPP645
070300     IF FIRST-TIME                                                PPP645
070400        SET NOT-FIRST-TIME TO TRUE                                PPP645
070500        MOVE 'PPP6452' TO STND-RPT-ID                             PPP645
070600        MOVE 'BY LEAVE TYPE' TO  HDR-RPT-TYPE                     PPP645
070700     END-IF.                                                      PPP645
070800     ADD   1               TO STND-PAGE-NO.                       PPP645
070900     INSPECT STND-PAGE-NO REPLACING LEADING ZEROS BY SPACE.       PPP645
071000     WRITE PPP6452-LINE FROM STND-RPT-HD1                         PPP645
071100                                        AFTER ADVANCING NEW-PAGE. PPP645
071200     WRITE PPP6452-LINE FROM STND-RPT-HD2 AFTER ADVANCING 1.      PPP645
071300     WRITE PPP6452-LINE FROM STND-RPT-HD3 AFTER ADVANCING 1.      PPP645
071400     WRITE PPP6452-LINE FROM PPP6451-HDRA AFTER ADVANCING 1.      PPP645
071500     WRITE PPP6452-LINE FROM LOA-TYPE-HDR AFTER ADVANCING 3.      PPP645
071600     WRITE PPP6452-LINE FROM PPP6451-HDR1 AFTER ADVANCING 2.      PPP645
071700     WRITE PPP6452-LINE FROM PPP6451-HDR2 AFTER ADVANCING 1.      PPP645
071800     MOVE  SPACES     TO PPP6452-LINE.                            PPP645
071900     WRITE PPP6452-LINE AFTER 1.                                  PPP645
072000     MOVE 10          TO RPT2-LINES-PER-PAGE.                     PPP645
072100     SKIP2                                                        PPP645
072200***********************************************************       PPP645
072300*         U T I I T I E S                                 *       PPP645
072400***********************************************************       PPP645
072500 6000-GET-HOME-DEPARTMENT.                                        PPP645
072600     SKIP1                                                        PPP645
072700     MOVE 'SELECT HOME DEPT' TO DB2MSG-TAG.                       PPP645
072800     EXEC SQL                                                     PPP645
072900         SELECT HME_DEPT_NAME INTO :HME-DEPT-NAME                 PPP645
073000         FROM PPPVZHME_HME                                        PPP645
073100         WHERE HME_DEPT_NO = :WS-HOME-DEPT-NUMBER                 PPP645
073200     END-EXEC.                                                    PPP645
073300     IF SQLCODE = ZERO                                            PPP645
073400         MOVE HME-DEPT-NAME TO WS-HOME-DEPT-NAME                  PPP645
073500     ELSE                                                         PPP645
073600        MOVE 'UNKNOWN DEPARTMENT            '   TO                PPP645
073700                                            WS-HOME-DEPT-NAME     PPP645
073800     END-IF.                                                      PPP645
073900 6000-EXIT. EXIT.                                                 PPP645
074000     SKIP1                                                        PPP645
074100 6400-GET-LOA-TYPE-CODE.                                          PPP645
074200     SKIP1                                                        PPP645
074300     MOVE SPACES TO WS-LOA-TYPE-CODE-NAME.                        PPP645
074400     MOVE 1 TO SUB.                                               PPP645
074500     PERFORM                                                      PPP645
074600         VARYING SUB FROM 1 BY 1                                  PPP645
074700         UNTIL SUB > 17                                           PPP645
074800         IF WS-TBL-LEAVE-CODE (SUB) = WS-LOA-TYPE-CODE            PPP645
074900            MOVE WS-TBL-LEAVE-NAME (SUB) TO                       PPP645
075000                                     WS-LOA-TYPE-CODE-NAME        PPP645
075100         END-IF                                                   PPP645
075200     END-PERFORM.                                                 PPP645
075300     IF WS-LOA-TYPE-CODE-NAME = SPACES                            PPP645
075400        MOVE 'UNKNOWN LOA TYPE' TO WS-LOA-TYPE-CODE-NAME          PPP645
075500     END-IF.                                                      PPP645
075600 6400-EXIT. EXIT.                                                 PPP645
075700     SKIP1                                                        PPP645
075800 7500-CALL-PPMSGUTL.                                              PPP645
075900     SKIP1                                                        PPP645
076000     CALL 'PPMSGUT2' USING MSSG-INTERFACE.                        PPP645
076100     SKIP1                                                        PPP645
076200     IF XMSG-SEVERITY > 7                                         PPP645
076300         SET WX-ABEND  TO TRUE                                    PPP645
076400     END-IF.                                                      PPP645
076500     SKIP3                                                        PPP645
076600 8500-SQL-OPEN-PER SECTION.                                       PPP645
076700     IF NOT    PER-ROW-OPEN                                       PPP645
076800         MOVE 'OPEN PER CURSOR' TO DB2MSG-TAG                     PPP645
076900         IF NAME-REPORT                                           PPP645
077000            EXEC SQL                                              PPP645
077100                OPEN PER_ROW_N                                    PPP645
077200            END-EXEC                                              PPP645
077300         ELSE                                                     PPP645
077400            EXEC SQL                                              PPP645
077500                OPEN PER_ROW_L                                    PPP645
077600            END-EXEC                                              PPP645
077700         END-IF                                                   PPP645
077800         IF  SQLCODE = 0                                          PPP645
077900             SET PER-ROW-OPEN TO TRUE                             PPP645
078000         ELSE                                                     PPP645
078100             SET WX-ABEND TO TRUE                                 PPP645
078200             MOVE 0 TO SQLCODE                                    PPP645
078300         END-IF                                                   PPP645
078400     END-IF.                                                      PPP645
078500 8510-FETCH-PER SECTION.                                          PPP645
078600     MOVE SPACES TO CURSOR-ROW.                                   PPP645
078700     MOVE 'FETCH PER ROW' TO DB2MSG-TAG.                          PPP645
078800     IF NAME-REPORT                                               PPP645
078900        EXEC SQL                                                  PPP645
079000             FETCH PER_ROW_N INTO :CURSOR-ROW                     PPP645
079100        END-EXEC                                                  PPP645
079200     ELSE                                                         PPP645
079300        IF LEAVE-CD-REPORT                                        PPP645
079400           EXEC SQL                                               PPP645
079500             FETCH PER_ROW_L INTO :CURSOR-ROW                     PPP645
079600           END-EXEC                                               PPP645
079700        END-IF                                                    PPP645
079800     END-IF.                                                      PPP645
079900     IF SQLCODE = 0                                               PPP645
080000        CONTINUE                                                  PPP645
080100     ELSE                                                         PPP645
080200        IF SQLCODE = +100                                         PPP645
080300           SET EOF TO TRUE                                        PPP645
080400        ELSE                                                      PPP645
080500           SET WX-ABEND TO TRUE                                   PPP645
080600        END-IF                                                    PPP645
080700     END-IF.                                                      PPP645
080800 8510-FETCH-PER-EXIT.                                             PPP645
080900     EXIT.                                                        PPP645
081000 8520-CLOSE-PER SECTION.                                          PPP645
081100     IF PER-ROW-OPEN                                              PPP645
081200        MOVE 'CLOSE PER CURSOR' TO DB2MSG-TAG                     PPP645
081300        IF NAME-REPORT                                            PPP645
081400            EXEC SQL                                              PPP645
081500               CLOSE PER_ROW_N                                    PPP645
081600            END-EXEC                                              PPP645
081700        ELSE                                                      PPP645
081800            EXEC SQL                                              PPP645
081900               CLOSE PER_ROW_L                                    PPP645
082000            END-EXEC                                              PPP645
082100        END-IF                                                    PPP645
082200        MOVE SPACE TO PER-ROW-OPEN-SW                             PPP645
082300     END-IF.                                                      PPP645
082400     IF SQLCODE = 0                                               PPP645
082500        MOVE 0 TO EOF-FLAG                                        PPP645
082600     ELSE                                                         PPP645
082700        SET WX-ABEND TO TRUE                                      PPP645
082800     END-IF.                                                      PPP645
082900    SKIP1                                                         PPP645
083000                                                                  PPP645
083100 8900-DATE-CONVERSION SECTION.                                    PPP645
083200    COPY CPPDXDC3.                                                PPP645
083300***********************************************************       PPP645
083400*                    F I N A L I Z E                      *       PPP645
083500***********************************************************       PPP645
083600     SKIP1                                                        PPP645
083700 9000-FINALIZATION SECTION.                                       PPP645
083800     SKIP1                                                        PPP645
083900     IF WX-ABEND                                                  PPP645
084000        MOVE +9        TO RETURN-CODE                             PPP645
084100        GO TO 9000-EXIT                                           PPP645
084200     END-IF.                                                      PPP645
084300     SKIP1                                                        PPP645
084400 9000-EXIT.                                                       PPP645
084500     CLOSE   CARDFILE.                                            PPP645
084600     CLOSE   PPP6451-REPORT                                       PPP645
084700             PPP6452-REPORT.                                      PPP645
084800*                                                                *PPP645
084900     SKIP1                                                        PPP645
085000*999999-SQL-ERROR.                                               *PPP645
085100     EXEC SQL                                                     PPP645
085200          INCLUDE CPPDXP99                                        PPP645
085300     END-EXEC.                                                    PPP645
085400     IF NOT HERE-BEFORE                                           PPP645
085500         SET HERE-BEFORE TO TRUE                                  PPP645
085600     END-IF.                                                      PPP645
085700     MOVE +9               TO RETURN-CODE.                        PPP645
085800     MOVE DB2MSG-MESSNO               TO XMSG-NUMBER.             PPP645
085900     PERFORM 7500-CALL-PPMSGUTL.                                  PPP645
086000     STOP RUN.                                                    PPP645
086100********  END OF PROGRAM PPP645 ********                          PPP645
