000000**************************************************************/   28521087
000001*  PROGRAM: PPP730                                           */   28521087
000002*  RELEASE: ___1087______ SERVICE REQUEST(S): ____12852____  */   28521087
000003*  NAME:_______QUAN______ MODIFICATION DATE:  ___07/25/96__  */   28521087
000004*  DESCRIPTION:                                              */   28521087
000005*  ** DATE CONVERSION II **                                  */   28521087
000006*  - ADDED CPWSXDC3 TO WORKING STORAGE AND CPPDXDC3 TO       */   28521087
000007*    PROCEDURE DIVISION.                                     */   28521087
000010*  - INCLUDED THE CENTURY VALUE IN THE DATE CALCULATION FOR  */   28521087
000011*    DETERMINING THE APPROPRIATE PROCESSING YEAR.            */   28521087
000014**************************************************************/   28521087
000000**************************************************************/   15400936
000001*  PROGRAM: PPP730                                           */   15400936
000002*  RELEASE: ___0936______ SERVICE REQUEST(S): _____11540___  */   15400936
000003*  NAME:_______QUAN______ CREATION DATE:      ___09/01/94__  */   15400936
000004*  DESCRIPTION:                                              */   15400936
000005*  -  DRIVER MODULE FOR THE 1042S PROCESS                    */   15400936
000007**************************************************************/   15400936
002300 IDENTIFICATION DIVISION.                                         PPP730
002400 PROGRAM-ID.    PPP730.                                           PPP730
002500 INSTALLATION.  UNIVERSITY OF CALIFORNIA, BASE PAYROLL SYSTEM.    PPP730
002600 AUTHOR.        UCOP IS&AS.                                       PPP730
002700 DATE-WRITTEN.  SEPTEMBER, 1994.                                  PPP730
002800 DATE-COMPILED.                                                   PPP730
002900     EJECT                                                        PPP730
003000******************************************************************PPP730
003100** PPP730 IS THE BASE PAYROLL SYSTEM 1042S TAX-REPORTING DRIVER **PPP730
003200** MODULE.  THE 1042S REPORTING PROCESS MAY BE VIEWED AS        **PPP730
003300** CONSISTING OF THREE SEPARATE, BUT RELATED PHASES:            **PPP730
003400**                                                              **PPP730
003500**   1. DATA EXTRACT   - EXTRACTION OF DATA NECESSARY FOR THE   **PPP730
003600**                     1042S REPORTING PROCESS FROM THE PAYROLL **PPP730
003700**                     EDB AND THE ACCOUNTS PAYABLE SYSTEM.     **PPP730
004400**   2. 1042S REPORTING- ANNUAL REPORTING OF DATA TO THE        **PPP730
004500**                     INTERNAL REVENUE SERVICE VIA MAGNETIC    **PPP730
004600**                     TAPE.                                    **PPP730
004800**                     1042S FORMS FOR EMPLOYEES AND MICROFICHE **PPP730
004900**                     FILE ARE OPTIONALLY PRODUCED.            **PPP730
004910**   3. 1042S REPORTS  - 1042S REPORTS ARE OPTIONALLY PRODUCED  **PPP730
004920**                     FOR CAMPUS USE.                          **PPP730
005000**                                                              **PPP730
005100** THE USER DETERMINES WHICH OF THE PHASES ARE TO BE DONE       **PPP730
005200** DURING AN EXECUTION OF THIS PROGRAM BY THE SELECTION OF      **PPP730
005300** OPTIONS ON A RUN SPECIFICATION RECORD.  THIS PROGRAM MODULE  **PPP730
005400** VALIDATES THE RUN SPECIFICATION RECORD AND THEN CALLS        **PPP730
005500** SUBSIDIARY MODULES TO PERFORM EACH OF THE INDIVIDUAL PHASES. **PPP730
005600**                                                              **PPP730
005700******************************************************************PPP730
005800     EJECT                                                        PPP730
005900 ENVIRONMENT DIVISION.                                            PPP730
006000 CONFIGURATION SECTION.                                           PPP730
006100 SOURCE-COMPUTER.       COPY CPOTXUCS.                            PPP730
006200 OBJECT-COMPUTER.       COPY CPOTXOBJ.                            PPP730
006300     SKIP3                                                        PPP730
006400 INPUT-OUTPUT SECTION.                                            PPP730
006500 FILE-CONTROL.                                                    PPP730
006600     SKIP1                                                        PPP730
006700     SELECT RUN-REPORT  ASSIGN TO UT-S-PPP7301.                   PPP730
006800     SKIP2                                                        PPP730
006900     SELECT SPEC-CARD   ASSIGN TO UT-S-CARDFIL.                   PPP730
007000     EJECT                                                        PPP730
007100 DATA DIVISION.                                                   PPP730
007200 FILE SECTION.                                                    PPP730
007300     SKIP1                                                        PPP730
007400 FD  RUN-REPORT         COPY CPFDXPRT.                            PPP730
007500     SKIP2                                                        PPP730
007600 FD  SPEC-CARD          COPY CPFDXCRD.                            PPP730
007700     EJECT                                                        PPP730
007800 WORKING-STORAGE SECTION.                                         PPP730
007900 77  RUN-ERROR-FLAG                   PIC 9  VALUE ZERO.          PPP730
008000     88  NO-ERROR-FOUND                      VALUE ZERO.          PPP730
008100     88  TERMINATE-RUN                       VALUE 1.             PPP730
008400 77  LINE-COUNT                       PIC S9(4) COMP VALUE +60.   PPP730
008500 77  PAGE-COUNT                       PIC S9(4) COMP VALUE ZERO.  PPP730
008600 77  MAX-LINES-PER-PAGE               PIC S9(4) COMP VALUE +56.   PPP730
008700     EJECT                                                        PPP730
008800******************************************************************PPP730
008900**               RUN SPECIFICATION RECORD                       **PPP730
009000******************************************************************PPP730
009100    SKIP1                                                         PPP730
009200 01  SPEC-RECORD.                                                 PPP730
009300     05  SPEC-ID                              PIC X(11).          PPP730
009400         88  SPEC-ID-VALID                      VALUE             PPP730
009500                                                   'PPP730-SPEC'. PPP730
009600     05  SPEC-REPORT-YEAR.                                        PPP730
009800         10  SPEC-YEAR                        PIC 9(02).          PPP730
009900     05  FILLER                               PIC X(06).          PPP730
010000     05  SPEC-EXTRACT-CONTROL.                                    PPP730
010100         10  SPEC-EXTRACT-ACTION              PIC X(04).          PPP730
010200             88  SPEC-VALID-EXTRACT             VALUES '    ',    PPP730
010210                                                       'NONE',    PPP730
010300                                                       'BOTH',    PPP730
010500                                                       'EDB ',    PPP730
010510                                                       'AP  '.    PPP730
010600             88  SPEC-NO-EXTRACT                VALUES '    ',    PPP730
010700                                                       'NONE'.    PPP730
010900             88  SPEC-1042-EXTRACT              VALUES 'BOTH',    PPP730
011000                                                       'EDB ',    PPP730
011010                                                       'AP  '.    PPP730
011100         10  FILLER                           PIC X(06).          PPP730
011110     05  SPEC-1042-CONTROLS.                                      PPP730
011200         10  SPEC-REPORTS-CONTROL.                                PPP730
011210             15  SPEC-REPORTS-ACTION          PIC X(01).          PPP730
011300                 88  SPEC-VALID-REPORTS-REQ         VALUES ' ',   PPP730
011301                                                           'N',   PPP730
011302                                                           'Y'.   PPP730
011310                 88  SPEC-DO-1042-REPORTS           VALUE  'Y'.   PPP730
011400                 88  SPEC-NO-1042-REPORTS           VALUES ' ',   PPP730
011500                                                       'N'.       PPP730
011510             15  SPEC-1042-REPORT-SORT        PIC X(01).          PPP730
011520                 88  SPEC-SORT-RPT-NAME             VALUE  'N'.   PPP730
011530                 88  SPEC-SORT-RPT-SS               VALUE  'S'.   PPP730
011600         10  FILLER                           PIC X(08).          PPP730
012100         10  SPEC-1042-FORMS                  PIC X(01).          PPP730
012200             88  SPEC-1042-FORMS-VALID              VALUES ' ',   PPP730
012210                                                           'A',   PPP730
012300                                                           'S',   PPP730
012400                                                           'B',   PPP730
012500                                                           'N'.   PPP730
012600             88  SPEC-1042-ALL-EMPLOYEES            VALUE  'A'.   PPP730
012700             88  SPEC-1042-SELECT-EMPLOYEES         VALUE  'S'.   PPP730
012800             88  SPEC-1042-BLANKS-ONLY              VALUE  'B'.   PPP730
012900             88  SPEC-NO-1042-FORMS                 VALUES ' ',   PPP730
012910                                                           'N'.   PPP730
013000             88  SPEC-DO-1042-FORMS                 VALUES 'A',   PPP730
013100                                                           'S',   PPP730
013200                                                           'B'.   PPP730
013210         10  SPEC-1042-TAPE                   PIC X(01).          PPP730
013220             88 SPEC-DO-1042-TAPE                   VALUE  'Y'.   PPP730
013230             88 SPEC-NO-1042-TAPE                   VALUES ' ',   PPP730
013240                                                           'N'.   PPP730
013300         10 SPEC-1042-EMPLR-COPY              PIC X(01).          PPP730
013310             88 SPEC-DO-1042-COPY                   VALUE  'Y'.   PPP730
013320             88 SPEC-NO-1042-COPY                   VALUES ' ',   PPP730
013330                                                           'N'.   PPP730
013400         10  SPEC-1042-SPECIAL-HNDLG-SORT     PIC X(02).          PPP730
013500             88  SPEC-DO-HNDLG-CNTRY-SORT            VALUE  'CE'. PPP730
013510             88  SPEC-DO-HNDLG-SS-SORT               VALUE  'CS'. PPP730
013520             88  SPEC-NO-SPECIAL-HNDLG               VALUES '  ', PPP730
013521                                                            'N '. PPP730
013530         10  SPEC-1042-BLANK-FORMS            PIC X(03).          PPP730
013540         10  SPEC-1042-NUM-BLANKS    REDEFINES                    PPP730
013550             SPEC-1042-BLANK-FORMS            PIC 9(03).          PPP730
013560         10  SPEC-1042-FORM-SORT              PIC X(02).          PPP730
013570             88  SPEC-1042-SORT-EMPL1                VALUE  'E1'. PPP730
013580             88  SPEC-1042-SORT-EMPL2                VALUE  'E2'. PPP730
013581             88  SPEC-1042-SORT-SSN                  VALUE  'S '. PPP730
013590             88  SPEC-1042-SORT-HME1                 VALUE  'H1'. PPP730
013591             88  SPEC-1042-SORT-HME2                 VALUE  'H2'. PPP730
013592             88  SPEC-1042-SORT-NAME                 VALUE  'N '. PPP730
013593             88  SPEC-1042-SORT-CNTRY                VALUE  'C '. PPP730
015400         10  SPEC-1042-FICHE                  PIC X(01).          PPP730
015500             88  SPEC-MAKE-1042-FICHE                VALUE  'Y'.  PPP730
015600             88  SPEC-NO-1042-FICHE                  VALUES ' ',  PPP730
015610                                                            'N'.  PPP730
015620         10  SPEC-1042-FICHE-SORT             PIC X(01).          PPP730
015630             88  SPEC-SORT-FICHE-NAME                VALUE  'N'.  PPP730
015640             88  SPEC-SORT-FICHE-EMPL                VALUE  'E'.  PPP730
015800     05  FILLER                               PIC X(18).          PPP730
015900     05  SPEC-CAMPUS.                                             PPP730
016000         10  FILLER                           PIC X(11).          PPP730
016100     EJECT                                                        PPP730
016200******************************************************************PPP730
016300**                ERROR MESSAGE TABLE                           **PPP730
016400******************************************************************PPP730
016500 01  PROGRAM-MESSAGE-TABLE.                                       PPP730
016600     05  M00010                            PIC X(5) VALUE '00010'.PPP730
016700*---->                                                            PPP730
016800*----> MESSAGE NUMBERS 73-001 THROUGH 73-099 ARE RESERVED         PPP730
016900*----> FOR PPP730 MAINLINE                                        PPP730
017000*---->                                                            PPP730
017100*----> MESSAGES 73-001 THROUGH 73-039 ARE USED FOR RUN            PPP730
017200*----> SPECIFICATION EDITING                                      PPP730
017300     05  M73001                            PIC X(5) VALUE '73001'.PPP730
017400     05  M73002                            PIC X(5) VALUE '73002'.PPP730
017500     05  M73003                            PIC X(5) VALUE '73003'.PPP730
017600     05  M73004                            PIC X(5) VALUE '73004'.PPP730
017700     05  M73005                            PIC X(5) VALUE '73005'.PPP730
017800     05  M73006                            PIC X(5) VALUE '73006'.PPP730
017900     05  M73007                            PIC X(5) VALUE '73007'.PPP730
018000     05  M73008                            PIC X(5) VALUE '73008'.PPP730
018100     05  M73009                            PIC X(5) VALUE '73009'.PPP730
018200     05  M73010                            PIC X(5) VALUE '73010'.PPP730
018300     05  M73011                            PIC X(5) VALUE '73011'.PPP730
018400     05  M73012                            PIC X(5) VALUE '73012'.PPP730
018500     05  M73013                            PIC X(5) VALUE '73013'.PPP730
018600     05  M73014                            PIC X(5) VALUE '73014'.PPP730
018700     05  M73015                            PIC X(5) VALUE '73015'.PPP730
018800     05  M73016                            PIC X(5) VALUE '73016'.PPP730
018900     05  M73017                            PIC X(5) VALUE '73017'.PPP730
019000     05  M73018                            PIC X(5) VALUE '73018'.PPP730
019100     05  M73019                            PIC X(5) VALUE '73019'.PPP730
019200     05  M73020                            PIC X(5) VALUE '73020'.PPP730
019300*----> MESSAGES 73-040 THROUGH 60-739 ARE USED FOR RUN            PPP730
019400*----> SPECIFICATION CONSISTENCY                                  PPP730
019500     05  M73040                            PIC X(5) VALUE '73040'.PPP730
019600     05  M73041                            PIC X(5) VALUE '73041'.PPP730
019700     05  M73042                            PIC X(5) VALUE '73042'.PPP730
019800     05  M73043                            PIC X(5) VALUE '73043'.PPP730
019900     05  M73044                            PIC X(5) VALUE '73044'.PPP730
020000*----> MESSAGES 73-060 THROUGH 73-089 ARE USED FOR SUBPROGRAM     PPP730
020100*----> RETURN MESSAGES (PP1042SE AND PP1042S)                     PPP730
020200     05  M73060                            PIC X(5) VALUE '73060'.PPP730
020300     05  M73061                            PIC X(5) VALUE '73061'.PPP730
020400     05  M73062                            PIC X(5) VALUE '73062'.PPP730
020500     05  M73063                            PIC X(5) VALUE '73063'.PPP730
020600     05  M73064                            PIC X(5) VALUE '73064'.PPP730
020700     05  M73065                            PIC X(5) VALUE '73065'.PPP730
020800     05  M73066                            PIC X(5) VALUE '73066'.PPP730
020900*----> MESSAGES 73-098 AND 73-099 ARE THE PROGRAM SUCCESS AND     PPP730
021000*----> FAILURE MESSAGES, RESPECTIVELY                             PPP730
021100     05  M73098                            PIC X(5) VALUE '73098'.PPP730
021200     05  M73099                            PIC X(5) VALUE '73099'.PPP730
021300*---->                                                            PPP730
021400*----> MESSAGE NUMBERS 73-100 THROUGH 73-199 ARE RESERVED         PPP730
021500*----> FOR PP1042SE MODULE USE                                    PPP730
021600*---->                                                            PPP730
021700*----> MESSAGE NUMBERS 73-200 THROUGH 73-299 ARE RESERVED         PPP730
021800*----> FOR PP1042S MODULE USE                                     PPP730
021900*---->                                                            PPP730
022300*----> MESSAGE NUMBERS 73-400 THROUGH 73-899 ARE RESERVED         PPP730
022400*----> FOR UCOP USE                                               PPP730
022500*---->                                                            PPP730
022600*----> MESSAGE NUMBERS 73-900 THROUGH 73-999 ARE RESERVED         PPP730
022700*----> FOR CAMPUS USE                                             PPP730
022800*---->                                                            PPP730
022900     EJECT                                                        PPP730
023000******************************************************************PPP730
023100**               PPMSSG INTERFACE RECORD                        **PPP730
023200******************************************************************PPP730
023300     SKIP1                                                        PPP730
023400 01  MESSAGE-TABLE.                   COPY CPWSXMTI.              PPP730
024300     EJECT                                                        PPP730
024400******************************************************************PPP730
024500**             PP1042SE INTERFACE RECORD                        **PPP730
024600******************************************************************PPP730
024700     SKIP1                                                        PPP730
024800 01  PP1042SE-INTERFACE.              COPY CPLN142E.              PPP730
025320     EJECT                                                        PPP730
025330******************************************************************PPP730
025340**              PP1042S INTERFACE RECORD                        **PPP730
025350******************************************************************PPP730
025360     SKIP1                                                        PPP730
025400 01  PP1042S-INTERFACE.               COPY CPLN142S.              PPP730
026700     EJECT                                                        PPP730
026800******************************************************************PPP730
026900**                   DATE HANDLING                              **PPP730
027000******************************************************************PPP730
027100     SKIP1                                                        PPP730
027200 01  DATE-FORMAT.                     COPY CPWSDATE.              PPP730
027300     SKIP3                                                        PPP730
027400*****05  WORK-YEAR                    PIC XX.                     28521087
027500*****05  WORK-YEAR-NUM                REDEFINES                   28521087
027600*****    WORK-YEAR                    PIC 99.                     28521087
027700     05  WS-GREG-CC                   PIC XX.                     28521087
027800     05  WS-SPEC-CC-YEAR              PIC 9999.                   28521087
027900     05  FILLER                       REDEFINES                   28521087
028000         WS-SPEC-CC-YEAR.                                         28521087
028100         10  WS-SPEC-CC               PIC 99.                     28521087
028200         10  WS-SPEC-YEAR             PIC 99.                     28521087
028210     05  WORK-CC-YEAR-NUM             PIC 9999.                   28521087
028220     05  FILLER                       REDEFINES                   28521087
028230         WORK-CC-YEAR-NUM.                                        28521087
028240         10  WORK-CC                  PIC XX.                     28521087
028250         10  WORK-YEAR                PIC XX.                     28521087
028260     05  FILLER                       REDEFINES                   28521087
028270         WORK-CC-YEAR-NUM.                                        28521087
028280         10  FILLER                   PIC XX.                     28521087
028290         10  WORK-YEAR-NUM            PIC 99.                     28521087
028292     EJECT                                                        28521087
028293 01  DATE-CONVERSION-WORK-AREAS.                   COPY CPWSXDC3. 28521087
028300     EJECT                                                        PPP730
028400******************************************************************PPP730
028500**                   TIME HANDLING                              **PPP730
028600******************************************************************PPP730
028700     SKIP1                                                        PPP730
028800 01  TIME-FORMAT.                     COPY CPWSTIME.              PPP730
028900     SKIP3                                                        PPP730
029000     05  FORMATTED-TIME.                                          PPP730
029100         10  FORMATTED-TIME-HH        PIC XX.                     PPP730
029200         10  FILLER                   PIC X     VALUE ':'.        PPP730
029300         10  FORMATTED-TIME-MM        PIC XX.                     PPP730
029400         10  FILLER                   PIC X     VALUE ':'.        PPP730
029500         10  FORMATTED-TIME-SS        PIC XX.                     PPP730
029600     EJECT                                                        PPP730
029610 01  WA-COMPILE-WORK-AREA.          COPY CPWSXWHC.                PPP730
029700******************************************************************PPP730
029800**                TAX REPORTING CONSTANTS                       **PPP730
029900******************************************************************PPP730
030000     SKIP1                                                        PPP730
030100 01  TAX-REPORTING-CONSTANTS.         COPY CPWSXTRC.              PPP730
030200     EJECT                                                        PPP730
030300******************************************************************PPP730
030400**            REPORT HEADINGS AND DETAIL LINES                  **PPP730
030500******************************************************************PPP730
030600     SKIP1                                                        PPP730
030700 01  STND-RPT-HD.                     COPY CPWSPSHR.              PPP730
030800     SKIP3                                                        PPP730
030900 01  RPT-MSSG-HDG1.                                               PPP730
031000     05  FILLER                      PIC X(01)  VALUE SPACE.      PPP730
031100     05  FILLER                      PIC X(132) VALUE             PPP730
031200        '               USER-         MESSAGE    MESSAGE'.        PPP730
031300     SKIP1                                                        PPP730
031400 01  RPT-MSSG-HDG2.                                               PPP730
031500     05  FILLER                      PIC X(01)  VALUE SPACE.      PPP730
031600     05  FILLER                      PIC X(57) VALUE              PPP730
031700        '             REFERENCE        NUMBER    SEVERITY'.       PPP730
031800     05  FILLER                      PIC X(38) VALUE              PPP730
031900        '- - - - - - - - - - - M E S S A G E   '.                 PPP730
032000     05  FILLER                      PIC X(37) VALUE              PPP730
032100        'T E X T - - - - - - - - - - -'.                          PPP730
032200     SKIP1                                                        PPP730
032300 01  RPT-MSSG-HDG3.                                               PPP730
032400     05  FILLER                      PIC X(01)  VALUE SPACE.      PPP730
032500     05  FILLER                      PIC X(57)  VALUE             PPP730
032600        '             _________        ______    ________'.       PPP730
032700     05  FILLER                      PIC X(67)  VALUE ALL '_'.    PPP730
032800     05  FILLER                      PIC X(08)  VALUE SPACES.     PPP730
032900     SKIP1                                                        PPP730
033000 01  RPT-MSSG-LINE                   VALUE  SPACES.               PPP730
033100     05  FILLER                      PIC X(01).                   PPP730
033200     05  FILLER                      PIC X(30).                   PPP730
033300     05  RPT-PROG-NO                 PIC X(02).                   PPP730
033400     05  RPT-MSSG-DASH               PIC X(01).                   PPP730
033500     05  RPT-MSSG-NO                 PIC X(03).                   PPP730
033600     05  FILLER                      PIC X(04).                   PPP730
033700     05  RPT-MSSG-SEVERTY            PIC X(13).                   PPP730
033800     05  FILLER                      PIC X(04).                   PPP730
033900     05  RPT-MSSG-TEXT               PIC X(65).                   PPP730
034000     05  FILLER                      PIC X(10).                   PPP730
034100     SKIP1                                                        PPP730
034200 01  RPT-REF-LINE                       VALUE SPACES.             PPP730
034300     05  FILLER                      PIC X(01).                   PPP730
034400     05  FILLER                      PIC X(13).                   PPP730
034500     05  RPT-REF-DATA                PIC X(119).                  PPP730
034600     EJECT                                                        PPP730
034700 PROCEDURE DIVISION.                                              PPP730
034800 00000-MAIN SECTION.                                              PPP730
034900 00000-ENTRY.                                                     PPP730
035000     SKIP1                                                        PPP730
035100******************************************************************PPP730
035200**  THIS SECTION CONTROLS ALL PROCESS FLOW.                     **PPP730
035300******************************************************************PPP730
035400     SKIP1                                                        PPP730
035500*----> INITIALIZE THE PROGRAM                                     PPP730
035600     PERFORM 10000-INITIALIZATION.                                PPP730
035700     SKIP1                                                        PPP730
035800*----> EDIT THE RUN SPECIFICATION                                 PPP730
035900     IF NO-ERROR-FOUND                                            PPP730
036000         PERFORM 20000-RUN-SPECIFICATION.                         PPP730
036100     SKIP1                                                        PPP730
036200*----> DO EXTRACT FROM EDB IF REQUESTED                           PPP730
036300     IF NO-ERROR-FOUND                                            PPP730
036400         IF  SPEC-1042-EXTRACT                                    PPP730
036500             PERFORM 30000-EDB-EXTRACT                            PPP730
036510         END-IF                                                   PPP730
036520     END-IF.                                                      PPP730
036600     SKIP1                                                        PPP730
037200*---->  DO 1042 PROCESSING IF REQUESTED                           PPP730
037300     IF NO-ERROR-FOUND                                            PPP730
037400         IF     SPEC-DO-1042-REPORTS                              PPP730
037410            OR  SPEC-DO-1042-TAPE                                 PPP730
037500            OR  SPEC-DO-1042-FORMS                                PPP730
037510            OR  SPEC-MAKE-1042-FICHE                              PPP730
037600            PERFORM 50000-1042-PROCESSING                         PPP730
037610         END-IF                                                   PPP730
037620     END-IF.                                                      PPP730
037700     SKIP1                                                        PPP730
037800*----> FINALLY, WRAP IT UP                                        PPP730
037900     PERFORM 60000-TERMINATION.                                   PPP730
038000     SKIP1                                                        PPP730
038100     STOP RUN.                                                    PPP730
038200     EJECT                                                        PPP730
038300 10000-INITIALIZATION SECTION.                                    PPP730
038400 10000-ENTRY.                                                     PPP730
038500     SKIP1                                                        PPP730
038600******************************************************************PPP730
038700**  THIS SECTION PERFORMS ALL PROGRAM LEVEL INITIALIZATION.     **PPP730
038800******************************************************************PPP730
038900     SKIP1                                                        PPP730
039000     PERFORM 11000-INIT-REPORT-HEADINGS.                          PPP730
039100     SKIP1                                                        PPP730
040000     GO TO 19999-EXIT.                                            PPP730
040100     EJECT                                                        PPP730
040200 11000-INIT-REPORT-HEADINGS.                                      PPP730
040300     SKIP1                                                        PPP730
040310*                                                                 PPP730
040320     MOVE 'PPP730' TO XWHC-DISPLAY-MODULE                         PPP730
040330     COPY CPPDXWHC.                                               PP1730
040340                                                                  PPP730
040400     COPY CPPDDATE.                                               PPP730
040410     MOVE CEELOCT-G (1:2) TO WS-GREG-CC.                          28521087
040500     COPY CPPDTIME.                                               PPP730
040600     SKIP1                                                        PPP730
040700     MOVE 'PPP7301' TO STND-RPT-ID.                               PPP730
040800     MOVE 'PPP730  /090194' TO STND-PROG-ID.                      PPP730
040900     MOVE '        1042S REPORTING' TO STND-FUNC-AREA.            PPP730
041000     MOVE GREGORIAN-DATE TO STND-RPT-DATE.                        PPP730
041100     MOVE SPACES TO STND-RPT-COMMENT.                             PPP730
041200     MOVE '         MESSAGES AND RUN CONTROLS' TO                 PPP730
041300         STND-RPT-TTL.                                            PPP730
041400     MOVE SPACES TO STND-DATE2-TTL                                PPP730
041500                    STND-DATE2.                                   PPP730
041900     SKIP1                                                        PPP730
042000     OPEN OUTPUT RUN-REPORT.                                      PPP730
042100     SKIP1                                                        PPP730
042200*----> FORMAT RUN TIME TO PASS TO OTHER CALLED MODULES            PPP730
042300     MOVE TIME-HH TO FORMATTED-TIME-HH.                           PPP730
042400     MOVE TIME-MM TO FORMATTED-TIME-MM.                           PPP730
042500     MOVE TIME-SS TO FORMATTED-TIME-SS.                           PPP730
042600     SKIP3                                                        PPP730
042700 19999-EXIT.                                                      PPP730
042800     EXIT.                                                        PPP730
042900     EJECT                                                        PPP730
043000 20000-RUN-SPECIFICATION SECTION.                                 PPP730
043100 20000-ENTRY.                                                     PPP730
043200     SKIP1                                                        PPP730
043300******************************************************************PPP730
043400**  THIS SECTION EDITS THE RUN SPECIFICATION RECORD AND ALL     **PPP730
043500**  FIELDS ON IT.  ANY ERRORS OR INCONSISTENCIES FOUND ON THE   **PPP730
043600**  RUN SPECIFICATION RECORD FORCE THE PROGRAM TO TERMINATE,    **PPP730
043700**  REGARDLESS OF THE SEVERITY OF THE MESSAGE ON THE MESSAGE    **PPP730
043800**  TABLE.                                                      **PPP730
043900******************************************************************PPP730
044000     SKIP1                                                        PPP730
044100*----> READ RUN SPECIFICATION; IF NOT PRESENT, TERMINATE RUN      PPP730
044200     OPEN INPUT SPEC-CARD.                                        PPP730
044300     READ SPEC-CARD RECORD INTO SPEC-RECORD;                      PPP730
044400         AT END MOVE M73001 TO MSSG-DESIRED                       PPP730
044500                PERFORM 29000-SPEC-ERROR                          PPP730
044600                GO TO 29999-EXIT.                                 PPP730
044700     CLOSE SPEC-CARD.                                             PPP730
044800     SKIP1                                                        PPP730
044900*----> TERMINATE RUN IF RUN SPECIFICATION IS NOT VALID            PPP730
045000     IF NOT SPEC-ID-VALID                                         PPP730
045100         MOVE M73002 TO MSSG-DESIRED                              PPP730
045200         STRING 'RUN SPEC ID: ',                                  PPP730
045300                SPEC-ID                                           PPP730
045400             DELIMITED BY SIZE INTO RPT-REF-DATA                  PPP730
045500         PERFORM 29000-SPEC-ERROR                                 PPP730
045600         GO TO 29999-EXIT.                                        PPP730
045700     SKIP1                                                        PPP730
045800*----> EDIT YEAR ON THE SPEC CARD FOR NUMERIC                     PPP730
045900*----> OTHERWISE, TERMINATE THE RUN                               PPP730
046000     IF SPEC-REPORT-YEAR IS NUMERIC                               PPP730
046100         PERFORM 21000-YEAR-EDIT                                  PPP730
046200     ELSE                                                         PPP730
046300         MOVE M73003 TO MSSG-DESIRED                              PPP730
046400         STRING 'REPORT YEAR: ',                                  PPP730
046500                SPEC-REPORT-YEAR                                  PPP730
046600             DELIMITED BY SIZE INTO RPT-REF-DATA                  PPP730
046700         PERFORM 29000-SPEC-ERROR.                                PPP730
046800     SKIP1                                                        PPP730
046900     IF TERMINATE-RUN                                             PPP730
047000         GO TO 29999-EXIT.                                        PPP730
047100     SKIP1                                                        PPP730
047500*----> PRINT THE RUN SPECIFICATION RECORD                         PPP730
047600     MOVE M73060 TO MSSG-DESIRED.                                 PPP730
047700     MOVE SPEC-RECORD TO RPT-REF-DATA.                            PPP730
047800     PERFORM 91000-PRINT-MESSAGE.                                 PPP730
047900     SKIP1                                                        PPP730
048000*---->                                                            PPP730
048100*----> NOTE THAT THE FOLLOWING EDIT SECTIONS ARE ALL PERFORMED,   PPP730
048200*----> EVEN IF AN ERROR OR INCONSISTENCY WHICH WILL TERMINATE     PPP730
048300*----> THE RUN IS ENCOUNTERED.  THIS IS DONE SO THAT THE          PPP730
048400*----> COMPLETE RUN SPECIFICATION IS EDITED WHEN POSSIBLE.        PPP730
048500     SKIP1                                                        PPP730
048600*----> EDIT RUN SPECIFICATION EXTRACT FIELDS                      PPP730
048700     IF SPEC-EXTRACT-CONTROL NOT = SPACES                         PPP730
048800         PERFORM 22000-EXTRACT-EDIT.                              PPP730
048900     SKIP1                                                        PPP730
049000*----> EDIT RUN SPECIFICATION REPORTS FIELDS                      PPP730
049100     IF SPEC-REPORTS-CONTROL NOT = SPACES                         PPP730
049200         PERFORM 23000-REPORTS-EDIT.                              PPP730
049300     SKIP1                                                        PPP730
049400*----> EDIT RUN SPECIFICATION 1042S FIELDS, IF PRESENT            PPP730
049500     IF SPEC-1042-CONTROLS NOT = SPACES                           PPP730
049600         PERFORM 24000-1042-EDIT.                                 PPP730
049700     SKIP1                                                        PPP730
049800*----> EDIT RUN SPECIFICATION CAMPUS FIELDS, IF PRESENT           PPP730
049900     IF SPEC-CAMPUS NOT = SPACES                                  PPP730
050000         PERFORM 28000-CAMPUS-EDIT.                               PPP730
050100     SKIP3                                                        PPP730
050200     GO TO 29999-EXIT.                                            PPP730
050300     EJECT                                                        PPP730
050500 21000-YEAR-EDIT.                                                 PPP730
050600     SKIP1                                                        PPP730
050700     MOVE 01      TO XDC3-INPUT6-MM.                              28521087
050800     MOVE 01      TO XDC3-INPUT6-DD.                              28521087
050900     MOVE SPEC-YEAR TO XDC3-INPUT6-YY.                            28521087
051000     PERFORM XDC3-VALIDATE-INPUT6-TO-ISO.                         28521087
051100     MOVE XDC3-ISO-CC TO WS-SPEC-CC.                              28521087
051300     MOVE XDC3-ISO-YY TO WS-SPEC-YEAR.                            28521087
051400     SKIP1                                                        28521087
053100*----> THE SPEC YEAR MUST BE EITHER CURRENT YEAR OR PRIOR YEAR    PPP730
053300*----> MAY BE SPECIFIED.                                          PPP730
053310     MOVE WS-GREG-CC TO WORK-CC.                                  28521087
053400     MOVE GREG-YY TO WORK-YEAR.                                   PPP730
053500*****IF    SPEC-YEAR = WORK-YEAR-NUM                              28521087
053600*****   OR (SPEC-YEAR = (WORK-YEAR-NUM - 1))                      28521087
053610     IF    WS-SPEC-CC-YEAR = WORK-CC-YEAR-NUM                     28521087
053630        OR (WS-SPEC-CC-YEAR = (WORK-CC-YEAR-NUM - 1))             28521087
053700         NEXT SENTENCE                                            PPP730
053800     ELSE                                                         PPP730
053900         MOVE M73004 TO MSSG-DESIRED                              PPP730
054000         STRING 'PROCESS YEAR: ',                                 PPP730
054100                SPEC-YEAR                                         PPP730
054200             DELIMITED BY SIZE INTO RPT-REF-DATA                  PPP730
054300         PERFORM 29000-SPEC-ERROR                                 PPP730
054301     END-IF.                                                      PPP730
054310     EJECT                                                        PPP730
054400 22000-EXTRACT-EDIT.                                              PPP730
054500     SKIP1                                                        PPP730
054600*----> SET BLANK REQUEST TO A VALUE 'N'                           PPP730
054601     IF SPEC-EXTRACT-ACTION = SPACES                              PPP730
054602        MOVE 'NONE' TO SPEC-EXTRACT-ACTION                        PPP730
054603     END-IF.                                                      PPP730
054604     SKIP1                                                        PPP730
054610*----> MAKE SURE A VALID EXTRACT TYPE HAS BEEN REQUESTED          PPP730
054700     IF SPEC-VALID-EXTRACT                                        PPP730
054800         NEXT SENTENCE                                            PPP730
054900     ELSE                                                         PPP730
055000         MOVE M73006 TO MSSG-DESIRED                              PPP730
055100         STRING 'EXTRACT REQUEST: ',                              PPP730
055200                SPEC-EXTRACT-ACTION                               PPP730
055300             DELIMITED BY SIZE INTO RPT-REF-DATA                  PPP730
055400         PERFORM 29000-SPEC-ERROR                                 PPP730
055500     END-IF.                                                      PPP730
055600                                                                  PPP730
055700     EJECT                                                        PPP730
055800 23000-REPORTS-EDIT.                                              PPP730
055900     SKIP1                                                        PPP730
055910*----> SET BLANK REQUEST TO A VALUE 'N'                           PPP730
055920     IF SPEC-REPORTS-ACTION =  SPACES                             PPP730
055930        MOVE 'N' TO SPEC-REPORTS-ACTION                           PPP730
055940     END-IF.                                                      PPP730
056000*----> MAKE SURE A VALID REPORTS REQUEST HAS BEEN REQUESTED       PPP730
056100     IF SPEC-VALID-REPORTS-REQ                                    PPP730
056200         NEXT SENTENCE                                            PPP730
056300     ELSE                                                         PPP730
056310         MOVE M73015 TO MSSG-DESIRED                              PPP730
056320         STRING '1042 REPORTS REQUEST: ',                         PPP730
056330                SPEC-REPORTS-ACTION                               PPP730
056340             DELIMITED BY SIZE INTO RPT-REF-DATA                  PPP730
056800         PERFORM 29000-SPEC-ERROR                                 PPP730
056900     END-IF.                                                      PPP730
057000     SKIP1                                                        PPP730
058800     EJECT                                                        PPP730
058900 24000-1042-EDIT.                                                 PPP730
059000     SKIP1                                                        PPP730
059100*----> SET BLANK REQUEST TO A VALUE 'N'                           PPP730
059200     IF SPEC-1042-FORMS = SPACE                                   PPP730
059300        MOVE 'N' TO SPEC-1042-FORMS                               PPP730
059400     END-IF.                                                      PPP730
059500     IF SPEC-1042-TAPE = SPACE                                    PPP730
059600        MOVE 'N' TO SPEC-1042-TAPE                                PPP730
059700     END-IF.                                                      PPP730
059800     IF SPEC-1042-EMPLR-COPY = SPACE                              PPP730
059810        MOVE 'N' TO SPEC-1042-EMPLR-COPY                          PPP730
059820     END-IF.                                                      PPP730
059830     IF SPEC-1042-SPECIAL-HNDLG-SORT  = SPACES                    PPP730
059840        MOVE 'N ' TO SPEC-1042-SPECIAL-HNDLG-SORT                 PPP730
059850     END-IF.                                                      PPP730
059860     IF SPEC-1042-FICHE  = SPACES                                 PPP730
059870        MOVE 'N ' TO SPEC-1042-FICHE                              PPP730
059880     END-IF.                                                      PPP730
059900*----> VALIDATE 1042-FORMS REQUEST                                PPP730
060000     IF SPEC-1042-FORMS-VALID                                     PPP730
060100         NEXT SENTENCE                                            PPP730
060500     ELSE                                                         PPP730
060600         MOVE M73008 TO MSSG-DESIRED                              PPP730
060700         STRING '1042-FORMS REQUEST: ',                           PPP730
060800                SPEC-1042-FORMS                                   PPP730
060900             DELIMITED BY SIZE INTO RPT-REF-DATA                  PPP730
061000         PERFORM 29000-SPEC-ERROR.                                PPP730
062500     SKIP1                                                        PPP730
062600*----> VALIDATE 1042 TAPE REQUEST                                 PPP730
062700     IF    SPEC-DO-1042-TAPE                                      PPP730
062800        OR SPEC-NO-1042-TAPE                                      PPP730
062900         NEXT SENTENCE                                            PPP730
063300     ELSE                                                         PPP730
063400         MOVE M73012 TO MSSG-DESIRED                              PPP730
063500         STRING '1042 TAPE REQUEST: ',                            PPP730
063600                SPEC-1042-TAPE                                    PPP730
063700             DELIMITED BY SIZE INTO RPT-REF-DATA                  PPP730
063800         PERFORM 29000-SPEC-ERROR.                                PPP730
063900     SKIP1                                                        PPP730
064000*----> VALIDATE EMPLOYER 1042 FORMS COPY REQUEST                  PPP730
064100     IF    SPEC-DO-1042-COPY                                      PPP730
064200        OR SPEC-NO-1042-COPY                                      PPP730
064300         NEXT SENTENCE                                            PPP730
064400     ELSE                                                         PPP730
064500         MOVE M73007 TO MSSG-DESIRED                              PPP730
064600         STRING 'EMPLOYER 1042 COPY REQUEST: ',                   PPP730
064700                SPEC-1042-EMPLR-COPY                              PPP730
064800             DELIMITED BY SIZE INTO RPT-REF-DATA                  PPP730
064900         PERFORM 29000-SPEC-ERROR.                                PPP730
065000     SKIP1                                                        PPP730
065100*----> VALIDATE SPECIAL HANDLING SORT REQUEST                     PPP730
065200     IF    SPEC-1042-SPECIAL-HNDLG-SORT NOT = SPACES              PPP730
065201        IF    SPEC-DO-HNDLG-CNTRY-SORT                            PPP730
065210           OR SPEC-DO-HNDLG-SS-SORT                               PPP730
065211           OR SPEC-NO-SPECIAL-HNDLG                               PPP730
065220           NEXT SENTENCE                                          PPP730
065230        ELSE                                                      PPP730
065240           MOVE M73009 TO MSSG-DESIRED                            PPP730
065250           STRING 'SPECIAL HANDLING SORT: ',                      PPP730
065260                  SPEC-1042-SPECIAL-HNDLG-SORT                    PPP730
065270               DELIMITED BY SIZE INTO RPT-REF-DATA                PPP730
065280           PERFORM 29000-SPEC-ERROR                               PPP730
065290        END-IF                                                    PPP730
065291     END-IF.                                                      PPP730
065292     SKIP1                                                        PPP730
065293*----> REPLACE LEADING BLANKS BY ZEROES IN BLANK FORMS FIELD      PPP730
065294     INSPECT SPEC-1042-BLANK-FORMS REPLACING                      PPP730
065295         LEADING SPACES BY ZEROES.                                PPP730
065296     SKIP1                                                        PPP730
065297*----> VALIDATE NUMBER OF BLANK FORMS TO BE PRODUCED IF 1042      PPP730
065298*----> FORMS HAVE BEEN REQUESTED.                                 PPP730
065299*----> ISSUE AN ERROR IF BLANKS ONLY HAS BEEN REQUESTED AND       PPP730
065300*----> THE NUMBER OF BLANK FORMS IS ZERO.                         PPP730
065310     IF SPEC-DO-1042-FORMS                                        PPP730
065320         IF SPEC-1042-BLANK-FORMS IS NUMERIC                      PPP730
065330             IF     SPEC-1042-BLANKS-ONLY                         PPP730
065340                AND SPEC-1042-NUM-BLANKS = ZERO                   PPP730
065350                 MOVE M73017 TO MSSG-DESIRED                      PPP730
065360                 PERFORM 29000-SPEC-ERROR                         PPP730
065370             ELSE                                                 PPP730
065380                 NEXT SENTENCE                                    PPP730
065381             END-IF                                               PPP730
065390         ELSE                                                     PPP730
065391             MOVE M73010 TO MSSG-DESIRED                          PPP730
065392             STRING 'NUMBER OF BLANK FORMS REQUESTED: ',          PPP730
065393                    SPEC-1042-NUM-BLANKS                          PPP730
065394                 DELIMITED BY SIZE INTO RPT-REF-DATA              PPP730
065395             PERFORM 29000-SPEC-ERROR                             PPP730
065396         END-IF                                                   PPP730
065397     END-IF.                                                      PPP730
065400     SKIP1                                                        PPP730
066600*----> VALIDATE 1042 SORT SEQUENCE WHEN ALL EMPLOYEES             PPP730
066700*----> ARE REQUESTED. OTHER REQUESTS FOR SPECIAL HANDLING HAVE    PPP730
066800*----> THEIR OWN UNIQUE SORTS, EXCLUDING BLANK FORMS OR NO FORMS. PPP730
067200     IF SPEC-1042-ALL-EMPLOYEES                                   PPP730
067210        IF SPEC-1042-SORT-EMPL1                                   PPP730
067300           OR SPEC-1042-SORT-EMPL2                                PPP730
067310           OR SPEC-1042-SORT-SSN                                  PPP730
067400           OR SPEC-1042-SORT-HME1                                 PPP730
067500           OR SPEC-1042-SORT-HME2                                 PPP730
067510           OR SPEC-1042-SORT-NAME                                 PPP730
067520           OR SPEC-1042-SORT-CNTRY                                PPP730
067600              NEXT SENTENCE                                       PPP730
067700        ELSE                                                      PPP730
067800           MOVE M73011 TO MSSG-DESIRED                            PPP730
067900           STRING '1042-FORMS SORT REQUEST: ',                    PPP730
068000                   SPEC-1042-FORM-SORT                            PPP730
068100               DELIMITED BY SIZE INTO RPT-REF-DATA                PPP730
068200           PERFORM 29000-SPEC-ERROR                               PPP730
068300        END-IF                                                    PPP730
068400     END-IF.                                                      PPP730
070600     SKIP1                                                        PPP730
070700*----> VALIDATE 1042 FICHE PRODUCTION REQUEST                     PPP730
070800     IF    SPEC-MAKE-1042-FICHE                                   PPP730
070900        OR SPEC-NO-1042-FICHE                                     PPP730
071000         NEXT SENTENCE                                            PPP730
071400     ELSE                                                         PPP730
071500         MOVE M73013 TO MSSG-DESIRED                              PPP730
071600         STRING '1042 FICHE REQUEST: ',                           PPP730
071700                SPEC-1042-FICHE                                   PPP730
071800             DELIMITED BY SIZE INTO RPT-REF-DATA                  PPP730
071900         PERFORM 29000-SPEC-ERROR                                 PPP730
071910     END-IF.                                                      PPP730
071911     SKIP1                                                        PPP730
071920*----> VALIDATE 1042 FICHE PRODUCTION SORT REQUEST                PPP730
071930     IF    SPEC-MAKE-1042-FICHE                                   PPP730
071940         IF    SPEC-SORT-FICHE-NAME                               PPP730
071950            OR                                                    PPP730
071960               SPEC-SORT-FICHE-EMPL                               PPP730
071970            NEXT SENTENCE                                         PPP730
071980         ELSE                                                     PPP730
071990            MOVE M73014 TO MSSG-DESIRED                           PPP730
071991            STRING '1042 FICHE SORT: ',                           PPP730
071992                   SPEC-1042-FICHE-SORT                           PPP730
071993                DELIMITED BY SIZE INTO RPT-REF-DATA               PPP730
071994            PERFORM 29000-SPEC-ERROR                              PPP730
071995         END-IF                                                   PPP730
071996     END-IF.                                                      PPP730
072000     EJECT                                                        PPP730
072100 28000-CAMPUS-EDIT.                                               PPP730
072200     SKIP1                                                        PPP730
072300*---->                                                            PPP730
072400*----> THIS PARAGRAPH IS FOR USE BY CAMPUSES IN EDITING ANY       PPP730
072500*----> LOCAL RUN SPECIFICATION FIELDS THEY MIGHT PROVIDE          PPP730
072600*---->                                                            PPP730
072700     EXIT.                                                        PPP730
072800     EJECT                                                        PPP730
072900 29000-SPEC-ERROR.                                                PPP730
073000     SKIP1                                                        PPP730
073100*----> ISSUE MESSAGE AND FORCE RUN ERROR FLAG ON                  PPP730
073200     PERFORM 91000-PRINT-MESSAGE.                                 PPP730
073300     MOVE 1 TO RUN-ERROR-FLAG.                                    PPP730
073400     SKIP3                                                        PPP730
073500 29999-EXIT.                                                      PPP730
073600     SKIP1                                                        PPP730
073700     EXIT.                                                        PPP730
073800     EJECT                                                        PPP730
073900 30000-EDB-EXTRACT SECTION.                                       PPP730
074000 30000-ENTRY.                                                     PPP730
074100     SKIP1                                                        PPP730
074200******************************************************************PPP730
074300**  THIS SECTION SETS UP FOR AND CALLS MODULE PP1042SE, WHICH   **PPP730
074400**  PERFORMS THE ACTUAL EXTRACT FOR 1042 TAX REPORTING PURPOSES.**PPP730
074500******************************************************************PPP730
074600     SKIP1                                                        PPP730
074700*----> INITIALIZE LINKAGE SECTION FOR CALL                        PPP730
074900*****MOVE XTRC-CENTURY TO TXE-CENTURY.                            28521087
074901     MOVE WS-SPEC-CC   TO TXE-CENTURY.                            28521087
074910     MOVE SPEC-YEAR    TO TXE-YEAR.                               PPP730
075100     MOVE GREGORIAN-DATE TO TXE-RUN-DATE.                         PPP730
075200     MOVE FORMATTED-TIME TO TXE-RUN-TIME.                         PPP730
075800     SKIP1                                                        PPP730
075810*----> MOVE EXTRACT OPTION TO THE LINKAGE RECORD                  PPP730
075900     MOVE  SPEC-EXTRACT-ACTION  TO TXE-1042-EXTRACT-FLAG.         PPP730
076300     SKIP1                                                        PPP730
076400*----> AND CALL EXTRACT DRIVER MODULE                             PPP730
076500     CALL 'PP1042SE' USING PP1042SE-INTERFACE,                    PPP730
076600                           MESSAGE-TABLE.                         PPP730
076610     SKIP1                                                        PPP730
076700     IF TXE-RETURN-NORMAL                                         PPP730
076800         MOVE M73061 TO MSSG-DESIRED                              PPP730
076900     ELSE                                                         PPP730
077000         MOVE M73062 TO MSSG-DESIRED                              PPP730
077100         MOVE 1 TO RUN-ERROR-FLAG                                 PPP730
077110     END-IF.                                                      PPP730
077200*----> ISSUE PHASE COMPLETION MESSAGE                             PPP730
077300     PERFORM 91000-PRINT-MESSAGE.                                 PPP730
077400     SKIP3                                                        PPP730
077500 39999-EXIT.                                                      PPP730
077600     EXIT.                                                        PPP730
080700     EJECT                                                        PPP730
080800 50000-1042-PROCESSING SECTION.                                   PPP730
080900 50000-ENTRY.                                                     PPP730
081000     SKIP1                                                        PPP730
081100******************************************************************PPP730
081200**  THIS SECTION SETS UP FOR AND CALLS MODULE PP1042S, WHICH    **PPP730
081300**  PERFORMS THE ACTUAL 1042 REPORTING, PRODUCTION OF 1042-FORMS,*PPP730
081400**  AND PRODUCTION OF THE 1042 FILES.                           **PPP730
081500******************************************************************PPP730
081600     SKIP1                                                        PPP730
081700*----> INITIALIZE LINKAGE AREA FOR CALL                           PPP730
081910*****MOVE XTRC-CENTURY TO TXS-CENTURY.                            28521087
081920     MOVE WS-SPEC-CC   TO TXS-CENTURY.                            28521087
082000     MOVE SPEC-YEAR TO TXS-YEAR.                                  PPP730
082100     MOVE SPEC-EXTRACT-ACTION TO TXS-EXTRACT-SELECTION.           PPP730
082110     MOVE GREGORIAN-DATE TO TXS-RUN-DATE.                         PPP730
082200     MOVE SPEC-1042-CONTROLS TO TXS-1042-SPECIFICATIONS.          PPP730
082300     SKIP1                                                        PPP730
082400*----> AND CALL THE MODULE                                        PPP730
082500     CALL 'PP1042S' USING PP1042S-INTERFACE,                      PPP730
082600                          MESSAGE-TABLE.                          PPP730
082700     IF NOT TXS-RETURN-NORMAL                                     PPP730
083100         MOVE 1 TO RUN-ERROR-FLAG                                 PPP730
083110     END-IF.                                                      PPP730
083200     SKIP1                                                        PPP730
083600 59999-EXIT.                                                      PPP730
083700     EXIT.                                                        PPP730
083800     EJECT                                                        PPP730
083900 60000-TERMINATION SECTION.                                       PPP730
084000 60000-ENTRY.                                                     PPP730
084100     SKIP1                                                        PPP730
084200******************************************************************PPP730
084300**  THIS SECTION COMPLETES REPORTING AND PERFORMS ALL RUN       **PPP730
084400**  TERMINATION ACTIVITY.                                       **PPP730
084500******************************************************************PPP730
084600     SKIP1                                                        PPP730
084700*----> SELECT APPROPRIATE END-OF-RUN MESSAGE                      PPP730
084800     IF TERMINATE-RUN                                             PPP730
084900         MOVE M73099 TO MSSG-DESIRED                              PPP730
085000     ELSE                                                         PPP730
085100         MOVE M73098 TO MSSG-DESIRED.                             PPP730
085200     SKIP1                                                        PPP730
085400*-----> ISSUE END-OF-RUN MESSAGE                                  PPP730
085500      PERFORM 91000-PRINT-MESSAGE.                                PPP730
085800     SKIP1                                                        PPP730
085900*----> CLOSE REPORT FILE                                          PPP730
086000     CLOSE RUN-REPORT.                                            PPP730
086100     SKIP1                                                        PPP730
086200*----> AND LAST, BUT NOT LEAST, SET THE RETURN CODE.  A           PPP730
086300*----> VALUE OF 9 WILL BE FORCED IF THE RUN HAS BEEN TERMINATED.  PPP730
086400     IF TERMINATE-RUN                                             PPP730
086500         MOVE 9 TO MSSG-HIGHEST-SEVERITY.                         PPP730
086600     SKIP1                                                        PPP730
086700     COPY CPPDXP50.                                               PPP730
086800     SKIP3                                                        PPP730
086900 69999-EXIT.                                                      PPP730
087000     EXIT.                                                        PPP730
087100     EJECT                                                        PPP730
087200 90000-UTILITY SECTION.                                           PPP730
087300     SKIP1                                                        PPP730
087400******************************************************************PPP730
087500**  THIS SECTION CONTAINS UTILITY PARAGRAPHS WHICH ARE USED BY  **PPP730
087600**  MORE THAN ONE PROGRAM SECTION.  THE SECTION AS A WHOLE IS   **PPP730
087700**  NEVER PERFORMED.  INDIVIDUAL PARAGRAPHS OR GROUPS OF        **PPP730
087800**  PARAGRAPHS ARE PERFORMED.                                   **PPP730
087900******************************************************************PPP730
088000     SKIP1                                                        PPP730
088100 91000-PRINT-MESSAGE.                                             PPP730
088200*----> SEE IF WE NEED TO START A NEW REPORT PAGE                  PPP730
088300     IF LINE-COUNT > MAX-LINES-PER-PAGE                           PPP730
088400         PERFORM 92000-NEW-REPORT-PAGE.                           PPP730
088500     SKIP1                                                        PPP730
088600*----> RETRIEVE DESIRED ERROR MESSAGE AND PRINT MESSAGE LINE      PPP730
088700     CALL 'PPMSSG2' USING MESSAGE-TABLE.                          PPP730
088800     MOVE MSSG-PGM-NO TO RPT-PROG-NO.                             PPP730
088900     MOVE '-' TO RPT-MSSG-DASH.                                   PPP730
089000     MOVE MSSG-DESIRED-NO TO RPT-MSSG-NO.                         PPP730
089100     MOVE MSSG-SEV-TEXT TO RPT-MSSG-SEVERTY.                      PPP730
089200     MOVE MSSG-TEXT TO RPT-MSSG-TEXT.                             PPP730
089300     WRITE PRINT-REC FROM RPT-MSSG-LINE AFTER ADVANCING 2.        PPP730
089400     MOVE SPACES TO RPT-MSSG-LINE.                                PPP730
089500     ADD 2 TO LINE-COUNT.                                         PPP730
089600     SKIP1                                                        PPP730
089700*----> PRINT REFERENCE DATA IF MESSAGE REQUESTS IT                PPP730
089800     IF MSSG-REFERENCE = 1                                        PPP730
089900         WRITE PRINT-REC FROM RPT-REF-LINE AFTER ADVANCING 1      PPP730
090000         ADD 1 TO LINE-COUNT.                                     PPP730
090100     MOVE SPACES TO RPT-REF-LINE.                                 PPP730
090200     SKIP1                                                        PPP730
090300*----> SET THE RUN ERROR FLAG FOR 'SEE SYSTEMS' LEVEL MESSAGES    PPP730
090400     IF MSSG-SEVERITY > 7                                         PPP730
090500         MOVE 1 TO RUN-ERROR-FLAG                                 PPP730
090510     END-IF.                                                      PPP730
090600     EJECT                                                        PPP730
090700 92000-NEW-REPORT-PAGE.                                           PPP730
090800     SKIP1                                                        PPP730
090900*----> START NEW PAGE, PRINT REPORT AND MESSAGE HEADINGS          PPP730
091000     ADD 1 TO PAGE-COUNT.                                         PPP730
091100     MOVE PAGE-COUNT TO STND-PAGE-NO.                             PPP730
091200     WRITE PRINT-REC FROM STND-RPT-HD1 AFTER ADVANCING PAGE.      PPP730
091300     WRITE PRINT-REC FROM STND-RPT-HD2 AFTER ADVANCING 1.         PPP730
091400     WRITE PRINT-REC FROM STND-RPT-HD3 AFTER ADVANCING 1.         PPP730
091500     WRITE PRINT-REC FROM RPT-MSSG-HDG1 AFTER ADVANCING 2.        PPP730
091600     WRITE PRINT-REC FROM RPT-MSSG-HDG2 AFTER ADVANCING 1.        PPP730
091700     WRITE PRINT-REC FROM RPT-MSSG-HDG3 AFTER ADVANCING 1.        PPP730
091800     MOVE SPACES TO PRINT-REC.                                    PPP730
091900     WRITE PRINT-REC AFTER ADVANCING 1.                           PPP730
092000     MOVE 8 TO LINE-COUNT.                                        PPP730
092100     EJECT                                                        PPP730
092300*----------------------------------------------------------------*28521087
092400 9999-DATE-CONVERSION-DB2  SECTION.                               28521087
092500*----------------------------------------------------------------*28521087
092600                                                                  28521087
092700*                                                 *-------------* 28521087
092800                                                   COPY CPPDXDC3. 28521087
092900*                                                 *-------------* 28521087
