000000**************************************************************/   02770683
000001*  PROGRAM: PPPCMUPD                                         */   02770683
000002*  RELEASE: ___0775______ SERVICE REQUEST(S): _____3645____  */   36450775
000003*  NAME:_______DDM_______ MODIFICATION DATE:  __06/01/93____ */   36450775
000004*  DESCRIPTION: EDB ENTRY/UPDATE IMPLEMENTATION.             */   36450775
000006*  ADDED 3 COLUMNS.                                          */   36450775
000007*  REUSED DE 5509,5513,5517 INACTIVATED BY R0683.            */   36450775
000008*  REMOVED DEAD CODE COPYBOOK CPPDXDC2.                      */   36450775
000009**************************************************************/   36450775
000000**************************************************************/   02770683
000001*  PROGRAM: PPPCMUPD                                         */   02770683
000002*  RELEASE: ___0683______ SERVICE REQUEST(S): ____10277____  */   02770683
000003*  NAME:___H. TRUONG_____ MODIFICATION DATE:  ___04/28/92__  */   02770683
000004*  DESCRIPTION:                                              */   02770683
000005*  - REMOVED CODE WHICH RELATED TO THE FOLLOWING UNUSED      */   45230683
000006*    FIELDS, YTD-UI-GROSS, QTD-FWT-GROSS, QTD-FICA-GROSS,    */   45230683
000007*    QTD-MED-GROSS.                                          */   45230683
000008*  - REMOVED CODE WHICH RELATED TO THE FOLLOWING UNUSED      */   02770683
000009*    FIELDS, FCP-TST-TOT-GRS AND FCP-TST-TAX-GRS.            */   02770683
000010**************************************************************/   02770683
000100**************************************************************/   07780654
000200*  PROGRAM: PPPCMUPD                                         */   07780654
000300*  RELEASE: ___0654______ SERVICE REQUEST(S): ____10778____  */   07780654
000400*  NAME:_____M. SANO_____ MODIFICATION DATE:  ___04/10/92__  */   07780654
000500*  DESCRIPTION:                                              */   07780654
000600*  - ADDED NEW DATA ELEMENT NUMBER 5545 FYTD-FWT-GROSS       */   07780654
000700*                                                            */   07780654
000800**************************************************************/   07780654
000100**************************************************************/   37640591
000200*  PROGRAM: PPPCMUPD                                         */   37640591
000300*  RELEASE: ___0591______ SERVICE REQUEST(S): _____3764____  */   37640591
000400*  NAME:_____M. SANO_____ MODIFICATION DATE:  ___05/17/91__  */   37640591
000500*  DESCRIPTION:                                              */   37640591
000600*  - ADDED NEW DATA ELEMENT NUMBER 5543 FYTD-RET-GROSS       */   37640591
000700**************************************************************/   37640591
000800**************************************************************/   01900591
000900*  PROGRAM: PPPCMUPD                                         */   01900591
001000*  RELEASE: ___0591______ SERVICE REQUEST(S): ____10190____  */   01900591
001100*  NAME:__MADELYN SANO___ MODIFICATION DATE:  ___06/12/91__  */   01900591
001200*  DESCRIPTION:                                              */   01900591
001300*  - ADDED NEW DATA ELEMENT NUMBER 5544 YTD-SFHBR-GROSS      */   01900591
001400**************************************************************/   01900591
000100**************************************************************/  *36090574
000200*  PROGRAM:  PPPCMUPD                                        */  *36090574
000300*  RELEASE # ____0574____ SERVICE REQUEST NO(S)___3609_______*/  *36090574
000400*  NAME ______PXP______   MODIFICATION DATE ____06/05/91_____*/  *36090574
000500*  DESCRIPTION                                               */  *36090574
000600*    ADD HOLD1 AREA                                          */  *36090574
000700*    CORRECT INITIALIZATION                                  */  *36090574
000800**************************************************************/  *36090574
000100**************************************************************/  *36090513
000200*  PROGRAM:  PPPCMUPD                                        */  *36090513
000300*  RELEASE # ____0513____ SERVICE REQUEST NO(S)___3609_______*/  *36090513
000400*  NAME ______JAG______   MODIFICATION DATE ____11/05/90_____*/  *36090513
000500*  DESCRIPTION                                               */  *36090513
000600*    EDB PCM TABLE UPDATE DRIVER MODULE.                     */  *36090513
000700**************************************************************/  *36090513
000800 IDENTIFICATION DIVISION.                                         PPPCMUPD
000900 PROGRAM-ID. PPPCMUPD.                                            PPPCMUPD
001000 AUTHOR. UCOP.                                                    PPPCMUPD
001100 DATE-WRITTEN. SEPTEMBER 1990.                                    PPPCMUPD
001200 DATE-COMPILED.                                                   PPPCMUPD
001300*REMARKS.                                                         PPPCMUPD
001400******************************************************************PPPCMUPD
001500*                                                                *PPPCMUPD
001600*  THIS PROGRAM DRIVES THE APPLICATION OF EMPLOYEE DATA BASE     *PPPCMUPD
001700* PCM-TABLE ROWS. THIS PROGRAM IS CALLED BY PPEDBUPD.            *PPPCMUPD
001800*                                                                *PPPCMUPD
001900*  THE DETAILS OF THIS PROGRAMS FUNCTION ARE DESCRIBED IN THE    *PPPCMUPD
002000* PROCEDURE DIVISION COPYMEMBER CPPDEUPD. ADDITIONAL CODE IS     *PPPCMUPD
002100* HARCODED IN THIS SOURCE TO PROVIDE THE NECESSARY MOVEMENT OF   *PPPCMUPD
002200* CHANGE-RECORD VALUES TO XXX-TABLE COLUMN ROWS, AS WELL AS      *PPPCMUPD
002300* PCM-ROW INITIALIZATION.                                        *PPPCMUPD
002400*                                                                *PPPCMUPD
002500*  AS SHOULD BE OBVIOUS, THIS PROGRAM USES COPY CODE FOR THE     *PPPCMUPD
002600* MAJORITY OF THE PROCEDURE DIVISION. THIS COPY CODE ADDRESSES   *PPPCMUPD
002700* THE ROOT FUNCTIONS WHICH ARE COMMON TO THE PPXXXUPD PROGRAM    *PPPCMUPD
002800* SERIES.                                                        *PPPCMUPD
002900*                                                                *PPPCMUPD
003000******************************************************************PPPCMUPD
003100     EJECT                                                        PPPCMUPD
003200 ENVIRONMENT DIVISION.                                            PPPCMUPD
003300 CONFIGURATION SECTION.                                           PPPCMUPD
003400 SOURCE-COMPUTER.                   COPY CPOTXUCS.                PPPCMUPD
003500 OBJECT-COMPUTER.                   COPY CPOTXOBJ.                PPPCMUPD
003600      EJECT                                                       PPPCMUPD
003700******************************************************************PPPCMUPD
003800*                                                                *PPPCMUPD
003900*                D A T A  D I V I S I O N                        *PPPCMUPD
004000*                                                                *PPPCMUPD
004100******************************************************************PPPCMUPD
004200 DATA DIVISION.                                                   PPPCMUPD
004300 WORKING-STORAGE SECTION.                                         PPPCMUPD
004400 01  MISCELLANEOUS-WS.                                            PPPCMUPD
004500******************************************************************PPPCMUPD
004600*                                                                *PPPCMUPD
004700* NOTE:                                                          *PPPCMUPD
004800*                                                                *PPPCMUPD
004900*   DATA NAMES A-STND-PROG-ID, PPXXXUTL-NAME AND PPXXXUTW-NAME   *PPPCMUPD
005000*  ARE REFERENCED IN COPY CODE CPPDEUPD. A-STND-PROG-ID IS USED  *PPPCMUPD
005100*  IN DIAGNOSTIC REFERENCES, WHILE PPXXUTL-NAME AND              *PPPCMUPD
005200*  PPXXXUTW-NAME ARE USED IN DYNAMIC CALLS TO THE APPROPRIATE    *PPPCMUPD
005300*  TABLE READ AND WRITE UTILITY MODULES, RESPECTIVELY.           *PPPCMUPD
005400*                                                                *PPPCMUPD
005500******************************************************************PPPCMUPD
005600     05  A-STND-PROG-ID      PIC X(08) VALUE 'PPPCMUPD'.          PPPCMUPD
005700     05  PPXXXUTL-NAME       PIC X(08) VALUE 'PPPCMUTL'.          PPPCMUPD
005800     05  PPXXXUTW-NAME       PIC X(08) VALUE 'PPPCMUTW'.          PPPCMUPD
006700*****05  WS-INIT-DATE        PIC X(10) VALUE '01/01/0001'.        36090574
006800     05  WS-INIT-DATE-ISO    PIC X(10) VALUE '0001-01-01'.        36090574
006000     05  FIRST-TIME-SWITCH   PIC X(01) VALUE 'Y'.                 PPPCMUPD
006100         88  FIRST-TIME                VALUE 'Y'.                 PPPCMUPD
006200         88  NOT-FIRST-TIME            VALUE 'N'.                 PPPCMUPD
006300     05  WS-EMPLOYEE-ID      PIC X(9).                            PPPCMUPD
007300 01  WS-NUMBER-WORK-AREA.                                         36090574
007400     05  WS-AREA1.                                                36090574
007500         10  WS-TEMP-NUMBER       PIC 9(09)V9(09).                36090574
007600     05  FILLER                   REDEFINES WS-AREA1.             36090574
007700         10  FILLER               PIC X(08).                      36090574
007800         10  WS-NUM-1             PIC 9(01).                      36090574
007900         10  FILLER               PIC X(09).                      36090574
008000     05  FILLER                   REDEFINES WS-AREA1.             36090574
008100         10  FILLER               PIC X(07).                      36090574
008200         10  WS-NUM-2             PIC 9(02).                      36090574
008300         10  FILLER               PIC X(09).                      36090574
008400     05  FILLER                   REDEFINES WS-AREA1.             36090574
008500         10  FILLER               PIC X(06).                      36090574
008600         10  WS-NUM-3             PIC 9(03).                      36090574
008700         10  FILLER               PIC X(09).                      36090574
008800     05  FILLER                   REDEFINES WS-AREA1.             36090574
008900         10  FILLER               PIC X(05).                      36090574
009000         10  WS-NUM-4             PIC 9(04).                      36090574
009100         10  FILLER               PIC X(09).                      36090574
009200     05  FILLER                   REDEFINES WS-AREA1.             36090574
009300         10  FILLER               PIC X(04).                      36090574
009400         10  WS-NUM-5             PIC 9(05).                      36090574
009500         10  FILLER               PIC X(09).                      36090574
009600     05  FILLER                   REDEFINES WS-AREA1.             36090574
009700         10  FILLER               PIC X(03).                      36090574
009800         10  WS-NUM-6             PIC 9(06).                      36090574
009900         10  FILLER               PIC X(09).                      36090574
010000     05  FILLER                   REDEFINES WS-AREA1.             36090574
010100         10  FILLER               PIC X(02).                      36090574
010200         10  WS-NUM-7             PIC 9(07).                      36090574
010300         10  FILLER               PIC X(09).                      36090574
010400     05  FILLER                   REDEFINES WS-AREA1.             36090574
010500         10  FILLER               PIC X(01).                      36090574
010600         10  WS-NUM-8             PIC 9(08).                      36090574
010700         10  FILLER               PIC X(09).                      36090574
010800     05  FILLER                   REDEFINES WS-AREA1.             36090574
010900         10  WS-NUM-9             PIC 9(09).                      36090574
011000         10  FILLER               PIC X(09).                      36090574
006400     SKIP3                                                        PPPCMUPD
006500 01  DATE-CONVERSION-WORK-AREAS.                                  PPPCMUPD
006600                                    COPY CPWSXDC2.                PPPCMUPD
006700     EJECT                                                        PPPCMUPD
006800 01  TEMP-DATA-AREA.                                              PPPCMUPD
006900                                    COPY CPWSXMMM.                PPPCMUPD
007000     EJECT                                                        PPPCMUPD
007100******************************************************************PPPCMUPD
007200*                                                                *PPPCMUPD
007300*  PCM-ROW IS THE ROW THAT WILL BE PASSED AROUND FOR USE BY      *PPPCMUPD
007400* HIGHER LEVEL PROGRAMS. IT IS DEFINED AS AN EXTERNAL DATA AREA  *PPPCMUPD
007500* TO ALLOW HIGHER LEVEL PROGRAMS TO AVOID PASSING THE ROW        *PPPCMUPD
007600* THROUGH UNNECESSARY CALLING CHAINS.                            *PPPCMUPD
007700*                                                                *PPPCMUPD
007800*  PCM-ROW-HOLD IS THE PURE ROW AS READ FROM THE PCM-TABLE. THIS *PPPCMUPD
007900* ROW IS HELD IN WORKING-STORAGE TO ALLOW THE REFRESH FUNCTION   *PPPCMUPD
008000* TO BE PERFORMED WITHOUT AN ADDED DATA BASE ACCESS.             *PPPCMUPD
008100*                                                                *PPPCMUPD
008200*  INIT-PCM-ROW IS THE INITIALIZED ROW. THIS IS PLACED IN        *PPPCMUPD
008300* WORKING STORAGE FOR COMPARISON PURPOSES WITHIN THE "POST"      *PPPCMUPD
008400* LOGIC OF CPPDEUPD.                                             *PPPCMUPD
008500*                                                                *PPPCMUPD
008600******************************************************************PPPCMUPD
008700 01  PCM-ROW      EXTERNAL.                                       PPPCMUPD
008800                                    COPY CPWSRPCM.                PPPCMUPD
008900     EJECT                                                        PPPCMUPD
013700*01**PCM-ROW-HOLD.                                                36090574
013800 01  PCM-ROW-HOLD EXTERNAL.                                       36090574
009100                                    COPY CPWSRPCM.                PPPCMUPD
014000     EJECT                                                        36090574
014100 01  PCM-ROW-HOLD1 EXTERNAL.                                      36090574
014200                                    COPY CPWSRPCM.                36090574
009200     EJECT                                                        PPPCMUPD
009300 01  INIT-PCM-ROW.                                                PPPCMUPD
009400                                    COPY CPWSRPCM.                PPPCMUPD
009500     EJECT                                                        PPPCMUPD
009600 01  PPPCMUTL-INTERFACE.                                          PPPCMUPD
009700                                    COPY CPLNKPCM.                PPPCMUPD
009800     EJECT                                                        PPPCMUPD
009900 01  PPXXXUTW-INTERFACE.                                          PPPCMUPD
010000                                    COPY CPLNWXXX.                PPPCMUPD
015200     EJECT                                                        36090574
015300 01  XWHC-COMPILE-WORK-AREA.                                      36090574
015400                                    COPY CPWSXWHC.                36090574
010100     EJECT                                                        PPPCMUPD
010200 LINKAGE SECTION.                                                 PPPCMUPD
010300******************************************************************PPPCMUPD
010400*              L I N K A G E    S E C T I O N                    *PPPCMUPD
010500******************************************************************PPPCMUPD
010600*                                                                 PPPCMUPD
010700 01  PPXXXUPD-INTERFACE.            COPY CPLNUXXX.                PPPCMUPD
010800     EJECT                                                        PPPCMUPD
010900 01  EDB-CHANGE-RECORD.             COPY CPWSXCHG.                PPPCMUPD
011000     EJECT                                                        PPPCMUPD
011100 PROCEDURE DIVISION USING                                         PPPCMUPD
011200                          PPXXXUPD-INTERFACE                      PPPCMUPD
011300                          EDB-CHANGE-RECORD.                      PPPCMUPD
011400*                                                                 PPPCMUPD
011500******************************************************************PPPCMUPD
011600*            P R O C E D U R E  D I V I S I O N                  *PPPCMUPD
011700******************************************************************PPPCMUPD
011800*                                                                 PPPCMUPD
011900******************************************************************PPPCMUPD
012000*                                                                *PPPCMUPD
012100*  THE PROCEDURE DIVISION OF THIS PROGRAM IS CONTAINED PRIMARILY *PPPCMUPD
012200* IN COPY MEMBER CPPDEUPD. HERE THE GENERIC DATA-NAMES IN        *PPPCMUPD
012300* CPPDEUPD ARE REPLACED WITH THE SPECIFIC DATA-NAMES OF THE      *PPPCMUPD
012400* WORKING STORAGE TABLE ROWS AND THE PPXXXUTL MODULE INTERFACE.  *PPPCMUPD
012500*                                                                *PPPCMUPD
012600*                                                                *PPPCMUPD
012700******************************************************************PPPCMUPD
012800                                     COPY CPPDEUPD                PPPCMUPD
012900        REPLACING PP000UTL-INTERFACE   BY PPPCMUTL-INTERFACE      PPPCMUPD
013000                  PP000UTL-EMPLOYEE-ID BY PPPCMUTL-EMPLOYEE-ID    PPPCMUPD
013100                  000-ROW              BY PCM-ROW                 PPPCMUPD
013200                  000-ROW-HOLD         BY PCM-ROW-HOLD            PPPCMUPD
018700                  000-ROW-HOLD1        BY PCM-ROW-HOLD1           36090574
013300                  INIT-000-ROW         BY INIT-PCM-ROW            PPPCMUPD
013400                  PP000UTL-ERROR       BY PPPCMUTL-ERROR          PPPCMUPD
013500                  PP000UTL-000-FOUND   BY PPPCMUTL-PCM-FOUND.     PPPCMUPD
019100     EJECT                                                        36090574
019200 7900-FIRST-TIME SECTION.                                         36090574
019300     SKIP1                                                        36090574
019400     MOVE A-STND-PROG-ID TO XWHC-DISPLAY-MODULE.                  36090574
019500     SKIP1                                                        36090574
019600                                    COPY CPPDXWHC.                36090574
013600     EJECT                                                        PPPCMUPD
013700 8800-CONVERT-DATES SECTION.                                      PPPCMUPD
013800     SKIP1                                                        PPPCMUPD
022200*****                                COPY CPPDXDC2.               36450775
020100*****EJECT                                                        36090574
020200*8900-DATE-TRANSFORM SECTION.                                     36090574
020300*****SKIP1                                                        36090574
020400*****MOVE TEMP-DATA-VALUE TO DB2-DATE.                            36090574
020500*****PERFORM CONVERT-ISO-TO-DB-FMT-DATE.                          36090574
014000     EJECT                                                        PPPCMUPD
014600 9000-INITIALIZE-ROW SECTION.                                     PPPCMUPD
014700     SKIP1                                                        PPPCMUPD
014800******************************************************************PPPCMUPD
014900*                                                                *PPPCMUPD
015000* THIS SECTION INITIALIZES THE PCM-ROW. THE INITIALIZE VERB IS   *PPPCMUPD
015100* SUPPLEMENTED WITH MOVES OF AN INITIAL DATE VALUE TO THE        *PPPCMUPD
015200* COLUMNS IN THE PCM-TABLE ROW WHICH ARE DEFINED AS DB2 DATES.   *PPPCMUPD
015300*                                                                *PPPCMUPD
015400******************************************************************PPPCMUPD
015500     SKIP1                                                        PPPCMUPD
024000***** REPLACE WITH COPYBOOK IN PPPCMUPD/PPPCMUTL TO FIX           36450775
024001***** DISCREPANCY AND PREVENT FUTURE DISCREPANCIES.               36450775
024002                                    COPY CPPDIPCM.                36450775
024003*****INITIALIZE PCM-ROW.                                          36450775
021800*****MOVE WS-INIT-DATE                 TO                         36090574
024100*****MOVE WS-INIT-DATE-ISO             TO                         36450775
024200*****         LAST-PAY-DATE        OF PCM-ROW.                    36450775
024300*****MOVE '1' TO MIN-RCD-FLAG OF PCM-ROW.                         36450775
024400*****MOVE ZERO TO CHK-DISP-CODE OF PCM-ROW                        36450775
024500*****             PRI-GROSS-CTL OF PCM-ROW.                       36450775
015900     MOVE PPXXXUPD-EMPLOYEE-ID TO EMPLOYEE-ID OF PCM-ROW.         PPPCMUPD
016000     EJECT                                                        PPPCMUPD
016100 9100-EVALUATE-DATA-ELEMENT SECTION.                              PPPCMUPD
016200     SKIP1                                                        PPPCMUPD
016300******************************************************************PPPCMUPD
016400*                                                                *PPPCMUPD
016500* THIS SECTION TAKES THE DATA ELEMENT NUMBER FROM THE CHANGE     *PPPCMUPD
016600* RECORD TO DETERMINE WHICH COLUMN IS TO RECEIVE THE VALUE FROM  *PPPCMUPD
016700* THE CHANGE RECORD. WHILE IT IS MOST IMPORTANT TO MAKE SURE     *PPPCMUPD
016800* THAT THE NUMERIC FIELDS ARE MOVED TO LIKE LENGTH COLUMNS,      *PPPCMUPD
016900* THE USE OF LENGTH QUALIFIERS ON ALPHANUMERIC FIELD MOVES DOES  *PPPCMUPD
017000* PROVIDE SOME USEFUL DOCUMENTATION.                             *PPPCMUPD
017100*                                                                *PPPCMUPD
017200******************************************************************PPPCMUPD
017300     SKIP1                                                        PPPCMUPD
017900     SKIP1                                                        PPPCMUPD
018000     EVALUATE XCHG-DATA-ELEM-NO                                   PPPCMUPD
018100         WHEN '5504'                                              PPPCMUPD
018200             COMPUTE YTD-NDIP-GROSS         OF PCM-ROW =          PPPCMUPD
018300                      TEMP-NUMBER                                 PPPCMUPD
018301         WHEN '5508'                                              PPPCMUPD
018302             COMPUTE DCP-RATE-CURRMO        OF PCM-ROW =          PPPCMUPD
018303                      TEMP-NUMBER                                 PPPCMUPD
018304         WHEN '5511'                                              PPPCMUPD
018305             COMPUTE DCP-RATE-PRIOR1        OF PCM-ROW =          PPPCMUPD
018306                      TEMP-NUMBER                                 PPPCMUPD
018307         WHEN '5514'                                              PPPCMUPD
018308             COMPUTE DCP-RATE-PRIOR2        OF PCM-ROW =          PPPCMUPD
018309                      TEMP-NUMBER                                 PPPCMUPD
018310         WHEN '5515'                                              PPPCMUPD
018311             COMPUTE DCP-RATE-PRIOR3        OF PCM-ROW =          PPPCMUPD
018312                      TEMP-NUMBER                                 PPPCMUPD
018313         WHEN '5542'                                              PPPCMUPD
018314             COMPUTE DCP-RATE-PRIOR4        OF PCM-ROW =          PPPCMUPD
018315                      TEMP-NUMBER                                 PPPCMUPD
018316         WHEN '5119'                                              PPPCMUPD
018320             COMPUTE PAYSTAT-CURR-MO        OF PCM-ROW =          PPPCMUPD
018330                      TEMP-NUMBER                                 PPPCMUPD
018400         WHEN '5120'                                              PPPCMUPD
018500             COMPUTE PAYSTAT-JAN            OF PCM-ROW =          PPPCMUPD
018600                      TEMP-NUMBER                                 PPPCMUPD
018700         WHEN '5121'                                              PPPCMUPD
018800             COMPUTE PAYSTAT-FEB            OF PCM-ROW =          PPPCMUPD
018900                      TEMP-NUMBER                                 PPPCMUPD
019000         WHEN '5122'                                              PPPCMUPD
019100             COMPUTE PAYSTAT-MAR            OF PCM-ROW =          PPPCMUPD
019200                      TEMP-NUMBER                                 PPPCMUPD
019300         WHEN '5123'                                              PPPCMUPD
019400             COMPUTE PAYSTAT-APR            OF PCM-ROW =          PPPCMUPD
019500                      TEMP-NUMBER                                 PPPCMUPD
019600         WHEN '5124'                                              PPPCMUPD
019700             COMPUTE PAYSTAT-MAY            OF PCM-ROW =          PPPCMUPD
019800                      TEMP-NUMBER                                 PPPCMUPD
019900         WHEN '5125'                                              PPPCMUPD
020000             COMPUTE PAYSTAT-JUN            OF PCM-ROW =          PPPCMUPD
020100                      TEMP-NUMBER                                 PPPCMUPD
020200         WHEN '5126'                                              PPPCMUPD
020300             COMPUTE PAYSTAT-JUL            OF PCM-ROW =          PPPCMUPD
020400                      TEMP-NUMBER                                 PPPCMUPD
020500         WHEN '5127'                                              PPPCMUPD
020600             COMPUTE PAYSTAT-AUG            OF PCM-ROW =          PPPCMUPD
020700                      TEMP-NUMBER                                 PPPCMUPD
020800         WHEN '5128'                                              PPPCMUPD
020900             COMPUTE PAYSTAT-SEP            OF PCM-ROW =          PPPCMUPD
021000                      TEMP-NUMBER                                 PPPCMUPD
021100         WHEN '5129'                                              PPPCMUPD
021200             COMPUTE PAYSTAT-OCT            OF PCM-ROW =          PPPCMUPD
021300                      TEMP-NUMBER                                 PPPCMUPD
021400         WHEN '5130'                                              PPPCMUPD
021500             COMPUTE PAYSTAT-NOV            OF PCM-ROW =          PPPCMUPD
021600                      TEMP-NUMBER                                 PPPCMUPD
021700         WHEN '5131'                                              PPPCMUPD
021800             COMPUTE PAYSTAT-DEC            OF PCM-ROW =          PPPCMUPD
021900                      TEMP-NUMBER                                 PPPCMUPD
022000         WHEN '5501'                                              PPPCMUPD
022100             COMPUTE YTD-TOTAL-GROSS        OF PCM-ROW =          PPPCMUPD
022200                      TEMP-NUMBER                                 PPPCMUPD
022300         WHEN '5507'                                              PPPCMUPD
022400             COMPUTE YTD-NONTAX-GROSS       OF PCM-ROW =          PPPCMUPD
022500                      TEMP-NUMBER                                 PPPCMUPD
022600         WHEN '5503'                                              PPPCMUPD
022700             COMPUTE YTD-FICA-GROSS         OF PCM-ROW =          PPPCMUPD
022800                      TEMP-NUMBER                                 PPPCMUPD
022900         WHEN '5505'                                              PPPCMUPD
023000             COMPUTE YTD-RET-GROSS          OF PCM-ROW =          PPPCMUPD
023100                      TEMP-NUMBER                                 PPPCMUPD
023200         WHEN '5506'                                              PPPCMUPD
023300             COMPUTE YTD-SWT-GROSS          OF PCM-ROW =          PPPCMUPD
023400                      TEMP-NUMBER                                 PPPCMUPD
023500         WHEN '5535'                                              PPPCMUPD
023600             COMPUTE YTD-TAX-FRINGE         OF PCM-ROW =          PPPCMUPD
023700                      TEMP-NUMBER                                 PPPCMUPD
033800*********WHEN '5513'                                              45230683
033900*********    COMPUTE QTD-FICA-GROSS         OF PCM-ROW =          45230683
034000*********             TEMP-NUMBER                                 45230683
034100*********WHEN '5509'                                              45230683
034200*********    COMPUTE YTD-UI-GROSS           OF PCM-ROW =          45230683
034300*********             TEMP-NUMBER                                 45230683
034310         WHEN '5509'                                              36450775
034320             COMPUTE F-YTD-ADDL-COMP        OF PCM-ROW =          36450775
034330                      TEMP-NUMBER                                 36450775
034340         WHEN '5513'                                              36450775
034350             COMPUTE C-YTD-REG-PAY          OF PCM-ROW =          36450775
034360                      TEMP-NUMBER                                 36450775
034370         WHEN '5517'                                              36450775
034380             COMPUTE C-YTD-ADDL-COMP-SM     OF PCM-ROW =          36450775
034390                      TEMP-NUMBER                                 36450775
025000         WHEN '5516'                                              PPPCMUPD
025100             COMPUTE QTD-UI-GROSS           OF PCM-ROW =          PPPCMUPD
025200                      TEMP-NUMBER                                 PPPCMUPD
025300         WHEN '5510'                                              PPPCMUPD
025400             COMPUTE YTD-MED-GROSS          OF PCM-ROW =          PPPCMUPD
025500                      TEMP-NUMBER                                 PPPCMUPD
035000*********WHEN '5517'                                              45230683
035100*********    COMPUTE QTD-MED-GROSS          OF PCM-ROW =          45230683
035200*********             TEMP-NUMBER                                 45230683
025900         WHEN '5502'                                              PPPCMUPD
026000             COMPUTE YTD-FWT-GROSS          OF PCM-ROW =          PPPCMUPD
026100                      TEMP-NUMBER                                 PPPCMUPD
035600*********WHEN '5512'                                              45230683
035700*********    COMPUTE QTD-FWT-GROSS          OF PCM-ROW =          45230683
035800*********             TEMP-NUMBER                                 45230683
026500         WHEN '5519'                                              PPPCMUPD
026600             COMPUTE YTD-OTHER-INCOME       OF PCM-ROW =          PPPCMUPD
026700                      TEMP-NUMBER                                 PPPCMUPD
026800         WHEN '0152'                                              PPPCMUPD
026900              MOVE TEMP-DATA-VALUE     TO                         PPPCMUPD
027000                   PRI-PAY-SCHED            OF PCM-ROW            PPPCMUPD
027100         WHEN '0145'                                              PPPCMUPD
034400*****         MOVE TEMP-DATA-VALUE     TO                         36090574
034500              COMPUTE WS-TEMP-NUMBER = TEMP-NUMBER                36090574
034600              MOVE WS-NUM-1 TO                                    36090574
027300                   MIN-RCD-FLAG             OF PCM-ROW            PPPCMUPD
027400         WHEN '0149'                                              PPPCMUPD
034900*****         PERFORM 8900-DATE-TRANSFORM                         36090574
035000*****         MOVE XDC2-DB-FMT-DATE    TO                         36090574
035100              MOVE TEMP-DATA-VALUE     TO                         36090574
027700                   LAST-PAY-DATE            OF PCM-ROW            PPPCMUPD
027800         WHEN '0151'                                              PPPCMUPD
035400*****         MOVE TEMP-DATA-VALUE     TO                         36090574
035500              COMPUTE WS-TEMP-NUMBER = TEMP-NUMBER                36090574
035600              MOVE WS-NUM-3 TO                                    36090574
028000                   PRI-GROSS-CTL            OF PCM-ROW            PPPCMUPD
028100         WHEN '5536'                                              PPPCMUPD
028200             COMPUTE LAST-GTN-ACT           OF PCM-ROW =          PPPCMUPD
028300                      TEMP-NUMBER                                 PPPCMUPD
028400         WHEN '0201'                                              PPPCMUPD
036200*****         MOVE TEMP-DATA-VALUE     TO                         36090574
036300              COMPUTE WS-TEMP-NUMBER = TEMP-NUMBER                36090574
036400              MOVE WS-NUM-1 TO                                    36090574
028600                   CHK-DISP-CODE            OF PCM-ROW            PPPCMUPD
028700         WHEN '5520'                                              PPPCMUPD
028800             COMPUTE RET-GROSS-CURRMO       OF PCM-ROW =          PPPCMUPD
028900                      TEMP-NUMBER                                 PPPCMUPD
029000         WHEN '5521'                                              PPPCMUPD
029100             COMPUTE RET-GROSS-PRIOR1       OF PCM-ROW =          PPPCMUPD
029200                      TEMP-NUMBER                                 PPPCMUPD
029300         WHEN '5522'                                              PPPCMUPD
029400             COMPUTE RET-GROSS-PRIOR2       OF PCM-ROW =          PPPCMUPD
029500                      TEMP-NUMBER                                 PPPCMUPD
029600         WHEN '5523'                                              PPPCMUPD
029700             COMPUTE RET-GROSS-PRIOR3       OF PCM-ROW =          PPPCMUPD
029800                      TEMP-NUMBER                                 PPPCMUPD
029900         WHEN '5524'                                              PPPCMUPD
030000             COMPUTE RET-GROSS-PRIOR4       OF PCM-ROW =          PPPCMUPD
030100                      TEMP-NUMBER                                 PPPCMUPD
030200         WHEN '5525'                                              PPPCMUPD
030300             COMPUTE RED-GROSS-CURRMO       OF PCM-ROW =          PPPCMUPD
030400                      TEMP-NUMBER                                 PPPCMUPD
030500         WHEN '5526'                                              PPPCMUPD
030600             COMPUTE RED-GROSS-PRIOR1       OF PCM-ROW =          PPPCMUPD
030700                      TEMP-NUMBER                                 PPPCMUPD
030800         WHEN '5527'                                              PPPCMUPD
030900             COMPUTE RED-GROSS-PRIOR2       OF PCM-ROW =          PPPCMUPD
031000                      TEMP-NUMBER                                 PPPCMUPD
031100         WHEN '5528'                                              PPPCMUPD
031200             COMPUTE RED-GROSS-PRIOR3       OF PCM-ROW =          PPPCMUPD
031300                      TEMP-NUMBER                                 PPPCMUPD
031400         WHEN '5529'                                              PPPCMUPD
031500             COMPUTE RED-GROSS-PRIOR4       OF PCM-ROW =          PPPCMUPD
031600                      TEMP-NUMBER                                 PPPCMUPD
031700         WHEN '5530'                                              PPPCMUPD
031800             COMPUTE RET-RATE-CURRMO        OF PCM-ROW =          PPPCMUPD
031900                      TEMP-NUMBER                                 PPPCMUPD
032000         WHEN '5531'                                              PPPCMUPD
032100             COMPUTE RET-RATE-PRIOR1        OF PCM-ROW =          PPPCMUPD
032200                      TEMP-NUMBER                                 PPPCMUPD
032300         WHEN '5532'                                              PPPCMUPD
032400             COMPUTE RET-RATE-PRIOR2        OF PCM-ROW =          PPPCMUPD
032500                      TEMP-NUMBER                                 PPPCMUPD
032600         WHEN '5533'                                              PPPCMUPD
032700             COMPUTE RET-RATE-PRIOR3        OF PCM-ROW =          PPPCMUPD
032800                      TEMP-NUMBER                                 PPPCMUPD
032900         WHEN '5534'                                              PPPCMUPD
033000             COMPUTE RET-RATE-PRIOR4        OF PCM-ROW =          PPPCMUPD
033100                      TEMP-NUMBER                                 PPPCMUPD
033200         WHEN '5537'                                              PPPCMUPD
033300             COMPUTE YTD-TT-GROSS           OF PCM-ROW =          PPPCMUPD
033400                      TEMP-NUMBER                                 PPPCMUPD
033500         WHEN '5538'                                              PPPCMUPD
033600             COMPUTE YTD-ALT-TT-GROSS       OF PCM-ROW =          PPPCMUPD
033700                      TEMP-NUMBER                                 PPPCMUPD
033800         WHEN '5539'                                              PPPCMUPD
033900             COMPUTE ETD-TT-GROSS           OF PCM-ROW =          PPPCMUPD
034000                      TEMP-NUMBER                                 PPPCMUPD
044200*********WHEN '5540'                                              02770683
044300*********    COMPUTE FCP-TST-TOT-GRS        OF PCM-ROW =          02770683
044400*********             TEMP-NUMBER                                 02770683
044500*********WHEN '5541'                                              02770683
044600*********    COMPUTE FCP-TST-TAX-GRS        OF PCM-ROW =          02770683
044700*********             TEMP-NUMBER                                 02770683
044000         WHEN '5543'                                              37640591
044100             COMPUTE FYTD-RET-GROSS         OF PCM-ROW =          37640591
044200                      TEMP-NUMBER                                 37640591
044300         WHEN '5544'                                              01900591
044400             COMPUTE YTD-SFHBR-GROSS        OF PCM-ROW =          01900591
044500                      TEMP-NUMBER                                 01900591
045400         WHEN '5545'                                              07780654
045500             COMPUTE FYTD-FWT-GROSS         OF PCM-ROW =          07780654
045600                      TEMP-NUMBER                                 07780654
034700         WHEN OTHER                                               PPPCMUPD
042700              IF PPXXXUPD-DIAGNOSTICS-ON                          36090574
042800                  DISPLAY A-STND-PROG-ID                          36090574
042900                          ': UNRECOGNIZED DATA ELEMENT NUMBER ('  36090574
043000                          XCHG-DATA-ELEM-NO                       36090574
043100                          ')'                                     36090574
043200              END-IF                                              36090574
034800              SET PPXXXUPD-DATA-ELEM-ERROR TO TRUE                PPPCMUPD
034900     END-EVALUATE.                                                PPPCMUPD
035000     SKIP3                                                        PPPCMUPD
035100************************   END OF PROGRAM ************************PPPCMUPD
