000000******************************************************************36410762
000001*  PROGRAM: PPRTNMGR                                             *36410762
000002*  RELEASE: ___0762______ SERVICE REQUEST(S): _____3641____      *36410762
000003*  REF. RELEASE: ___717___                                       *36410762
000004*  NAME:__H. TRUONG _____ MODIFICATION DATE:  ___05/06/93__      *36410762
000005*  DESCRIPTION:                                                  *36410762
000006*  -  ERROR REPORT 499                                           *36410762
000007*     -  MODIFIED CODE IN 1100-SETUP-CALL TO TEST FOR VSAM ERROR *36410762
000008*        CODE.  KRMI-RETURN-WITH-VSAM-ERR WILL BE SET TO TRUE    *36410762
000009*        IF VSAM ERROR HAS OCCURRED.                             *36410762
000010*                                                                *36410762
000011*  -  ERROR REPORT 978                                           *36410762
000012*     -  MODIFIED CODE IN 0200-READ-BUILD-RTD SECTION TO NOT     *36410762
000013*        TEST THE VALUE OF RTD-RTN-NUM BEFORE EVALUATING THE     *36410762
000014*        RTD-RTN-TYPE.                                           *36410762
000020******************************************************************36410762
000110**************************************************************/   36410753
000120*  PROGRAM: PPRTNMGR                                         */   36410753
000130*  RELEASE: ___0753______ SERVICE REQUEST(S): ____3641_____  */   36410753
000140*  NAME:_____JLT_________ MODIFICATION DATE:  ___03/31/93__  */   36410753
000150*  DESCRIPTION:                                              */   36410753
000160*  - USE COMBINED ACTION ARRAY (CREATED BY PPEI300) FOR      */   36410753
000161*    FOR ACTION TRIGGER TESTS; E.R. #932.                    */   36410753
000170**************************************************************/   36410753
000100*----------------------------------------------------------------*36410717
000200*|**************************************************************|*36410717
000300*|* PROGRAM: PPRTNMGR                                          *|*36410717
000400*|*  RELEASE: __0717_______ SERVICE REQUEST(S): _____3641____  *|*36410717
000500*|*  NAME:______UCOP_______ MODIFICATION DATE:  ___11/19/92__  *|*36410717
000600*|*  DESCRIPTION:                                              *|*36410717
000700*|*  - EDB MAINTENANCE RE-ENGINEERING PROJECT                  *|*36410717
000800*|*    ROUTINE MANAGER                                         *|*36410717
000900*|**************************************************************|*36410717
001000*----------------------------------------------------------------*36410717
001100                                                                  PPRTNMGR
001200 IDENTIFICATION DIVISION.                                         PPRTNMGR
001300 PROGRAM-ID. PPRTNMGR.                                            PPRTNMGR
001400 AUTHOR. BUSINESS INFORMATION TECHNOLOGY.                         PPRTNMGR
001500 INSTALLATION. UNIVERSITY OF CALIFORNIA.                          PPRTNMGR
001600 DATE-WRITTEN.  JULY 2,1992.                                      PPRTNMGR
001700 DATE-COMPILED. XX/XX/XX.                                         PPRTNMGR
001800******************************************************************PPRTNMGR
001900*    THIS PROCESS WILL HANDLE ALL SUBROUTINE CALLS FOR ALL       *PPRTNMGR
002000*        ROUTINES AS SPECIFIED ON THE PROCESSING GROUP TABLE.    *PPRTNMGR
002100******************************************************************PPRTNMGR
002200     EJECT                                                        PPRTNMGR
002300 ENVIRONMENT DIVISION.                                            PPRTNMGR
002400 CONFIGURATION SECTION.                                           PPRTNMGR
002500 SOURCE-COMPUTER.              COPY CPOTXUCS.                     PPRTNMGR
002600 OBJECT-COMPUTER.              COPY CPOTXOBJ.                     PPRTNMGR
002700     EJECT                                                        PPRTNMGR
002800 DATA DIVISION.                                                   PPRTNMGR
002900*----------------------------------------------------------------*PPRTNMGR
003000 WORKING-STORAGE SECTION.                                         PPRTNMGR
003100*----------------------------------------------------------------*PPRTNMGR
003200 77  A-STND-PROG-ID           PIC X(08) VALUE 'PPRTNMGR'.         PPRTNMGR
003300     EJECT                                                        PPRTNMGR
003400 01  SWITCHES-AND-COUNTERS.                                       PPRTNMGR
003500     05  WS-PGT-PROG-ID       PIC X(2).                           PPRTNMGR
003600     05  WS-PGT-PROCESS-GRP   PIC S9(4) USAGE COMP.               PPRTNMGR
003700     05  WS-PGT-PROCESS-SEQ   PIC S9(4) USAGE COMP.               PPRTNMGR
003800     05 FILLER                 PIC X(01)  VALUE SPACE.            PPRTNMGR
003900         88 PGT-ROW-OPEN VALUE 'Y'.                               PPRTNMGR
004000         88 NOT-PGT-ROW-OPEN VALUE SPACE.                         PPRTNMGR
004100     05 FILLER                 PIC X(01)  VALUE SPACE.            PPRTNMGR
004200         88 RTD-ROW-OPEN VALUE 'Y'.                               PPRTNMGR
004300         88 NOT-RTD-ROW-OPEN VALUE SPACE.                         PPRTNMGR
004400     05  SW-ON                PIC X(01) VALUE '1'.                PPRTNMGR
004500     05  SW-OFF               PIC X(01) VALUE '0'.                PPRTNMGR
004600     05  ACTION-ON            PIC X(01) VALUE 'Y'.                PPRTNMGR
004700     05  VALID-PROC-GROUP-SW  PIC X(01) VALUE SPACES.             PPRTNMGR
004800         88  PROC-GROUP-IS-VALID               VALUE 'Y'.         PPRTNMGR
004900         88  PROC-GROUP-IS-NOT-VALID           VALUE 'N'.         PPRTNMGR
005000     05  FIRST-TIME-SW        PIC X(01) VALUE LOW-VALUES.         PPRTNMGR
005100         88  THIS-IS-THE-FIRST-TIME            VALUE LOW-VALUES.  PPRTNMGR
005200         88  NOT-THE-FIRST-TIME                VALUE 'Y'.         PPRTNMGR
005300     05  RTD-EOF-SW           PIC X(01) VALUE LOW-VALUES.         PPRTNMGR
005400         88  RTD-IS-AT-EOF                     VALUE 'Y'.         PPRTNMGR
005500     05  PGT-EOF-SW           PIC X(01) VALUE LOW-VALUES.         PPRTNMGR
005600         88  PGT-IS-AT-EOF                     VALUE 'Y'.         PPRTNMGR
005700     05  DATE-TODAY-WITH-CC.                                      PPRTNMGR
005800         10  FILLER           PIC X(02) VALUE '19'.               PPRTNMGR
005900         10  DATE-WO-CC       PIC X(06).                          PPRTNMGR
006000     05  I                    PIC S9(4) COMP.                     PPRTNMGR
006100     05  J                    PIC S9(4) COMP.                     PPRTNMGR
006200     05  K                    PIC S9(4) COMP.                     PPRTNMGR
006300     05  L                    PIC S9(4) COMP.                     PPRTNMGR
006400     05  T-I                  PIC 9(4).                           PPRTNMGR
006500     05  T-J                  PIC 9(4).                           PPRTNMGR
006600     05  T-K                  PIC 9(4).                           PPRTNMGR
006692*                                                                 36410753
006693 01  CACN-COMBINED-ACTION-ARRAY  EXTERNAL.                        36410753
006694                                     COPY CPWSCACN.               36410753
006696*                                                                 36410753
006700     EJECT                                                        PPRTNMGR
006800 01  INSTALLATION-DEPENDT-CONSTANTS.    COPY CPWSXIDC.            PPRTNMGR
006900     EJECT                                                        PPRTNMGR
007000***  THE FOLLOWING EXTERNAL AREAS WILL BE USED BY OTHER           PPRTNMGR
007100***      PROCESSES                                                PPRTNMGR
007200 01  ECES-CON-EDIT-SWITCH   EXTERNAL.   COPY CPWSECES.            PPRTNMGR
007300     EJECT                                                        PPRTNMGR
007400 01  EGES-GTN-EDIT-SWITCH   EXTERNAL.   COPY CPWSEGES.            PPRTNMGR
007500     EJECT                                                        PPRTNMGR
007600 01  EIMS-IMPL-MAINT-SWITCH EXTERNAL.   COPY CPWSEIMS.            PPRTNMGR
007700     EJECT                                                        PPRTNMGR
007800 01  XACN-ACTION-ARRAY EXTERNAL.        COPY CPWSXACN.            PPRTNMGR
007900     EJECT                                                        PPRTNMGR
008000 01  EAXD-APPT-ARRAY-SWITCH   EXTERNAL. COPY CPWSEAXD.            PPRTNMGR
008100     EJECT                                                        PPRTNMGR
008200***   THE FOLLOWING AREA WILL STORE ALL OF THE PROCESSING GROUPS  PPRTNMGR
008300***       USED BY THIS PROCESS                                    PPRTNMGR
008400 01  XPGT-PROCESS-GROUP-TABLE. COPY CPWSPGTA.                     PPRTNMGR
008500     EJECT                                                        PPRTNMGR
008600 01  XRTD-ROUTINE-TABLE-AREA.  COPY CPWSRTDA.                     PPRTNMGR
008700     EJECT                                                        PPRTNMGR
008800***   THIS AREA STORES ALL DATA NEEDED FOR THIS PROCESS TO RUN    PPRTNMGR
008900 01  ROUTINE-MANAGER-AREA.                                        PPRTNMGR
009000     05  RMA-PGT-CTR                  PIC S9(03) COMP-3 VALUE +0. PPRTNMGR
009100     05  RMA-PGT-DATA OCCURS 50 TIMES.                            PPRTNMGR
009200         10  RMA-PGT-PROC-GROUP       PIC 9(03).                  PPRTNMGR
009300         10  RMA-PGT-ROUTINE-CTR      PIC S9(03) COMP-3.          PPRTNMGR
009400         10  RMA-PGT-DATA-2 OCCURS 200 TIMES.                     PPRTNMGR
009500             15  RMA-ROUTINE-NUMBER   PIC 9(03).                  PPRTNMGR
009600     05  RMA-ROUTINE-NAME             PIC X(08).                  PPRTNMGR
009700     EJECT                                                        PPRTNMGR
009800 01  XWHC-COMPILE-WORK-AREA.   COPY CPWSXWHC.                     PPRTNMGR
009900     EJECT                                                        PPRTNMGR
010000 01  DATE-WORK-AREA.           COPY CPWSDATE.                     PPRTNMGR
010100     EJECT                                                        PPRTNMGR
010200 01  MESSAGES-USED.                                               PPRTNMGR
010300     05  MRM001                PIC X(05)  VALUE 'RM001'.          PPRTNMGR
010400     05  MRM002                PIC X(05)  VALUE 'RM002'.          PPRTNMGR
010500     05  MRM003                PIC X(05)  VALUE 'RM003'.          PPRTNMGR
010600     05  MRM004                PIC X(05)  VALUE 'RM004'.          PPRTNMGR
010700     05  MRM005                PIC X(05)  VALUE 'RM005'.          PPRTNMGR
010800     05  MRM006                PIC X(05)  VALUE 'RM006'.          PPRTNMGR
010900     05  MRM007                PIC X(05)  VALUE 'RM007'.          PPRTNMGR
011000     05  MRM008                PIC X(05)  VALUE 'RM008'.          PPRTNMGR
011100     05  MRM009                PIC X(05)  VALUE 'RM009'.          PPRTNMGR
011200     05  MRM010                PIC X(05)  VALUE 'RM010'.          PPRTNMGR
011300     05  MRM011                PIC X(05)  VALUE 'RM011'.          PPRTNMGR
011400     05  MRM012                PIC X(05)  VALUE 'RM012'.          PPRTNMGR
011500     05  MRM013                PIC X(05)  VALUE 'RM013'.          PPRTNMGR
011600     05  MRM014                PIC X(05)  VALUE 'RM014'.          PPRTNMGR
011700     05  MRM015                PIC X(05)  VALUE 'RM015'.          PPRTNMGR
011800     05  MRM016                PIC X(05)  VALUE 'RM016'.          PPRTNMGR
011900     05  MRM017                PIC X(05)  VALUE 'RM017'.          PPRTNMGR
012000     05  MRM018                PIC X(05)  VALUE 'RM018'.          PPRTNMGR
012100     05  MRM019                PIC X(05)  VALUE 'RM019'.          PPRTNMGR
012200     05  MRM020                PIC X(05)  VALUE 'RM020'.          PPRTNMGR
012300     EJECT                                                        PPRTNMGR
012400 01  PPDB2MSG-INTERFACE. COPY CPLNKDB2.                           PPRTNMGR
012500******************************************************************PPRTNMGR
012600*          SQL - WORKING STORAGE                                 *PPRTNMGR
012700******************************************************************PPRTNMGR
012800 01  PGT-ROW-DATA.                                                PPRTNMGR
012900     EXEC SQL INCLUDE PPPVZPGT END-EXEC.                          PPRTNMGR
013000 01  RTD-ROW-DATA.                                                PPRTNMGR
013100     EXEC SQL INCLUDE PPPVZRTD END-EXEC.                          PPRTNMGR
013200******************************************************************PPRTNMGR
013300*                                                                *PPRTNMGR
013400*                SQL- SELECTS                                    *PPRTNMGR
013500*                                                                *PPRTNMGR
013600******************************************************************PPRTNMGR
013700*                                                                *PPRTNMGR
013800*  THE VIEWS USED IN THIS PROGRAM ARE:                           *PPRTNMGR
013900*                                                                *PPRTNMGR
014000*     VIEW              VIEW DDL AND DCL INCLUDE                 *PPRTNMGR
014100*                        MEMBER NAMES                            *PPRTNMGR
014200*                                                                *PPRTNMGR
014300*  PPPVZPGT_PGT          PPPVZPGT                                *PPRTNMGR
014400*  PPPVZRTD_RTD          PPPVZRTD                                *PPRTNMGR
014500*                                                                *PPRTNMGR
014600******************************************************************PPRTNMGR
014700     EXEC SQL                                                     PPRTNMGR
014800          INCLUDE SQLCA                                           PPRTNMGR
014900     END-EXEC.                                                    PPRTNMGR
015000     EXEC SQL                                                     PPRTNMGR
015100          DECLARE PGT_ROW CURSOR FOR                              PPRTNMGR
015200              SELECT *                                            PPRTNMGR
015300              FROM PPPVZPGT_PGT                                   PPRTNMGR
015400              WHERE PGT_PROG_ID    = :WS-PGT-PROG-ID              PPRTNMGR
015500              ORDER BY                                            PPRTNMGR
015600              PGT_PROG_ID                                         PPRTNMGR
015700             ,PGT_PROCESS_GRP                                     PPRTNMGR
015800             ,PGT_PROCESS_SEQ                                     PPRTNMGR
015900             ,PGT_TRIGGER_SEQ                                     PPRTNMGR
016000     END-EXEC.                                                    PPRTNMGR
016100     EXEC SQL                                                     PPRTNMGR
016200          DECLARE RTD_ROW CURSOR FOR                              PPRTNMGR
016300              SELECT *                                            PPRTNMGR
016400              FROM PPPVZRTD_RTD                                   PPRTNMGR
016500              ORDER BY                                            PPRTNMGR
016600              RTD_RTN_TYPE                                        PPRTNMGR
016700             ,RTD_RTN_NUM                                         PPRTNMGR
016800     END-EXEC.                                                    PPRTNMGR
016900     EJECT                                                        PPRTNMGR
017000******************************************************************PPRTNMGR
017100**          L  I  N  K  A  G  E      S  E  C  T  I  O  N        **PPRTNMGR
017200******************************************************************PPRTNMGR
017300*----------------------------------------------------------------*PPRTNMGR
017400 LINKAGE SECTION.                                                 PPRTNMGR
017500*----------------------------------------------------------------*PPRTNMGR
017600******************************************************************PPRTNMGR
017700**  THE KRMI AREA IS A COMMON AREA THAT IS USED TO PASS         **PPRTNMGR
017800**  INFORMATION THAT IS REQUIRED FOR THIS MODULE TO EXECUTE     **PPRTNMGR
017900******************************************************************PPRTNMGR
018000 01  KRMI-LINKAGE-SECTION.                         COPY CPLNKRMI. PPRTNMGR
018100     EJECT                                                        PPRTNMGR
018200******************************************************************PPRTNMGR
018300**  THIS MESSAGE TABLE ARRAY WILL CONTAIN ALL MESSAGES THAT     **PPRTNMGR
018400**  THIS ROUTINE CAN LOGICALLY ISSUE AT ONE TIME                **PPRTNMGR
018500******************************************************************PPRTNMGR
018600 01  KMTA-MESSAGE-TABLE-ARRAY.                     COPY CPLNKMTA. PPRTNMGR
018700     EJECT                                                        PPRTNMGR
018800******************************************************************PPRTNMGR
018900**    P  R  O  C  E  D  U  R  E      D  I  V  I  S  I  O  N     **PPRTNMGR
019000******************************************************************PPRTNMGR
019100 PROCEDURE DIVISION USING KRMI-LINKAGE-SECTION,                   PPRTNMGR
019200                          KMTA-MESSAGE-TABLE-ARRAY.               PPRTNMGR
019300******************************************************************PPRTNMGR
019400*    THE FOLLOWING SQL WILL CAUSE ANY 'ABNORMAL' SQLCODE TO      *PPRTNMGR
019500*    CAUSE A BRANCH TO 999999-SQL-ERROR.                         *PPRTNMGR
019600******************************************************************PPRTNMGR
019700     EXEC SQL                                                     PPRTNMGR
019800          INCLUDE CPPDXE99                                        PPRTNMGR
019900     END-EXEC.                                                    PPRTNMGR
020000*----------------------------------------------------------------*PPRTNMGR
020100 0000-DRIVER.                                                     PPRTNMGR
020200*----------------------------------------------------------------*PPRTNMGR
020300******************************************************************PPRTNMGR
020400**  PERFORM THE INITIALIZATION ROUTINE NOW                      **PPRTNMGR
020500******************************************************************PPRTNMGR
020600     IF  THIS-IS-THE-FIRST-TIME                                   PPRTNMGR
020700         PERFORM 0100-INITIALIZE                                  PPRTNMGR
020800     END-IF.                                                      PPRTNMGR
020900******************************************************************PPRTNMGR
021000**  PERFORM THE MAIN ROUTINE NOW - AFTER WHICH WE WILL RETURN   **PPRTNMGR
021100**  TO THE CALLING PROGRAM                                      **PPRTNMGR
021200******************************************************************PPRTNMGR
021300     PERFORM 1000-MAINLINE-ROUTINE.                               PPRTNMGR
021400     GOBACK.                                                      PPRTNMGR
021500     EJECT                                                        PPRTNMGR
021600*----------------------------------------------------------------*PPRTNMGR
021700 0100-INITIALIZE    SECTION.                                      PPRTNMGR
021800*----------------------------------------------------------------*PPRTNMGR
021900******************************************************************PPRTNMGR
022000**  DISPLAY THE PROGRAM ID AND DATE/TIME COMPILED               **PPRTNMGR
022100******************************************************************PPRTNMGR
022200     MOVE A-STND-PROG-ID           TO XWHC-DISPLAY-MODULE.        PPRTNMGR
022300     MOVE A-STND-PROG-ID           TO DB2MSG-PGM-ID.              PPRTNMGR
022400     MOVE KRMI-REQUESTOR TO WS-PGT-PROG-ID.                       PPRTNMGR
022500*                                               *-------------*   PPRTNMGR
022600                                                 COPY CPPDXWHC.   PPRTNMGR
022700*                                               *-------------*   PPRTNMGR
022800*                                               *-------------*   PPRTNMGR
022900                                                 COPY CPPDDATE.   PPRTNMGR
023000*                                               *-------------*   PPRTNMGR
023100     MOVE PRE-EDIT-DATE            TO DATE-WO-CC.                 PPRTNMGR
023200******************************************************************PPRTNMGR
023300**    OPEN THE CURSORS THAT THIS PROCESS NEEDS                  **PPRTNMGR
023400******************************************************************PPRTNMGR
023500     PERFORM SQL-OPEN-PGT.                                        PPRTNMGR
023600     PERFORM SQL-OPEN-RTD.                                        PPRTNMGR
023700     INITIALIZE                XPGT-PROCESS-GROUP-TABLE,          PPRTNMGR
023800                               XRTD-ROUTINE-TABLE-AREA.           PPRTNMGR
023900******************************************************************PPRTNMGR
024000**    PERFORM THE ROUTINES THAT WILL BUILD THE ARRAYS THIS      **PPRTNMGR
024100**    PROCESS WILL USE                                          **PPRTNMGR
024200******************************************************************PPRTNMGR
024300     PERFORM SQL-FETCH-RTD.                                       PPRTNMGR
024400     IF SQLCODE = ZERO                                            PPRTNMGR
024500         PERFORM 0200-READ-BUILD-RTD                              PPRTNMGR
024600             UNTIL RTD-IS-AT-EOF                                  PPRTNMGR
024700     END-IF.                                                      PPRTNMGR
024800     PERFORM SQL-FETCH-PGT.                                       PPRTNMGR
024900     IF SQLCODE = ZERO                                            PPRTNMGR
025000         PERFORM 0300-READ-BUILD-PGT                              PPRTNMGR
025100            VARYING XPGT-ARRAY-CTR FROM 1 BY 1                    PPRTNMGR
025200             UNTIL PGT-IS-AT-EOF                                  PPRTNMGR
025300             OR XPGT-ARRAY-CTR > 200                              PPRTNMGR
025400     END-IF.                                                      PPRTNMGR
025500     PERFORM 0400-EDIT-RDT                                        PPRTNMGR
025600         VARYING I FROM +1 BY +1 UNTIL I > +999.                  PPRTNMGR
025700******************************************************************PPRTNMGR
025800**    CLOSE THE CURSORS BEFORE WE EXIT                          **PPRTNMGR
025900******************************************************************PPRTNMGR
026000     PERFORM SQL-CLOSE-PGT.                                       PPRTNMGR
026100     PERFORM SQL-CLOSE-RTD.                                       PPRTNMGR
026200******************************************************************PPRTNMGR
026300**   SET FIRST CALL SWITCH OFF                                  **PPRTNMGR
026400******************************************************************PPRTNMGR
026500     SET NOT-THE-FIRST-TIME       TO TRUE.                        PPRTNMGR
026600     EJECT                                                        PPRTNMGR
026700*----------------------------------------------------------------*PPRTNMGR
026800 0200-READ-BUILD-RTD    SECTION.                                  PPRTNMGR
026900*----------------------------------------------------------------*PPRTNMGR
027000******************************************************************PPRTNMGR
027100**   THE NUMBER MUST BE VALID TO CONTINUE                       **PPRTNMGR
027200******************************************************************PPRTNMGR
027300*****IF  RTD-RTN-NUM = ZERO                                       36410762
027310*****    DISPLAY 'PPRTNMGR ERR 001'                               36410762
027400*****    SET KRMI-RETURN-WITH-LOGIC-ERR  TO TRUE                  36410762
027500*****ELSE                                                         36410762
027600         EVALUATE RTD-RTN-TYPE                                    PPRTNMGR
027700             WHEN 'M'                                             PPRTNMGR
027800                 MOVE 1 TO J                                      PPRTNMGR
027900             WHEN 'Q'                                             PPRTNMGR
028000                 MOVE 2 TO J                                      PPRTNMGR
028100             WHEN 'Y'                                             PPRTNMGR
028200                 MOVE 3 TO J                                      PPRTNMGR
028300             WHEN 'F'                                             PPRTNMGR
028400                 MOVE 4 TO J                                      PPRTNMGR
028500             WHEN 'G'                                             PPRTNMGR
028600                 MOVE 5 TO J                                      PPRTNMGR
028700             WHEN 'C'                                             PPRTNMGR
028800                 MOVE 6 TO J                                      PPRTNMGR
028900             WHEN 'I'                                             PPRTNMGR
029000                 MOVE 7 TO J                                      PPRTNMGR
029100             WHEN 'A'                                             PPRTNMGR
029200                 MOVE 8 TO J                                      PPRTNMGR
029300             WHEN OTHER                                           PPRTNMGR
029400                 MOVE 6 TO J                                      PPRTNMGR
029500*****    END-EVALUATE                                             36410762
029600*****    MOVE RTD-RTN-NUM TO I                                    36410762
029700*****    MOVE RTD-STATUS          TO XRTD-STATUS (J, I),          36410762
029800*****    MOVE RTD-CALL-MODULE     TO XRTD-ROUTINE-NAME (J, I),    36410762
029900*****END-IF.                                                      36410762
029910         END-EVALUATE.                                            36410762
029920     MOVE RTD-RTN-NUM TO I.                                       36410762
029930     MOVE RTD-STATUS          TO XRTD-STATUS (J, I).              36410762
029940     MOVE RTD-CALL-MODULE     TO XRTD-ROUTINE-NAME (J, I).        36410762
030000     PERFORM SQL-FETCH-RTD.                                       PPRTNMGR
030100     IF SQLCODE NOT = ZERO                                        PPRTNMGR
030200         SET RTD-IS-AT-EOF TO TRUE                                PPRTNMGR
030300     END-IF.                                                      PPRTNMGR
030400 0200-READ-BUILD-RTD-EXIT.    EXIT.                               PPRTNMGR
030500     EJECT                                                        PPRTNMGR
030600*----------------------------------------------------------------*PPRTNMGR
030700 0300-READ-BUILD-PGT    SECTION.                                  PPRTNMGR
030800*----------------------------------------------------------------*PPRTNMGR
030900     MOVE XPGT-ARRAY-CTR           TO I.                          PPRTNMGR
031000     MOVE PGT-PROCESS-GRP          TO XPGT-PROCESSING-GROUP (I).  PPRTNMGR
031100     MOVE PGT-RTN-TYPE             TO XPGT-ROUTINE-TYPE (I).      PPRTNMGR
031200     MOVE PGT-RTN-NUM              TO XPGT-ROUTINE-NUMBER (I).    PPRTNMGR
031300     MOVE PGT-PROCESS-SEQ          TO XPGT-ROUTINE-SEQUENCE (I).  PPRTNMGR
031400     MOVE PGT-PROCESS-GRP TO WS-PGT-PROCESS-GRP.                  PPRTNMGR
031500     MOVE PGT-PROCESS-SEQ TO WS-PGT-PROCESS-SEQ.                  PPRTNMGR
031600     PERFORM VARYING J FROM 1 BY 1                                PPRTNMGR
031700         UNTIL J > IDC-MAX-PGT-TRIG-RTNS                          PPRTNMGR
031800          OR PGT-PROCESS-GRP NOT = WS-PGT-PROCESS-GRP             PPRTNMGR
031900          OR PGT-PROCESS-SEQ NOT = WS-PGT-PROCESS-SEQ             PPRTNMGR
032000          OR SQLCODE NOT = ZERO                                   PPRTNMGR
032100             MOVE PGT-TRIG-TYPE TO                                PPRTNMGR
032200                 XPGT-TRIGGER-TYPE (I PGT-TRIGGER-SEQ)            PPRTNMGR
032300             MOVE PGT-TRIG-RTN TO                                 PPRTNMGR
032400                 XPGT-TRIGGER-NUMBER (I PGT-TRIGGER-SEQ)          PPRTNMGR
032500         MOVE PGT-PROCESS-GRP TO WS-PGT-PROCESS-GRP               PPRTNMGR
032600         MOVE PGT-PROCESS-SEQ TO WS-PGT-PROCESS-SEQ               PPRTNMGR
032700         PERFORM SQL-FETCH-PGT                                    PPRTNMGR
032800         IF SQLCODE NOT = ZERO                                    PPRTNMGR
032900             SET PGT-IS-AT-EOF TO TRUE                            PPRTNMGR
033000         END-IF                                                   PPRTNMGR
033100     END-PERFORM.                                                 PPRTNMGR
033200 0300-READ-BUILD-PGT-EXIT.    EXIT.                               PPRTNMGR
033300     EJECT                                                        PPRTNMGR
033400*----------------------------------------------------------------*PPRTNMGR
033500 0400-EDIT-RDT    SECTION.                                        PPRTNMGR
033600*----------------------------------------------------------------*PPRTNMGR
033700***   THIS ROUTINE WILL CHECK VARIOUS ITEMS IN THE ARRAY          PPRTNMGR
033800***       AND SET THE 'VALID' INDICATOR APPROPRIATELY             PPRTNMGR
033900***       ...  FIRST THE INDICATOR WILL BE SET TO 'NOT VALID'     PPRTNMGR
034000***                                                               PPRTNMGR
034100***  SET XRTD-NOT-VALID (I)        TO TRUE.                       PPRTNMGR
034200***                                                               PPRTNMGR
034300***  IF  DATE-TODAY-WITH-CC > XRTD-STOP-DATE (I)                  PPRTNMGR
034400***      SET XRTD-DATE-INVALID (I)   TO TRUE                      PPRTNMGR
034500***  ELSE                                                         PPRTNMGR
034600***  IF  DATE-TODAY-WITH-CC < XRTD-START-DATE (I)                 PPRTNMGR
034700***      SET XRTD-DATE-INVALID (I)   TO TRUE                      PPRTNMGR
034800***  ELSE                                                         PPRTNMGR
034900***  IF  KRMI-EFFECTIVE-DATE > XRTD-EFFECTIVE-DATE (I)            PPRTNMGR
035000***      SET XRTD-DATE-INVALID (I)   TO TRUE                      PPRTNMGR
035100***  ELSE                                                         PPRTNMGR
035200***  IF  XRTD-STATUS (I) = 'I'                                    PPRTNMGR
035300***      SET XRTD-STATUS-INVALID (I) TO TRUE                      PPRTNMGR
035400***  ELSE                                                         PPRTNMGR
035500***  IF  XRTD-ROUTINE-NAME (I) = SPACES                           PPRTNMGR
035600***      SET XRTD-NOT-VALID (I)      TO TRUE                      PPRTNMGR
035700***  ELSE                                                         PPRTNMGR
035800***      SET XRTD-VALID (I)          TO TRUE                      PPRTNMGR
035900***  END-IF,                                                      PPRTNMGR
036000***  END-IF,                                                      PPRTNMGR
036100***  END-IF,                                                      PPRTNMGR
036200***  END-IF,                                                      PPRTNMGR
036300***  END-IF.                                                      PPRTNMGR
036400******************************************************************PPRTNMGR
036500* --------> UNCOMMENT THE ABOVE CODE TO PERFORM VERIFICATION      PPRTNMGR
036600* --------> AND EDITING OF THE RTD.                               PPRTNMGR
036700******************************************************************PPRTNMGR
036800     PERFORM WITH TEST BEFORE                                     PPRTNMGR
036900         VARYING J FROM 1 BY 1 UNTIL J > 8                        PPRTNMGR
037000         IF  XRTD-ROUTINE-NAME (J, I) NOT = SPACES                PPRTNMGR
037100             SET XRTD-VALID (J, I) TO TRUE                        PPRTNMGR
037200         END-IF                                                   PPRTNMGR
037300     END-PERFORM.                                                 PPRTNMGR
037400     EJECT                                                        PPRTNMGR
037500*----------------------------------------------------------------*PPRTNMGR
037600 1000-MAINLINE-ROUTINE    SECTION.                                PPRTNMGR
037700*----------------------------------------------------------------*PPRTNMGR
037800******************************************************************PPRTNMGR
037900**   INITIALIZE WORK AREAS FIRST                                **PPRTNMGR
038000******************************************************************PPRTNMGR
038100     PERFORM WITH TEST BEFORE                                     PPRTNMGR
038200         VARYING I FROM 1 BY 1 UNTIL I > XPGT-ARRAY-CTR           PPRTNMGR
038300         IF  KRMI-PROCESSING-GROUP = XPGT-PROCESSING-GROUP (I)    PPRTNMGR
038400             MOVE XPGT-ROUTINE-NUMBER (I) TO J,                   PPRTNMGR
038500             EVALUATE XPGT-ROUTINE-TYPE (I)                       PPRTNMGR
038600                 WHEN 'M'                                         PPRTNMGR
038700                     MOVE 1 TO K                                  PPRTNMGR
038800                 WHEN 'Q'                                         PPRTNMGR
038900                     MOVE 2 TO K                                  PPRTNMGR
039000                 WHEN 'Y'                                         PPRTNMGR
039100                     MOVE 3 TO K                                  PPRTNMGR
039200                 WHEN 'F'                                         PPRTNMGR
039300                     MOVE 4 TO K                                  PPRTNMGR
039400                 WHEN 'G'                                         PPRTNMGR
039500                     MOVE 5 TO K                                  PPRTNMGR
039600                 WHEN 'C'                                         PPRTNMGR
039700                     MOVE 6 TO K                                  PPRTNMGR
039800                 WHEN 'I'                                         PPRTNMGR
039900                     MOVE 7 TO K                                  PPRTNMGR
040000                 WHEN 'A'                                         PPRTNMGR
040100                     MOVE 8 TO K                                  PPRTNMGR
040200                 WHEN OTHER                                       PPRTNMGR
040300                     MOVE ZEROS TO K                              PPRTNMGR
040400             END-EVALUATE                                         PPRTNMGR
040500             IF  K NOT = ZEROS                                    PPRTNMGR
040600                 IF  XRTD-VALID (K, J)                            PPRTNMGR
040700                     PERFORM 1100-SETUP-CALL                      PPRTNMGR
040800                 ELSE                                             PPRTNMGR
040810                     DISPLAY 'PPRTNMGR ERR 002'                   PPRTNMGR
040900                     SET KRMI-RETURN-WITH-LOGIC-ERR TO TRUE       PPRTNMGR
041000                 END-IF                                           PPRTNMGR
041100             END-IF                                               PPRTNMGR
041200         END-IF                                                   PPRTNMGR
041300     END-PERFORM.                                                 PPRTNMGR
041400 1000-MAINLINE-ROUTINE-EXIT.    EXIT.                             PPRTNMGR
041500     EJECT                                                        PPRTNMGR
041600*----------------------------------------------------------------*PPRTNMGR
041700 1100-SETUP-CALL    SECTION.                                      PPRTNMGR
041800*----------------------------------------------------------------*PPRTNMGR
041900******************************************************************PPRTNMGR
042000**   SET-UP AND MONITOR THE CALL BEING MADE                     **PPRTNMGR
042100******************************************************************PPRTNMGR
042200     MOVE SPACES TO RMA-ROUTINE-NAME.                             PPRTNMGR
042300     PERFORM WITH TEST BEFORE                                     PPRTNMGR
042400         VARYING L FROM 1 BY 1 UNTIL L > 50                       PPRTNMGR
042500         OR XPGT-TRIGGER-TYPE (I, L) = SPACES                     PPRTNMGR
042600         OR RMA-ROUTINE-NAME NOT = SPACES                         PPRTNMGR
042700         IF  XPGT-TRIGGER-TYPE (I, L) = 'U'                       PPRTNMGR
042800             IF XRTD-VALID (K, J)                                 PPRTNMGR
042900                 MOVE XRTD-ROUTINE-NAME (K, J)                    PPRTNMGR
043000                                       TO RMA-ROUTINE-NAME        PPRTNMGR
043100             END-IF                                               PPRTNMGR
043200         ELSE                                                     PPRTNMGR
043300         IF  XPGT-TRIGGER-TYPE (I, L) = 'C'                       PPRTNMGR
043400             MOVE XPGT-TRIGGER-NUMBER (I, L) TO T-I               PPRTNMGR
043500             IF          T-I = JOB-BEGIN-CONEDIT                  PPRTNMGR
043600                 OR      T-I = JOB-END-CONEDIT                    PPRTNMGR
043700                 OR (    T-I > JOB-BEGIN-CONEDIT                  PPRTNMGR
043800                     AND T-I < JOB-END-CONEDIT  )                 PPRTNMGR
043900                 MOVE KRMI-APPT-POINTER TO T-J                    PPRTNMGR
044000                 IF  EAXD-APPT-CON-EDIT-SW (T-J, T-I) = SW-ON     PPRTNMGR
044100                     IF XRTD-VALID (K, J)                         PPRTNMGR
044200                         MOVE XRTD-ROUTINE-NAME (K, J)            PPRTNMGR
044300                                       TO RMA-ROUTINE-NAME        PPRTNMGR
044400                     END-IF                                       PPRTNMGR
044500                 END-IF                                           PPRTNMGR
044600             ELSE                                                 PPRTNMGR
044700             IF          T-I = DIST-BEGIN-CONEDIT                 PPRTNMGR
044800                 OR      T-I = DIST-END-CONEDIT                   PPRTNMGR
044900                 OR (    T-I > DIST-BEGIN-CONEDIT                 PPRTNMGR
045000                     AND T-I < DIST-END-CONEDIT   )               PPRTNMGR
045100                 MOVE KRMI-APPT-POINTER TO T-J                    PPRTNMGR
045200                 MOVE KRMI-DIST-POINTER TO T-K                    PPRTNMGR
045300                 COMPUTE T-I = T-I - 50                           PPRTNMGR
045400                 IF  EAXD-DIST-CON-EDIT-SW (T-J, T-K, T-I) = SW-ONPPRTNMGR
045500                     IF XRTD-VALID (K, J)                         PPRTNMGR
045600                         MOVE XRTD-ROUTINE-NAME (K, J)            PPRTNMGR
045700                                       TO RMA-ROUTINE-NAME        PPRTNMGR
045800                     END-IF                                       PPRTNMGR
045900                 END-IF                                           PPRTNMGR
046000             ELSE                                                 PPRTNMGR
046100             IF  ECES-CON-EDIT-SW (T-I) = SW-ON                   PPRTNMGR
046200                 IF XRTD-VALID (K, J)                             PPRTNMGR
046300                     MOVE XRTD-ROUTINE-NAME (K, J)                PPRTNMGR
046400                                       TO RMA-ROUTINE-NAME        PPRTNMGR
046500                 END-IF                                           PPRTNMGR
046600             END-IF                                               PPRTNMGR
046700             END-IF                                               PPRTNMGR
046800             END-IF                                               PPRTNMGR
046900         ELSE                                                     PPRTNMGR
047000         IF  XPGT-TRIGGER-TYPE (I, L) = 'G'                       PPRTNMGR
047100             MOVE XPGT-TRIGGER-NUMBER (I, L) TO T-I               PPRTNMGR
047200             IF  EGES-GTN-EDIT-SW (T-I) = SW-ON                   PPRTNMGR
047300                 IF XRTD-VALID (K, J)                             PPRTNMGR
047400                     MOVE XRTD-ROUTINE-NAME (K, J)                PPRTNMGR
047500                                       TO RMA-ROUTINE-NAME        PPRTNMGR
047600                 END-IF                                           PPRTNMGR
047700             END-IF                                               PPRTNMGR
047800         ELSE                                                     PPRTNMGR
047900         IF  XPGT-TRIGGER-TYPE (I, L) = 'I'                       PPRTNMGR
048000             MOVE XPGT-TRIGGER-NUMBER (I, L) TO T-I               PPRTNMGR
048100             IF          T-I = JOB-BEGIN-CONEDIT                  PPRTNMGR
048200                 OR      T-I = JOB-END-CONEDIT                    PPRTNMGR
048300                 OR (    T-I > JOB-BEGIN-CONEDIT                  PPRTNMGR
048400                     AND T-I < JOB-END-CONEDIT   )                PPRTNMGR
048500                 MOVE KRMI-APPT-POINTER TO T-J                    PPRTNMGR
048600                 IF  EAXD-APPT-IMPL-MAINT-SW (T-J, T-I) = SW-ON   PPRTNMGR
048700                     IF XRTD-VALID (K, J)                         PPRTNMGR
048800                         MOVE XRTD-ROUTINE-NAME (K, J)            PPRTNMGR
048900                                       TO RMA-ROUTINE-NAME        PPRTNMGR
049000                     END-IF                                       PPRTNMGR
049100                 END-IF                                           PPRTNMGR
049200             ELSE                                                 PPRTNMGR
049300             IF          T-I = DIST-BEGIN-CONEDIT                 PPRTNMGR
049400                 OR      T-I = DIST-END-CONEDIT                   PPRTNMGR
049500                 OR (    T-I > DIST-BEGIN-CONEDIT                 PPRTNMGR
049600                     AND T-I < DIST-END-CONEDIT   )               PPRTNMGR
049700                 COMPUTE T-I = T-I - 50                           PPRTNMGR
049800                 MOVE KRMI-APPT-POINTER TO T-J                    PPRTNMGR
049900                 MOVE KRMI-DIST-POINTER TO T-K                    PPRTNMGR
050000                 IF  EAXD-DIST-IMPL-MAINT-SW (T-J, T-K, T-K)      PPRTNMGR
050100                                                       = SW-ON    PPRTNMGR
050200                     IF XRTD-VALID (K, J)                         PPRTNMGR
050300                         MOVE XRTD-ROUTINE-NAME (K, J)            PPRTNMGR
050400                                       TO RMA-ROUTINE-NAME        PPRTNMGR
050500                     END-IF                                       PPRTNMGR
050600                 END-IF                                           PPRTNMGR
050700             ELSE                                                 PPRTNMGR
050800             IF  EIMS-IMPL-MAINT-SW (T-I) = SW-ON                 PPRTNMGR
050900                 IF XRTD-VALID (K, J)                             PPRTNMGR
051000                     MOVE XRTD-ROUTINE-NAME (K, J)                PPRTNMGR
051100                                       TO RMA-ROUTINE-NAME        PPRTNMGR
051200                 END-IF                                           PPRTNMGR
051300             END-IF                                               PPRTNMGR
051400         ELSE                                                     PPRTNMGR
051500         IF  XPGT-TRIGGER-TYPE (I, L) = 'A'                       PPRTNMGR
051600             MOVE XPGT-TRIGGER-NUMBER (I, L) TO T-I               PPRTNMGR
051700****         IF  XACN-ACTION-FLAG (1, T-I) = ACTION-ON            36410753
051701             IF  CACN-ACTION-FLAG (T-I)  = ACTION-ON              36410753
051800                 IF XRTD-VALID (K, J)                             PPRTNMGR
051900                     MOVE XRTD-ROUTINE-NAME (K, J)                PPRTNMGR
052000                                       TO RMA-ROUTINE-NAME        PPRTNMGR
052100                 END-IF                                           PPRTNMGR
052200             END-IF                                               PPRTNMGR
052300         END-IF                                                   PPRTNMGR
052400         END-IF                                                   PPRTNMGR
052500         END-IF                                                   PPRTNMGR
052600         END-IF                                                   PPRTNMGR
052700         END-IF                                                   PPRTNMGR
052800     END-PERFORM.                                                 PPRTNMGR
052900     IF  RMA-ROUTINE-NAME NOT = SPACES                            PPRTNMGR
053000         CALL RMA-ROUTINE-NAME  USING KRMI-LINKAGE-SECTION,       PPRTNMGR
053100                                      KMTA-MESSAGE-TABLE-ARRAY    PPRTNMGR
053200             ON EXCEPTION                                         PPRTNMGR
053201                 DISPLAY 'PPRTNMGR PROGRAM NOT FOUND = '          PPRTNMGR
053202                     RMA-ROUTINE-NAME                             PPRTNMGR
053203                 SET KRMI-RETURN-WITH-806     TO TRUE             PPRTNMGR
053300                 ADD +1                TO KMTA-CTR,               PPRTNMGR
053400                 MOVE MRM001       TO KMTA-MSG-NUMBER   (KMTA-CTR)PPRTNMGR
053500                 MOVE RMA-ROUTINE-NAME                            PPRTNMGR
053600                                     TO KMTA-MSG-DATA   (KMTA-CTR)PPRTNMGR
053700                 SET XRTD-NOT-VALID (K, J) TO TRUE                PPRTNMGR
053800         END-CALL                                                 PPRTNMGR
053810         IF KRMI-RETURN-WITH-VSAM-ERR                             36410762
053820            ADD +1 TO KMTA-CTR                                    36410762
053830            MOVE MRM002 TO KMTA-MSG-NUMBER (KMTA-CTR)             36410762
053840            MOVE RMA-ROUTINE-NAME TO KMTA-MSG-DATA (KMTA-CTR)     36410762
053850         END-IF                                                   36410762
053900     END-IF.                                                      PPRTNMGR
054000 SQL-OPEN-RTD SECTION.                                            PPRTNMGR
054100     IF NOT RTD-ROW-OPEN                                          PPRTNMGR
054200         MOVE 'OPEN RTD CURSOR' TO DB2MSG-TAG                     PPRTNMGR
054300         EXEC SQL                                                 PPRTNMGR
054400             OPEN RTD_ROW                                         PPRTNMGR
054500         END-EXEC                                                 PPRTNMGR
054600         SET RTD-ROW-OPEN TO TRUE                                 PPRTNMGR
054700     END-IF.                                                      PPRTNMGR
054800 SQL-CLOSE-RTD SECTION.                                           PPRTNMGR
054900     IF RTD-ROW-OPEN                                              PPRTNMGR
055000         MOVE 'CLOSE RTD CURSOR' TO DB2MSG-TAG                    PPRTNMGR
055100         EXEC SQL                                                 PPRTNMGR
055200             CLOSE RTD_ROW                                        PPRTNMGR
055300         END-EXEC                                                 PPRTNMGR
055400         SET NOT-RTD-ROW-OPEN TO TRUE                             PPRTNMGR
055500     END-IF.                                                      PPRTNMGR
055600 SQL-FETCH-RTD SECTION.                                           PPRTNMGR
055700     MOVE 'FETCH RTD ROW' TO DB2MSG-TAG.                          PPRTNMGR
055800     EXEC SQL                                                     PPRTNMGR
055900         FETCH RTD_ROW INTO :RTD-ROW-DATA                         PPRTNMGR
056000     END-EXEC.                                                    PPRTNMGR
056100 SQL-OPEN-PGT SECTION.                                            PPRTNMGR
056200     IF NOT PGT-ROW-OPEN                                          PPRTNMGR
056300         MOVE 'OPEN PGT CURSOR' TO DB2MSG-TAG                     PPRTNMGR
056400         EXEC SQL                                                 PPRTNMGR
056500             OPEN PGT_ROW                                         PPRTNMGR
056600         END-EXEC                                                 PPRTNMGR
056700         SET PGT-ROW-OPEN TO TRUE                                 PPRTNMGR
056800     END-IF.                                                      PPRTNMGR
056900 SQL-CLOSE-PGT SECTION.                                           PPRTNMGR
057000     IF PGT-ROW-OPEN                                              PPRTNMGR
057100         MOVE 'CLOSE PGT CURSOR' TO DB2MSG-TAG                    PPRTNMGR
057200         EXEC SQL                                                 PPRTNMGR
057300             CLOSE PGT_ROW                                        PPRTNMGR
057400         END-EXEC                                                 PPRTNMGR
057500         SET NOT-PGT-ROW-OPEN TO TRUE                             PPRTNMGR
057600     END-IF.                                                      PPRTNMGR
057700 SQL-FETCH-PGT SECTION.                                           PPRTNMGR
057800     MOVE 'FETCH PGT ROW' TO DB2MSG-TAG.                          PPRTNMGR
057900     EXEC SQL                                                     PPRTNMGR
058000         FETCH PGT_ROW INTO :PGT-ROW-DATA                         PPRTNMGR
058100     END-EXEC.                                                    PPRTNMGR
058200*999999-SQL-ERROR.                                               *PPRTNMGR
058300     EXEC SQL                                                     PPRTNMGR
058400          INCLUDE CPPDXP99                                        PPRTNMGR
058500     END-EXEC.                                                    PPRTNMGR
058510     DISPLAY 'PPRTNMGR SQL ERR'                                   PPRTNMGR
058600     SET KRMI-RETURN-WITH-SQLCODE TO TRUE.                        PPRTNMGR
058700     GOBACK.                                                      PPRTNMGR
058800******************************************************************PPRTNMGR
058900**   E N D  S O U R C E   ----  PPRTNMGR ----                   **PPRTNMGR
059000******************************************************************PPRTNMGR
