000000**************************************************************/   48571379
000001*  PROGRAM: PPTAXUIT                                         */   48571379
000002*  RELEASE: ___1379______ SERVICE REQUEST(S): ____14857____  */   48571379
000003*  NAME:_______QUAN______ MODIFICATION DATE:  ___10/13/01__  */   48571379
000004*  DESCRIPTION:                                              */   48571379
000005*  - CONVERT TO THE NEW MMREF RECORD FORMAT FOR YEAR 2001    */   48571379
000007**************************************************************/   48571379
000000**************************************************************/   48331267
000001*  PROGRAM: PPTAXUIT                                         */   48331267
000002*  RELEASE: ___1267______ SERVICE REQUEST(S): ____14833____  */   48331267
000003*  NAME:_______QUAN______ MODIFICATION DATE:  ___12/09/99__  */   48331267
000004*  DESCRIPTION:                                              */   48331267
000005*  - MOVE THE CENTURY TO THE REPORTING PERIOD FIELD.         */   48331267
000007**************************************************************/   48331267
000000**************************************************************/   34161098
000001*  PROGRAM: PPTAXUIT                                         */   34161098
000002*  RELEASE: ___1098______ SERVICE REQUEST(S): ____13416____  */   34161098
000003*  REF RLSE ___1031______                                    */   34161098
000004*  NAME:_______QUAN______ MODIFICATION DATE:  ___10/16/96__  */   34161098
000005*  DESCRIPTION:                                              */   34161098
000006*  - MOVED QTD CA SWT GROSS TO 'S' RECORD.                   */   34161098
000007*    MOVED TOTAL CA SWT GROSS TO 'ST' RECORD.                */   34161098
000008*  - FIXED COUNTING LOGIC ASSOCIATED WITH EMPLOYEES WHO      */   34161098
000009*    RECEIVED PAY FOR A PAY PERIOD, WHICH INCLUDES THE 12TH  */   34161098
000010*    OF MONTH, FOR EACH MONTH OF THE THE QUARTER.            */   34161098
000011**************************************************************/   34161098
000000**************************************************************/   28531031
000001*  PROGRAM: PPTAXUIT                                         */   28531031
000002*  RELEASE: ___1031______ SERVICE REQUEST(S): ____12853____  */   28531031
000003*  NAME:_______QUAN______ MODIFICATION DATE:  ___10/19/95__  */   28531031
000004*  DESCRIPTION:                                              */   28531031
000005*  -  COUNT EMPLOYEES WHO HAVE WAGES COVERED BY UI AND PAY   */   28531031
000006*     PERIOD ENDS BETWEEN THE 12TH DAY AND THE LAST DAY OF   */   28531031
000007*     EACH MONTH IN THE REPORTING QUARTER.                   */   28531031
000008**************************************************************/   28531031
000000**************************************************************/   17860963
000001*  PROGRAM: PPTAXUIT                                         */   17860963
000002*  RELEASE: ___0963______ SERVICE REQUEST(S): ____11786____  */   17860963
000003*  NAME:_______QUAN______ MODIFICATION DATE:  ___02/02/95__  */   17860963
000004*  DESCRIPTION:                                              */   17860963
000005*  -  QTD CALIF STATE WITHHOLDING TAX NOW REPORTED ON 'S' REC*/   17860963
000006*  -  WAGE PLAN CODE VALUE OF 'A' OR 'P' IS DETERMINED.      */   17860963
000007*  -  CODE 'ST' RECORD IS WRITTEN AT END OF TAPE.            */   17860963
000008*  -  IF UI WAGES OR CA SWT TAX NEGATIVE, MOVE ZERO TO TAPE  */   17860963
000009*     FOR THE FIELD CONTAINING NEGATIVE AND REPORT THE       */   17860963
000010*     POSITIVE FIELD.                                        */   17860963
000020**************************************************************/   17860963
000100**************************************************************/   45380451
000200*  PROGRAM: PPTAXUIT                                         */   45380451
000300*  RELEASE: ____0451____  SERVICE REQUEST(S): ____4538____   */   45380451
000400*                                             ____4546____   */   45380451
000500*                                             ____5135____   */   45380451
000600*                                             ____5137____   */   45380451
000700*                                             ____5143____   */   45380451
000800*  NAME:    __J.WILCOX__  CREATION DATE:      __01/05/90__   */   45380451
000900*  DESCRIPTION:                                              */   45380451
001000*                                                            */   45380451
001100*    - THIS IS A NEW PROGRAM MODULE WHICH PERFORMS THE       */   45380451
001200*      PRODUCTION OF UI REPORTING TAPES CALIFORNIA           */   45380451
001300**************************************************************/   45380451
001400 IDENTIFICATION DIVISION.                                         PPTAXUIT
001500 PROGRAM-ID.    PPTAXUIT.                                         PPTAXUIT
001600 INSTALLATION.  UNIVERSITY OF CALIFORNIA, BASE PAYROLL SYSTEM.    PPTAXUIT
001700 AUTHOR.        JEROME C. WILCOX, UCOP IS&AS.                     PPTAXUIT
001800 DATE-WRITTEN.  JANUARY 5, 1990                                   PPTAXUIT
001900 DATE-COMPILED.                                                   PPTAXUIT
002000     EJECT                                                        PPTAXUIT
002100******************************************************************PPTAXUIT
002200** PPTAXUIT IS THE BASE PAYROLL SYSTEM MODULE USED FOR          **PPTAXUIT
002300** QUARTERLY REPORTING TO THE STATE EMPLOYMENT DEVELOPMENT      **PPTAXUIT
002400** DEPARTMENT.  IT IS DESIGNED TO BE CALLED BY PROGRAM PPTAXUI. **PPTAXUIT
002500** THERE ARE THREE TYPES OF CALLS:                              **PPTAXUIT
002600**                                                              **PPTAXUIT
002700**   1. INITIAL -  THIS CALL OPENS THE REPORTING FILE, BUILDS   **PPTAXUIT
002800**                 THE 'E' RECORD AND WRITES IT TO THE FILE.    **PPTAXUIT
002900**                 ALL ACCUMULATOR FIELDS ARE INITILIZED AT     **PPTAXUIT
003000**                 THIS TIME ALSO.  THIS CALL IS MADE ONCE.     **PPTAXUIT
003100**                                                              **PPTAXUIT
003200**   2. EMPLOYEE - ONE CALL OF THIS TYPE IS MADE FOR EACH       **PPTAXUIT
003300**                 EMPLOYEE RECORD TO BE WRITTEN TO THE TAX     **PPTAXUIT
003400**                 TAPE.  THIS CALL BUILDS AND WRITES AN 'S'    **PPTAXUIT
003500**                 RECORD FOR EACH EMPLOYEE AND ACCUMULATES     **PPTAXUIT
003600**                 TOTALS.                                      **PPTAXUIT
003700**                                                              **PPTAXUIT
003800**   3. FINAL -    AFTER THE LAST EMPLOYEE RECORD HAS BEEN      **PPTAXUIT
003900**                 PASSED TO THE MODULE, A SINGLE FINAL CALL    **PPTAXUIT
004000**                 IS MADE.  THIS CALL IS RESPONSIBLE FOR       **PPTAXUIT
004100**                 CLOSING THE TAPE FILE AND PASSING BACK       **PPTAXUIT
004200**                 TOTALS FOR THE FILE AS A WHOLE TO THE        **PPTAXUIT
004300**                 CALLING PROGRAM.                             **PPTAXUIT
004400**                                                              **PPTAXUIT
004500******************************************************************PPTAXUIT
004600     EJECT                                                        PPTAXUIT
004700 ENVIRONMENT DIVISION.                                            PPTAXUIT
004800 CONFIGURATION SECTION.                                           PPTAXUIT
004900 SOURCE-COMPUTER.       COPY CPOTXUCS.                            PPTAXUIT
005000 OBJECT-COMPUTER.       COPY CPOTXOBJ.                            PPTAXUIT
005100     SKIP3                                                        PPTAXUIT
005200 INPUT-OUTPUT SECTION.                                            PPTAXUIT
005300 FILE-CONTROL.                                                    PPTAXUIT
005400     SKIP1                                                        PPTAXUIT
005500     SELECT STATE-UI-FILE ASSIGN TO UT-S-CALUI.                   PPTAXUIT
005600     EJECT                                                        PPTAXUIT
005700 DATA DIVISION.                                                   PPTAXUIT
005800 FILE SECTION.                                                    PPTAXUIT
005900     SKIP1                                                        PPTAXUIT
006000 FD  STATE-UI-FILE                                                PPTAXUIT
006100     LABEL RECORDS ARE STANDARD                                   PPTAXUIT
006200     RECORDING MODE IS F                                          PPTAXUIT
006300*****RECORD CONTAINS 275 CHARACTERS                               48571379
006310     RECORD CONTAINS 512 CHARACTERS                               48571379
006400     BLOCK CONTAINS 0 RECORDS                                     PPTAXUIT
006500     DATA RECORD IS STATE-UI-RECORD.                              PPTAXUIT
006600     SKIP1                                                        PPTAXUIT
006700*01  STATE-UI-RECORD      PIC X(275).                             48571379
006710 01  STATE-UI-RECORD      PIC X(512).                             48571379
006800     EJECT                                                        PPTAXUIT
006900 WORKING-STORAGE SECTION.                                         PPTAXUIT
007000 77  CALL-FLAG                        PIC 9  VALUE ZERO.          PPTAXUIT
007100     88  FIRST-CALL                          VALUE ZERO.          PPTAXUIT
007200     88  READY-FOR-EMPLOYEES                 VALUE 1.             PPTAXUIT
007300     88  FINAL-CALL-MADE                     VALUE 2.             PPTAXUIT
007400     SKIP1                                                        PPTAXUIT
007500 77  STATE-UI-RECORD-COUNTER          PIC S9(07) COMP VALUE ZERO. PPTAXUIT
007600 77  STATE-UI-EMPLOYEE-COUNTER        PIC S9(07) COMP VALUE ZERO. PPTAXUIT
007601 77  STATE-UI-QTR-MONTH-1-CT          PIC S9(07) COMP VALUE ZERO. 28531031
007602 77  STATE-UI-QTR-MONTH-2-CT          PIC S9(07) COMP VALUE ZERO. 28531031
007603 77  STATE-UI-QTR-MONTH-3-CT          PIC S9(07) COMP VALUE ZERO. 28531031
007610 77  WS-TOTAL-S-RECORD-COUNT          PIC S9(07) COMP VALUE ZERO. 17860963
007700 77  STATE-UI-TOTAL-WAGES             PIC S9(13)V99 COMP-3        PPTAXUIT
007800                                                    VALUE ZERO.   PPTAXUIT
007710 77  STATE-UI-TOTAL-CA-SWT            PIC S9(13)V99 COMP-3        17860963
007800                                                    VALUE ZERO.   17860963
007801 77  STATE-UI-TOTAL-CA-SWT-GRS        PIC S9(13)V99 COMP-3        34161098
007802                                                    VALUE ZERO.   34161098
007801 77  TOTAL-SUPRS-WAGES                PIC S9(13)V99 COMP-3        17860963
007802                                                    VALUE ZERO.   17860963
007803 77  TOTAL-SUPRS-CA-SWT               PIC S9(13)V99 COMP-3        17860963
007804                                                    VALUE ZERO.   17860963
007807 77  TOTAL-SUPRS-CA-SWT-GRS           PIC S9(13)V99 COMP-3        34161098
007808                                                    VALUE ZERO.   34161098
007810 77  STATE-UI-NONZERO-WAGES-COUNTER   PIC S9(07) COMP VALUE ZERO. 17860963
007820 77  STATE-UI-EMPL-CASWT-CT           PIC S9(07) COMP VALUE ZERO. 17860963
007900     EJECT                                                        PPTAXUIT
007822 01  WS-MISC.                                                     28531031
007823     05  WS-COUNT                    PIC S9(05) COMP  VALUE ZERO. 28531031
007824     05  WS-CAL-SUB                  PIC S9(08) COMP  VALUE ZERO. 34161098
007826     05  EMPLOYEE-INIT-COUNT-FLAG    PIC X(01)  VALUE SPACE.      34161098
007827         88  EMPLOYEE-IS-COUNTED                VALUE '1'.        34161098
007828         88  EMPLOYEE-NOT-ALREADY-COUNTED       VALUE '2'.        34161098
007829     05  CAL-ENTRY-FOUND-SW          PIC X(01)  VALUE SPACE.      34161098
007830         88  CAL-ENTRY-NOT-FOUND                VALUE '1'.        34161098
007831         88  CAL-ENTRY-FOUND                    VALUE '2'.        34161098
007830 01  WS-EMPLOYEE-ID                  PIC X(09).                   28531031
007831 01  WS-DATES.                                                    28531031
007840     05  WS-ISO-12TH-DAY-OF-MONTH    PIC X(10) VALUE '0001-01-01'.34161098
007841     05  WS-ISO-LAST-DAY-OF-MONTH    PIC X(10) VALUE '0001-01-01'.34161098
007840     05  WS-ISO-BEG-1ST-MONTH-QTR    PIC X(10) VALUE '0001-01-01'.28531031
007850     05  WS-ISO-BEG-2ND-MONTH-QTR    PIC X(10) VALUE '0001-01-01'.28531031
007860     05  WS-ISO-BEG-3RD-MONTH-QTR    PIC X(10) VALUE '0001-01-01'.28531031
007870     05  WS-ISO-END-1ST-MONTH-QTR    PIC X(10) VALUE '0001-01-01'.28531031
007880     05  WS-ISO-END-2ND-MONTH-QTR    PIC X(10) VALUE '0001-01-01'.28531031
007890     05  WS-ISO-END-3RD-MONTH-QTR    PIC X(10) VALUE '0001-01-01'.28531031
007892     05  WS-ISO-PAR-PAY-END-DATE     PIC X(10) VALUE '0001-01-01'.34161098
007893     05  WS-ISO-PAY-BEGIN-DATE       PIC X(10) VALUE '0001-01-01'.34161098
007894     05  WS-PAY-END-DATE-YYMMDD      PIC 9(06) VALUE ZERO.        34161098
007900     EJECT                                                        28531031
007910 01  DATE-CONVERSION-WORK-AREAS.      COPY CPWSXDC3.              28531031
007911     SKIP1                                                        28531031
007913 01  CALENDAR-LINKAGE.                COPY CPLNKCAL.              34161098
007914     SKIP1                                                        34161098
007912 01  PPDB2MSG-INTERFACE.              COPY CPLNKDB2.              28531031
007920     EJECT                                                        28531031
008000******************************************************************PPTAXUIT
008100**               TAX TAPE RECORD LAYOUTS                        **PPTAXUIT
008200******************************************************************PPTAXUIT
008300     SKIP1                                                        PPTAXUIT
008400 01  TXTP-TAX-REPORTING-RECORDS.  COPY CPWSTXTP.                  PPTAXUIT
008500     EJECT                                                        PPTAXUIT
008600******************************************************************PPTAXUIT
008700**                   TAX CONSTANTS                              **PPTAXUIT
008800******************************************************************PPTAXUIT
008900     SKIP1                                                        PPTAXUIT
009000 01  TAX-REPORTING-CONSTANTS.         COPY CPWSXTRC.              PPTAXUIT
009100     EJECT                                                        PPTAXUIT
009002******************************************************************28531031
009003**           SQL WORKING STORAGE                                **28531031
009004******************************************************************28531031
009005     EXEC SQL                                                     28531031
009006          INCLUDE SQLCA                                           28531031
009007     END-EXEC.                                                    28531031
009009     SKIP1                                                        28531031
009010 01  DCLPPPVEUD1-EUD.                                             28531031
009100     EXEC SQL                                                     28531031
009110          INCLUDE PPPVEUD1                                        28531031
009120     END-EXEC.                                                    28531031
009121*                                                                 34161098
009122     EXEC SQL                                                     34161098
009123          DECLARE MONTH_IN_QTR_ROW CURSOR FOR                     34161098
009124              SELECT EMPLOYEE_ID, PAY_CYCLE_END_DATE,             34161098
009125                     PAY_CYCLE_CODE                               34161098
009126              FROM PPPVEUD1_EUD                                   34161098
009127              WHERE  SWT_GROSS > 0                                34161098
009129                AND  PAR_UI_ELIG_CODE = 'C'                       34161098
009130                AND  PAY_CYCLE_END_DATE                           34161098
009131                                 >= :WS-ISO-12TH-DAY-OF-MONTH     34161098
009132                AND  PAY_CYCLE_END_DATE                           34161098
009133                                 <= :WS-ISO-LAST-DAY-OF-MONTH     34161098
009134                AND  RECORD_TYPE ^= '65'                          34161098
009135              ORDER BY EMPLOYEE_ID                                34161098
009136     END-EXEC.                                                    34161098
009137*                                                                 34161098
009121     SKIP2                                                        28531031
009160     EJECT                                                        28531031
009200 LINKAGE SECTION.                                                 PPTAXUIT
009300     SKIP1                                                        PPTAXUIT
009400 01  PPTAXUIT-INTERFACE.              COPY CPLNKUIT.              PPTAXUIT
009500    SKIP1                                                         PPTAXUIT
009600 01  TXUI-EXTRACT-RECORD.             COPY CPWSTXUI.              PPTAXUIT
009700     EJECT                                                        PPTAXUIT
009800 PROCEDURE DIVISION USING PPTAXUIT-INTERFACE,                     PPTAXUIT
009900                          TXUI-EXTRACT-RECORD.                    PPTAXUIT
009910     EXEC SQL                                                     28531031
009920          INCLUDE CPPDXE99                                        28531031
009930     END-EXEC.                                                    28531031
010000 00000-MAIN SECTION.                                              PPTAXUIT
010100 00000-ENTRY.                                                     PPTAXUIT
010200     SKIP1                                                        PPTAXUIT
010300******************************************************************PPTAXUIT
010400**  THIS SECTION CONTROLS ALL PROCESS FLOW.                     **PPTAXUIT
010500******************************************************************PPTAXUIT
010600     SKIP1                                                        PPTAXUIT
010700     MOVE ZERO TO UIT-RETURN-FLAG.                                PPTAXUIT
010800     SKIP1                                                        PPTAXUIT
010900     IF UIT-EMPLOYEE-CALL                                         PPTAXUIT
011000         IF READY-FOR-EMPLOYEES                                   PPTAXUIT
011100             PERFORM 10000-EMPLOYEE-RECORD                        PPTAXUIT
011200         ELSE                                                     PPTAXUIT
011300*------------> FINAL CALL ALREADY MADE/INITIAL CALL NEVER MADE    PPTAXUIT
011400             MOVE 2 TO UIT-RETURN-FLAG                            PPTAXUIT
011500     ELSE                                                         PPTAXUIT
011600     IF UIT-INITIAL-CALL                                          PPTAXUIT
011700         IF FIRST-CALL                                            PPTAXUIT
011800             PERFORM 20000-INIT-UI-FILE                           PPTAXUIT
011900             MOVE 1 TO CALL-FLAG                                  PPTAXUIT
012000         ELSE                                                     PPTAXUIT
012100*------------> INITIAL CALL ALREADY MADE/FINAL CALL MADE          PPTAXUIT
012200             MOVE 2 TO UIT-RETURN-FLAG                            PPTAXUIT
012300     ELSE                                                         PPTAXUIT
012400     IF UIT-FINAL-CALL                                            PPTAXUIT
012500         IF READY-FOR-EMPLOYEES                                   PPTAXUIT
012600             IF STATE-UI-EMPLOYEE-COUNTER = ZERO                  PPTAXUIT
012700*----------------> WE HAVEN'T PROCESSED ANY EMPLOYEES             PPTAXUIT
012800                 MOVE 3 TO UIT-RETURN-FLAG                        PPTAXUIT
012900             ELSE                                                 PPTAXUIT
013000                 PERFORM 30000-FINISH-UI-FILE                     PPTAXUIT
013100                 MOVE 2 TO CALL-FLAG                              PPTAXUIT
013200         ELSE                                                     PPTAXUIT
013300*------------> FIRST CALL NEVER MADE/FINAL CALL ALREADY MADE      PPTAXUIT
013400             MOVE 2 TO UIT-RETURN-FLAG                            PPTAXUIT
013500     ELSE                                                         PPTAXUIT
013600*--------> UNRECOGNIZED CALL TYPE                                 PPTAXUIT
013700         MOVE 2 TO UIT-RETURN-FLAG.                               PPTAXUIT
013800     SKIP1                                                        PPTAXUIT
013900     GOBACK.                                                      PPTAXUIT
014000     EJECT                                                        PPTAXUIT
014100 10000-EMPLOYEE-RECORD SECTION.                                   PPTAXUIT
014200 10000-ENTRY.                                                     PPTAXUIT
014300     SKIP1                                                        PPTAXUIT
014400     PERFORM 11000-BUILD-S-RECORD.                                PPTAXUIT
014420*****                                                          CD 48571379
014500     SKIP1                                                        PPTAXUIT
014600     GO TO 19999-EXIT.                                            PPTAXUIT
014700     EJECT                                                        PPTAXUIT
014800 11000-BUILD-S-RECORD.                                            PPTAXUIT
014900     SKIP1                                                        PPTAXUIT
014902*****IF TXUI-EMP-SSN = SPACES OR ZEROES                           48571379
014903*****    MOVE 'I' TO S-EMPLOYEE-SSN                               48571379
014904*****ELSE                                                         48571379
014905*****    MOVE TXUI-EMP-SSN TO S-EMPLOYEE-SSN                      48571379
014906*****END-IF.                                                      48571379
014907*****SKIP1                                                        48571379
014908*****MOVE TXUI-EMP-NAME TO S-EMPLOYEE-NAME.                       48571379
014909*****SKIP1                                                        48571379
014910*****IF   TXUI-EMP-QTD-WAGES < ZERO                               48571379
014911*****     ADD TXUI-EMP-QTD-WAGES TO TOTAL-SUPRS-WAGES             48571379
014912*****     MOVE  ZERO  TO  TXUI-EMP-QTD-WAGES                      48571379
014913*****END-IF.                                                      48571379
014914*****                                                          CD 48571379
014919*****IF  TXUI-EMP-QTD-CA-SWT < ZERO                               48571379
014920*****    ADD TXUI-EMP-QTD-CA-SWT TO TOTAL-SUPRS-CA-SWT            48571379
014921*****    MOVE  ZERO  TO  TXUI-EMP-QTD-CA-SWT                      48571379
014922*****END-IF.                                                      48571379
014923*****IF  TXUI-EMP-QTD-CA-SWT-GRS < ZERO                           48571379
014924*****    ADD TXUI-EMP-QTD-CA-SWT-GRS TO TOTAL-SUPRS-CA-SWT-GRS    48571379
014925*****    MOVE  ZERO  TO  TXUI-EMP-QTD-CA-SWT-GRS                  48571379
014926*****END-IF.                                                      48571379
014927*****MOVE TXUI-EMP-QTD-WAGES TO S-EMPLOYEE-UI-WAGES.              48571379
014928*****MOVE TXUI-EMP-QTD-CA-SWT TO S-EMPLOYEE-QUARTERLY-SWT-TAX.    48571379
014929*****MOVE TXUI-EMP-QTD-CA-SWT-GRS TO S-EMPLOYEE-QUARTERLY-SWT-GRS.48571379
014930*****MOVE SPACES TO S-WAGE-PLAN.                                  48571379
014931*****                                                          CD 48571379
014933*****IF  TXUI-EMP-QTD-WAGES >  ZERO                               48571379
014934*****    MOVE 'A' TO S-WAGE-PLAN                                  48571379
014935*****ELSE                                                         48571379
014936*****    MOVE 'P' TO S-WAGE-PLAN                                  48571379
014937*****END-IF.                                                      48571379
014938*****SKIP1                                                        48571379
014939*****WRITE STATE-UI-RECORD FROM S-RECORD.                         48571379
014940*****ADD 1 TO STATE-UI-RECORD-COUNTER.                            48571379
014941*****ADD 1 TO WS-TOTAL-S-RECORD-COUNT.                            48571379
014942*****SKIP1                                                        48571379
014943*****ADD 1 TO STATE-UI-EMPLOYEE-COUNTER.                          48571379
014944*****ADD TXUI-EMP-QTD-WAGES TO STATE-UI-TOTAL-WAGES.              48571379
014945*****ADD TXUI-EMP-QTD-CA-SWT TO STATE-UI-TOTAL-CA-SWT.            48571379
014946*****ADD TXUI-EMP-QTD-CA-SWT-GRS TO STATE-UI-TOTAL-CA-SWT-GRS.    48571379
014947*****IF  TXUI-EMP-QTD-WAGES  = ZERO                               48571379
014948*****    IF TXUI-EMP-QTD-CA-SWT NOT = ZERO                        48571379
014949*****    OR TXUI-EMP-QTD-CA-SWT-GRS NOT = ZERO                    48571379
014950*****       ADD 1 TO STATE-UI-EMPL-CASWT-CT                       48571379
014951*****    END-IF                                                   48571379
014952*****ELSE                                                         48571379
014953*****    ADD 1 TO STATE-UI-NONZERO-WAGES-COUNTER                  48571379
014954*****END-IF.                                                      48571379
014955*----> INITIALIZE THE ANNUAL REPORTING FIELDS; NOT APPLICABLE     48571379
014956*----> TO QUARTERLY UI REPORTING.                                 48571379
014957     MOVE SPACES TO RS-ANNUAL-FIELDS-1                            48571379
014958                    RS-ANNUAL-FIELDS-2.                           48571379
014960                                                                  48571379
015000     IF TXUI-EMP-SSN = SPACES OR ZEROES                           48571379
015110         MOVE 'I' TO RS-EMPLOYEE-SSN                              48571379
015200     ELSE                                                         48571379
015310         MOVE TXUI-EMP-SSN TO RS-EMPLOYEE-SSN                     48571379
015400     END-IF.                                                      48571379
015500     SKIP1                                                        48571379
015610     MOVE TXUI-EMP-FIRST-NAME TO RS-EMPLOYEE-FIRST-NAME.          48571379
015620     MOVE TXUI-EMP-MIDDLE-NAME TO RS-EMPLOYEE-MIDDLE-NAME.        48571379
015630     MOVE TXUI-EMP-LAST-NAME TO RS-EMPLOYEE-LAST-NAME.            48571379
015660                                                                  48571379
015800     IF   TXUI-EMP-QTD-WAGES < ZERO                               48571379
015801          ADD TXUI-EMP-QTD-WAGES TO TOTAL-SUPRS-WAGES             48571379
015802          MOVE  ZERO  TO  TXUI-EMP-QTD-WAGES                      48571379
015804     END-IF.                                                      48571379
015811     IF  TXUI-EMP-QTD-CA-SWT < ZERO                               48571379
015812         ADD TXUI-EMP-QTD-CA-SWT TO TOTAL-SUPRS-CA-SWT            48571379
015813         MOVE  ZERO  TO  TXUI-EMP-QTD-CA-SWT                      48571379
015814     END-IF.                                                      48571379
015815     IF  TXUI-EMP-QTD-CA-SWT-GRS < ZERO                           48571379
015816         ADD TXUI-EMP-QTD-CA-SWT-GRS TO TOTAL-SUPRS-CA-SWT-GRS    48571379
015817         MOVE  ZERO  TO  TXUI-EMP-QTD-CA-SWT-GRS                  48571379
015818     END-IF.                                                      48571379
015819                                                                  48571379
015820     MOVE TXUI-EMP-QTD-WAGES TO RS-EMPLOYEE-UI-WAGES.             48571379
015821     MOVE TXUI-EMP-QTD-CA-SWT TO RS-EMPLOYEE-QUARTERLY-SWT-TAX.   48571379
015822     MOVE TXUI-EMP-QTD-CA-SWT-GRS                                 48571379
015823                              TO RS-EMPLOYEE-QUARTERLY-SWT-GRS.   48571379
015824                                                                  48571379
015830     MOVE SPACES TO RS-WAGE-PLAN.                                 48571379
015861     IF  TXUI-EMP-QTD-WAGES >  ZERO                               48571379
015862         MOVE 'A' TO RS-WAGE-PLAN                                 48571379
015863     ELSE                                                         48571379
015880         MOVE 'P' TO RS-WAGE-PLAN                                 48571379
015892     END-IF.                                                      48571379
015900                                                                  48571379
016000     WRITE STATE-UI-RECORD FROM RS-RECORD.                        48571379
016100     ADD 1 TO STATE-UI-RECORD-COUNTER.                            48571379
016110     ADD 1 TO WS-TOTAL-S-RECORD-COUNT.                            48571379
016200                                                                  48571379
016300     ADD 1 TO STATE-UI-EMPLOYEE-COUNTER.                          48571379
016400     ADD TXUI-EMP-QTD-WAGES TO STATE-UI-TOTAL-WAGES.              48571379
016410     ADD TXUI-EMP-QTD-CA-SWT TO STATE-UI-TOTAL-CA-SWT.            48571379
016411     ADD TXUI-EMP-QTD-CA-SWT-GRS TO STATE-UI-TOTAL-CA-SWT-GRS.    48571379
016412                                                                  48571379
016414     IF  TXUI-EMP-QTD-WAGES  = ZERO                               48571379
016415         IF TXUI-EMP-QTD-CA-SWT NOT = ZERO                        48571379
016416         OR TXUI-EMP-QTD-CA-SWT-GRS NOT = ZERO                    48571379
016417            ADD 1 TO STATE-UI-EMPL-CASWT-CT                       48571379
016418         END-IF                                                   48571379
016419     ELSE                                                         48571379
016420         ADD 1 TO STATE-UI-NONZERO-WAGES-COUNTER                  48571379
016421     END-IF.                                                      48571379
016422                                                                  48571379
016430     EJECT                                                        28531031
016440 12000-UI-EARNINGS-TEST.                                          28531031
016450     SKIP1                                                        28531031
016454     PERFORM 12010-PROCESS-MONTH-1-OF-QTR.                        34161098
016455     PERFORM 12020-PROCESS-MONTH-2-OF-QTR.                        34161098
016456     PERFORM 12030-PROCESS-MONTH-3-OF-QTR.                        34161098
016476                                                                  34161098
016477*****                                                          CD 48571379
016530 12010-PROCESS-MONTH-1-OF-QTR.                                    34161098
016531                                                                  34161098
016532     MOVE ZERO TO  WS-COUNT.                                      34161098
016533     MOVE WS-ISO-BEG-1ST-MONTH-QTR TO WS-ISO-12TH-DAY-OF-MONTH.   34161098
016534     MOVE WS-ISO-END-1ST-MONTH-QTR                                34161098
016535                                   TO WS-ISO-LAST-DAY-OF-MONTH.   34161098
016536     MOVE 'OPEN PAR ROW' TO DB2MSG-TAG.                           34161098
016537     EXEC SQL                                                     34161098
016538          OPEN MONTH_IN_QTR_ROW                                   34161098
016539     END-EXEC.                                                    34161098
016540     IF SQLCODE = ZERO                                            34161098
016541        PERFORM 12100-FETCH-PAR-RECORD                            34161098
016542        PERFORM 12200-PROCESS-PAR-RECORD                          34161098
016543            UNTIL SQLCODE NOT = ZERO                              34161098
016544        MOVE 'CLOSE PAR ROW' TO DB2MSG-TAG                        34161098
016545        EXEC SQL                                                  34161098
016546             CLOSE MONTH_IN_QTR_ROW                               34161098
016547        END-EXEC                                                  34161098
016548     END-IF.                                                      34161098
016549     SKIP1                                                        34161098
016550     MOVE  WS-COUNT TO STATE-UI-QTR-MONTH-1-CT.                   34161098
016554     SKIP2                                                        34161098
016560 12020-PROCESS-MONTH-2-OF-QTR.                                    34161098
016561                                                                  34161098
016562     MOVE ZERO TO  WS-COUNT.                                      34161098
016563     MOVE WS-ISO-BEG-2ND-MONTH-QTR TO WS-ISO-12TH-DAY-OF-MONTH.   34161098
016564     MOVE WS-ISO-END-2ND-MONTH-QTR                                34161098
016565                                   TO WS-ISO-LAST-DAY-OF-MONTH.   34161098
016566     EXEC SQL                                                     34161098
016567          OPEN MONTH_IN_QTR_ROW                                   34161098
016568     END-EXEC.                                                    34161098
016569     MOVE 'OPEN PAR ROW' TO DB2MSG-TAG.                           34161098
016570     IF SQLCODE = ZERO                                            34161098
016571        PERFORM 12100-FETCH-PAR-RECORD                            34161098
016572        PERFORM 12200-PROCESS-PAR-RECORD                          34161098
016573            UNTIL SQLCODE NOT = ZERO                              34161098
016574        MOVE 'CLOSE PAR ROW' TO DB2MSG-TAG                        34161098
016575        EXEC SQL                                                  34161098
016576             CLOSE MONTH_IN_QTR_ROW                               34161098
016577        END-EXEC                                                  34161098
016578     END-IF.                                                      34161098
016579     SKIP1                                                        34161098
016580     MOVE  WS-COUNT TO STATE-UI-QTR-MONTH-2-CT.                   34161098
016584     SKIP2                                                        34161098
016585 12030-PROCESS-MONTH-3-OF-QTR.                                    34161098
016586                                                                  34161098
016587     MOVE ZERO TO  WS-COUNT.                                      34161098
016588     MOVE WS-ISO-BEG-3RD-MONTH-QTR TO WS-ISO-12TH-DAY-OF-MONTH.   34161098
016589     MOVE WS-ISO-END-3RD-MONTH-QTR                                34161098
016590                                   TO WS-ISO-LAST-DAY-OF-MONTH.   34161098
016595     MOVE 'OPEN PAR ROW' TO DB2MSG-TAG.                           34161098
016596     EXEC SQL                                                     34161098
016597          OPEN MONTH_IN_QTR_ROW                                   34161098
016598     END-EXEC.                                                    34161098
016599     IF SQLCODE = ZERO                                            34161098
016600        PERFORM 12100-FETCH-PAR-RECORD                            34161098
016601        PERFORM 12200-PROCESS-PAR-RECORD                          34161098
016602            UNTIL SQLCODE NOT = ZERO                              34161098
016603        MOVE 'CLOSE PAR ROW' TO DB2MSG-TAG                        34161098
016604        EXEC SQL                                                  34161098
016605             CLOSE MONTH_IN_QTR_ROW                               34161098
016606        END-EXEC                                                  34161098
016607     END-IF.                                                      34161098
016608     SKIP1                                                        34161098
016609     MOVE  WS-COUNT TO STATE-UI-QTR-MONTH-3-CT.                   34161098
016610     SKIP2                                                        34161098
016611 12100-FETCH-PAR-RECORD.                                          34161098
016612     SKIP1                                                        34161098
016613     MOVE 'FETCH PAR ROW' TO DB2MSG-TAG.                          34161098
016614     EXEC SQL                                                     34161098
016615         FETCH MONTH_IN_QTR_ROW INTO                              34161098
016616              :EMPLOYEE-ID                                        34161098
016617             ,:PAY-CYCLE-END-DATE                                 34161098
016618             ,:PAY-CYCLE-CODE                                     34161098
016619     END-EXEC.                                                    34161098
016620     IF SQLCODE = ZERO                                            34161098
016621        MOVE PAY-CYCLE-END-DATE TO WS-ISO-PAR-PAY-END-DATE        34161098
016624        IF EMPLOYEE-ID NOT = WS-EMPLOYEE-ID                       34161098
016625           MOVE '2' TO EMPLOYEE-INIT-COUNT-FLAG                   34161098
016626        END-IF                                                    34161098
016627     END-IF.                                                      34161098
016629     SKIP2                                                        34161098
016630 12200-PROCESS-PAR-RECORD.                                        34161098
016631     SKIP1                                                        34161098
016632     IF  PAY-CYCLE-CODE = ('MO' OR 'MA' OR 'XX')                  34161098
016633         IF EMPLOYEE-NOT-ALREADY-COUNTED                          34161098
016634            ADD 1 TO WS-COUNT                                     34161098
016635            SET EMPLOYEE-IS-COUNTED TO TRUE                       34161098
016636         END-IF                                                   34161098
016637     ELSE                                                         34161098
016638*--------> PAY CYCLE BEGIN DATE IS NEEDED FOR BW AND SM PAY CYCLES34161098
016639        IF WS-ISO-PAR-PAY-END-DATE (1:4)  NOT = KCAL-YEAR         34161098
016640        OR WS-ISO-PAR-PAY-END-DATE (6:2)  NOT = KCAL-MONTH        34161098
016641           MOVE WS-ISO-PAR-PAY-END-DATE (1:4) TO KCAL-YEAR        34161098
016642           MOVE WS-ISO-PAR-PAY-END-DATE (6:2) TO KCAL-MONTH       34161098
016643           CALL 'PPCALUTL' USING CALENDAR-LINKAGE                 34161098
016644        ELSE                                                      34161098
016645           CONTINUE                                               34161098
016646        END-IF                                                    34161098
016647        PERFORM 12300-FIND-ENTRY-ON-CALENDAR                      34161098
016648        IF CAL-ENTRY-FOUND                                        34161098
016649           IF WS-ISO-PAY-BEGIN-DATE <= WS-ISO-12TH-DAY-OF-MONTH   34161098
016650              IF WS-EMPLOYEE-ID NOT = EMPLOYEE-ID                 34161098
016651                 ADD 1 TO WS-COUNT                                34161098
016653                 SET EMPLOYEE-IS-COUNTED TO TRUE                  34161098
016654              ELSE                                                34161098
016655                 IF EMPLOYEE-NOT-ALREADY-COUNTED                  34161098
016656                    ADD 1 TO WS-COUNT                             34161098
016658                    SET EMPLOYEE-IS-COUNTED TO TRUE               34161098
016659                 END-IF                                           34161098
016660              END-IF                                              34161098
016661           END-IF                                                 34161098
016662        END-IF                                                    34161098
016663     END-IF.                                                      34161098
016664     SKIP1                                                        34161098
016665     MOVE EMPLOYEE-ID TO WS-EMPLOYEE-ID.                          34161098
016666     PERFORM 12100-FETCH-PAR-RECORD.                              34161098
016667     SKIP2                                                        34161098
016668 12300-FIND-ENTRY-ON-CALENDAR.                                    34161098
016669     SKIP1                                                        34161098
016670     MOVE PAY-CYCLE-END-DATE TO XDC3-ISO-DATE.                    34161098
016671     PERFORM XDC3-CONVERT-ISO-TO-STD.                             34161098
016672     MOVE XDC3-STD-DATE TO WS-PAY-END-DATE-YYMMDD.                34161098
016673     SET CAL-ENTRY-NOT-FOUND TO TRUE.                             34161098
016674     MOVE XDC3-HIGH-ISO-DATE  TO WS-ISO-PAY-BEGIN-DATE.           34161098
016675     IF KCAL-NORMAL-RETURN                                        34161098
016676        PERFORM VARYING WS-CAL-SUB                                34161098
016677            FROM 1 BY 1                                           34161098
016678            UNTIL WS-CAL-SUB >  KCAL-NUMBER-OF-PAY-CYCLES         34161098
016679                OR CAL-ENTRY-FOUND                                34161098
016680                IF (KCAL-CYCLE-TYPE (WS-CAL-SUB)                  34161098
016681                                     =  PAY-CYCLE-CODE)           34161098
016682                AND (KCAL-CYCLE-END-DATE (WS-CAL-SUB)             34161098
016683                                     =  WS-PAY-END-DATE-YYMMDD)   34161098
016684                   SET CAL-ENTRY-FOUND TO TRUE                    34161098
016685                   MOVE KCAL-CYCLE-BEGIN-DATE (WS-CAL-SUB)        34161098
016686                                       TO XDC3-STD-DATE           34161098
016687                   PERFORM XDC3-CONVERT-STD-TO-ISO                34161098
016688                   MOVE XDC3-ISO-DATE TO WS-ISO-PAY-BEGIN-DATE    34161098
016689                END-IF                                            34161098
016690        END-PERFORM                                               34161098
016691     ELSE                                                         34161098
016692        IF  KCAL-PREV-MONTH-NOT-FOUND OR                          34161098
016693            KCAL-NEXT-MONTH-NOT-FOUND OR                          34161098
016694            KCAL-MISMATCH-DATES       OR                          34161098
016695            KCAL-MONTH-NOT-FOUND                                  34161098
016696            CONTINUE                                              34161098
016697        ELSE                                                      34161098
016698           GO TO 999999-SQL-ERROR                                 34161098
016699        END-IF                                                    34161098
016700     END-IF.                                                      34161098
016500     SKIP3                                                        PPTAXUIT
016600 19999-EXIT.                                                      PPTAXUIT
016700     EXIT.                                                        PPTAXUIT
016800     EJECT                                                        PPTAXUIT
016900 20000-INIT-UI-FILE SECTION.                                      PPTAXUIT
017000 20000-ENTRY.                                                     PPTAXUIT
017100     SKIP1                                                        PPTAXUIT
017200     OPEN OUTPUT STATE-UI-FILE.                                   PPTAXUIT
017300     SKIP1.                                                       PPTAXUIT
017400     PERFORM 21000-BUILD-E-RECORD.                                PPTAXUIT
017500     SKIP1                                                        PPTAXUIT
017600     PERFORM 22000-INIT-S-RECORD.                                 PPTAXUIT
017700     SKIP1                                                        PPTAXUIT
017710     PERFORM 23000-INIT-ST-RECORD.                                17860963
017720     SKIP1                                                        17860963
017730     PERFORM 24000-INIT-MONTH-DATES.                              28531031
017740     SKIP1                                                        28531031
017800     GO TO 29999-EXIT.                                            PPTAXUIT
017900     EJECT                                                        PPTAXUIT
018000 21000-BUILD-E-RECORD.                                            PPTAXUIT
018100     SKIP1                                                        PPTAXUIT
018200*****MOVE SPACES TO E-PAYMENT-YEAR.                               48571379
018300*****MOVE SPACES TO E-EMPLOYER-ID-X.                              48571379
018400*****MOVE XTRC-EMPLOYER-NAME TO E-EMPLOYER-NAME.                  48571379
018500*****MOVE SPACES TO E-EMPLOYER-ADDRESS.                           48571379
018600*****MOVE SPACES TO E-EMPLOYER-CITY.                              48571379
018700*****MOVE SPACES TO E-EMPLOYER-STATE.                             48571379
018800*****MOVE SPACES TO E-EMPLOYER-ZIP-CODE.                          48571379
018900*****MOVE SPACE TO E-EMPLOYMENT-TYPE.                             48571379
019000*****SKIP1                                                        48571379
019100*****WRITE STATE-UI-RECORD FROM E-RECORD.                         48571379
019200*****ADD 1 TO STATE-UI-RECORD-COUNTER.                            48571379
019201                                                                  48571379
019202*---> THE FIELDS UNDER ANNUAL-FIELDS USED FOR ANNAUL W2 REPORTING,48571379
019203*---> AND MUST BE BLANKED OUT FOR QUARTERLY UI REPORTING          48571379
019204     MOVE SPACES TO RE-ANNUAL-FIELDS-1                            48571379
019205                    RE-ANNUAL-FIELDS-2.                           48571379
019206                                                                  48571379
019207     MOVE XTRC-EMPLOYER-NAME        TO RE-EMPLOYER-NAME.          48571379
019208     MOVE XTRC-EMPLOYER-ADDRESS-1   TO RE-EMPLOYER-ADDRESS-1.     48571379
019209     MOVE XTRC-EMPLOYER-ADDRESS-2   TO RE-EMPLOYER-ADDRESS-2.     48571379
019210     MOVE XTRC-EMPLOYER-CITY        TO RE-EMPLOYER-CITY.          48571379
019211     MOVE XTRC-EMPLOYER-STATE       TO RE-EMPLOYER-STATE.         48571379
019212     MOVE XTRC-EMPLOYER-ZIP         TO RE-EMPLOYER-ZIP.           48571379
019213     MOVE XTRC-EMPLOYER-ZIP-PLUS4   TO RE-EMPLOYER-ZIP-EXT.       48571379
019218     SKIP1                                                        48571379
019219     WRITE STATE-UI-RECORD FROM RE-RECORD.                        48571379
019220     ADD 1 TO STATE-UI-RECORD-COUNTER.                            48571379
019210     EJECT                                                        17860963
019220 21100-BUILD-ST-RECORD.                                           17860963
019230     SKIP1                                                        17860963
019240*****MOVE WS-TOTAL-S-RECORD-COUNT TO ST-TOTAL-S-RECORDS.          48571379
019250*****MOVE STATE-UI-TOTAL-WAGES  TO ST-TOTAL-UI-WAGES.             48571379
019260*****MOVE STATE-UI-TOTAL-CA-SWT TO ST-TOTAL-CA-SWT.               48571379
019261*****MOVE STATE-UI-TOTAL-CA-SWT-GRS TO ST-TOTAL-CA-SWT-GRS.       48571379
019291*****MOVE STATE-UI-QTR-MONTH-1-CT  TO  ST-TOTAL-SREC-MONTH1.      48571379
019292*****MOVE STATE-UI-QTR-MONTH-2-CT  TO  ST-TOTAL-SREC-MONTH2.      48571379
019293*****MOVE STATE-UI-QTR-MONTH-3-CT  TO  ST-TOTAL-SREC-MONTH3.      48571379
019297*****WRITE STATE-UI-RECORD FROM ST-RECORD.                        48571379
019298*****ADD 1 TO STATE-UI-RECORD-COUNTER.                            48571379
019299     MOVE WS-TOTAL-S-RECORD-COUNT   TO  RST-TOTAL-S-RECORDS.      48571379
019300     MOVE STATE-UI-TOTAL-WAGES      TO  RST-TOTAL-UI-WAGES.       48571379
019301     MOVE STATE-UI-TOTAL-CA-SWT     TO  RST-TOTAL-CA-SWT.         48571379
019302     MOVE STATE-UI-TOTAL-CA-SWT-GRS TO  RST-TOTAL-CA-SWT-GRS.     48571379
019303     MOVE STATE-UI-QTR-MONTH-1-CT   TO  RST-TOTAL-SREC-MONTH1.    48571379
019304     MOVE STATE-UI-QTR-MONTH-2-CT   TO  RST-TOTAL-SREC-MONTH2.    48571379
019305     MOVE STATE-UI-QTR-MONTH-3-CT   TO  RST-TOTAL-SREC-MONTH3.    48571379
019306     WRITE STATE-UI-RECORD FROM RST-RECORD.                       48571379
019307     ADD 1 TO STATE-UI-RECORD-COUNTER.                            48571379
019308                                                                  48571379
019300     EJECT                                                        PPTAXUIT
019400 22000-INIT-S-RECORD.                                             PPTAXUIT
019500     SKIP1                                                        PPTAXUIT
019600*----> THE FOLLOWING FIELDS ARE USED ONLY FOR ANNUAL W2 REPORTING PPTAXUIT
019700*----> AND MUST BE BLANKED OUT FOR QUARTERLY UI REPORTING         PPTAXUIT
019800     SKIP1                                                        PPTAXUIT
019900     MOVE SPACES TO RS-ANNUAL-FIELDS-1,                           48571379
020000                    RS-ANNUAL-FIELDS-2.                           48571379
020100                                                                  48571379
020200     MOVE UIT-MONTH TO RS-MONTH.                                  48571379
020300     MOVE UIT-YEAR  TO RS-YEAR.                                   48571379
020310     MOVE UIT-CC    TO RS-CENTURY.                                48571379
020400     MOVE XTRC-EMPLOYER-STATE-ID TO RS-EMPLOYER-STATE-ID.         48571379
020410                                                                  48571379
020500*****MOVE SPACES TO S-ANNUAL-FIELDS-1,                            48571379
020501*****               S-ANNUAL-FIELDS-2.                            48571379
020502*****SKIP1                                                        48571379
020503*****MOVE UIT-MONTH TO S-MONTH.                                   48571379
020504*****MOVE UIT-YEAR  TO S-YEAR.                                    48571379
020505*****MOVE UIT-CC    TO S-CENTURY.                                 48571379
020506*****MOVE XTRC-EMPLOYER-STATE-ID TO S-EMPLOYER-STATE-ID.          48571379
020501     EJECT                                                        17860963
020510 23000-INIT-ST-RECORD.                                            17860963
020520     SKIP1                                                        17860963
020530*****MOVE ZEROES  TO  ST-TOTAL-S-RECORDS                          48571379
020540*****                 ST-TOTAL-UI-WAGES                           48571379
020550*****                 ST-TOTAL-CA-SWT                             48571379
020551*****                 ST-TOTAL-CA-SWT-GRS                         48571379
020560*****                 ST-TOTAL-SREC-MONTH1                        48571379
020570*****                 ST-TOTAL-SREC-MONTH2                        48571379
020580*****                 ST-TOTAL-SREC-MONTH3.                       48571379
020581     MOVE ZEROES  TO  RST-TOTAL-S-RECORDS                         48571379
020582                      RST-TOTAL-UI-WAGES                          48571379
020583                      RST-TOTAL-CA-SWT                            48571379
020584                      RST-TOTAL-CA-SWT-GRS                        48571379
020585                      RST-TOTAL-SREC-MONTH1                       48571379
020586                      RST-TOTAL-SREC-MONTH2                       48571379
020587                      RST-TOTAL-SREC-MONTH3.                      48571379
020590     SKIP1                                                        17860963
020591     EJECT                                                        28531031
020592 24000-INIT-MONTH-DATES.                                          28531031
020593     SKIP1                                                        28531031
020594*----> FIND THE APPROPRIATE MONTH DATES IN THE QUARTER            28531031
020595*----> UIT-MONTH CONTAINS THE LAST MONTH OF THE APPROPRIATE QTR   28531031
020596*****                                                          CD 48571379
020600     MOVE UIT-MONTH TO XDC3-ISO-MM.                               48331267
020601     MOVE UIT-YEAR  TO XDC3-ISO-YY.                               48331267
020602     MOVE UIT-CC    TO XDC3-ISO-CC.                               48331267
020603     MOVE 01        TO XDC3-ISO-DD.                               48331267
020604     MOVE '-'       TO XDC3-ISO-ISO1                              48331267
020605                       XDC3-ISO-ISO2.                             48331267
020605     PERFORM XDC3-GET-END-OF-MONTH-DATE.                          28531031
020606     MOVE XDC3-ISO-DATE TO WS-ISO-END-3RD-MONTH-QTR.              28531031
020607*----> NOW FIND THE FIRST TWO MONTH DATES IN THE QUARTER          28531031
020608     MOVE WS-ISO-END-3RD-MONTH-QTR TO XDC3-ISO-DATE.              28531031
020609     SUBTRACT 1 FROM XDC3-ISO-MM.                                 28531031
020610     MOVE     1 TO   XDC3-ISO-DD.                                 28531031
020611     PERFORM XDC3-GET-END-OF-MONTH-DATE.                          28531031
020612     MOVE XDC3-ISO-DATE TO WS-ISO-END-2ND-MONTH-QTR.              28531031
020613     MOVE WS-ISO-END-2ND-MONTH-QTR TO XDC3-ISO-DATE.              28531031
020614     SUBTRACT 1 FROM XDC3-ISO-MM.                                 28531031
020615     MOVE     1 TO   XDC3-ISO-DD.                                 28531031
020616     PERFORM XDC3-GET-END-OF-MONTH-DATE.                          28531031
020617     MOVE XDC3-ISO-DATE TO WS-ISO-END-1ST-MONTH-QTR.              28531031
020618     SKIP1                                                        28531031
020619*----> SET THE BEGIN DATES FOR EACH OF THE 3 QUARTER MONTH DATES  28531031
020620     MOVE WS-ISO-END-1ST-MONTH-QTR TO WS-ISO-BEG-1ST-MONTH-QTR.   28531031
020621     MOVE WS-ISO-END-2ND-MONTH-QTR TO WS-ISO-BEG-2ND-MONTH-QTR.   28531031
020622     MOVE WS-ISO-END-3RD-MONTH-QTR TO WS-ISO-BEG-3RD-MONTH-QTR.   28531031
020623     SKIP1                                                        28531031
020624     MOVE 12  TO WS-ISO-BEG-3RD-MONTH-QTR (9:2)                   28531031
020625                 WS-ISO-BEG-2ND-MONTH-QTR (9:2)                   28531031
020626                 WS-ISO-BEG-1ST-MONTH-QTR (9:2).                  28531031
020627                                                                  28531031
020600 29999-EXIT.                                                      PPTAXUIT
020700     EXIT.                                                        PPTAXUIT
020800     EJECT                                                        PPTAXUIT
020900 30000-FINISH-UI-FILE SECTION.                                    PPTAXUIT
021000 30000-ENTRY.                                                     PPTAXUIT
021100     SKIP1                                                        PPTAXUIT
021200*----> ONE ST RECORD IS  REQUIRED AT END OF THE STATE TAPE        17860963
021201     PERFORM 12000-UI-EARNINGS-TEST.                              34161098
021210     PERFORM 21100-BUILD-ST-RECORD.                               17860963
021300     CLOSE STATE-UI-FILE.                                         PPTAXUIT
021400     SKIP1                                                        PPTAXUIT
021500*----> RETURN FINAL TOTALS TO THE CALLING PROGRAM                 PPTAXUIT
021600     MOVE 1 TO UIT-RETURN-FLAG.                                   PPTAXUIT
021700     MOVE STATE-UI-RECORD-COUNTER TO UIT-RETURN-FILE-COUNT.       PPTAXUIT
021800     MOVE STATE-UI-EMPLOYEE-COUNTER TO UIT-FINAL-EMPLOYEE-COUNT.  PPTAXUIT
021900     MOVE STATE-UI-TOTAL-WAGES TO UIT-FINAL-UI-WAGES.             PPTAXUIT
021910     MOVE STATE-UI-TOTAL-CA-SWT TO UIT-FINAL-CA-SWT.              17860963
021911     MOVE STATE-UI-TOTAL-CA-SWT-GRS TO UIT-FINAL-SWT-GRS.         34161098
021911     MOVE TOTAL-SUPRS-WAGES     TO UIT-FINAL-UI-WAGES-SUPRS.      17860963
021912     MOVE TOTAL-SUPRS-CA-SWT    TO UIT-FINAL-CA-SWT-SUPRS.        17860963
021914     MOVE TOTAL-SUPRS-CA-SWT-GRS TO UIT-FINAL-SWT-GRS-SUPRS.      34161098
021920     MOVE STATE-UI-NONZERO-WAGES-COUNTER                          17860963
021930                                 TO UIT-FINAL-EMPL-UI-CT.         17860963
021940     MOVE STATE-UI-EMPL-CASWT-CT                                  17860963
021950                                TO UIT-FINAL-EMPL-CASWT-CT.       17860963
021960     MOVE STATE-UI-QTR-MONTH-1-CT                                 28531031
021970                                TO UIT-FINAL-EMPL-UI-ERN-MONTH-1. 28531031
021980     MOVE STATE-UI-QTR-MONTH-2-CT                                 28531031
021990                                TO UIT-FINAL-EMPL-UI-ERN-MONTH-2. 28531031
021991     MOVE STATE-UI-QTR-MONTH-3-CT                                 28531031
021992                                TO UIT-FINAL-EMPL-UI-ERN-MONTH-3. 28531031
022000     SKIP3                                                        PPTAXUIT
022100 39999-EXIT.                                                      PPTAXUIT
022200     EXIT.                                                        PPTAXUIT
022210     EJECT                                                        28531031
022220*----------------------------------------------------------------*28531031
022230 90000-DATE-CONVERSION-DB2  SECTION.                              28531031
022240*----------------------------------------------------------------*28531031
022250                                                                  28531031
022260*                                                 *-------------* 28531031
022280                                                   COPY CPPDXDC3. 28531031
022290*                                                 *-------------* 28531031
022291                                                                  28531031
022300     EJECT                                                        28531031
022400*999999-SQL-ERROR.                                               *28531031
022500     COPY CPPDXP99.                                               28531031
022510*****                                                          CD 48571379
022610     IF KCAL-CALENDAR-READ-ERROR                                  34161098
022620        MOVE 5 TO UIT-RETURN-FLAG                                 34161098
022630     ELSE                                                         34161098
022640        MOVE 4 TO UIT-RETURN-FLAG                                 34161098
022650     END-IF.                                                      34161098
022700     GOBACK.                                                      28531031
