000100 IDENTIFICATION DIVISION.
000200 PROGRAM-ID.    SURPCNV1.
000300******************************************************************
000400*    TITLE ......... SSN CONVERSION - PIDS
000500*    LANGUAGE ...... COBOL II / BATCH / DB2
000600*    AUTHOR ........ H.VANDERWEIT
000700*    DATE-WRITTEN .. DECEMBER, 2003
000800*
000900* 1. FUNCTION:
001300*    THE PRIMARY PURPOSE OF THIS 1-TIME PROGRAM IS TO POPULATE
001400*    ALL EDB FIELDS REQUIRED TO SUPPORT THE BASE PPS SUREPAY
001500*    PROCESS FOR ONGOING OPERATIONS PAST THAT POINT.
001100*
001200* 2. FILES:
001300*    INPUT:   PARM INPUT FILE  (SEQ)
001400*             PPPVZPER_PER     (DB2)
001500*             PPPVZSPB_SPB     (DB2)
001600*
001700*    I/O:     PPPVZPAY_PAY     (DB2)
001800*             PPPVZPCM_PCM     (DB2)
001900*
002000*    OUTPUT:  AUDIT-FILE       (SEQ)
002100*
002200* 3. REPORTS: CRPT CONTROL REPORT
002300*
002400* 4. PROCESSING LOGIC:
002500*
003100*    READ THE PARM CARD TO GET THE SUREPAY PRENOTE CYCLE CODES,
003200*    CYCLE DATES, AND THE DB2 COMMIT COUNT.
002800*
002900*    PROCESS THE DB2 CURSOR TO RETRIEVE INFORMATION FOR ALL
003000*    EMPLOYEES FROM THE FOLLOWING TABLE(S):
003100*             PPPVZPER_PER
003200*             PPPVZPAY_PAY
003300*             PPPVZPCM_PCM
003400*
003500*    FOR EACH UNIQUE EMPLOYEE ID, DETERMINE CONVERSION UPDATES
003600*    BASED UPON EMPLOYEE STATUS, SUREPAY DISPO/VALID CODES, AND
003700*    MATCHING OF THE TRANSIT ROUTING NUMBER TO A BANK NUMBER.
003800*
003900*    IF UPDATES ARE NECESSARY, APPLY THEM TO THE PPPVZPCM_PCM
004000*    AND THE PPPVZPAY_PAY TABLES.
004100*
004200*    WRITE AN AUDIT RECORD CONTAINING PERTINENT INFORMATION FOR
004300*    EVERY EMPLOYEE.
004400******************************************************************
004500
004600******************************************************************
004700*                      MAINTENANCE HISTORY                       *
004800******************************************************************
004900*    MODIFIED BY .....                                           *
005000*    DATE MODIFIED ...                                           *
005100*    MODIFICATION ....                                           *
005200******************************************************************
005300/
005400 ENVIRONMENT DIVISION.
005500 INPUT-OUTPUT SECTION.
005600 FILE-CONTROL.
005700     SELECT PARM-FILE            ASSIGN PARM.
005800     SELECT AUDIT-FILE           ASSIGN AUDIT.
005900     SELECT CRPT-FILE            ASSIGN CNTLRPT.
006000
006100 DATA DIVISION.
006200 FILE SECTION.
006300
006400 FD  PARM-FILE
006500     RECORDING MODE F
006600     BLOCK CONTAINS 0 RECORDS
006700     LABEL RECORDS STANDARD.
006800 01  PARM-RECORD                 PIC X(80).
006900
007000 FD  AUDIT-FILE
007100     RECORDING MODE F
007200     BLOCK CONTAINS 0 RECORDS
007300     LABEL RECORDS STANDARD.
007400 01  AUDIT-RECORD                PIC X(180).
007500
007600 FD  CRPT-FILE
007700     RECORDING MODE F
007800     BLOCK CONTAINS 0 RECORDS
007900     LABEL RECORDS OMITTED.
008000 01  CRPT-RECORD                 PIC X(133).
008100/
008200 WORKING-STORAGE SECTION.
008300******************************************************************
008400*    MISCELLANEOUS WORK AREAS
008500******************************************************************
008600 01  FILLER                      PIC X(36)       VALUE
008700     'SURPCNV1 WORKING-STORAGE BEGINS HERE'.
008800
008900 01  WS-CONSTANTS.
009000     05  WS-THIS-PROGRAM         PIC X(08)       VALUE 'SURPCNV1'.
009100
009200 01  WS-ABEND-AREA.
009300     05  WS-ABEND-PARAGRAPH      PIC X(30)       VALUE SPACES.
009400     05  WS-ABEND-SQL-NBR        PIC S9(4)       VALUE ZEROES.
009500     05  WS-ABEND-CODE           PIC -999        VALUE ZEROES.
009600
009700 01  WS-DATE-AREA.
009800     05  WS-SYS-DATE.
009900         10  WS-SYS-DATE-CC      PIC 9(02)       VALUE ZEROES.
010000         10  WS-SYS-DATE-YYMMDD.
010100             15  WS-SYS-DATE-YY  PIC 9(02)       VALUE ZEROES.
010200             15  WS-SYS-DATE-MM  PIC 9(02)       VALUE ZEROES.
010300             15  WS-SYS-DATE-DD  PIC 9(02)       VALUE ZEROES.
010400     05  WS-SYSTEM-DATE          REDEFINES WS-SYS-DATE
010500                                 PIC 9(08).
010600     05  WS-RPT-DATE.
010700         10  WS-RPT-DATE-MM      PIC X(02)       VALUE SPACES.
010800         10  FILLER              PIC X(01)       VALUE '/'.
010900         10  WS-RPT-DATE-DD      PIC X(02)       VALUE SPACES.
011000         10  FILLER              PIC X(01)       VALUE '/'.
011100         10  WS-RPT-DATE-YY      PIC X(02)       VALUE SPACES.
011200
011300 01  WS-WORK-AREA.
011400     05  WS-EMPLOYEE-ID          PIC X(09)       VALUE SPACES.
011500     05  WS-SPB-BANK-NUMBER      PIC X(05)       VALUE SPACES.
011600     05  WS-COMMIT-COUNT         PIC 9(08)       VALUE ZEROES.
011700     05  WS-SET-CHECK-DELIVERY-COUNT
011800                                 PIC 9(08)       VALUE ZEROES.
011900     05  WS-SUREPAY-VALID-COUNT  PIC 9(08)       VALUE ZEROES.
012000     05  WS-SET-SUREPAY-PRENOTE-P-CNT
012100                                 PIC 9(08)       VALUE ZEROES.
012200     05  WS-SET-SUREPAY-PRENOTE-S-CNT
012300                                 PIC 9(08)       VALUE ZEROES.
012400     05  WS-ERR-STAT1-COUNT      PIC 9(08)       VALUE ZEROES.
012500     05  WS-ERR-STAT2-COUNT      PIC 9(08)       VALUE ZEROES.
012600     05  WS-ERR-STAT3-COUNT      PIC 9(08)       VALUE ZEROES.
012700/
012800******************************************************************
012900*    PARM INPUT RECORD AREA
013000******************************************************************
013100 01  PARM-COUNT                  PIC 9(08)       VALUE ZEROES.
013200 01  PARM-AREA.
013300     05  PARM-PROGRAM            PIC X(08)       VALUE SPACES.
013400     05  FILLER                  PIC X(01)       VALUE SPACES.
014000     05  PARM-SUREPAY-VALID.
014010         10  PARM-SURE-V-PRENOTE-CYCLE
014020                                 PIC X(02)       VALUE SPACES.
014100         10  FILLER              PIC X(01)       VALUE SPACES.
014200         10  PARM-SURE-V-CYCLEDATE
014210                                 PIC X(10)       VALUE SPACES.
013600     05  FILLER                  PIC X(01)       VALUE SPACES.
014310     05  PARM-SUREPAY-PRENOTE-S.
014320         10  PARM-SURE-S-PRENOTE-CYCLE
014330                                 PIC X(02)       VALUE SPACES.
014340         10  FILLER              PIC X(01)       VALUE SPACES.
014350         10  PARM-SURE-S-CYCLEDATE
014360                                 PIC X(10)       VALUE SPACES.
013800     05  FILLER                  PIC X(01)       VALUE SPACES.
013900     05  PARM-COMMIT-COUNT       PIC 9(06)       VALUE ZEROES.
014500     05  FILLER                  PIC X(37)       VALUE SPACES.
014100
014200******************************************************************
014300*    AUDIT RECORD AREA
014400******************************************************************
014500 01  AUDIT-COUNT                 PIC 9(08)       VALUE ZEROES.
014600 01  AUDIT-AREA.
014700     03  AUDT-CURSOR-FIELDS.
014800       05  AUDT-PPPPER-CURSOR-DATA.
014900         10  AUDT-EMPLOYEE-ID    PIC X(09)       VALUE SPACES.
015000         10  AUDT-EMP-NAME       PIC X(26)       VALUE SPACES.
015100         10  AUDT-HOME-DEPT      PIC X(06)       VALUE SPACES.
015200         10  AUDT-TIMEKEEP-DEPT  PIC X(06)       VALUE SPACES.
015300         10  AUDT-TIMEKEEP-SUB   PIC X(02)       VALUE SPACES.
015400         10  AUDT-EMP-STATUS     PIC X(01)       VALUE SPACES.
015500         10  AUDT-HIRE-DATE      PIC X(10)       VALUE SPACES.
015600         10  AUDT-SEPARATE-DATE  PIC X(10)       VALUE SPACES.
015700
015800       05  AUDT-PPPPAY-CURSOR-DATA.
015900         10  AUDT-SURE-CHECK-DISP
016000                                 PIC X(01)       VALUE SPACES.
016100         10  AUDT-SURE-MAILDROP  PIC X(07)       VALUE SPACES.
016200         10  AUDT-SURE-TRANSIT   PIC X(10)       VALUE SPACES.
016300         10  AUDT-SURE-VALID     PIC X(01)       VALUE SPACES.
016400         10  AUDT-SURE-ACCTNUM-B PIC X(17)       VALUE SPACES.
016500         10  AUDT-SURE-TYPEIND-B PIC X(01)       VALUE SPACES.
016600
016700       05  AUDT-PPPPCM-CURSOR-DATA.
016800         10  AUDT-PRI-PAY-SCHED  PIC X(02)       VALUE SPACES.
016900
017000     03  AUDT-UPDATE-FIELDS.
017100       05  AUDT-PPPPCM-UPDATE-DATA.
017200         10  AUDT-CHK-DISP-CODE  PIC X(01)       VALUE SPACES.
017300
017400       05  AUDT-PPPPAY-UPDATE-DATA.
017500         10  AUDT-SURE-BANK-KEY  PIC X(05)       VALUE SPACES.
017600         10  AUDT-SURE-PRENOTE-STAT
017700                                 PIC X(01)       VALUE SPACES.
017800         10  AUDT-SURE-CYCLEDATE PIC X(10)       VALUE SPACES.
017900         10  AUDT-SURE-ACTIVATE-CNT
018000                                 PIC 9(04)       VALUE ZEROES.
018100         10  AUDT-SURE-PRENOTE-CYCLE
018200                                 PIC X(02)       VALUE SPACES.
018300         10  AUDT-SURE-ACCTNUM-A PIC X(17)       VALUE SPACES.
018400         10  AUDT-SURE-TYPEIND-A PIC X(01)       VALUE SPACES.
018500
018600     03  AUDT-FLAG-FIELDS.
018700         05  AUDT-GET-BANK-KEY-STATUS
018800                                 PIC X(01)       VALUE SPACES.
018900         05  AUDT-STATUS-ERROR   PIC X(01)       VALUE SPACES.
018910         05  FILLER              PIC X(02)       VALUE SPACES.
019000
019001     03  AUDT-DECISION-FIELDS.
019010         05  AUDT-DCSN-STATUS    PIC X(01)       VALUE SPACES.
019011         05  FILLER              PIC X(01)       VALUE SPACES.
019020         05  AUDT-DCSN-CHECK-DISP
019030                                 PIC X(01)       VALUE SPACES.
019031         05  FILLER              PIC X(01)       VALUE SPACES.
019040         05  AUDT-DCSN-TRANSIT   PIC X(10)       VALUE SPACES.
019041         05  FILLER              PIC X(01)       VALUE SPACES.
019050         05  AUDT-DCSN-VALID     PIC X(01)       VALUE SPACES.
019060         05  FILLER              PIC X(01)       VALUE SPACES.
019070         05  AUDT-SET-UPDATE-CODE
019080                                 PIC X(01)       VALUE SPACES.
019100     03  FILLER                  PIC X(08)       VALUE SPACES.
019200/
019300******************************************************************
019400*    CONTROL REPORT AREA
019500******************************************************************
019600 01  DATE-CONV-COB2.             COPY WSDATEC2.
019700
019800 01  TIME-CONV-COB2.             COPY WSTIMEC2.
019900
020000 01  WHEN-COMP-CONV.             COPY WHENCMC2.
020100
020200 01  CRPT-COUNTERS.
020300     05  CRPT-PAGE-COUNT         PIC 9(03)       VALUE ZEROES.
020400     05  CRPT-LINE-COUNT         PIC 9(03)       VALUE 99.
020500
020600 01  CRPT-HEADING-1.
022000     05  FILLER                  PIC X(01)       VALUE SPACES.
020700     05  FILLER                  PIC X(08)       VALUE 'SURPCNV1'.
020800     05  FILLER                  PIC X(40)       VALUE SPACES.
020900     05  FILLER                  PIC X(35)       VALUE
021000         'UNIVERSITY OF CALIFORNIA, SAN DIEGO'.
021100     05  FILLER                  PIC X(35)       VALUE SPACES.
021200     05  CRPT-PAGE               PIC Z(04)       VALUE ZEROES.
021300     05  FILLER                  PIC X(10)       VALUE SPACES.
021400
021500 01  CRPT-HEADING-2.
023000     05  FILLER                  PIC X(01)       VALUE SPACES.
021600     05  FILLER                  PIC X(07)       VALUE 'RUN ON'.
021700     05  CRPT-RUN-DATE           PIC X(08)       VALUE SPACES.
021800     05  FILLER                  PIC X(04)       VALUE ' AT'.
021900     05  CRPT-RUN-TIME.
022000         10  CRPT-RUN-TIME-HH    PIC 9(02)       VALUE ZEROES.
022100         10  FILLER              PIC X(01)       VALUE ':'.
022200         10  CRPT-RUN-TIME-MM    PIC 9(02)       VALUE ZEROES.
022300         10  FILLER              PIC X(01)       VALUE ':'.
022400         10  CRPT-RUN-TIME-SS    PIC 9(02)       VALUE ZEROES.
024000     05  FILLER                  PIC X(22)       VALUE SPACES.
024100     05  FILLER                  PIC X(83)       VALUE
022700         ' BASE SUREPAY CONVERSION UPDATES '.
022800
022900 01  CRPT-HEADING-3.
024500     05  FILLER                  PIC X(01)       VALUE SPACES.
024600     05  FILLER                  PIC X(57)       VALUE SPACES.
023100     05  FILLER                  PIC X(14)       VALUE
023200         'CONTROL REPORT'.
024900     05  FILLER                  PIC X(61)       VALUE SPACES.
023400
025100 01  CRPT-DTL-LINE-133.
025200     05  FILLER                  PIC X(001)      VALUE SPACES.
025300     05  CRPT-DTL-LINE-1         PIC X(132)      VALUE SPACES.
023600/
023700******************************************************************
023800*    DB2 ERROR HANDLING WORK AREA
023900******************************************************************
024000
025900     EXEC SQL INCLUDE DB2ERRBW
026000     END-EXEC.
024300/
024400******************************************************************
024500*    SQL AREA AND TABLE DB2 TABLE DCLGENS
024600******************************************************************
024700
024800     EXEC SQL INCLUDE SQLCA
024900     END-EXEC.
025000/
025100 01  PPPVZPER-SQLAREA.
025200     05  FILLER                  PIC X(08)       VALUE 'PPPVZPER'.
025300     05  PER-FETCH-COUNT         PIC 9(08)       VALUE ZEROES.
025400     05  PER-BYP-COUNT           PIC 9(08)       VALUE ZEROES.
025500     05  PER-SQLCODE             PIC S9(9)       COMP-4
025600                                                 VALUE +0.
025700     05  PER-ROW-DATA.
025800         EXEC SQL
025900              INCLUDE PPPVZPER
026000         END-EXEC.
026100/
026200 01  PPPVZPAY-SQLAREA.
026300     05  FILLER                  PIC X(08)       VALUE 'PPPVZPAY'.
026400     05  PAY-UPDATE-COUNT        PIC 9(08)       VALUE ZEROES.
026500     05  PAY-SQLCODE             PIC S9(9)       COMP-4
026600                                                 VALUE +0.
026700     05  PAY-ROW-DATA.
026800         EXEC SQL
026900              INCLUDE PPPVZPAY
027000         END-EXEC.
027100/
027200 01  PPPVZPCM-SQLAREA.
027300     05  FILLER                  PIC X(08)       VALUE 'PPPVZPCM'.
027400     05  PCM-UPDATE-COUNT        PIC 9(08)       VALUE ZEROES.
027500     05  PCM-SQLCODE             PIC S9(9)       COMP-4
027600                                                 VALUE +0.
027700     05  PCM-ROW-DATA.
027800         EXEC SQL
027900              INCLUDE PPPVZPCM
028000         END-EXEC.
028100/
028200 01  PPPVZSPB-SQLAREA.
028300     05  FILLER                  PIC X(08)       VALUE 'PPPVZSPB'.
028400     05  SPB-FETCH-COUNT         PIC 9(08)       VALUE ZEROES.
028500     05  SPB-SQLCODE             PIC S9(9)       COMP-4
028600                                                 VALUE +0.
028700     05  SPB-ROW-DATA.
028800         EXEC SQL
028900              INCLUDE PPPVZSPB
029000         END-EXEC.
029100/
029200 PROCEDURE DIVISION.
029300/
029400 A0000-MAINLINE.
029500
029600******************************************************************
029700*    PERFORM THE PROGRAM'S MAINLINE FUNCTIONS.
029800******************************************************************
029900
030000     PERFORM A1000-INITIALIZATION.
030100
030200     PERFORM B1000-CONVERSION-PROCESS.
030300
030400     MOVE ZERO                   TO RETURN-CODE.
030500
030600     PERFORM A8000-FINALIZATION.
030700
030800     GOBACK.
030900/
031000 A1000-INITIALIZATION.
031100******************************************************************
031200*    OPEN FILES AND INITIALIZE WORKING STORAGE AREAS.
031300*    READ THE PARM INPUT FILE PARAMETER RECORD.
031400******************************************************************
031500
031600     MOVE 'A1000-INITIALIZATION' TO WS-ABEND-PARAGRAPH.
031700
031800     DISPLAY '>>>>  SURPCNV1 STARTING  <<<<'.
031900
032000     OPEN INPUT  PARM-FILE
032100          OUTPUT AUDIT-FILE
032200                 CRPT-FILE.
032300
032400     MOVE FUNCTION CURRENT-DATE(1:8)
032500                                 TO WS-SYS-DATE.
032600     MOVE WS-SYS-DATE-YY         TO WS-RPT-DATE-YY.
032700     MOVE WS-SYS-DATE-MM         TO WS-RPT-DATE-MM.
032800     MOVE WS-SYS-DATE-DD         TO WS-RPT-DATE-DD.
032900     MOVE WS-RPT-DATE            TO CRPT-RUN-DATE.
033000
033100     COPY PDTIMEC2.
033200
033300     MOVE TIME-HH                TO CRPT-RUN-TIME-HH.
033400     MOVE TIME-MM                TO CRPT-RUN-TIME-MM.
033500     MOVE TIME-SS                TO CRPT-RUN-TIME-SS.
033600
033700     MOVE WHEN-COMPILED          TO COMPILED-DATA.
033800     INSPECT COMPILED-DATA-TIME
033900             REPLACING ALL '.' BY ':'.
034000     STRING 'PROGRAM COMPILED '     COMPILED-DATA-DATE
034100            ' AT '                  COMPILED-DATA-TIME
034200             DELIMITED BY SIZE INTO CRPT-DTL-LINE-1.
034300
034400     PERFORM A9000-PRINT-CRPT-DETAIL.
034500
034600     PERFORM A2000-READ-PARM-FILE.
034700
037100     IF  PARM-PROGRAM              = WS-THIS-PROGRAM
037200     AND PARM-SURE-V-PRENOTE-CYCLE > SPACES
037300     AND PARM-SURE-V-CYCLEDATE     > SPACES
037310     AND PARM-SURE-S-PRENOTE-CYCLE > SPACES
037320     AND PARM-SURE-S-CYCLEDATE     > SPACES
035100         CONTINUE
035200     ELSE
035300         DISPLAY 'INVALID PARM RECORD'
035400         DISPLAY 'PARM RECORD = ' PARM-AREA
035500         GO TO Z9997-ABORT-PROGRAM
035600     END-IF.
035700
035800     IF PARM-COMMIT-COUNT IS NOT NUMERIC
035900         MOVE 1000               TO PARM-COMMIT-COUNT
036000     END-IF.
036100
036200     DISPLAY 'PARM COMMIT COUNT = ' PARM-COMMIT-COUNT.
036300/
036400 A2000-READ-PARM-FILE.
036500******************************************************************
036600*    READ THE PARM INPUT FILE.
036700******************************************************************
036800
036900     MOVE 'A2000-READ-PARM-FILE' TO WS-ABEND-PARAGRAPH.
037000
037100     READ PARM-FILE            INTO PARM-AREA
037200       AT END
037300         MOVE HIGH-VALUES        TO PARM-AREA
037400       NOT AT END
037500         ADD  1                  TO PARM-COUNT
037600     END-READ.
037700/
037800 A8000-FINALIZATION.
037900******************************************************************
038000*    REPORT/DISPLAY FINAL TOTALS AND CLOSE FILES.
038100******************************************************************
038200
038300     MOVE 'A8000-FINALIZATION'   TO WS-ABEND-PARAGRAPH.
038400
038500     COPY PDTIMEC2.
038600
038700     MOVE 'PROGRAM STATUS'       TO CRPT-DTL-LINE-1.
038800     PERFORM A9000-PRINT-CRPT-DETAIL.
038900
039000     MOVE SPACES                 TO CRPT-DTL-LINE-1.
039100     PERFORM A9000-PRINT-CRPT-DETAIL.
039200
039300     STRING 'NBR OF EMPLOYEES FETCHED (JOIN PER/PAY/PCM)    =>  '
039400             PER-FETCH-COUNT
039500             DELIMITED BY SIZE INTO CRPT-DTL-LINE-1.
039600     PERFORM A9000-PRINT-CRPT-DETAIL.
039700
039800     STRING 'NBR OF EMPLOYEES WRITTEN TO AUDIT FILE         =>  '
039900             AUDIT-COUNT
040000             DELIMITED BY SIZE INTO CRPT-DTL-LINE-1.
040100     PERFORM A9000-PRINT-CRPT-DETAIL.
040200
040300     STRING 'NBR OF EMPLOYEES BYPASSED FOR STATUS ERROR 1   =>  '
040400             WS-ERR-STAT1-COUNT
040500             DELIMITED BY SIZE INTO CRPT-DTL-LINE-1.
040600     PERFORM A9000-PRINT-CRPT-DETAIL.
040700
040800     STRING 'NBR OF EMPLOYEES BYPASSED FOR STATUS ERROR 2   =>  '
040900             WS-ERR-STAT2-COUNT
041000             DELIMITED BY SIZE INTO CRPT-DTL-LINE-1.
041100     PERFORM A9000-PRINT-CRPT-DETAIL.
041200
041300     STRING 'NBR OF EMPLOYEES BYPASSED FOR STATUS ERROR 3   =>  '
041400             WS-ERR-STAT3-COUNT
041500             DELIMITED BY SIZE INTO CRPT-DTL-LINE-1.
041600     PERFORM A9000-PRINT-CRPT-DETAIL.
041700
041800     MOVE SPACES                 TO CRPT-DTL-LINE-1.
041900     PERFORM A9000-PRINT-CRPT-DETAIL.
042000
042100     STRING 'NBR OF EMPLOYEES UPDATED ON PPPPAY TABLE       =>  '
042200             PAY-UPDATE-COUNT
042300             DELIMITED BY SIZE INTO CRPT-DTL-LINE-1.
042400     PERFORM A9000-PRINT-CRPT-DETAIL.
042500
042600     STRING 'NBR OF EMPLOYEES UPDATED ON PPPPCM TABLE       =>  '
042700             PCM-UPDATE-COUNT
042800             DELIMITED BY SIZE INTO CRPT-DTL-LINE-1.
042900     PERFORM A9000-PRINT-CRPT-DETAIL.
043000
043100     MOVE SPACES                 TO CRPT-DTL-LINE-1.
043200     PERFORM A9000-PRINT-CRPT-DETAIL.
043300
043400     STRING 'NBR OF EMPL UPDATES FOR SET-CHECK-DELIVERY     =>  '
043500             WS-SET-CHECK-DELIVERY-COUNT
043600             DELIMITED BY SIZE INTO CRPT-DTL-LINE-1.
043700     PERFORM A9000-PRINT-CRPT-DETAIL.
043800
043900     STRING 'NBR OF EMPL UPDATES FOR SET-SUREPAY-VALID      =>  '
044000             WS-SUREPAY-VALID-COUNT
044100             DELIMITED BY SIZE INTO CRPT-DTL-LINE-1.
044200     PERFORM A9000-PRINT-CRPT-DETAIL.
044300
044400     STRING 'NBR OF EMPL UPDATES FOR SET-SUREPAY-PRENOTE-P  =>  '
044500             WS-SET-SUREPAY-PRENOTE-P-CNT
044600             DELIMITED BY SIZE INTO CRPT-DTL-LINE-1.
044700     PERFORM A9000-PRINT-CRPT-DETAIL.
044800
044900     STRING 'NBR OF EMPL UPDATES FOR SET-SUREPAY-PRENOTE-S  =>  '
045000             WS-SET-SUREPAY-PRENOTE-S-CNT
045100             DELIMITED BY SIZE INTO CRPT-DTL-LINE-1.
045200     PERFORM A9000-PRINT-CRPT-DETAIL.
045300
045400     MOVE SPACES                 TO CRPT-DTL-LINE-1.
045500     PERFORM A9000-PRINT-CRPT-DETAIL.
045600
045700     IF RETURN-CODE = ZERO
045800         STRING 'PROGRAM HAS BEEN SUCCESSFULLY COMPLETED AT '
045900                 TIME-HH ':' TIME-MM
046000                 DELIMITED BY SIZE INTO CRPT-DTL-LINE-1
046100         PERFORM A9000-PRINT-CRPT-DETAIL
046200     ELSE
046300         STRING 'PROGRAM HAS BEEN ABNORMALLY TERMINATED FOR '
046400                'EMPLOYEE: ' WS-EMPLOYEE-ID
046500               ' *** SEE SYSOUT DISPLAYS ***'
046600                 DELIMITED BY SIZE INTO CRPT-DTL-LINE-1
046700         PERFORM A9000-PRINT-CRPT-DETAIL
046800
046900         MOVE 'UPDATES HAVE BACKED OUT TO LAST COMMIT POINT'
047000                                 TO CRPT-DTL-LINE-1
047100         PERFORM A9000-PRINT-CRPT-DETAIL
047200     END-IF.
047300
047400     MOVE SPACES                 TO CRPT-DTL-LINE-1.
047500     PERFORM A9000-PRINT-CRPT-DETAIL.
047600
047700     MOVE ALL 'END OF REPORT '   TO CRPT-DTL-LINE-1.
047800     PERFORM A9000-PRINT-CRPT-DETAIL.
047900
048000     CLOSE PARM-FILE
048100           AUDIT-FILE
048200           CRPT-FILE.
048300
048400     DISPLAY '>>>>  SURPCNV1 FINISHED  <<<<'.
048500/
048600 A9000-PRINT-CRPT-DETAIL.
048700******************************************************************
048800*    WRITE CONTROL REPORT DETAIL LINE.
048900******************************************************************
049000
049100     MOVE 'A9000-PRINT-CRPT-DETAIL' TO WS-ABEND-PARAGRAPH.
049200
049300     IF CRPT-LINE-COUNT > 55
049400         PERFORM A9500-PRINT-CRPT-HEADING
049500     END-IF.
049600
051500     WRITE CRPT-RECORD         FROM CRPT-DTL-LINE-133
049800                              AFTER ADVANCING 2.
049900
050000     MOVE SPACES                 TO CRPT-DTL-LINE-1.
050100     ADD  2                      TO CRPT-LINE-COUNT.
050200
050300
050400 A9500-PRINT-CRPT-HEADING.
050500******************************************************************
050600*    WRITE CONTROL REPORT PAGE HEADINGS.
050700******************************************************************
050800
050900     MOVE 'A9500-PRINT-CRPT-HEADING' TO WS-ABEND-PARAGRAPH.
051000
051100     ADD  1                      TO CRPT-PAGE-COUNT.
051200     MOVE CRPT-PAGE-COUNT        TO CRPT-PAGE.
051300
051400     WRITE CRPT-RECORD         FROM CRPT-HEADING-1
051500                              AFTER ADVANCING PAGE.
051600     WRITE CRPT-RECORD         FROM CRPT-HEADING-2
051700                              AFTER ADVANCING 1.
051800     WRITE CRPT-RECORD         FROM CRPT-HEADING-3
051900                              AFTER ADVANCING 1.
052000
052100     MOVE 3                      TO CRPT-LINE-COUNT.
052200/
052300 B1000-CONVERSION-PROCESS.
052400******************************************************************
052500*    PROCESS THE PERSON-CURSOR TO RETRIEVE THE IDS TO BE UPDATED.
052600******************************************************************
052700
052800     MOVE 'B1000-CONVERSION-PROCESS' TO WS-ABEND-PARAGRAPH.
052900
053000     PERFORM B2000-OPEN-PERSON-CURSOR.
053100
053200     PERFORM B2010-FETCH-PERSON-CURSOR.
053300
053400     PERFORM B3000-PROCESS-BY-EMPLOYEE-ID THRU B3000-EXIT
053500         UNTIL PER-SQLCODE = +100.
053600
053700     PERFORM B2020-CLOSE-PERSON-CURSOR.
053800/
053900 B2000-OPEN-PERSON-CURSOR.
054000******************************************************************
054100*    OPEN THE PERSON-CURSOR.
054200******************************************************************
054300
054400     MOVE 'B2000-OPEN-PERSON-CURSOR'  TO WS-ABEND-PARAGRAPH.
054500     MOVE  +2000                      TO WS-ABEND-SQL-NBR.
054600
054700     EXEC SQL
054800       DECLARE   PERSON-CURSOR CURSOR WITH HOLD FOR
054900         SELECT  PER.EMPLOYEE_ID
055000                ,PER.EMP_NAME
055100                ,PER.HOME_DEPT
055200                ,PER.TIMEKEEP_DEPT
055300                ,PER.TIMEKEEP_SUB
055400                ,PER.EMP_STATUS
055500                ,PER.HIRE_DATE
055600                ,PER.SEPARATE_DATE
055700                ,PAY.SURE_CHECK_DISP
055800                ,PAY.SURE_MAILDROP
055900                ,PAY.SURE_TRANSIT
056000                ,PAY.SURE_VALID
056100                ,PAY.SURE_ACCTNUM
056200                ,PAY.SURE_TYPEIND
056300                ,PCM.PRI_PAY_SCHED
056400           FROM  PPPVZPER_PER      PER
056500                ,PPPVZPAY_PAY      PAY
056600                ,PPPVZPCM_PCM      PCM
056700          WHERE  PER.EMPLOYEE_ID = PAY.EMPLOYEE_ID
056800            AND  PAY.EMPLOYEE_ID = PCM.EMPLOYEE_ID
056900          ORDER BY
057000                 PER.EMPLOYEE_ID
057100       FOR FETCH ONLY
057200     END-EXEC.
057300
057400     EXEC SQL
057500       OPEN PERSON-CURSOR
057600     END-EXEC.
057700
057800     MOVE SQLCODE                TO PER-SQLCODE.
057900
058000     EVALUATE SQLCODE
058100       WHEN +0
058200         CONTINUE
058300       WHEN OTHER
058400         GO TO Z9998-DB2-ERROR
058500     END-EVALUATE.
058600/
058700 B2010-FETCH-PERSON-CURSOR.
058800******************************************************************
058900*    GET THE NEXT ROW FOR PERSON-CURSOR.
059000******************************************************************
059100
059200     MOVE 'B2010-FETCH-PERSON-CURSOR' TO WS-ABEND-PARAGRAPH.
059300     MOVE  +2010                      TO WS-ABEND-SQL-NBR.
059400
059500     EXEC SQL
059600         FETCH   PERSON-CURSOR
059700          INTO  :WS-EMPLOYEE-ID
059800               ,:EMP-NAME
059900               ,:HOME-DEPT
060000               ,:TIMEKEEP-DEPT
060100               ,:TIMEKEEP-SUB
060200               ,:EMP-STATUS
060300               ,:HIRE-DATE
060400               ,:SEPARATE-DATE
060500               ,:SURE-CHECK-DISP
060600               ,:SURE-MAILDROP
060700               ,:SURE-TRANSIT
060800               ,:SURE-VALID
060900               ,:SURE-ACCTNUM
061000               ,:SURE-TYPEIND
061100               ,:PRI-PAY-SCHED
061200     END-EXEC.
061300
061400     MOVE SQLCODE                TO PER-SQLCODE.
061500
061600     EVALUATE SQLCODE
061700       WHEN +0
061800         ADD 1                   TO PER-FETCH-COUNT
061900       WHEN +100
062000         CONTINUE
062100       WHEN OTHER
062200         GO TO Z9998-DB2-ERROR
062300     END-EVALUATE.
062400/
062500 B2020-CLOSE-PERSON-CURSOR.
062600******************************************************************
062700*    CLOSE THE PERSON-CURSOR.
062800******************************************************************
062900
063000     MOVE 'B2020-CLOSE-PERSON-CURSOR' TO WS-ABEND-PARAGRAPH.
063100     MOVE  +2020                      TO WS-ABEND-SQL-NBR.
063200
063300     EXEC SQL
063400         CLOSE   PERSON-CURSOR
063500     END-EXEC.
063600
063700     MOVE SQLCODE                TO PER-SQLCODE.
063800
063900     EVALUATE SQLCODE
064000       WHEN +0
064100         CONTINUE
064200       WHEN OTHER
064300         GO TO Z9998-DB2-ERROR
064400     END-EVALUATE.
064500/
064600 B3000-PROCESS-BY-EMPLOYEE-ID.
064700******************************************************************
064800*    FOR EACH UNIQUE EMPLOYEE ID, DETERMINE CONVERSION UPDATES
064900*    BASED UPON EMPLOYEE STATUS, SUREPAY DISPO/VALID CODES, AND
065000*    MATCHING OF THE TRANSIT ROUTING NUMBER TO A BANK NUMBER.
065100*    WRITE AN AUDIT RECORD CONTAINING PERTINENT INFORMATION,
065200*    COMMIT UPDATES AT RECOMMENDED INTERVALS, AND RETRIEVE THE
065300*    ROW FOR THE NEXT EMPLOYEE.
065400******************************************************************
065500
065600     MOVE 'B3000-PROCESS-BY-EMPLOYEE-ID' TO WS-ABEND-PARAGRAPH.
065700
065800     INITIALIZE                     AUDIT-AREA.
065900     MOVE WS-EMPLOYEE-ID         TO AUDT-EMPLOYEE-ID.
066000     MOVE EMP-NAME               TO AUDT-EMP-NAME.
066100     MOVE HOME-DEPT              TO AUDT-HOME-DEPT.
066200     MOVE TIMEKEEP-DEPT          TO AUDT-TIMEKEEP-DEPT.
066300     MOVE TIMEKEEP-SUB           TO AUDT-TIMEKEEP-SUB.
066400     MOVE EMP-STATUS             TO AUDT-EMP-STATUS.
066500     MOVE HIRE-DATE              TO AUDT-HIRE-DATE.
066600     MOVE SEPARATE-DATE          TO AUDT-SEPARATE-DATE.
066700     MOVE SURE-CHECK-DISP        TO AUDT-SURE-CHECK-DISP.
066800     MOVE SURE-MAILDROP          TO AUDT-SURE-MAILDROP.
066900     MOVE SURE-TRANSIT           TO AUDT-SURE-TRANSIT.
067000     MOVE SURE-VALID             TO AUDT-SURE-VALID.
067100     MOVE SURE-ACCTNUM           TO AUDT-SURE-ACCTNUM-B.
067200     MOVE SURE-TYPEIND           TO AUDT-SURE-TYPEIND-B.
067300     MOVE PRI-PAY-SCHED          TO AUDT-PRI-PAY-SCHED.
067301
067302     MOVE EMP-STATUS             TO AUDT-DCSN-STATUS.
067303     MOVE SURE-CHECK-DISP        TO AUDT-DCSN-CHECK-DISP.
067304     MOVE SURE-TRANSIT           TO AUDT-DCSN-TRANSIT.
067305     MOVE SURE-VALID             TO AUDT-DCSN-VALID.
067306
067400     MOVE SPACES                 TO WS-SPB-BANK-NUMBER.
067500
067600     IF EMP-STATUS = 'S'
067700         PERFORM B4100-SET-CHECK-DELIVERY
067800     ELSE
067900         IF SURE-CHECK-DISP = '1'
068000             IF SURE-VALID  = 'V'
068100                 PERFORM B9000-GET-BANK-KEY
068200
068300                 IF AUDT-GET-BANK-KEY-STATUS = '0'
068400
068500                     PERFORM B4200-SET-SUREPAY-VALID
068600                 ELSE
068700                     PERFORM B4100-SET-CHECK-DELIVERY
068800                 END-IF
068900             ELSE
069000                 MOVE '1'        TO AUDT-STATUS-ERROR
069100                 ADD   1         TO WS-ERR-STAT1-COUNT
069200             END-IF
069300         ELSE
069400             IF SURE-CHECK-DISP = '2'
069500                 IF SURE-VALID  = 'V' OR 'P' OR 'S'
069600                     PERFORM B9000-GET-BANK-KEY
069700
069800                     IF AUDT-GET-BANK-KEY-STATUS = '0'
069900                         CONTINUE
070000                     ELSE
070100                         PERFORM B4100-SET-CHECK-DELIVERY
070200                         GO TO B3000-CONTINUE
070300                     END-IF
070400                 END-IF
070500
070600                 EVALUATE SURE-VALID
070700                   WHEN ' '
070800                     PERFORM B4100-SET-CHECK-DELIVERY
070900                   WHEN 'V'
071000                     PERFORM B4200-SET-SUREPAY-VALID
071100                   WHEN 'P'
071200                     PERFORM B4300-SET-SUREPAY-PRENOTE-P
071300                   WHEN 'S'
071400                     PERFORM B4400-SET-SUREPAY-PRENOTE-S
071500                   WHEN OTHER
071600                     MOVE '2'    TO AUDT-STATUS-ERROR
071700                     ADD   1     TO WS-ERR-STAT2-COUNT
071800                 END-EVALUATE
071900             ELSE
072000                 MOVE '3'        TO AUDT-STATUS-ERROR
072100                 ADD   1         TO WS-ERR-STAT3-COUNT
072200             END-IF
072300         END-IF
072400     END-IF.
072500
072600 B3000-CONTINUE.
072700
072800     IF WS-COMMIT-COUNT > PARM-COMMIT-COUNT
072900         PERFORM B7000-COMMIT-UPDATES
073000     END-IF.
073100
073200     ADD +1                      TO WS-COMMIT-COUNT.
073300
073400     PERFORM B8100-WRITE-AUDIT-RECORD.
073500
073600     PERFORM B2010-FETCH-PERSON-CURSOR.
073700
073800 B3000-EXIT.
073900     EXIT.
074000/
074100 B4100-SET-CHECK-DELIVERY.
074200******************************************************************
074300*    APPLY PPPPCM AND PPPPAY UPDATES TO TURN OFF SUREPAY STATUS
074400*    AND CHANGE TO CHECK DELIVERY.
074500******************************************************************
074600
074700     MOVE 'B4100-SET-CHECK-DELIVERY' TO WS-ABEND-PARAGRAPH.
074800
074810     MOVE '1'                    TO AUDT-SET-UPDATE-CODE.
074900     ADD   1                     TO WS-SET-CHECK-DELIVERY-COUNT.
075000
075100     MOVE '3'                    TO CHK-DISP-CODE.
075200     PERFORM B5000-UPDATE-PCM.
075300
075400     MOVE SPACES                 TO SURE-BANK-KEY.
075500     MOVE SPACES                 TO SURE-PRENOTE-STAT.
075600     MOVE '0001-01-01'           TO SURE-CYCLEDATE.
075700     MOVE ZEROES                 TO SURE-ACTIVATE-CNT.
075800     MOVE SPACES                 TO SURE-PRENOTE-CYCLE.
075900     MOVE SPACES                 TO SURE-ACCTNUM.
076000     MOVE SPACES                 TO SURE-TYPEIND.
076100     PERFORM B6000-UPDATE-PAY.
076200
076300
076400 B4200-SET-SUREPAY-VALID.
076500******************************************************************
076600*    APPLY PPPPCM AND PPPPAY UPDATES TO SET SUREPAY STATUS
076700*    FOR PRE-NOTE COMPLETION AND FUTURE ACTIVATION.
076800******************************************************************
076900
077000     MOVE 'B4200-SET-SUREPAY-VALID' TO WS-ABEND-PARAGRAPH.
077100
077110     MOVE '2'                    TO AUDT-SET-UPDATE-CODE.
077200     ADD   1                     TO WS-SUREPAY-VALID-COUNT.
077300
077400     MOVE '8'                    TO CHK-DISP-CODE.
077500     PERFORM B5000-UPDATE-PCM.
077600
077700     MOVE WS-SPB-BANK-NUMBER     TO SURE-BANK-KEY.
077800     MOVE '2'                    TO SURE-PRENOTE-STAT.
081310     MOVE PARM-SURE-V-CYCLEDATE  TO SURE-CYCLEDATE.
078000     MOVE ZEROES                 TO SURE-ACTIVATE-CNT.
081330     MOVE PARM-SURE-V-PRENOTE-CYCLE
081340                                 TO SURE-PRENOTE-CYCLE.
078200     PERFORM B6000-UPDATE-PAY.
078300
078400
078500 B4300-SET-SUREPAY-PRENOTE-P.
078600******************************************************************
078700*    APPLY PPPPCM AND PPPPAY UPDATES TO SET SUREPAY STATUS
078800*    TO INITIAL BASE PPS PRE-NOTE.
078900******************************************************************
079000
079100     MOVE 'B4300-SET-SUREPAY-PRENOTE-P' TO WS-ABEND-PARAGRAPH.
079200
079210     MOVE '3'                    TO AUDT-SET-UPDATE-CODE.
079300     ADD   1                     TO WS-SET-SUREPAY-PRENOTE-P-CNT.
079400
079500     MOVE '3'                    TO CHK-DISP-CODE.
079600     PERFORM B5000-UPDATE-PCM.
079700
079800     MOVE WS-SPB-BANK-NUMBER     TO SURE-BANK-KEY.
079900     MOVE '1'                    TO SURE-PRENOTE-STAT.
080000     MOVE '0001-01-01'           TO SURE-CYCLEDATE.
080100     MOVE ZEROES                 TO SURE-ACTIVATE-CNT.
080200     MOVE SPACES                 TO SURE-PRENOTE-CYCLE.
080300     PERFORM B6000-UPDATE-PAY.
080400
080500
080600 B4400-SET-SUREPAY-PRENOTE-S.
080700******************************************************************
080800*    APPLY PPPPCM AND PPPPAY UPDATES TO SET SUREPAY STATUS
080900*    TO ACTIVATE THE NEXT PAY CYCLE (FROM PARM CARD).
081000******************************************************************
081100
081200     MOVE 'B4400-SET-SUREPAY-PRENOTE-S' TO WS-ABEND-PARAGRAPH.
081300
081310     MOVE '4'                    TO AUDT-SET-UPDATE-CODE.
081400     ADD   1                     TO WS-SET-SUREPAY-PRENOTE-S-CNT.
081500
081600     MOVE '3'                    TO CHK-DISP-CODE.
081700     PERFORM B5000-UPDATE-PCM.
081800
081900     MOVE WS-SPB-BANK-NUMBER     TO SURE-BANK-KEY.
082000     MOVE '0'                    TO SURE-PRENOTE-STAT.
085500     MOVE PARM-SURE-S-CYCLEDATE  TO SURE-CYCLEDATE.
082200     MOVE ZEROES                 TO SURE-ACTIVATE-CNT.
085700     MOVE PARM-SURE-S-PRENOTE-CYCLE
082400                                 TO SURE-PRENOTE-CYCLE.
082500     PERFORM B6000-UPDATE-PAY.
082600/
082700 B5000-UPDATE-PCM.
082800******************************************************************
082900*    UPDATE PCM ROW FOR THE EMPLOYEE.
083000******************************************************************
083100
083200     MOVE 'B5000-UPDATE-PCM'     TO WS-ABEND-PARAGRAPH.
083300     MOVE  +5000                 TO WS-ABEND-SQL-NBR.
083400
083500     EXEC SQL
083600         UPDATE  PPPVZPCM_PCM
083700            SET  CHK_DISP_CODE   = :CHK-DISP-CODE
083800          WHERE  EMPLOYEE_ID     = :WS-EMPLOYEE-ID
083900     END-EXEC.
084000
084100     MOVE SQLCODE                TO PCM-SQLCODE.
084200
084300     EVALUATE SQLCODE
084400       WHEN +0
084500         ADD 1                   TO PCM-UPDATE-COUNT
084600       WHEN OTHER
084700         GO TO Z9998-DB2-ERROR
084800     END-EVALUATE.
084900/
085000 B6000-UPDATE-PAY.
085100******************************************************************
085200*    UPDATE PAY ROW FOR THE EMPLOYEE.
085300******************************************************************
085400
085500     MOVE 'B6000-UPDATE-PAY'     TO WS-ABEND-PARAGRAPH.
085600     MOVE  +6000                 TO WS-ABEND-SQL-NBR.
085700
085800     EXEC SQL
085900         UPDATE  PPPVZPAY_PAY
086000            SET  SURE_BANK_KEY       = :SURE-BANK-KEY
086100                ,SURE_PRENOTE_STAT   = :SURE-PRENOTE-STAT
086200                ,SURE_CYCLEDATE      = :SURE-CYCLEDATE
086300                ,SURE_ACTIVATE_CNT   = :SURE-ACTIVATE-CNT
086400                ,SURE_PRENOTE_CYCLE  = :SURE-PRENOTE-CYCLE
086500                ,SURE_ACCTNUM        = :SURE-ACCTNUM
086600                ,SURE_TYPEIND        = :SURE-TYPEIND
086700          WHERE  EMPLOYEE_ID         = :WS-EMPLOYEE-ID
086800     END-EXEC.
086900
087000     MOVE SQLCODE                TO PAY-SQLCODE.
087100
087200     EVALUATE SQLCODE
087300       WHEN +0
087400         ADD 1                   TO PAY-UPDATE-COUNT
087500       WHEN OTHER
087600         GO TO Z9998-DB2-ERROR
087700     END-EVALUATE.
087800/
087900 B7000-COMMIT-UPDATES.
088000******************************************************************
088100*    COMMIT ALL DB2 UPDATES UP TO THIS POINT.
088200******************************************************************
088300
088400     EXEC SQL
088500         COMMIT
088600     END-EXEC.
088700
088800     DISPLAY 'UPDATES COMMITTED AFTER EMPLOYEE ID '
088900              WS-EMPLOYEE-ID.
089000
089100     MOVE +0                     TO WS-COMMIT-COUNT.
089200/
089300 B8100-WRITE-AUDIT-RECORD.
089400******************************************************************
089500*    WRITE AN AUDIT RECORD CONTAINING PERTINENT INFORMATION.
089600*    MOVE UPDATED FIELDS ONLY IF UPDATES WERE APPLIED.
089700******************************************************************
089800
089900     MOVE 'B8100-WRITE-AUDIT-RECORD' TO WS-ABEND-PARAGRAPH.
090000
090100     IF AUDT-STATUS-ERROR = SPACE
090200         MOVE CHK-DISP-CODE      TO AUDT-CHK-DISP-CODE
090300         MOVE SURE-BANK-KEY      TO AUDT-SURE-BANK-KEY
090400         MOVE SURE-PRENOTE-STAT  TO AUDT-SURE-PRENOTE-STAT
090500         MOVE SURE-CYCLEDATE     TO AUDT-SURE-CYCLEDATE
090600         MOVE SURE-ACTIVATE-CNT  TO AUDT-SURE-ACTIVATE-CNT
090700         MOVE SURE-PRENOTE-CYCLE TO AUDT-SURE-PRENOTE-CYCLE
090800         MOVE SURE-ACCTNUM       TO AUDT-SURE-ACCTNUM-A
090900         MOVE SURE-TYPEIND       TO AUDT-SURE-TYPEIND-A
091000     END-IF.
091100
091200     WRITE AUDIT-RECORD        FROM AUDIT-AREA.
091300     ADD 1                       TO AUDIT-COUNT.
091400/
091500 B9000-GET-BANK-KEY.
091600******************************************************************
091700*    PROCESS THE SPB-CURSOR TO RETRIEVE THE BANK NUMBER FOR
091800*    THE TRANSIT ROUTING NUMBER.  IF 1 ROW IS RETURNED, USE
091900*    THE BANK NUMBER FOR UPDATE PROCESSING; OTHERWISE USE SPACES
092000*    AND SET THE ERROR STATUS CODE.
092100******************************************************************
092200
092300     MOVE 'B9000-GET-BANK-KEY'   TO WS-ABEND-PARAGRAPH.
092400
092500     MOVE SURE-TRANSIT           TO SPB-TRANSIT-RTE-NO.
092600
092700     PERFORM B9000-OPEN-SPB-CURSOR.
092800
092900     PERFORM B9010-FETCH-SPB-CURSOR.
093000
093100     IF SPB-SQLCODE = +0
093200         MOVE '0'                TO AUDT-GET-BANK-KEY-STATUS
093300         MOVE SPB-BANK-NUMBER    TO WS-SPB-BANK-NUMBER
093400
093500         PERFORM B9010-FETCH-SPB-CURSOR
093600
093700         IF SPB-SQLCODE = +0
093800             MOVE '2'            TO AUDT-GET-BANK-KEY-STATUS
093900             MOVE SPACES         TO WS-SPB-BANK-NUMBER
094000         END-IF
094100     ELSE
094200         MOVE '1'                TO AUDT-GET-BANK-KEY-STATUS
094300         MOVE SPACES             TO WS-SPB-BANK-NUMBER
094400     END-IF.
094500
094600     PERFORM B9020-CLOSE-SPB-CURSOR.
094700/
094800 B9000-OPEN-SPB-CURSOR.
094900******************************************************************
095000*    OPEN THE SPB-CURSOR.
095100******************************************************************
095200
095300     MOVE 'B9000-OPEN-SPB-CURSOR'  TO WS-ABEND-PARAGRAPH.
095400     MOVE  +9000                   TO WS-ABEND-SQL-NBR.
095500
095600     EXEC SQL
095700       DECLARE   SPB-CURSOR CURSOR FOR
095800         SELECT  SPB_BANK_NUMBER
095900           FROM  PPPVZSPB_SPB
096000          WHERE  SPB_TRANSIT_RTE_NO = :SPB-TRANSIT-RTE-NO
096100       FOR FETCH ONLY
096200     END-EXEC.
096300
096400     EXEC SQL
096500       OPEN SPB-CURSOR
096600     END-EXEC.
096700
096800     MOVE SQLCODE                TO SPB-SQLCODE.
096900
097000     EVALUATE SQLCODE
097100       WHEN +0
097200         CONTINUE
097300       WHEN OTHER
097400         GO TO Z9998-DB2-ERROR
097500     END-EVALUATE.
097600/
097700 B9010-FETCH-SPB-CURSOR.
097800******************************************************************
097900*    GET THE NEXT ROW FOR SPB-CURSOR.
098000******************************************************************
098100
098200     MOVE 'B9010-FETCH-SPB-CURSOR' TO WS-ABEND-PARAGRAPH.
098300     MOVE  +9010                   TO WS-ABEND-SQL-NBR.
098400
098500     EXEC SQL
098600         FETCH   SPB-CURSOR
098700          INTO  :SPB-BANK-NUMBER
098800     END-EXEC.
098900
099000     MOVE SQLCODE                TO SPB-SQLCODE.
099100
099200     EVALUATE SQLCODE
099300       WHEN +0
099400         ADD 1                   TO SPB-FETCH-COUNT
099500       WHEN +100
099600         CONTINUE
099700       WHEN OTHER
099800         GO TO Z9998-DB2-ERROR
099900     END-EVALUATE.
100000/
100100 B9020-CLOSE-SPB-CURSOR.
100200******************************************************************
100300*    CLOSE THE SPB-CURSOR.
100400******************************************************************
100500
100600     MOVE 'B9020-CLOSE-SPB-CURSOR' TO WS-ABEND-PARAGRAPH.
100700     MOVE  +9020                   TO WS-ABEND-SQL-NBR.
100800
100900     EXEC SQL
101000         CLOSE   SPB-CURSOR
101100     END-EXEC.
101200
101300     MOVE SQLCODE                TO SPB-SQLCODE.
101400
101500     EVALUATE SQLCODE
101600       WHEN +0
101700         CONTINUE
101800       WHEN OTHER
101900         GO TO Z9998-DB2-ERROR
102000     END-EVALUATE.
102100/
102020 Z9997-ABORT-PROGRAM.
102030******************************************************************
102040*    AN ABNORMAL CONDITION HAS OCCURED.
102050*    SET ERROR RETURN CODE, DISPLAY PERTINATE INFORMATION,
102060*    AND FINALIZE PROGRAM PROCESSING.
102070******************************************************************
102080
102090     MOVE 9                      TO RETURN-CODE.
102091
102092     DISPLAY ' '.
102093     DISPLAY '**************************************************'.
102094     DISPLAY '** ABNORMAL ERROR DETECTED IN PROGRAM '
102095                                    WS-THIS-PROGRAM.
102096     DISPLAY '** ERROR MESSAGE IS DISPLAYED BEFORE THIS TEXT BOX'.
102097     DISPLAY '** LAST PARAGRAPH ENTERED WAS '
102098                                    WS-ABEND-PARAGRAPH.
102099     DISPLAY '** EMPLOYEE NUMBER BEING PROCESSED WAS '
102100                                    WS-EMPLOYEE-ID.
102101     DISPLAY '** PROGRAM PROCESSING IS BEING TERMINATED'.
102102     DISPLAY '**************************************************'.
102103
102104     PERFORM A8000-FINALIZATION.
102105
102106     GOBACK.
102110/
102200 Z9998-DB2-ERROR.
102300******************************************************************
102400*    DB2ERRBP - DB2-ERROR-ROUTINE   (DB2 ERROR HANDLING ROUTINE)
102500*    DB2ERRBP DISPLAYS DB2 ERROR MSG TO SYSOUT, ROLLSBACK UPDATES,
102600*    SETS RETURN-CODE TO '9', AND CALLS 'ABORT' TO PRODUCE A DUMP.
102700******************************************************************
102800
102900     MOVE 9                      TO RETURN-CODE.
103000     MOVE WS-THIS-PROGRAM        TO DB2-PROGRAM-NAME.
103100     MOVE WS-ABEND-SQL-NBR       TO DB2-DML-NUMBER.
103200     MOVE SQLCODE                TO WS-ABEND-CODE.
103300
103400     DISPLAY ' '.
103500     DISPLAY '**************************************************'.
103600     DISPLAY '** ABNORMAL DB2 ERROR DETECTED IN PROGRAM '
103700                                    DB2-PROGRAM-NAME
103800     DISPLAY '** LAST PARAGRAPH ENTERED WAS '
103900                                    WS-ABEND-PARAGRAPH.
104000     DISPLAY '** PARAGRAPH / SQL NUMBER = '
104100                                    DB2-DML-NUMBER.
104200     DISPLAY '** DB2 SQLCODE = '    WS-ABEND-CODE.
104300     DISPLAY '** EMPLOYEE NUMBER BEING PROCESSED WAS '
104400                                    WS-EMPLOYEE-ID.
104500     DISPLAY '** PROGRAM PROCESSING IS BEING TERMINATED'.
104600     DISPLAY '**************************************************'.
104700
104800     PERFORM A8000-FINALIZATION.
104900
110300     PERFORM DB2-ERROR-ROUTINE.
105200
110500     GOBACK.
110600/
110700     EXEC SQL INCLUDE DB2ERRBP
105259     END-EXEC.
