000100*==========================================================%      UCSD0167
000200*=    PROGRAM: UC0MLR                                     =%      UCSD0167
000300*=    CHANGE   #UCSD0167    PROJ. REQUEST: RELEASE 1415   =%      UCSD0167
000400*=    NAME: G CHIU          MODIFICATION DATE: 10/23/02   =%      UCSD0167
000500*=                                                        =%      UCSD0167
000600*=    DESCRIPTION:                                        =%      UCSD0167
000700*=    CHANGE TO LOCAL SMTP ADDRESS                        =%      UCSD0167
000800*=                                                        =%      UCSD0167
000900*==========================================================%      UCSD0167
000100******************************************************************52131415
000200*  PROGRAM: UC0MLR                                               *52131415
000300*  RELEASE: ____1415____  SERVICE REQUEST(S): ___15213____       *52131415
000400*  NAME:___MLG____________CREATION DATE:      __06/10/02__       *52131415
000500*  DESCRIPTION: THIS PROGRAM SENDS A SUMMARY OF RECENTLY         *52131415
000600*  GENERATED PANS TO EACH PAN RECIPIENT.                         *52131415
000700******************************************************************52131415
024700 IDENTIFICATION DIVISION.                                         UC0MLR
024800 PROGRAM-ID. UC0MLR.                                              UC0MLR
024900 AUTHOR. UCOP.                                                    UC0MLR
025000 DATE-WRITTEN. FEBRUARY 2002.                                     UC0MLR
025100 DATE-COMPILED.                                                   UC0MLR
025200*REMARKS.                                                         UC0MLR
025300******************************************************************UC0MLR
025600     EJECT                                                        UC0MLR
025700 ENVIRONMENT DIVISION.                                            UC0MLR
025800 CONFIGURATION SECTION.                                           UC0MLR
025900 SOURCE-COMPUTER.                   COPY CPOTXUCS.                UC0MLR
026000 OBJECT-COMPUTER.                   COPY CPOTXOBJ.                UC0MLR
026100 SPECIAL-NAMES.                                                   UC0MLR
026200     C01 IS NEW-PAGE.                                             UC0MLR
026300 INPUT-OUTPUT SECTION.                                            UC0MLR
026400 FILE-CONTROL.                                                    UC0MLR
026600     SELECT RPT-FILE    ASSIGN  TO  UT-S-REPORT.                  UC0MLR
026700     SELECT EMAIL-FILE  ASSIGN  TO  UT-S-EMAIL.                   UC0MLR
026704     EJECT                                                        UC0MLR
026800******************************************************************UC0MLR
026900*                                                                *UC0MLR
027000*                D A T A  D I V I S I O N                        *UC0MLR
027100*                                                                *UC0MLR
027200******************************************************************UC0MLR
027300 DATA DIVISION.                                                   UC0MLR
027400                                                                  UC0MLR
027500 FILE SECTION.                                                    UC0MLR
027600                                                                  UC0MLR
032400 FD  RPT-FILE                                                     UC0MLR
032500     RECORDING MODE F                                             UC0MLR
032600     LABEL RECORDS ARE OMITTED                                    UC0MLR
032700     RECORD CONTAINS 133 CHARACTERS                               UC0MLR
032800     BLOCK CONTAINS 0 CHARACTERS                                  UC0MLR
032900     DATA RECORD IS RPT-RECORD.                                   UC0MLR
033000                                                                  UC0MLR
033100 01  RPT-RECORD.                                                  UC0MLR
033200     05 RPT-CC              PIC X(1).                             UC0MLR
033300     05 RPT-DETAIL          PIC X(132).                           UC0MLR
033400                                                                  UC0MLR
033410 FD  EMAIL-FILE                                                   UC0MLR
033420     RECORDING MODE F                                             UC0MLR
033430     LABEL RECORDS ARE OMITTED                                    UC0MLR
033440     RECORD CONTAINS 100 CHARACTERS                               UC0MLR
033450     BLOCK CONTAINS 0 CHARACTERS                                  UC0MLR
033460     DATA RECORD IS RPT-RECORD.                                   UC0MLR
033470                                                                  UC0MLR
033480 01  EMAIL-RECORD           PIC X(100).                           UC0MLR
033492                                                                  UC0MLR
033500 WORKING-STORAGE SECTION.                                         UC0MLR
033600                                                                  UC0MLR
033700 01  WA-COMPILE-WORK-AREA.   COPY CPWSXWHC.                       UC0MLR
033800 01  CALLED-ROUTINES.        COPY CPWSXRTN.                       UC0MLR
033900 01  CPWSSEVX      EXTERNAL. COPY CPWSSEVX.                       UC0MLR
033910 01  CPWSAFPX      EXTERNAL. COPY CPWSAFPX.                       UC0MLR
034000                                                                  UC0MLR
034100 77  WS-NULL-IND                     PIC S9(04) COMP VALUE ZERO.  UC0MLR
034200 01  WS-MISCELLANEOUS.                                            UC0MLR
034300     05  WS-PGM-ID.                                               UC0MLR
034400         10  WS-PROG-ID             PIC X(08)  VALUE 'UC0MLR  '.  UC0MLR
034500         10  WS-DATE-COMPLD         PIC X(08).                    UC0MLR
034700     05  WS-DB2-TODAYS-DATE         PIC X(10).                    UC0MLR
035700     05  WS-LINE-COUNT              PIC S9(04) VALUE 60.          UC0MLR
035800     05  WS-PAGE-COUNT              PIC S9(04) VALUE ZERO.        UC0MLR
036300     05  WS-EOF-SW                  PIC X(01) VALUE SPACES.       UC0MLR
036400         88  WS-EOF                           VALUE 'Y'.          UC0MLR
036410     05  WS-SAVE-ADDRESS            PIC X(50) VALUE SPACES.       UC0MLR
036420     05  WS-NOTIFICATION-COUNT      PIC 9(04) VALUE ZERO.         UC0MLR
036421     05  WS-MANDATORY-COUNT         PIC 9(04) VALUE ZERO.         UC0MLR
036422     05  WS-PRIMARY-COUNT           PIC 9(04) VALUE ZERO.         UC0MLR
036423     05  WS-URGENT-COUNT            PIC 9(04) VALUE ZERO.         UC0MLR
036424     05  WS-SUMMARY-COUNT           PIC 9(04) VALUE ZERO.         UC0MLR
036425     05  WS-COUNT                   PIC ZZZ9.                     UC0MLR
036426     05  WS-COUNT-TRIM              PIC X(04) VALUE ZERO.         UC0MLR
036427     05  WS-SUB                     PIC 9(01) VALUE ZERO.         UC0MLR
036428     05  WS-LENGTH                  PIC 9(01) VALUE ZERO.         UC0MLR
036429     05  WS-GMT-OFFSET.                                           UC0MLR
036430         10 WS-GMT-HOURS            PIC +99.                      UC0MLR
036431         10 WS-GMT-MINS             PIC 99.                       UC0MLR
036432     05  WS-HDR-CT                  PIC S9(08) COMP.              UC0MLR
036440     05  WS-CURRENT-TIMESTAMP       PIC X(26).                    UC0MLR
036442     05  WS-LAST-RUN-TIMESTAMP      PIC X(26) VALUE SPACES.       UC0MLR
036443     05  WS-LAST-RUN-DATE-TIME      PIC X(30) VALUE SPACES.       UC0MLR
036450     05  WS-WEB-LINK-LINE-1.                                      UC0MLR
036470         10  FILLER              PIC X(100) VALUE                 UC0MLR
036480             'Please review the notifications using Web PAN at'.  UC0MLR
036491     05  WS-WEB-LINK-LINE-2.                                      UC0MLR
036492          10  WS-WEB-LINK-URL     PIC X(79).                      UC0MLR
036493     05  WS-WEB-LINK-LINE-3.                                      UC0MLR
036509          10  FILLER              PIC X(79) VALUE                 UC0MLR
036510          'and accessing your PAN inbox'.                         UC0MLR
036511    05  WS-MONTH-9                         PIC 9(02).             UC0MLR
036512    05  WS-MONTH-X REDEFINES WS-MONTH-9    PIC X(02).             UC0MLR
036513    05  WS-DAY                             PIC X(02).             UC0MLR
036514    05  WS-MONTH-TABLE.                                           UC0MLR
036515        10  FILLER                         PIC X(10) VALUE        UC0MLR
036516                                                 'January  '.     UC0MLR
036517        10  FILLER                         PIC X(10) VALUE        UC0MLR
036518                                                 'February '.     UC0MLR
036519        10  FILLER                         PIC X(10) VALUE        UC0MLR
036520                                                 'March    '.     UC0MLR
036521        10  FILLER                         PIC X(10) VALUE        UC0MLR
036522                                                 'April    '.     UC0MLR
036523        10  FILLER                         PIC X(10) VALUE        UC0MLR
036524                                                 'May      '.     UC0MLR
036525        10  FILLER                         PIC X(10) VALUE        UC0MLR
036526                                                 'June     '.     UC0MLR
036527        10  FILLER                         PIC X(10) VALUE        UC0MLR
036528                                                 'July     '.     UC0MLR
036529        10  FILLER                         PIC X(10) VALUE        UC0MLR
036530                                                 'August   '.     UC0MLR
036531        10  FILLER                         PIC X(10) VALUE        UC0MLR
036532                                                 'September'.     UC0MLR
036533        10  FILLER                         PIC X(10) VALUE        UC0MLR
036534                                                 'October  '.     UC0MLR
036535        10  FILLER                         PIC X(10) VALUE        UC0MLR
036536                                                 'November '.     UC0MLR
036537        10  FILLER                         PIC X(10) VALUE        UC0MLR
036538                                                 'December '.     UC0MLR
036539    05  FILLER REDEFINES WS-MONTH-TABLE.                          UC0MLR
036540        10  WS-MONTH-NAME                  PIC X(10) OCCURS 12.   UC0MLR
036541                                                                  UC0MLR
036542 01  INSTALLATION-DEPENDT-CONSTANTS.             COPY CPWSXIDC.   UC0MLR
036543     EJECT                                                        UC0MLR
036544                                                                  UC0MLR
036545* THE NEXT SECTION SHOULD BE REVIEWED FOR CONSISTENCY             UC0MLR
036546* WITH LOCAL MAIL SYSTEM INSTALLATION AND OPERATIONS.             UC0MLR
036547*                                                                 UC0MLR
036548 01  WS-SMTP-AREAS.                                               UC0MLR
036550     05  WS-SMTP-NAME                PIC X(08) VALUE 'SMTP'.      UC0MLR
036560     05  WS-SMTP-NODE                PIC X(08) VALUE 'LOCAL'.     UC0MLR
036570     05  WS-SMTP-CLASS               PIC X(01) VALUE 'B'.         UC0MLR
036580     05  WS-SMTP-CMD-AREAS.                                       UC0MLR
036590         10  WS-SMTP-CMD1.                                        UC0MLR
036591             15 FILLER               PIC X(04) VALUE 'HELO'.      UC0MLR
036592             15 FILLER               PIC X     VALUE SPACE.       UC0MLR
036593             15 WS-LOCAL-DOMAIN      PIC X(70)                    UC0MLR
015300*****           VALUE 'uccmvsb.ucop.edu'.                         UCSD0167
015400                VALUE 'ucsdmvsa.ucsd.edu'.                        UCSD0167
036595             15 FILLER               PIC X(05) VALUE SPACE.       UC0MLR
036596         10  WS-SMTP-CMD2.                                        UC0MLR
036597             15 FILLER               PIC X(04) VALUE 'MAIL'.      UC0MLR
036598             15 FILLER               PIC X(07) VALUE ' FROM: '.   UC0MLR
036599             15 WS-RETURN-MAIL-ADDR  PIC X(26)                    UC0MLR
016000*****           VALUE '<panmail@uccmvsb.ucop.edu>'.               UCSD0167
016100                VALUE '<panmail@hubble.ucsd.edu>'.                UCSD0167
036601             15 FILLER               PIC X(43) VALUE SPACE.       UC0MLR
036602         10  WS-SMTP-CMD3.                                        UC0MLR
036603             15 FILLER               PIC X(04) VALUE 'RCPT'.      UC0MLR
036604             15 FILLER               PIC X(04) VALUE ' TO:'.      UC0MLR
036605             15 FILLER               PIC X(02) VALUE ' <'.        UC0MLR
036606             15 WS-TARGET-USER       PIC X(55) VALUE SPACE.       UC0MLR
036607             15 FILLER               PIC X     VALUE '>'.         UC0MLR
036608             15 FILLER               PIC X(14) VALUE SPACE.       UC0MLR
036609         10  WS-SMTP-CMD4.                                        UC0MLR
036610             15 FILLER               PIC X(04) VALUE 'DATA'.      UC0MLR
036611             15 FILLER               PIC X(76) VALUE SPACE.       UC0MLR
036612         10  WS-SMTP-CMD5.                                        UC0MLR
036613             15 FILLER               PIC X(14) VALUE 'Date:     '.UC0MLR
036614             15 WS-MAIL-DATE         PIC X(66) VALUE SPACE.       UC0MLR
036615         10  WS-SMTP-CMD6.                                        UC0MLR
036616             15 FILLER               PIC X(14) VALUE 'From:     '.UC0MLR
036617             15 WS-MAIL-FROM         PIC X(66) VALUE SPACE.       UC0MLR
036621         10  WS-SMTP-CMD7.                                        UC0MLR
036622             15 FILLER               PIC X(14) VALUE 'To:       '.UC0MLR
036623             15 WS-MAIL-ADDR         PIC X(50) VALUE SPACE.       UC0MLR
036624             15 FILLER               PIC X(16) VALUE SPACE.       UC0MLR
036625         10  WS-SMTP-CMD8.                                        UC0MLR
036626             15 FILLER               PIC X(14) VALUE 'Subject:  '.UC0MLR
036627             15 WS-MAIL-SUBJ         PIC X(66) VALUE SPACE.       UC0MLR
036628         10  WS-SMTP-CMD9.                                        UC0MLR
036629             15 FILLER               PIC X(01) VALUE '.'.         UC0MLR
036630             15 FILLER               PIC X(79) VALUE SPACE.       UC0MLR
036631     05  WS-SMTP-CMD                 REDEFINES WS-SMTP-CMD-AREAS  UC0MLR
036632                                     PIC X(80) OCCURS 9 TIMES.    UC0MLR
036633                                                                  UC0MLR
036634 01  WS-LE370-AREAS.                                              UC0MLR
036635     05  WS-CEEDATM              PIC X(08) VALUE 'CEEDATM'.       UC0MLR
036636     05  WS-CEESECS              PIC X(08) VALUE 'CEESECS'.       UC0MLR
036637     05  WS-CEEGMTO              PIC X(08) VALUE 'CEEGMTO'.       UC0MLR
036638     05  WS-MAIL-DATE-PIC.                                        UC0MLR
036639         10 FILLER               PIC S9(04) COMP VALUE +31.       UC0MLR
036640         10 WS-MAIL-DATE-PIC-STR PIC X(31)                        UC0MLR
036641                   VALUE 'Www, DD Mmm YYYY HH:MI:SS OOOOO'.       UC0MLR
036642*-------> Note that the last 5 bytes of the above string will     UC0MLR
036643*-------> be set to the GMT offset during initialization.         UC0MLR
036644     05  WS-MAIL-DATE-RET-AREA   PIC X(80).                       UC0MLR
036645     05  WS-MAIL-INPT-PIC.                                        UC0MLR
036646         10 FILLER               PIC S9(04) COMP VALUE +23.       UC0MLR
036647         10 FILLER               PIC X(23)                        UC0MLR
036648                                 VALUE 'YYYY-MM-DD-HH.MI.SS.999'. UC0MLR
036649     05  WS-MAIL-TIMESTAMP.                                       UC0MLR
036650         10  FILLER              PIC S9(04) COMP VALUE +23.       UC0MLR
036651         10  WS-MAIL-TS          PIC X(23) VALUE SPACE.           UC0MLR
036652     05  WS-MAIL-HOURS           PIC S9(09) COMP.                 UC0MLR
036653     05  WS-MAIL-MINS            PIC S9(09) COMP.                 UC0MLR
036654     05  WS-MAIL-SECS            COMP-2.                          UC0MLR
036655     05  WS-CEE-RETCODE          PIC X(12) VALUE SPACE.           UC0MLR
036656*                                                                 UC0MLR
036660 01  WS-DATE-FORMAT.  COPY CPWSDATE.                              UC0MLR
036700                                                                  UC0MLR
037900 EJECT                                                            UC0MLR
038000                                                                  UC0MLR
044600 01  DATE-CONVERSION-WORK-AREAS.    COPY CPWSXDC3.                UC0MLR
044800                                                                  UC0MLR
045500 01  MESSAGE-TABLE.                                               UC0MLR
045600                                    COPY CPWSXMTI.                UC0MLR
045700 01  MESSAGE-LITERALS.                                            UC0MLR
045800     05  M85201                     PIC 9(5)   VALUE 85201.       UC0MLR
046200                                                                  UC0MLR
046300 01  WS-PRINT-LINE.                                               UC0MLR
046400     05  FILLER                     PIC X(10)  VALUE SPACES.      UC0MLR
046500     05  WS-PRINT-COUNT             PIC ZZZ,ZZZ,ZZ9.              UC0MLR
046600     05  FILLER                     PIC X(05)  VALUE SPACES.      UC0MLR
046700     05  FILLER                     PIC X(98)  VALUE              UC0MLR
046710         'EMAIL SUMMARY NOTICES SENT'.                            UC0MLR
046800                                                                  UC0MLR
047000 01  MESSAGE-HEAD1.                                               UC0MLR
047100     05  CARRIAGE-CTL-CHAR       PIC X           VALUE SPACES.    UC0MLR
047200     05  FILLER                  PIC X(2)        VALUE SPACES.    UC0MLR
047300     05  FILLER                  PIC X(09)       VALUE 'NUMBER'.  UC0MLR
047400     05  FILLER                  PIC X(16)       VALUE 'SEVERITY'.UC0MLR
047500     05  FILLER                  PIC X(67)       VALUE            UC0MLR
047600         '- - - - - - - - - - - M E S S A G E   T E X T - - - - - UC0MLR
047700-        '- - - - - -'.                                           UC0MLR
047800*                                                                 UC0MLR
047900 01  MESSAGE-HEAD2.                                               UC0MLR
048000     05  CARRIAGE-CTL-CHAR       PIC X           VALUE SPACES.    UC0MLR
048100     05  FILLER                  PIC X(2)        VALUE SPACES.    UC0MLR
048200     05  FILLER                  PIC X(09)       VALUE '_______'. UC0MLR
048300     05  FILLER                  PIC X(16)       VALUE '________'.UC0MLR
048400     05  FILLER                  PIC X(67)       VALUE ALL '_'.   UC0MLR
048500*                                                                 UC0MLR
048600*                                                                 UC0MLR
048700 01  MESSAGE-LINE.                                                UC0MLR
048800     05  MSGLN-CC                PIC X.                           UC0MLR
048900     05  FILLER                  PIC X(2).                        UC0MLR
049000     05  MSGLN-PGM-NO            PIC X(02)       VALUE '85'.      UC0MLR
049100     05  MSGLN-DASH              PIC X(01)       VALUE '-'.       UC0MLR
049200     05  MSGLN-DESIRED-NO        PIC X(03)       VALUE ZERO.      UC0MLR
049300     05  FILLER                  PIC X(3).                        UC0MLR
049400     05  MSGLN-SEV-TEXT          PIC X(13)       VALUE SPACES.    UC0MLR
049500     05  FILLER                  PIC X(3).                        UC0MLR
049600     05  MSGLN-TEXT              PIC X(65)       VALUE SPACES.    UC0MLR
049700     05  FILLER                  PIC X(15).                       UC0MLR
050700 01  MESSAGE-RECORD.                                              UC0MLR
050800                                    COPY CPWSXMSG.                UC0MLR
050900     EJECT                                                        UC0MLR
061500 01  STND-RPT-HD.                                                 UC0MLR
061600                                    COPY CPWSPSHR.                UC0MLR
061610 01  PPDB2MSG-INTERFACE.                                          UC0MLR
061620                                    COPY CPLNKDB2.                UC0MLR
061700     EJECT                                                        UC0MLR
063510 01  PNA-ROW.                                                     UC0MLR
063520     EXEC SQL                                                     UC0MLR
063530         INCLUDE UC0VZPNA                                         UC0MLR
063540     END-EXEC.                                                    UC0MLR
063550     EJECT                                                        UC0MLR
063551                                                                  UC0MLR
063552 01  PNX-ROW.                                                     UC0MLR
063553     EXEC SQL                                                     UC0MLR
063554         INCLUDE UC0VZPNX                                         UC0MLR
063555     END-EXEC.                                                    UC0MLR
063556     EJECT                                                        UC0MLR
063557                                                                  UC0MLR
063558 01  DIR-ROW.                                                     UC0MLR
063559     EXEC SQL                                                     UC0MLR
063560         INCLUDE UC0VZDIR                                         UC0MLR
063561     END-EXEC.                                                    UC0MLR
063562     EJECT                                                        UC0MLR
063563                                                                  UC0MLR
063564 01  PNP-ROW.                                                     UC0MLR
063565     EXEC SQL                                                     UC0MLR
063566         INCLUDE UC0VZPNP                                         UC0MLR
063567     END-EXEC.                                                    UC0MLR
063568     EJECT                                                        UC0MLR
063569                                                                  UC0MLR
063570     EXEC SQL                                                     UC0MLR
063571       DECLARE NOTIF-CSR CURSOR FOR                               UC0MLR
063580          SELECT PNA_NOTICE_ID                                    UC0MLR
063581                ,PNA_ADDRESS                                      UC0MLR
063582                ,PNA_ADDRESS_NUM                                  UC0MLR
063583                ,PNA_ADDRESS_TYPE                                 UC0MLR
063584                ,PNA_ADDRESS_NAME                                 UC0MLR
063591                ,PNA_DIR_USERID                                   UC0MLR
063592                ,PNA_PRIMARY_FLAG                                 UC0MLR
063593                ,PNA_SUMMARY_TIMEST                               UC0MLR
063710                ,PNX_PRIORITY                                     UC0MLR
063720                ,UC0VZDIR_DIR.DIR_EMAIL                           UC0MLR
063730                ,UC0VZPNP_PNP.PNP_ROUTING_CODE                    UC0MLR
063800            FROM UC0VZPNX_PNX                                     UC0MLR
063810                ,UC0VZPNA_PNA                                     UC0MLR
063820                ,UC0VZDIR_DIR                                     UC0MLR
063830                 LEFT OUTER JOIN UC0VZPNP_PNP                     UC0MLR
063840                 ON DIR_ADDRESS = PNP_ADDRESS                     UC0MLR
063850          WHERE PNA_NOTICE_ID = PNX_NOTICE_ID                     UC0MLR
063860            AND PNA_SUMMARY_TIMEST = '0001-01-01-00.00.00.000000' UC0MLR
063870            AND UC0VZDIR_DIR.DIR_EMAIL <> ' '                     UC0MLR
063880            AND PNA_ADDRESS_TYPE <> 'F'                           UC0MLR
063890            AND PNA_DIR_USERID = UC0VZDIR_DIR.DIR_ADDRESS         UC0MLR
063900            AND UC0VZPNP_PNP.PNP_ROUTING_CODE <> 'E'              UC0MLR
064000          ORDER BY PNA_DIR_USERID                                 UC0MLR
064100     END-EXEC.                                                    UC0MLR
064200                                                                  UC0MLR
064300 01  MSG-ROW.                                                     UC0MLR
064400     EXEC SQL                                                     UC0MLR
064500         INCLUDE PPPVZMSG                                         UC0MLR
064510     END-EXEC.                                                    UC0MLR
064520     EJECT                                                        UC0MLR
064530 01  SCR-ROW                             EXTERNAL.                UC0MLR
064540     EXEC SQL                                                     UC0MLR
064550          INCLUDE PPPVSCR1                                        UC0MLR
064560     END-EXEC.                                                    UC0MLR
064570                                                                  UC0MLR
064580     EJECT                                                        UC0MLR
064600     EXEC SQL                                                     UC0MLR
064700         INCLUDE SQLCA                                            UC0MLR
064800     END-EXEC.                                                    UC0MLR
064810                                                                  UC0MLR
064900     EJECT                                                        UC0MLR
065000                                                                  UC0MLR
092400 PROCEDURE DIVISION.                                              UC0MLR
092500*                                                                 UC0MLR
092600******************************************************************UC0MLR
092700*            P R O C E D U R E  D I V I S I O N                  *UC0MLR
092800******************************************************************UC0MLR
092900*                                                                 UC0MLR
093000     SKIP1                                                        UC0MLR
093100***************************************************************/  UC0MLR
093200*   0000-MAINLINE SECTION.                                    */  UC0MLR
093400***************************************************************/  UC0MLR
093500 0000-MAINLINE SECTION.                                           UC0MLR
093600                                                                  UC0MLR
093700     EXEC SQL                                                     UC0MLR
093800          INCLUDE CPPDXE99                                        UC0MLR
093900     END-EXEC.                                                    UC0MLR
094000                                                                  UC0MLR
094100     PERFORM 1000-INITIALIZE.                                     UC0MLR
106100                                                                  UC0MLR
106101     IF WS-NULL-IND = -1                                          UC0MLR
106102        GO TO 0000-EOJ                                            UC0MLR
106103     END-IF.                                                      UC0MLR
106104                                                                  UC0MLR
106105     PERFORM 8100-FETCH-CURSOR.                                   UC0MLR
106106                                                                  UC0MLR
106110     PERFORM 2000-PROCESS-NOTIFICATIONS UNTIL WS-EOF.             UC0MLR
106120     IF WS-NOTIFICATION-COUNT NOT = ZERO                          UC0MLR
106121        PERFORM 2100-GENERATE-SUMMARY                             UC0MLR
106122     END-IF.                                                      UC0MLR
106130                                                                  UC0MLR
106140 0000-EOJ.                                                        UC0MLR
106150                                                                  UC0MLR
106200     PERFORM  7200-PRINT-TOTALS.                                  UC0MLR
106300                                                                  UC0MLR
106500     CLOSE  RPT-FILE.                                             UC0MLR
106510     PERFORM 8200-CLOSE-CURSOR.                                   UC0MLR
106600                                                                  UC0MLR
106700     STOP RUN.                                                    UC0MLR
106800                                                                  UC0MLR
106900 0000-EXIT.                                                       UC0MLR
107000     EXIT.                                                        UC0MLR
107100     SKIP1                                                        UC0MLR
107200 9999-ABEND  SECTION.                                             UC0MLR
107300                                                                  UC0MLR
107310     MOVE 12 TO RETURN-CODE.                                      UC0MLR
107500                                                                  UC0MLR
107600     STOP RUN.                                                    UC0MLR
107700                                                                  UC0MLR
107800     EJECT                                                        UC0MLR
107900***************************************************************/  UC0MLR
108000*   INITIALIZATIONS                                           */  UC0MLR
108200***************************************************************/  UC0MLR
108300 1000-INITIALIZE SECTION.                                         UC0MLR
108400                                                                  UC0MLR
108500     MOVE 1 TO CPWSSEVX-INFORMATIONAL-SEV.                        UC0MLR
108600     MOVE 3 TO CPWSSEVX-WARNING-SEV.                              UC0MLR
108700     MOVE 4 TO CPWSSEVX-SERIOUS-SEV.                              UC0MLR
108800     MOVE 5 TO CPWSSEVX-SEV-FATAL.                                UC0MLR
108900     MOVE 8 TO CPWSSEVX-SEE-SYSTEM-SEV.                           UC0MLR
109000                                                                  UC0MLR
109100     OPEN OUTPUT EMAIL-FILE                                       UC0MLR
109200                 RPT-FILE.                                        UC0MLR
109300                                                                  UC0MLR
109400     ACCEPT  PRE-EDIT-DATE     FROM DATE.                         UC0MLR
109500     MOVE    PRE-MM            TO   GREG-MM.                      UC0MLR
109600     MOVE    PRE-DD            TO   GREG-DD.                      UC0MLR
109700     MOVE    PRE-YY            TO   GREG-YY.                      UC0MLR
109800     MOVE    1                 TO   STND-PAGE-NO.                 UC0MLR
109900     PERFORM 7100-PRINT-RPT-HEADINGS.                             UC0MLR
110000                                                                  UC0MLR
110100     MOVE PRE-EDIT-DATE TO XDC3-STD-DATE.                         UC0MLR
110200     PERFORM XDC3-CONVERT-STD-TO-ISO.                             UC0MLR
110300     MOVE XDC3-ISO-DATE TO WS-DB2-TODAYS-DATE.                    UC0MLR
110500                                                                  UC0MLR
110600     MOVE 'UC0MLR' TO XWHC-DISPLAY-MODULE                         UC0MLR
110700     COPY CPPDXWHC.                                               UC0MLR
110800     MOVE XWHC-DATE-COMPILED TO WS-DATE-COMPLD.                   UC0MLR
110900                                                                  UC0MLR
110910     PERFORM 8000-OPEN-CURSOR.                                    UC0MLR
110920                                                                  UC0MLR
110930*---> The following call and logic sets the GMT offset in the     UC0MLR
110940*---> email date header to the proper offset between local time   UC0MLR
110950*---> and Greenwich Mean Time (Universal Time)                    UC0MLR
110960     CALL WS-CEEGMTO USING WS-MAIL-HOURS                          UC0MLR
110970                           WS-MAIL-MINS                           UC0MLR
110980                           WS-MAIL-SECS                           UC0MLR
110990                           WS-CEE-RETCODE.                        UC0MLR
110991                                                                  UC0MLR
110992     IF WS-CEE-RETCODE NOT = LOW-VALUES                           UC0MLR
110993       PERFORM 9999-ABEND                                         UC0MLR
110994     END-IF.                                                      UC0MLR
110995                                                                  UC0MLR
110996     MOVE WS-MAIL-HOURS TO WS-GMT-HOURS.                          UC0MLR
110997     MOVE WS-MAIL-MINS TO WS-GMT-MINS.                            UC0MLR
110998     MOVE WS-GMT-OFFSET TO WS-MAIL-DATE-PIC-STR (27:5).           UC0MLR
110999                                                                  UC0MLR
111000     MOVE 'SELECT TIMESTAMP'   TO DB2MSG-TAG                      UC0MLR
111001     EXEC SQL                                                     UC0MLR
111002       SELECT CURRENT TIMESTAMP                                   UC0MLR
111003       INTO   :WS-CURRENT-TIMESTAMP                               UC0MLR
111004       FROM   PPPVZSCR_SCR                                        UC0MLR
111005     END-EXEC.                                                    UC0MLR
111006                                                                  UC0MLR
111009     MOVE WS-CURRENT-TIMESTAMP TO WS-MAIL-TS.                     UC0MLR
111010                                                                  UC0MLR
111011     CALL WS-CEESECS USING WS-MAIL-TIMESTAMP                      UC0MLR
111012                           WS-MAIL-INPT-PIC                       UC0MLR
111013                           WS-MAIL-SECS                           UC0MLR
111014                           WS-CEE-RETCODE.                        UC0MLR
111015                                                                  UC0MLR
111016     IF WS-CEE-RETCODE NOT = LOW-VALUES                           UC0MLR
111017       PERFORM 9999-ABEND                                         UC0MLR
111018     END-IF.                                                      UC0MLR
111019                                                                  UC0MLR
111020     CALL WS-CEEDATM USING WS-MAIL-SECS                           UC0MLR
111021                           WS-MAIL-DATE-PIC                       UC0MLR
111022                           WS-MAIL-DATE-RET-AREA                  UC0MLR
111023                           WS-CEE-RETCODE.                        UC0MLR
111024                                                                  UC0MLR
111025     IF WS-CEE-RETCODE NOT = LOW-VALUES                           UC0MLR
111026       PERFORM 9999-ABEND                                         UC0MLR
111027     END-IF.                                                      UC0MLR
111028                                                                  UC0MLR
111029     MOVE WS-MAIL-DATE-RET-AREA (1 : 70) TO WS-MAIL-DATE.         UC0MLR
111030                                                                  UC0MLR
111031     MOVE 'SELECT MAX TIMESTAMP' TO DB2MSG-TAG                    UC0MLR
111032                                                                  UC0MLR
111033     EXEC SQL                                                     UC0MLR
111034          SELECT MAX(PNA_SUMMARY_TIMEST)                          UC0MLR
111035            INTO :WS-LAST-RUN-TIMESTAMP:WS-NULL-IND               UC0MLR
111036          FROM   UC0VZPNA_PNA                                     UC0MLR
111037     END-EXEC.                                                    UC0MLR
111038                                                                  UC0MLR
111039     IF WS-NULL-IND = -1                                          UC0MLR
111040        GO TO 1000-EXIT                                           UC0MLR
111041     END-IF.                                                      UC0MLR
111042                                                                  UC0MLR
111043     MOVE WS-LAST-RUN-TIMESTAMP(6:2) TO  WS-MONTH-X.              UC0MLR
111044     IF WS-LAST-RUN-TIMESTAMP(9:1) = '0'                          UC0MLR
111045        MOVE WS-LAST-RUN-TIMESTAMP(10:1) TO WS-DAY                UC0MLR
111046     ELSE                                                         UC0MLR
111047        MOVE WS-LAST-RUN-TIMESTAMP(9:2) TO WS-DAY                 UC0MLR
111048     END-IF.                                                      UC0MLR
111049                                                                  UC0MLR
111050     STRING                                                       UC0MLR
111051          WS-MONTH-NAME (WS-MONTH-9) DELIMITED BY SPACE           UC0MLR
111052          ' ' DELIMITED BY SIZE                                   UC0MLR
111053          WS-DAY DELIMITED BY SPACE                               UC0MLR
111054          ',' DELIMITED BY SIZE                                   UC0MLR
111055          WS-LAST-RUN-TIMESTAMP(1:4) DELIMITED BY SIZE            UC0MLR
111056          ' ' DELIMITED BY SIZE                                   UC0MLR
111057          WS-LAST-RUN-TIMESTAMP(12:2) DELIMITED BY SIZE           UC0MLR
111058          ':' DELIMITED BY SIZE                                   UC0MLR
111059          WS-LAST-RUN-TIMESTAMP(15:2) DELIMITED BY SIZE           UC0MLR
111060          ':' DELIMITED BY SIZE                                   UC0MLR
111061          WS-LAST-RUN-TIMESTAMP(18:2) DELIMITED BY SIZE           UC0MLR
111062        INTO WS-LAST-RUN-DATE-TIME                                UC0MLR
111063     END-STRING.                                                  UC0MLR
111064                                                                  UC0MLR
111070 1000-EXIT.                                                       UC0MLR
111100     EXIT.                                                        UC0MLR
111200                                                                  UC0MLR
111300     EJECT                                                        UC0MLR
111400                                                                  UC0MLR
114220***************************************************************/  UC0MLR
114300*   ADD THE CURRENT RECORD TO NOTIFICATION COUNTS.                UC0MLR
114500***************************************************************/  UC0MLR
114600 2000-PROCESS-NOTIFICATIONS   SECTION.                            UC0MLR
115500                                                                  UC0MLR
115510     IF (PNA-DIR-USERID NOT = WS-SAVE-ADDRESS)                    UC0MLR
115511     AND (WS-SAVE-ADDRESS NOT = SPACES)                           UC0MLR
115512        PERFORM 2100-GENERATE-SUMMARY                             UC0MLR
115515        MOVE ZERO TO WS-NOTIFICATION-COUNT                        UC0MLR
115516                     WS-MANDATORY-COUNT                           UC0MLR
115517                     WS-PRIMARY-COUNT                             UC0MLR
115518                     WS-URGENT-COUNT                              UC0MLR
115519     END-IF.                                                      UC0MLR
115520                                                                  UC0MLR
115521     ADD 1 TO WS-NOTIFICATION-COUNT.                              UC0MLR
115522     MOVE PNA-DIR-USERID TO WS-SAVE-ADDRESS.                      UC0MLR
115523                                                                  UC0MLR
115530     IF PNA-ADDRESS-TYPE = 'M'                                    UC0MLR
115540        ADD 1 TO WS-MANDATORY-COUNT                               UC0MLR
115550     END-IF.                                                      UC0MLR
115551                                                                  UC0MLR
115552     IF PNA-PRIMARY-FLAG = 'P'                                    UC0MLR
115553        ADD 1 TO WS-PRIMARY-COUNT                                 UC0MLR
115554     END-IF.                                                      UC0MLR
115555                                                                  UC0MLR
115560     IF PNX-PRIORITY = 'U'                                        UC0MLR
115570        ADD 1 TO WS-URGENT-COUNT                                  UC0MLR
115580     END-IF.                                                      UC0MLR
116660                                                                  UC0MLR
116661     MOVE SPACES  TO WS-TARGET-USER.                              UC0MLR
116662                                                                  UC0MLR
116663     STRING DIR-EMAIL DELIMITED BY SPACE INTO WS-TARGET-USER.     UC0MLR
116664                                                                  UC0MLR
116665     IF PNA-ADDRESS-NAME = SPACES                                 UC0MLR
116666       MOVE DIR-EMAIL        TO WS-MAIL-ADDR                      UC0MLR
116667     ELSE                                                         UC0MLR
116668       MOVE PNA-ADDRESS-NAME TO WS-MAIL-ADDR                      UC0MLR
116669     END-IF.                                                      UC0MLR
116670                                                                  UC0MLR
116671     PERFORM 8300-UPDATE-PNA.                                     UC0MLR
116672                                                                  UC0MLR
116673     PERFORM 8100-FETCH-CURSOR.                                   UC0MLR
116680                                                                  UC0MLR
123200 2000-EXIT.                                                       UC0MLR
123300     EXIT.                                                        UC0MLR
123400                                                                  UC0MLR
123410***************************************************************/  UC0MLR
123420*   GENERATE THE EMAIL SUMMARY                                    UC0MLR
123430***************************************************************/  UC0MLR
123440 2100-GENERATE-SUMMARY SECTION.                                   UC0MLR
123450                                                                  UC0MLR
123460     ADD 1 TO WS-SUMMARY-COUNT.                                   UC0MLR
123461                                                                  UC0MLR
123466     STRING                                                       UC0MLR
123467        'Post-Authorization Notification System '                 UC0MLR
123468                                        DELIMITED BY SIZE         UC0MLR
123469        WS-RETURN-MAIL-ADDR             DELIMITED BY SPACE        UC0MLR
123470      INTO WS-MAIL-FROM                                           UC0MLR
123471     END-STRING.                                                  UC0MLR
123472                                                                  UC0MLR
123479     MOVE 'Notice of Post Authorization Notifications Generated'  UC0MLR
123480       TO WS-MAIL-SUBJ.                                           UC0MLR
123481                                                                  UC0MLR
123483     PERFORM VARYING WS-HDR-CT FROM 1 BY 1                        UC0MLR
123484      UNTIL WS-HDR-CT > 8                                         UC0MLR
123486        WRITE EMAIL-RECORD FROM WS-SMTP-CMD(WS-HDR-CT)            UC0MLR
123487        MOVE SPACES TO EMAIL-RECORD                               UC0MLR
123488     END-PERFORM.                                                 UC0MLR
123489                                                                  UC0MLR
123490     MOVE WS-NOTIFICATION-COUNT TO WS-COUNT.                      UC0MLR
123491     PERFORM 2110-FIND-FIRST-DIGIT.                               UC0MLR
123492     STRING                                                       UC0MLR
123493        WS-COUNT (WS-SUB : WS-LENGTH)  DELIMITED BY SIZE          UC0MLR
123494        ' notifications were generated for your review since '    UC0MLR
123495                              DELIMITED BY SIZE                   UC0MLR
123496        WS-LAST-RUN-DATE-TIME DELIMITED BY SIZE                   UC0MLR
123498      INTO EMAIL-RECORD                                           UC0MLR
123499     END-STRING.                                                  UC0MLR
123500     WRITE EMAIL-RECORD.                                          UC0MLR
123501     MOVE SPACES TO EMAIL-RECORD.                                 UC0MLR
123502                                                                  UC0MLR
123503     MOVE WS-URGENT-COUNT TO WS-COUNT.                            UC0MLR
123504     PERFORM 2110-FIND-FIRST-DIGIT.                               UC0MLR
123505     STRING                                                       UC0MLR
123506        WS-COUNT (WS-SUB : WS-LENGTH)  DELIMITED BY SIZE          UC0MLR
123507        ' of them were marked Urgent.'                            UC0MLR
123508                              DELIMITED BY SIZE                   UC0MLR
123509      INTO EMAIL-RECORD                                           UC0MLR
123510     END-STRING.                                                  UC0MLR
123511     WRITE EMAIL-RECORD.                                          UC0MLR
123512     MOVE SPACES TO EMAIL-RECORD.                                 UC0MLR
123513                                                                  UC0MLR
123514     MOVE WS-MANDATORY-COUNT TO WS-COUNT.                         UC0MLR
123515     PERFORM 2110-FIND-FIRST-DIGIT.                               UC0MLR
123516     STRING                                                       UC0MLR
123517       'You are the mandatory reviewer for ' DELIMITED BY SIZE    UC0MLR
123518       WS-COUNT (WS-SUB : WS-LENGTH)  DELIMITED BY SIZE           UC0MLR
123519       ' of them.' DELIMITED BY SIZE                              UC0MLR
123520      INTO EMAIL-RECORD                                           UC0MLR
123521     END-STRING.                                                  UC0MLR
123522     WRITE EMAIL-RECORD.                                          UC0MLR
123523     MOVE SPACES TO EMAIL-RECORD.                                 UC0MLR
123524                                                                  UC0MLR
123525     MOVE WS-PRIMARY-COUNT TO WS-COUNT.                           UC0MLR
123526     PERFORM 2110-FIND-FIRST-DIGIT.                               UC0MLR
123527     STRING                                                       UC0MLR
123528       'You are the primary reviewer for ' DELIMITED BY SIZE      UC0MLR
123529       WS-COUNT (WS-SUB : WS-LENGTH)  DELIMITED BY SIZE           UC0MLR
123530       ' of them.' DELIMITED BY SIZE                              UC0MLR
123531      INTO EMAIL-RECORD                                           UC0MLR
123532     END-STRING.                                                  UC0MLR
123533     WRITE EMAIL-RECORD.                                          UC0MLR
123534     MOVE SPACES TO EMAIL-RECORD.                                 UC0MLR
123535                                                                  UC0MLR
123536     MOVE SPACES TO EMAIL-RECORD.                                 UC0MLR
123537     WRITE EMAIL-RECORD.                                          UC0MLR
123538                                                                  UC0MLR
123539     MOVE IDC-PAN-URL TO WS-WEB-LINK-URL.                         UC0MLR
123540                                                                  UC0MLR
123541     WRITE EMAIL-RECORD FROM WS-WEB-LINK-LINE-1.                  UC0MLR
123542     MOVE SPACES TO EMAIL-RECORD.                                 UC0MLR
123543     WRITE EMAIL-RECORD FROM WS-WEB-LINK-LINE-2.                  UC0MLR
123544     MOVE SPACES TO EMAIL-RECORD.                                 UC0MLR
123545     WRITE EMAIL-RECORD FROM WS-WEB-LINK-LINE-3.                  UC0MLR
123546     MOVE SPACES TO EMAIL-RECORD.                                 UC0MLR
123547                                                                  UC0MLR
123548     WRITE EMAIL-RECORD FROM WS-SMTP-CMD(9).                      UC0MLR
123549     MOVE SPACES TO EMAIL-RECORD.                                 UC0MLR
123550                                                                  UC0MLR
123551                                                                  UC0MLR
123552 2100-EXIT.                                                       UC0MLR
123553     EXIT.                                                        UC0MLR
123554                                                                  UC0MLR
123560     EJECT                                                        UC0MLR
123600                                                                  UC0MLR
123700***************************************************************/  UC0MLR
123800* FINDS THE FIRST SIGNIFICANT DIGIT IN A NUMBER                   UC0MLR
124000***************************************************************/  UC0MLR
124100 2110-FIND-FIRST-DIGIT  SECTION.                                  UC0MLR
124200                                                                  UC0MLR
124201     MOVE ZERO TO WS-LENGTH.                                      UC0MLR
124202                                                                  UC0MLR
124210     PERFORM VARYING WS-SUB FROM 1 BY 1                           UC0MLR
124220      UNTIL WS-COUNT (WS-SUB : 1) NOT = SPACES                    UC0MLR
124235     END-PERFORM.                                                 UC0MLR
124236                                                                  UC0MLR
124237     COMPUTE WS-LENGTH = LENGTH OF WS-COUNT - WS-SUB + 1.         UC0MLR
124238                                                                  UC0MLR
124400 2110-EXIT.                                                       UC0MLR
124500     EXIT.                                                        UC0MLR
124600                                                                  UC0MLR
124700     EJECT                                                        UC0MLR
124800                                                                  UC0MLR
408000***************************************************************/  UC0MLR
408100*   6500-GET-ERR-MSG  SECTION                                 */  UC0MLR
408300*   CALL MESSAGE UTILITY FOR  THE ERROR MESSAGE REQUESTED.    */  UC0MLR
408400*       PERFORM 7300 TO PRINT THE ERROR REPORT.               */  UC0MLR
408500***************************************************************/  UC0MLR
408600 6500-GET-ERR-MSG SECTION.                                        UC0MLR
408700                                                                  UC0MLR
409000     CALL PGM-PPMSSG USING MESSAGE-TABLE.                         UC0MLR
409100                                                                  UC0MLR
409200     IF MSSG-SEVERITY NOT = ZERO                                  UC0MLR
409300        PERFORM 7300-WRITE-ERROR-REPORT                           UC0MLR
409400     END-IF.                                                      UC0MLR
409500                                                                  UC0MLR
409600 6500-EXIT.                                                       UC0MLR
409700     EXIT.                                                        UC0MLR
409800                                                                  UC0MLR
409900                                                                  UC0MLR
410000     EJECT                                                        UC0MLR
410100                                                                  UC0MLR
410200***************************************************************/  UC0MLR
410300*   7100-PRINT-RPT-HEADINGS SECTION.                          */  UC0MLR
410400*       PRINT THE HEADINGS FOR REPORT UC0MLR1.                */  UC0MLR
410500***************************************************************/  UC0MLR
410600 7100-PRINT-RPT-HEADINGS SECTION.                                 UC0MLR
410700                                                                  UC0MLR
410800     MOVE    WS-PROG-ID        TO   STND-PROG-ID.                 UC0MLR
410900     MOVE    GREGORIAN-DATE    TO   STND-RPT-DATE.                UC0MLR
411000     MOVE    'UC0MLR1'         TO   STND-RPT-ID.                  UC0MLR
411200     MOVE    '   POST AUTHORIZATION NOTIFICATION EMAIL SUMMARY'   UC0MLR
411300                               TO  STND-RPT-TTL-RDF.              UC0MLR
411400     MOVE    SPACES            TO   STND-DATE2-TTL                UC0MLR
411500                                    STND-DATE2                    UC0MLR
411600                                    STND-RPT-COMMENT.             UC0MLR
411700     WRITE RPT-RECORD FROM STND-RPT-HD1 AFTER ADVANCING NEW-PAGE. UC0MLR
411800     MOVE SPACES TO RPT-RECORD.                                   UC0MLR
411900     WRITE RPT-RECORD BEFORE ADVANCING 1 LINE.                    UC0MLR
412000     WRITE RPT-RECORD FROM STND-RPT-HD2 BEFORE ADVANCING 1 LINE.  UC0MLR
412100     WRITE RPT-RECORD FROM STND-RPT-HD3 BEFORE ADVANCING 2 LINES. UC0MLR
412200     MOVE SPACES TO RPT-RECORD.                                   UC0MLR
412300     WRITE RPT-RECORD BEFORE ADVANCING 2 LINES.                   UC0MLR
412400                                                                  UC0MLR
412500 7100-EXIT.                                                       UC0MLR
412600     EXIT.                                                        UC0MLR
412700                                                                  UC0MLR
412800***************************************************************/  UC0MLR
412900*   7200-PRINT-TOTALS SECTION.                                */  UC0MLR
413000*       GENERATE REPORT UC0MLR1.                              */  UC0MLR
413100***************************************************************/  UC0MLR
413200 7200-PRINT-TOTALS SECTION.                                       UC0MLR
413300                                                                  UC0MLR
413400     MOVE  WS-SUMMARY-COUNT     TO  WS-PRINT-COUNT.               UC0MLR
413600     MOVE  WS-PRINT-LINE        TO  RPT-DETAIL.                   UC0MLR
413700     WRITE RPT-RECORD BEFORE ADVANCING 2 LINES.                   UC0MLR
413800                                                                  UC0MLR
443700 7200-EXIT.                                                       UC0MLR
443800     EXIT.                                                        UC0MLR
443900                                                                  UC0MLR
444000     EJECT                                                        UC0MLR
444100                                                                  UC0MLR
444200***************************************************************/  UC0MLR
444300*   7300-WRITE-ERROR-REPORT  SECTION.                         */  UC0MLR
444400*    BUILD THE ERROR LINES AND PRINT THEM.                    */  UC0MLR
444500***************************************************************/  UC0MLR
444600                                                                  UC0MLR
444700 7300-WRITE-ERROR-REPORT SECTION.                                 UC0MLR
444800                                                                  UC0MLR
444900     IF  WS-LINE-COUNT GREATER THAN +56                           UC0MLR
445000         PERFORM 7400-WRITE-ERROR-HDGS                            UC0MLR
445100     END-IF.                                                      UC0MLR
445200                                                                  UC0MLR
445300     MOVE MSSG-PGM-NO TO MSGLN-PGM-NO.                            UC0MLR
445400     MOVE '-'         TO MSGLN-DASH.                              UC0MLR
445500     MOVE MSSG-DESIRED-NO TO MSGLN-DESIRED-NO.                    UC0MLR
445600     MOVE MSSG-SEV-TEXT TO MSGLN-SEV-TEXT.                        UC0MLR
445700                                                                  UC0MLR
445800     MOVE MSSG-TEXT TO MSGLN-TEXT.                                UC0MLR
445900                                                                  UC0MLR
446000     WRITE RPT-RECORD FROM MESSAGE-LINE                           UC0MLR
446100         AFTER ADVANCING 2 LINES.                                 UC0MLR
446200     ADD +2 TO WS-LINE-COUNT.                                     UC0MLR
446300                                                                  UC0MLR
446400     MOVE SPACES TO MESSAGE-LINE.                                 UC0MLR
446500                                                                  UC0MLR
446600 7300-EXIT.                                                       UC0MLR
446700     EXIT.                                                        UC0MLR
446800                                                                  UC0MLR
446900                                                                  UC0MLR
447000***************************************************************/  UC0MLR
447100*   7400-WRITE-ERROR-HDGS SECTION.                            */  UC0MLR
447200*    WRITE HEADINGS ON THE PAGES AT PAGE OVERFLOW .           */  UC0MLR
447300***************************************************************/  UC0MLR
447400                                                                  UC0MLR
447500 7400-WRITE-ERROR-HDGS SECTION.                                   UC0MLR
447600                                                                  UC0MLR
447700     MOVE    WS-PGM-ID         TO   STND-PROG-ID.                 UC0MLR
447800     MOVE    'UC0MLR2'         TO   STND-RPT-ID.                  UC0MLR
447900     MOVE    '     DB2 FILE ERROR MESSAGES '                      UC0MLR
448000                               TO  STND-RPT-TTL-RDF.              UC0MLR
448100     MOVE    SPACES            TO   STND-DATE2-TTL                UC0MLR
448200                                    STND-DATE2.                   UC0MLR
448300     MOVE 'PERIOD ENDING DATE:' TO  STND-RPT-END-DATE.            UC0MLR
448400     ADD  1  TO WS-PAGE-COUNT.                                    UC0MLR
448500     MOVE WS-PAGE-COUNT  TO STND-PAGE-NO.                         UC0MLR
448600     INSPECT STND-PAGE-NO REPLACING LEADING ZEROS BY SPACES.      UC0MLR
448700                                                                  UC0MLR
448800     WRITE RPT-RECORD FROM STND-RPT-HD1 AFTER ADVANCING NEW-PAGE. UC0MLR
448900     MOVE SPACES TO RPT-RECORD.                                   UC0MLR
449000     WRITE RPT-RECORD BEFORE ADVANCING 1 LINE.                    UC0MLR
449100     WRITE RPT-RECORD FROM STND-RPT-HD2 BEFORE ADVANCING 1 LINE.  UC0MLR
449200     WRITE RPT-RECORD FROM STND-RPT-HD3 BEFORE ADVANCING 2 LINES. UC0MLR
449300     WRITE RPT-RECORD FROM MESSAGE-HEAD1 BEFORE ADVANCING 1 LINES.UC0MLR
449400     WRITE RPT-RECORD FROM MESSAGE-HEAD2 BEFORE ADVANCING 1 LINES.UC0MLR
449500     MOVE  +7  TO   WS-LINE-COUNT.                                UC0MLR
449600                                                                  UC0MLR
449700 7400-EXIT.                                                       UC0MLR
449800     EXIT.                                                        UC0MLR
449900                                                                  UC0MLR
450000     EJECT                                                        UC0MLR
450100                                                                  UC0MLR
450200***************************************************************/  UC0MLR
450300*   8000-OPEN-CURSOR                                              UC0MLR
450500***************************************************************/  UC0MLR
450600 8000-OPEN-CURSOR  SECTION.                                       UC0MLR
450700                                                                  UC0MLR
450701     MOVE 'OPEN NOTIF-CSR' TO DB2MSG-TAG                          UC0MLR
450702                                                                  UC0MLR
450710     EXEC SQL                                                     UC0MLR
450720          OPEN NOTIF-CSR                                          UC0MLR
450730     END-EXEC.                                                    UC0MLR
450800                                                                  UC0MLR
450900 8000-EXIT.                                                       UC0MLR
451000     EXIT.                                                        UC0MLR
451100                                                                  UC0MLR
451200     EJECT                                                        UC0MLR
451300                                                                  UC0MLR
451400***************************************************************/  UC0MLR
451500*   8100-FETCH-CURSOR                                             UC0MLR
451600***************************************************************/  UC0MLR
451700 8100-FETCH-CURSOR  SECTION.                                      UC0MLR
451800                                                                  UC0MLR
451810     MOVE 'FETCH NOTIF-CSR' TO DB2MSG-TAG                         UC0MLR
451820                                                                  UC0MLR
451900     EXEC SQL                                                     UC0MLR
452000          FETCH NOTIF-CSR                                         UC0MLR
452010           INTO :PNA-NOTICE-ID                                    UC0MLR
452011               ,:PNA-ADDRESS                                      UC0MLR
452020               ,:PNA-ADDRESS-NUM                                  UC0MLR
452030               ,:PNA-ADDRESS-TYPE                                 UC0MLR
452040               ,:PNA-ADDRESS-NAME                                 UC0MLR
452050               ,:PNA-DIR-USERID                                   UC0MLR
452051               ,:PNA-PRIMARY-FLAG                                 UC0MLR
452060               ,:PNA-SUMMARY-TIMEST                               UC0MLR
452091               ,:PNX-PRIORITY                                     UC0MLR
452092               ,:DIR-EMAIL                                        UC0MLR
452100     END-EXEC.                                                    UC0MLR
452200                                                                  UC0MLR
452210     IF SQLCODE = +100                                            UC0MLR
452220        SET WS-EOF TO TRUE                                        UC0MLR
452230     END-IF.                                                      UC0MLR
452240                                                                  UC0MLR
452300 8100-EXIT.                                                       UC0MLR
452400     EXIT.                                                        UC0MLR
452500                                                                  UC0MLR
452600     EJECT                                                        UC0MLR
452700                                                                  UC0MLR
452800***************************************************************/  UC0MLR
452900*   8200-CLOSE-CURSOR                                             UC0MLR
453000***************************************************************/  UC0MLR
453100 8200-CLOSE-CURSOR  SECTION.                                      UC0MLR
453200                                                                  UC0MLR
453300     MOVE 'CLOSE NOTIF-CSR' TO DB2MSG-TAG                         UC0MLR
453400                                                                  UC0MLR
453500     EXEC SQL                                                     UC0MLR
453600          CLOSE NOTIF-CSR                                         UC0MLR
453700     END-EXEC.                                                    UC0MLR
453800                                                                  UC0MLR
453900 8200-EXIT.                                                       UC0MLR
454000     EXIT.                                                        UC0MLR
454100                                                                  UC0MLR
454200     EJECT                                                        UC0MLR
454300                                                                  UC0MLR
454400***************************************************************/  UC0MLR
454500*   8300-UPDATE-PNA                                               UC0MLR
454600***************************************************************/  UC0MLR
454700 8300-UPDATE-PNA    SECTION.                                      UC0MLR
454800                                                                  UC0MLR
454900     EXEC SQL                                                     UC0MLR
455000          UPDATE UC0VZPNA_PNA                                     UC0MLR
455100          SET PNA_SUMMARY_TIMEST = :WS-CURRENT-TIMESTAMP          UC0MLR
455200          WHERE PNA_NOTICE_ID = :PNA-NOTICE-ID                    UC0MLR
455300            AND PNA_ADDRESS_NUM  = :PNA-ADDRESS-NUM               UC0MLR
455400     END-EXEC.                                                    UC0MLR
455410                                                                  UC0MLR
455500 8300-EXIT.                                                       UC0MLR
455600     EXIT.                                                        UC0MLR
455700                                                                  UC0MLR
455800     EJECT                                                        UC0MLR
455900                                                                  UC0MLR
641300 999991-DATE SECTION.                                             UC0MLR
641400     COPY CPPDXDC3.                                               UC0MLR
641500*999999-SQL-ERROR SECTION.                                        UC0MLR
641600     SKIP1                                                        UC0MLR
641700                                COPY CPPDXP99.                    UC0MLR
641800     SKIP1                                                        UC0MLR
641900     MOVE DB2MSG-MESSNO TO MSSG-DESIRED.                          UC0MLR
642000     PERFORM 6500-GET-ERR-MSG.                                    UC0MLR
642100     GO TO 9999-ABEND.                                            UC0MLR
642200*********************  END OF UC0MLR     *************************UC0MLR
